Scanning method <java.io.ObjectInputStream: void registerObjectRead(java.lang.Object,int,boolean)>

All seen event types: BinaryOperationRecord, StoreArrayRecord, MethodReturnRecord, MethodCallRecord, ArrayLengthRecord, MethodStartRecord, LoadInstanceRecord, MethodEndRecord, IfRecord, StoreInstanceRecord, 
Ignored event types: IfRecord, 

JSON Encoded Analysis Data (for visualization):{"heapEdges":[{"step":0,"from":"1093282712","to":"1093296336","type":"load","field":"<java.io.ObjectInputStream: java.util.ArrayList objectsRead>"},{"step":1,"from":"1093296336","to":"1093296336.<java.util.ArrayList: int size>","type":"load","field":"<java.util.ArrayList: int size>"},{"step":2,"from":"1093282712","to":"1093296336","type":"load","field":"<java.io.ObjectInputStream: java.util.ArrayList objectsRead>"},{"step":3,"from":"1093296336","to":"1093655992","type":"load","field":"<java.util.ArrayList: java.lang.Object[] array>"},{"step":4,"from":"1093296336","to":"1093296336.<java.util.ArrayList: int size>","type":"load","field":"<java.util.ArrayList: int size>"},{"step":5,"from":"1093607832","to":"1093655992","type":"store","field":"arrayIdx_int:1"},{"step":6,"from":"sdaReg7","to":"1093296336","type":"store","field":"<java.util.ArrayList: int size>"},{"step":7,"from":"1093296336","to":"1093296336.<java.util.AbstractList: int modCount>","type":"load","field":"<java.util.AbstractList: int modCount>"},{"step":8,"from":"sdaReg8","to":"1093296336","type":"store","field":"<java.util.AbstractList: int modCount>"}],"parameters":[{"id":"1093282712","name":"this","klass":"java.io.ObjectInputStream"},{"id":"1093607832","name":"arg#1","klass":"java.lang.Object"},{"id":"sdaReg0","name":"arg#2","klass":"int"},{"id":"sdaReg1","name":"arg#3","klass":"boolean"}],"returns":[{"id":null,"name":"return","klass":null}],"colors":{"heapLocToColor":{"1093282712":[0],"sdaReg8":[0],"1093296336":[0],"sdaReg7":[0],"sdaReg4":[0],"sdaReg5":[1],"1093296336.<java.util.AbstractList: int modCount>":[0],"1093296336.<java.util.ArrayList: int size>":[0],"sdaReg3":[0],"1093282712.<java.io.ObjectInputStream: java.util.ArrayList objectsRead>":[0],"sdaReg2":[2],"1093655992":[0],"sdaReg1":[3],"1093607832":[1],"sdaReg0":[2]},"colorToColor":{"0":[0],"1":[0]},"colorToLabel":{"0":"this","1":"arg#1","2":"arg#2","3":"arg#3","4":"return"}}}

Generated Model
	arg#1->this

