Scanning method <java.io.ObjectInputStream: void registerObjectRead(java.lang.Object,int,boolean)>

All seen event types: BinaryOperationRecord, StoreArrayRecord, MethodReturnRecord, MethodCallRecord, ArrayLengthRecord, MethodStartRecord, LoadInstanceRecord, MethodEndRecord, IfRecord, StoreInstanceRecord, 
Ignored event types: IfRecord, 

JSON Encoded Analysis Data (for visualization):{"heapEdges":[{"step":0,"from":"1093381560","to":"1093341056","type":"load","field":"<java.io.ObjectInputStream: java.util.ArrayList objectsRead>"},{"step":1,"from":"1093341056","to":"1093341056.<java.util.ArrayList: int size>","type":"load","field":"<java.util.ArrayList: int size>"},{"step":2,"from":"1093381560","to":"1093341056","type":"load","field":"<java.io.ObjectInputStream: java.util.ArrayList objectsRead>"},{"step":3,"from":"1093341056","to":"1093346672","type":"load","field":"<java.util.ArrayList: java.lang.Object[] array>"},{"step":4,"from":"1093341056","to":"1093341056.<java.util.ArrayList: int size>","type":"load","field":"<java.util.ArrayList: int size>"},{"step":5,"from":"1093377416","to":"1093346672","type":"store","field":"arrayIdx_int:3"},{"step":6,"from":"sdaReg7","to":"1093341056","type":"store","field":"<java.util.ArrayList: int size>"},{"step":7,"from":"1093341056","to":"1093341056.<java.util.AbstractList: int modCount>","type":"load","field":"<java.util.AbstractList: int modCount>"},{"step":8,"from":"sdaReg8","to":"1093341056","type":"store","field":"<java.util.AbstractList: int modCount>"}],"parameters":[{"id":"1093381560","name":"this","klass":"java.io.ObjectInputStream"},{"id":"1093377416","name":"arg#1","klass":"java.lang.Object"},{"id":"sdaReg0","name":"arg#2","klass":"int"},{"id":"sdaReg1","name":"arg#3","klass":"boolean"}],"returns":[{"id":null,"name":"return","klass":null}],"colors":{"heapLocToColor":{"sdaReg8":[0],"sdaReg7":[0],"sdaReg4":[0],"sdaReg5":[1],"1093341056":[0],"1093341056.<java.util.AbstractList: int modCount>":[0],"1093346672":[0],"1093381560":[0],"sdaReg3":[0],"1093381560.<java.io.ObjectInputStream: java.util.ArrayList objectsRead>":[0],"sdaReg2":[2],"sdaReg1":[3],"sdaReg0":[2],"1093341056.<java.util.ArrayList: int size>":[0],"1093377416":[1]},"colorToColor":{"0":[0],"1":[0]},"colorToLabel":{"0":"this","1":"arg#1","2":"arg#2","3":"arg#3","4":"return"}}}

Generated Model
	arg#1->this

