Scanning method <android.os.Bundle: boolean getBoolean(java.lang.String,boolean)>

All seen event types: BinaryOperationRecord, MethodReturnRecord, MethodCallRecord, CastRecord, ArrayLengthRecord, LoadInstanceRecord, MethodStartRecord, LoadArrayRecord, MethodEndRecord, IfRecord, 
Ignored event types: IfRecord, 

JSON Encoded Analysis Data (for visualization):{"heapEdges":[{"step":0,"from":"1093493832","to":"1093637520","type":"load","field":"<android.os.Bundle: java.util.Map mMap>"},{"step":1,"from":"1093637520","to":"1094008920","type":"load","field":"<java.util.HashMap: java.util.HashMap$HashMapEntry[] table>"},{"step":2,"from":"1094008920","to":"1094029216","type":"load","field":"arrayIdx_int:2"},{"step":3,"from":"1094029216","to":"1093519616","type":"load","field":"<java.util.HashMap$HashMapEntry: java.lang.Object key>"},{"step":4,"from":"1094029216","to":"1085837760","type":"load","field":"<java.util.HashMap$HashMapEntry: java.lang.Object value>"},{"step":5,"from":"1085837760","to":"sdaReg18","type":"model"}],"parameters":[{"id":"1093493832","name":"this","klass":"android.os.Bundle"},{"id":"sdaReg0","name":"arg#1","klass":"string"},{"id":"sdaReg1","name":"arg#2","klass":"boolean"}],"returns":[{"id":"sdaReg18","name":"return","klass":"boolean"}],"colors":{"heapLocToColor":{"sdaReg8":[3],"sdaReg9":[3],"sdaReg6":[3],"sdaReg7":[3],"sdaReg4":[3],"1094029216":[0],"sdaReg5":[3],"1093493832":[0],"1085837760":[0],"1094008920":[0],"sdaReg11":[3],"sdaReg12":[3],"1093637520":[0],"sdaReg10":[3],"sdaReg3":[0],"sdaReg2":[0],"sdaReg1":[2],"sdaReg0":[1],"sdaReg17":[0],"1093519616":[0],"sdaReg18":[0, 4],"sdaReg15":[3],"sdaReg16":[0]},"colorToColor":{"0":[5],"4":[5]},"colorToLabel":{"0":"this","1":"arg#1","2":"arg#2","5":"return"}}}

Generated Model
	this->return

