Scanning method <java.io.FileOutputStream: void <init>(java.lang.String)>

All seen event types: LoadStaticRecord, BinaryOperationRecord, MethodReturnRecord, MethodCallRecord, LoadInstanceRecord, MethodStartRecord, MethodEndRecord, IfRecord, StoreInstanceRecord, NewObjectRecord, 
Ignored event types: IfRecord, 

JSON Encoded Analysis Data (for visualization):{"heapEdges":[{"step":0,"from":"1093654280","to":"sdaReg0","type":"model"},{"step":1,"from":"sdaReg0","to":"1093654280","type":"model"},{"step":2,"from":"sdaReg0","to":"1093654280","type":"model"},{"step":3,"from":"1093653968","to":"1083966016","type":"create","field":"<java.io.FileOutputStream: dalvik.system.CloseGuard guard>"},{"step":4,"from":"static.<libcore.io.OsConstants: int O_WRONLY>","to":"static.<libcore.io.OsConstants: int O_WRONLY>","type":"load","field":"<libcore.io.OsConstants: int O_WRONLY>"},{"step":5,"from":"static.<libcore.io.OsConstants: int O_CREAT>","to":"static.<libcore.io.OsConstants: int O_CREAT>","type":"load","field":"<libcore.io.OsConstants: int O_CREAT>"},{"step":6,"from":"static.<libcore.io.OsConstants: int O_TRUNC>","to":"static.<libcore.io.OsConstants: int O_TRUNC>","type":"load","field":"<libcore.io.OsConstants: int O_TRUNC>"},{"step":7,"from":"sdaReg9","to":"1093653968","type":"store","field":"<java.io.FileOutputStream: int mode>"},{"step":8,"from":"1093654280","to":"sdaReg10","type":"model"},{"step":9,"from":"sdaReg10","to":"1093654584","type":"model"},{"step":10,"from":"1093653968","to":"1093654584","type":"create","field":"<java.io.FileOutputStream: java.io.FileDescriptor fd>"},{"step":11,"from":"1093653968","to":"sdaReg12","type":"create","field":"<java.io.FileOutputStream: boolean shouldClose>"}],"parameters":[{"id":"1093653968","name":"this","klass":"java.io.FileOutputStream"},{"id":"sdaReg0","name":"arg#1","klass":"string"}],"returns":[{"id":"1093653968","name":"return","klass":"java.io.FileOutputStream"}],"colors":{"heapLocToColor":{"1093654584":[8],"sdaReg8":[4, 5],"sdaReg9":[4, 5, 6],"sdaReg6":[0],"static.<libcore.io.OsConstants: int O_WRONLY>":[4],"sdaReg7":[3],"sdaReg4":[0],"sdaReg5":[2],"sdaReg13":[0],"sdaReg14":[0],"sdaReg11":[8],"sdaReg10":[2, 7],"sdaReg3":[2],"sdaReg1":[0],"1093654280":[2],"1093653968":[0],"sdaReg0":[1, 2],"static.<libcore.io.OsConstants: int O_TRUNC>":[6],"1083966016":[3],"static.<libcore.io.OsConstants: int O_CREAT>":[5]},"colorToColor":{"0":[9],"1":[2],"2":[2, 8],"3":[0],"4":[0],"5":[0],"6":[0],"7":[8],"8":[0]},"colorToLabel":{"0":"this","1":"arg#1","4":"<libcore.io.OsConstants: int O_WRONLY>","5":"<libcore.io.OsConstants: int O_CREAT>","6":"<libcore.io.OsConstants: int O_TRUNC>","9":"return"}}}

Generated Model
	this->return
	arg#1->this
	arg#1->return

