Scanning method <java.util.HashMap: void addNewEntryForNullKey(java.lang.Object)>

All seen event types: MethodReturnRecord, MethodCallRecord, MethodStartRecord, MethodEndRecord, StoreInstanceRecord, NewObjectRecord, 
Ignored event types: 

JSON Encoded Analysis Data (for visualization):{"heapEdges":[{"step":0,"from":"1093882080","to":"1094039104","type":"store","field":"<java.util.HashMap$HashMapEntry: java.lang.Object value>"},{"step":1,"from":"1094039104","to":"sdaReg2","type":"create","field":"<java.util.HashMap$HashMapEntry: int hash>"},{"step":2,"from":"1094039048","to":"1094039104","type":"create","field":"<java.util.HashMap: java.util.HashMap$HashMapEntry entryForNullKey>"}],"parameters":[{"id":"1094039048","name":"this","klass":"java.util.HashMap"},{"id":"1093882080","name":"arg#1","klass":"java.lang.Object"}],"returns":[{"id":null,"name":"return","klass":null}],"colors":{"heapLocToColor":{"1093882080":[1],"sdaReg4":[2],"sdaReg3":[2],"1094039104":[2],"sdaReg1":[1],"1094039048":[0],"sdaReg0":[2]},"colorToColor":{"1":[2],"2":[0]},"colorToLabel":{"0":"this","1":"arg#1","3":"return"}}}

Generated Model
	arg#1->this

