Scanning method <java.util.Arrays$ArrayList: void <init>(java.lang.Object[])>

All seen event types: MethodReturnRecord, MethodCallRecord, MethodStartRecord, IfRecord, MethodEndRecord, StoreInstanceRecord, 
Ignored event types: IfRecord, 

JSON Encoded Analysis Data (for visualization):{"heapEdges":[{"step":0,"from":"1093632568","to":"1093632632","type":"store","field":"<java.util.Arrays$ArrayList: java.lang.Object[] a>"}],"parameters":[{"id":"1093632632","name":"this","klass":"java.util.Arrays$ArrayList"},{"id":"1093632568","name":"arg#1","klass":"java.lang.Object[]"}],"returns":[{"id":"1093632632","name":"return","klass":"java.util.Arrays$ArrayList"}],"colors":{"heapLocToColor":{"1093632632":[0],"sdaReg4":[0],"1093632568":[1],"sdaReg3":[0],"sdaReg2":[0],"sdaReg1":[0],"sdaReg0":[0]},"colorToColor":{"0":[2],"1":[0]},"colorToLabel":{"0":"this","1":"arg#1","2":"return"}}}

Generated Model
	this->return
	arg#1->this
	arg#1->return

