Scanning method <java.io.PrintWriter: void print(double)>

All seen event types: SimpleAssignmentRecord, ExitMonitorRecord, MethodReturnRecord, MethodCallRecord, EnterMonitorRecord, LoadInstanceRecord, ArrayLengthRecord, MethodStartRecord, MethodEndRecord, IfRecord, StoreInstanceRecord, 
Ignored event types: ExitMonitorRecord, EnterMonitorRecord, IfRecord, 

JSON Encoded Analysis Data (for visualization):{"heapEdges":[{"step":0,"from":"sdaReg0","to":"sdaReg1","type":"model"},{"step":1,"from":"sdaReg3","to":"1093668992","type":"model"},{"step":2,"from":"1093593168","to":"1093593200","type":"load","field":"<java.io.Writer: java.lang.Object lock>"},{"step":3,"from":"1093593168","to":"1093593200","type":"load","field":"<java.io.Writer: java.lang.Object lock>"},{"step":4,"from":"1093593168","to":"sdaReg17","type":"create","field":"<java.io.PrintWriter: boolean ioError>"}],"parameters":[{"id":"1093593168","name":"this","klass":"java.io.PrintWriter"},{"id":"sdaReg0","name":"arg#1","klass":"double"}],"returns":[{"id":null,"name":"return","klass":null}],"colors":{"heapLocToColor":{"1093593168":[0],"sdaReg9":[0],"sdaReg6":[0],"sdaReg7":[2, 3],"sdaReg4":[0],"1093668992":[2, 3],"sdaReg5":[2, 3],"sdaReg13":[2, 3],"sdaReg12":[0],"sdaReg10":[2, 3],"1093593200":[0],"sdaReg3":[2],"sdaReg2":[0],"sdaReg1":[2],"sdaReg0":[1],"1093593168.<java.io.Writer: java.lang.Object lock>":[0],"sdaReg15":[0],"sdaReg16":[0]},"colorToColor":{"1":[2]},"colorToLabel":{"0":"this","1":"arg#1","4":"return"}}}

Generated Model

