Scanning method <java.util.HashMap$EntryIterator: java.util.Map$Entry next()>

All seen event types: MethodReturnRecord, MethodCallRecord, ArrayLengthRecord, LoadInstanceRecord, MethodStartRecord, MethodEndRecord, IfRecord, StoreInstanceRecord, 
Ignored event types: IfRecord, 

JSON Encoded Analysis Data (for visualization):{"heapEdges":[{"step":0,"from":"1093265920","to":"1094084944","type":"load","field":"<java.util.HashMap$HashIterator: java.util.HashMap this$0>"},{"step":1,"from":"1094084944","to":"1094084944.<java.util.HashMap: int modCount>","type":"load","field":"<java.util.HashMap: int modCount>"},{"step":2,"from":"1093265920","to":"1093265920.<java.util.HashMap$HashIterator: int expectedModCount>","type":"load","field":"<java.util.HashMap$HashIterator: int expectedModCount>"},{"step":3,"from":"1093265920","to":"1094084448","type":"load","field":"<java.util.HashMap$HashIterator: java.util.HashMap$HashMapEntry nextEntry>"},{"step":4,"from":"1093265920","to":"1094084448","type":"load","field":"<java.util.HashMap$HashIterator: java.util.HashMap$HashMapEntry nextEntry>"},{"step":5,"from":"1093265920","to":"1094084944","type":"load","field":"<java.util.HashMap$HashIterator: java.util.HashMap this$0>"},{"step":6,"from":"1094084944","to":"1094084376","type":"load","field":"<java.util.HashMap: java.util.HashMap$HashMapEntry[] table>"},{"step":7,"from":"1093265920","to":"1093265920.<java.util.HashMap$HashIterator: int nextIndex>","type":"load","field":"<java.util.HashMap$HashIterator: int nextIndex>"},{"step":8,"from":"1094084448","to":"1093265920","type":"store","field":"<java.util.HashMap$HashIterator: java.util.HashMap$HashMapEntry lastEntryReturned>"}],"parameters":[{"id":"1093265920","name":"this","klass":"java.util.HashMap$EntryIterator"}],"returns":[{"id":"1094084448","name":"return","klass":"java.util.Map$Entry"}],"colors":{"heapLocToColor":{"1093265920.<java.util.HashMap$HashIterator: int nextIndex>":[0],"1093265920":[0],"1093265920.<java.util.HashMap$HashIterator: int expectedModCount>":[0],"1094084944.<java.util.HashMap: int modCount>":[0],"1094084944":[0],"1093265920.<java.util.HashMap$HashIterator: java.util.HashMap$HashMapEntry nextEntry>":[0],"sdaReg2":[0],"1094084376":[0],"sdaReg0":[0],"1093265920.<java.util.HashMap$HashIterator: java.util.HashMap this$0>":[0],"1094084448":[0]},"colorToColor":{"0":[0, 1]},"colorToLabel":{"0":"this","1":"return"}}}

Generated Model
	this->return

