Scanning method <java.util.LinkedList$Link: void <init>(java.lang.Object,java.util.LinkedList$Link,java.util.LinkedList$Link)>

All seen event types: MethodReturnRecord, MethodCallRecord, StoreInstanceRecord, 
Ignored event types: 

JSON Encoded Analysis Data (for visualization):{"heapEdges":[{"step":0,"from":"1093736960","to":"1093446496","type":"store","field":"<java.util.LinkedList$Link: java.lang.Object data>"},{"step":1,"from":"1093555712","to":"1093446496","type":"store","field":"<java.util.LinkedList$Link: java.util.LinkedList$Link previous>"},{"step":2,"from":"1093555712","to":"1093446496","type":"store","field":"<java.util.LinkedList$Link: java.util.LinkedList$Link next>"}],"parameters":[{"id":"1093446496","name":"this","klass":"java.util.LinkedList$Link"},{"id":"1093736960","name":"arg#1","klass":"java.lang.Object"},{"id":"1093555712","name":"arg#2","klass":"java.util.LinkedList$Link"},{"id":"1093555712","name":"arg#3","klass":"java.util.LinkedList$Link"}],"returns":[{"id":"1093446496","name":"return","klass":"java.util.LinkedList$Link"}],"colors":{"heapLocToColor":{"1093736960":[1],"1093555712":[2, 3],"sdaReg0":[0],"1093446496":[0]},"colorToColor":{"0":[4],"1":[0],"2":[0],"3":[0]},"colorToLabel":{"0":"this","1":"arg#1","2":"arg#2","3":"arg#3","4":"return"}}}

Generated Model
	this->return
	arg#3->this
	arg#3->return
	arg#2->this
	arg#2->return
	arg#1->this
	arg#1->return

