Scanning method <java.net.URLConnection: java.lang.String guessContentTypeFromStream(java.io.InputStream)>

All seen event types: SimpleAssignmentRecord, MethodStartRecord, LoadInstanceRecord, IfRecord, StoreInstanceRecord, NewObjectRecord, LoadStaticRecord, NewArrayRecord, BinaryOperationRecord, MethodCallRecord, MethodReturnRecord, ArrayLengthRecord, LoadArrayRecord, MethodEndRecord, 
Ignored event types: IfRecord, 

JSON Encoded Analysis Data (for visualization):{"heapEdges":[{"step":0,"from":"1093512144","to":"1093512144.<java.io.ByteArrayInputStream: int pos>","type":"load","field":"<java.io.ByteArrayInputStream: int pos>"},{"step":1,"from":"1093512144.<java.io.ByteArrayInputStream: int pos>","to":"1093512144","type":"store","field":"<java.io.ByteArrayInputStream: int mark>"},{"step":2,"from":"1093512144","to":"1093512144.<java.io.ByteArrayInputStream: int pos>","type":"load","field":"<java.io.ByteArrayInputStream: int pos>"},{"step":3,"from":"1093512144","to":"1093512144.<java.io.ByteArrayInputStream: int count>","type":"load","field":"<java.io.ByteArrayInputStream: int count>"},{"step":4,"from":"1093512144","to":"1093512144.<java.io.ByteArrayInputStream: int count>","type":"load","field":"<java.io.ByteArrayInputStream: int count>"},{"step":5,"from":"1093512144","to":"1093512144.<java.io.ByteArrayInputStream: int pos>","type":"load","field":"<java.io.ByteArrayInputStream: int pos>"},{"step":6,"from":"1093512144","to":"1093512144.<java.io.ByteArrayInputStream: int count>","type":"load","field":"<java.io.ByteArrayInputStream: int count>"},{"step":7,"from":"1093512144","to":"1093512144.<java.io.ByteArrayInputStream: int pos>","type":"load","field":"<java.io.ByteArrayInputStream: int pos>"},{"step":8,"from":"1093512144","to":"1093452400","type":"load","field":"<java.io.ByteArrayInputStream: byte[] buf>"},{"step":9,"from":"1093512144","to":"1093512144.<java.io.ByteArrayInputStream: int pos>","type":"load","field":"<java.io.ByteArrayInputStream: int pos>"},{"step":10,"from":"1093452400","to":"1093454296","type":"model"},{"step":11,"from":"1093512144","to":"1093512144.<java.io.ByteArrayInputStream: int pos>","type":"load","field":"<java.io.ByteArrayInputStream: int pos>"},{"step":12,"from":"sdaReg16","to":"1093512144","type":"store","field":"<java.io.ByteArrayInputStream: int pos>"},{"step":13,"from":"sdaReg18","to":"1093512144","type":"store","field":"<java.io.ByteArrayInputStream: int pos>"},{"step":14,"from":"1093454296","to":"1093454296.arrayIdx_int:0","type":"load","field":"arrayIdx_int:0"},{"step":15,"from":"1093454296","to":"1093454296.arrayIdx_int:0","type":"load","field":"arrayIdx_int:0"},{"step":16,"from":"1093454296","to":"1093454296.arrayIdx_int:0","type":"load","field":"arrayIdx_int:0"},{"step":17,"from":"1093454296","to":"1093454296.arrayIdx_int:1","type":"load","field":"arrayIdx_int:1"},{"step":18,"from":"1093454296","to":"1093454296.arrayIdx_int:2","type":"load","field":"arrayIdx_int:2"},{"step":19,"from":"1093454296","to":"1093454296.arrayIdx_int:0","type":"load","field":"arrayIdx_int:0"},{"step":20,"from":"1093454296","to":"1093454296.arrayIdx_int:0","type":"load","field":"arrayIdx_int:0"},{"step":21,"from":"1093454296","to":"sdaReg22","type":"model"},{"step":22,"from":"sdaReg23","to":"sdaReg24","type":"model"},{"step":23,"from":"sdaReg23","to":"sdaReg25","type":"model"},{"step":24,"from":"sdaReg23","to":"sdaReg26","type":"model"},{"step":25,"from":"static.<java.util.Locale: java.util.Locale US>","to":"1084317688","type":"load","field":"<java.util.Locale: java.util.Locale US>"},{"step":26,"from":"sdaReg26","to":"1084317688","type":"model"},{"step":27,"from":"sdaReg26","to":"sdaReg27","type":"model"},{"step":28,"from":"1084317688","to":"sdaReg26","type":"model"},{"step":29,"from":"1084317688","to":"sdaReg27","type":"model"},{"step":30,"from":"sdaReg27","to":"sdaReg28","type":"model"},{"step":31,"from":"sdaReg27","to":"sdaReg29","type":"model"}],"parameters":[{"id":"1093512144","name":"arg#0","klass":"java.io.InputStream"}],"returns":[{"id":null,"name":"return","klass":"string"}],"colors":{"heapLocToColor":{"1093512144":[0],"1093454296.arrayIdx_int:1":[1],"1093454296.arrayIdx_int:2":[1],"1093454296.arrayIdx_int:0":[1],"1093454296":[1],"sdaReg13":[0],"sdaReg14":[0],"1093452400":[0],"1093512144.<java.io.ByteArrayInputStream: int pos>":[0],"1093512144.<java.io.ByteArrayInputStream: int count>":[0],"sdaReg17":[0],"sdaReg15":[0],"sdaReg16":[0],"sdaReg8":[1],"1084317688":[2, 5, 6],"sdaReg7":[0],"sdaReg4":[0],"sdaReg5":[1],"sdaReg27":[2, 5, 7],"sdaReg26":[2, 5],"sdaReg29":[2, 5, 7, 9],"sdaReg28":[2, 5, 7, 8],"static.<java.util.Locale: java.util.Locale US>":[6],"sdaReg2":[0],"sdaReg21":[0],"sdaReg0":[0],"sdaReg23":[2],"sdaReg22":[2],"sdaReg25":[2, 4],"sdaReg24":[2, 3]},"colorToColor":{"0":[0, 1],"1":[2],"2":[2, 5, 7],"5":[2, 5, 7],"6":[2, 5, 7]},"colorToLabel":{"0":"arg#0","6":"<java.util.Locale: java.util.Locale US>","10":"return"}}}

Generated Model

