Scanning method <java.io.ByteArrayInputStream: void mark(int)>

All seen event types: LoadInstanceRecord, StoreInstanceRecord, 
Ignored event types: 

JSON Encoded Analysis Data (for visualization):{"heapEdges":[{"step":0,"from":"1093590184","to":"1093590184.<java.io.ByteArrayInputStream: int pos>","type":"load","field":"<java.io.ByteArrayInputStream: int pos>"},{"step":1,"from":"1093590184.<java.io.ByteArrayInputStream: int pos>","to":"1093590184","type":"store","field":"<java.io.ByteArrayInputStream: int mark>"}],"parameters":[{"id":"1093590184","name":"this","klass":"java.io.ByteArrayInputStream"},{"id":"sdaReg0","name":"arg#1","klass":"int"}],"returns":[{"id":null,"name":"return","klass":null}],"colors":{"heapLocToColor":{"1093590184":[0],"1093590184.<java.io.ByteArrayInputStream: int pos>":[0],"sdaReg0":[1]},"colorToColor":{"0":[0]},"colorToLabel":{"0":"this","1":"arg#1","2":"return"}}}

Generated Model

