Scanning method <java.util.ArrayList: java.util.Iterator iterator()>

All seen event types: MethodReturnRecord, MethodCallRecord, LoadInstanceRecord, MethodStartRecord, MethodEndRecord, StoreInstanceRecord, NewObjectRecord, 
Ignored event types: 

JSON Encoded Analysis Data (for visualization):{"heapEdges":[{"step":0,"from":"1093579448","to":"1093651072","type":"store","field":"<java.util.ArrayList$ArrayListIterator: java.util.ArrayList this$0>"},{"step":1,"from":"1093579448","to":"1093579448.<java.util.ArrayList: int size>","type":"load","field":"<java.util.ArrayList: int size>"},{"step":2,"from":"1093579448.<java.util.ArrayList: int size>","to":"1093651072","type":"store","field":"<java.util.ArrayList$ArrayListIterator: int remaining>"},{"step":3,"from":"1093651072","to":"sdaReg5","type":"create","field":"<java.util.ArrayList$ArrayListIterator: int removalIndex>"},{"step":4,"from":"1093579448","to":"1093579448.<java.util.AbstractList: int modCount>","type":"load","field":"<java.util.AbstractList: int modCount>"},{"step":5,"from":"1093579448.<java.util.AbstractList: int modCount>","to":"1093651072","type":"store","field":"<java.util.ArrayList$ArrayListIterator: int expectedModCount>"}],"parameters":[{"id":"1093579448","name":"this","klass":"java.util.ArrayList"}],"returns":[{"id":"1093651072","name":"return","klass":"java.util.Iterator"}],"colors":{"heapLocToColor":{"sdaReg6":[1],"sdaReg7":[1],"sdaReg4":[1],"sdaReg3":[0],"1093579448":[0],"sdaReg2":[1],"sdaReg1":[0],"1093651072":[1],"1093579448.<java.util.AbstractList: int modCount>":[0],"sdaReg0":[1],"1093579448.<java.util.ArrayList: int size>":[0]},"colorToColor":{"0":[1],"1":[2]},"colorToLabel":{"0":"this","2":"return"}}}

Generated Model
	this->return

