Scanning method <android.text.format.Formatter: java.lang.String formatIpAddress(int)>

All seen event types: LoadStaticRecord, MethodReturnRecord, MethodCallRecord, MethodStartRecord, MethodEndRecord, 
Ignored event types: 

JSON Encoded Analysis Data (for visualization):{"heapEdges":[{"step":0,"from":"sdaReg0","to":"1093633128","type":"model"},{"step":1,"from":"static.<libcore.io.Libcore: libcore.io.Os os>","to":"1083982784","type":"load","field":"<libcore.io.Libcore: libcore.io.Os os>"},{"step":2,"from":"static.<libcore.io.OsConstants: int NI_NUMERICHOST>","to":"static.<libcore.io.OsConstants: int NI_NUMERICHOST>","type":"load","field":"<libcore.io.OsConstants: int NI_NUMERICHOST>"},{"step":3,"from":"static.<libcore.io.OsConstants: int NI_NUMERICHOST>","to":"sdaReg3","type":"model"},{"step":4,"from":"1093633128","to":"sdaReg3","type":"model"}],"parameters":[{"id":"sdaReg0","name":"arg#0","klass":"int"}],"returns":[{"id":"sdaReg3","name":"return","klass":"string"}],"colors":{"heapLocToColor":{"sdaReg3":[4],"1093633128":[1],"sdaReg2":[1],"static.<libcore.io.OsConstants: int NI_NUMERICHOST>":[3],"1083982784":[2],"sdaReg1":[1],"sdaReg0":[0],"static.<libcore.io.Libcore: libcore.io.Os os>":[2]},"colorToColor":{"0":[1],"1":[4],"3":[4],"4":[5]},"colorToLabel":{"0":"arg#0","2":"<libcore.io.Libcore: libcore.io.Os os>","3":"<libcore.io.OsConstants: int NI_NUMERICHOST>","5":"return"}}}

Generated Model
	arg#0->return

