Scanning method <java.io.ObjectInputStream: boolean enableResolveObject(boolean)>

All seen event types: LoadInstanceRecord, StoreInstanceRecord, 
Ignored event types: 

JSON Encoded Analysis Data (for visualization):{"heapEdges":[{"step":0,"from":"1093293768","to":"1093293768.<java.io.ObjectInputStream: boolean enableResolve>","type":"load","field":"<java.io.ObjectInputStream: boolean enableResolve>"},{"step":1,"from":"sdaReg0","to":"1093293768","type":"store","field":"<java.io.ObjectInputStream: boolean enableResolve>"}],"parameters":[{"id":"1093293768","name":"this","klass":"java.io.ObjectInputStream"},{"id":"sdaReg0","name":"arg#1","klass":"boolean"}],"returns":[{"id":"1093293768.<java.io.ObjectInputStream: boolean enableResolve>","name":"return","klass":"boolean"}],"colors":{"heapLocToColor":{"1093293768.<java.io.ObjectInputStream: boolean enableResolve>":[0],"1093293768":[0],"sdaReg0":[1]},"colorToColor":{"0":[2],"1":[0]},"colorToLabel":{"0":"this","1":"arg#1","2":"return"}}}

Generated Model
	this->return
	arg#1->this
	arg#1->return

