Scanning method <java.io.Reader: int read()>

All seen event types: NewArrayRecord, SimpleAssignmentRecord, ExitMonitorRecord, MethodReturnRecord, MethodCallRecord, EnterMonitorRecord, LoadInstanceRecord, IfRecord, 
Ignored event types: ExitMonitorRecord, EnterMonitorRecord, IfRecord, 

JSON Encoded Analysis Data (for visualization):{"heapEdges":[{"step":0,"from":"1093638248","to":"1093638248","type":"load","field":"<java.io.Reader: java.lang.Object lock>"},{"step":1,"from":"1093638248","to":"1093646280","type":"model"},{"step":2,"from":"1093638248","to":"sdaReg1","type":"model"},{"step":3,"from":"1093646280","to":"1093638248","type":"model"},{"step":4,"from":"1093646280","to":"sdaReg1","type":"model"}],"parameters":[{"id":"1093638248","name":"this","klass":"java.io.Reader"}],"returns":[{"id":"sdaReg2","name":"return","klass":"int"}],"colors":{"heapLocToColor":{"1093646280":[0, 1],"sdaReg1":[0, 2],"1093638248.<java.io.Reader: java.lang.Object lock>":[0],"sdaReg0":[0],"1093638248":[0]},"colorToColor":{"0":[0, 2],"1":[0, 2]},"colorToLabel":{"0":"this","3":"return"}}}

Generated Model

