Scanning method <java.util.Formatter: void doFormat(java.lang.String,java.lang.Object[])>

All seen event types: SimpleAssignmentRecord, MethodStartRecord, LoadInstanceRecord, IfRecord, InstanceOfRecord, NewObjectRecord, StoreInstanceRecord, BinaryOperationRecord, MethodCallRecord, MethodReturnRecord, SwitchRecord, ArrayLengthRecord, LoadArrayRecord, MethodEndRecord, 
Ignored event types: SwitchRecord, IfRecord, 

JSON Encoded Analysis Data (for visualization):{"heapEdges":[{"step":0,"from":"1093276680","to":"1093276680.<java.util.Formatter: boolean closed>","type":"load","field":"<java.util.Formatter: boolean closed>"},{"step":1,"from":"sdaReg0","to":"1093279024","type":"store","field":"<java.util.Formatter$FormatSpecifierParser: java.lang.String format>"},{"step":2,"from":"sdaReg4","to":"1093279024","type":"store","field":"<java.util.Formatter$FormatSpecifierParser: int length>"},{"step":3,"from":"1093276680","to":"sdaReg0","type":"model"},{"step":4,"from":"1093276680","to":"sdaReg12","type":"model"},{"step":5,"from":"1093276680","to":"sdaReg15","type":"model"},{"step":6,"from":"sdaReg0","to":"1093276680","type":"model"},{"step":7,"from":"sdaReg0","to":"sdaReg12","type":"model"},{"step":8,"from":"sdaReg0","to":"sdaReg15","type":"model"},{"step":9,"from":"sdaReg12","to":"1093276680","type":"model"},{"step":10,"from":"sdaReg12","to":"sdaReg0","type":"model"},{"step":11,"from":"sdaReg12","to":"sdaReg15","type":"model"},{"step":12,"from":"sdaReg15","to":"1093276680","type":"model"},{"step":13,"from":"sdaReg15","to":"sdaReg0","type":"model"},{"step":14,"from":"sdaReg15","to":"sdaReg12","type":"model"},{"step":15,"from":"sdaReg16","to":"1093279024","type":"store","field":"<java.util.Formatter$FormatSpecifierParser: int startIndex>"},{"step":16,"from":"sdaReg16","to":"1093279024","type":"store","field":"<java.util.Formatter$FormatSpecifierParser: int i>"},{"step":17,"from":"1093279280","to":"sdaReg21","type":"create","field":"<java.util.Formatter$FormatToken: int argIndex>"},{"step":18,"from":"1093279280","to":"sdaReg22","type":"create","field":"<java.util.Formatter$FormatToken: char conversionType>"},{"step":19,"from":"1093279280","to":"sdaReg23","type":"create","field":"<java.util.Formatter$FormatToken: int precision>"},{"step":20,"from":"1093279280","to":"sdaReg24","type":"create","field":"<java.util.Formatter$FormatToken: int width>"},{"step":21,"from":"sdaReg43","to":"1093279024","type":"store","field":"<java.util.Formatter$FormatSpecifierParser: int i>"},{"step":22,"from":"sdaReg44","to":"1093279280","type":"store","field":"<java.util.Formatter$FormatToken: char conversionType>"},{"step":23,"from":"1093351496","to":"1093625712","type":"load","field":"arrayIdx_int:0"},{"step":24,"from":"1093276680","to":"1093279280","type":"create","field":"<java.util.Formatter: java.util.Formatter$FormatToken formatToken>"},{"step":25,"from":"1093625712","to":"1093276680","type":"store","field":"<java.util.Formatter: java.lang.Object arg>"},{"step":26,"from":"1093279280","to":"1093279280.<java.util.Formatter$FormatToken: boolean flagComma>","type":"load","field":"<java.util.Formatter$FormatToken: boolean flagComma>"},{"step":27,"from":"1093279280","to":"1093279280.<java.util.Formatter$FormatToken: boolean flagMinus>","type":"load","field":"<java.util.Formatter$FormatToken: boolean flagMinus>"},{"step":28,"from":"1093279280","to":"1093279280.<java.util.Formatter$FormatToken: boolean flagParenthesis>","type":"load","field":"<java.util.Formatter$FormatToken: boolean flagParenthesis>"},{"step":29,"from":"1093279280","to":"1093279280.<java.util.Formatter$FormatToken: boolean flagPlus>","type":"load","field":"<java.util.Formatter$FormatToken: boolean flagPlus>"},{"step":30,"from":"1093279280","to":"1093279280.<java.util.Formatter$FormatToken: boolean flagSharp>","type":"load","field":"<java.util.Formatter$FormatToken: boolean flagSharp>"},{"step":31,"from":"1093279280","to":"1093279280.<java.util.Formatter$FormatToken: boolean flagSpace>","type":"load","field":"<java.util.Formatter$FormatToken: boolean flagSpace>"},{"step":32,"from":"1093279280","to":"1093279280.<java.util.Formatter$FormatToken: boolean flagZero>","type":"load","field":"<java.util.Formatter$FormatToken: boolean flagZero>"},{"step":33,"from":"1093625712","to":"sdaReg70","type":"model"},{"step":34,"from":"1093276680","to":"1093457312","type":"load","field":"<java.util.Formatter: java.lang.Appendable out>"},{"step":35,"from":"1093625712","to":"1093457312","type":"model"},{"step":36,"from":"1093276680","to":"sdaReg0","type":"model"},{"step":37,"from":"1093276680","to":"sdaReg12","type":"model"},{"step":38,"from":"1093276680","to":"sdaReg15","type":"model"},{"step":39,"from":"sdaReg0","to":"1093276680","type":"model"},{"step":40,"from":"sdaReg0","to":"sdaReg12","type":"model"},{"step":41,"from":"sdaReg0","to":"sdaReg15","type":"model"},{"step":42,"from":"sdaReg12","to":"1093276680","type":"model"},{"step":43,"from":"sdaReg12","to":"sdaReg0","type":"model"},{"step":44,"from":"sdaReg12","to":"sdaReg15","type":"model"},{"step":45,"from":"sdaReg15","to":"1093276680","type":"model"},{"step":46,"from":"sdaReg15","to":"sdaReg0","type":"model"},{"step":47,"from":"sdaReg15","to":"sdaReg12","type":"model"}],"parameters":[{"id":"1093276680","name":"this","klass":"java.util.Formatter"},{"id":"sdaReg0","name":"arg#1","klass":"string"},{"id":"1093351496","name":"arg#2","klass":"java.lang.Object[]"}],"returns":[{"id":null,"name":"return","klass":null}],"colors":{"heapLocToColor":{"1093279024":[3],"sdaReg61":[2],"sdaReg67":[7],"1093279280.<java.util.Formatter$FormatToken: boolean flagZero>":[7],"1093279280.<java.util.Formatter$FormatToken: boolean flagMinus>":[7],"sdaReg64":[2],"sdaReg65":[7],"sdaReg62":[0],"sdaReg63":[7],"sdaReg72":[15],"sdaReg13":[6],"sdaReg71":[2],"sdaReg14":[5, 6],"1093457312":[0],"sdaReg70":[2, 14],"sdaReg11":[0, 6],"sdaReg12":[0],"sdaReg10":[5],"1093279280.<java.util.Formatter$FormatToken: boolean flagParenthesis>":[7],"sdaReg58":[3],"sdaReg57":[2],"sdaReg19":[7],"sdaReg56":[0],"1093279280.<java.util.Formatter$FormatToken: boolean flagSpace>":[7],"sdaReg17":[3],"sdaReg18":[7],"sdaReg15":[0, 5, 6],"sdaReg52":[7],"sdaReg16":[0, 6],"1093276680.<java.util.Formatter: boolean closed>":[0],"sdaReg50":[7],"sdaReg77":[0, 5, 6],"sdaReg78":[16],"sdaReg73":[0],"sdaReg74":[2],"sdaReg76":[3],"sdaReg48":[7],"sdaReg45":[7],"sdaReg44":[13],"sdaReg47":[7],"sdaReg46":[7],"sdaReg41":[7],"sdaReg40":[3],"sdaReg42":[3],"1093279280":[7],"1093279280.<java.util.Formatter$FormatToken: boolean flagComma>":[7],"sdaReg39":[12],"sdaReg38":[11],"sdaReg37":[3],"sdaReg32":[3],"1093351496":[2],"sdaReg31":[9],"sdaReg30":[8],"1093276680":[0],"sdaReg34":[7],"sdaReg33":[10],"1093625712":[2],"sdaReg8":[2],"1093279280.<java.util.Formatter$FormatToken: boolean flagPlus>":[7],"sdaReg6":[3],"sdaReg4":[4],"sdaReg5":[3],"sdaReg27":[3],"sdaReg26":[7],"sdaReg29":[3],"sdaReg28":[7],"1093279280.<java.util.Formatter$FormatToken: boolean flagSharp>":[7],"sdaReg3":[3],"sdaReg2":[3],"sdaReg1":[0],"sdaReg20":[7],"sdaReg0":[0, 1],"sdaReg25":[7]},"colorToColor":{"0":[0, 1, 3, 5, 6],"1":[0, 3, 5, 6],"2":[0],"4":[3],"5":[0, 1],"6":[0, 1, 3],"7":[0],"13":[7]},"colorToLabel":{"0":"this","1":"arg#1","2":"arg#2","17":"return"}}}

Generated Model
	this->arg#1
	arg#2->this
	arg#2->arg#1
	arg#1->this

