Scanning method <java.util.TreeMap$Node: void <init>(java.util.TreeMap$Node,java.lang.Object)>

All seen event types: MethodReturnRecord, MethodCallRecord, StoreInstanceRecord, 
Ignored event types: 

JSON Encoded Analysis Data (for visualization):{"heapEdges":[{"step":0,"from":"1093278784","to":"1095193392","type":"store","field":"<java.util.TreeMap$Node: java.util.TreeMap$Node parent>"},{"step":1,"from":"1094472424","to":"1095193392","type":"store","field":"<java.util.TreeMap$Node: java.lang.Object key>"},{"step":2,"from":"1095193392","to":"sdaReg1","type":"create","field":"<java.util.TreeMap$Node: int height>"}],"parameters":[{"id":"1095193392","name":"this","klass":"java.util.TreeMap$Node"},{"id":"1093278784","name":"arg#1","klass":"java.util.TreeMap$Node"},{"id":"1094472424","name":"arg#2","klass":"java.lang.Object"}],"returns":[{"id":"1095193392","name":"return","klass":"java.util.TreeMap$Node"}],"colors":{"heapLocToColor":{"1095193392":[0],"1093278784":[1],"1094472424":[2],"sdaReg0":[0]},"colorToColor":{"0":[3],"1":[0],"2":[0]},"colorToLabel":{"0":"this","1":"arg#1","2":"arg#2","3":"return"}}}

Generated Model
	this->return
	arg#2->this
	arg#2->return
	arg#1->this
	arg#1->return

