Scanning method <java.util.HashMap: void addNewEntry(java.lang.Object,java.lang.Object,int,int)>

All seen event types: StoreArrayRecord, MethodReturnRecord, MethodCallRecord, MethodStartRecord, LoadInstanceRecord, LoadArrayRecord, MethodEndRecord, StoreInstanceRecord, NewObjectRecord, 
Ignored event types: 

JSON Encoded Analysis Data (for visualization):{"heapEdges":[{"step":0,"from":"1093246512","to":"1093556768","type":"load","field":"<java.util.HashMap: java.util.HashMap$HashMapEntry[] table>"},{"step":1,"from":"1093246512","to":"1093556768","type":"load","field":"<java.util.HashMap: java.util.HashMap$HashMapEntry[] table>"},{"step":2,"from":"1093556768","to":"1093552016","type":"load","field":"arrayIdx_int:0"},{"step":3,"from":"1093547152","to":"1093556824","type":"store","field":"<java.util.HashMap$HashMapEntry: java.lang.Object key>"},{"step":4,"from":"1083976944","to":"1093556824","type":"store","field":"<java.util.HashMap$HashMapEntry: java.lang.Object value>"},{"step":5,"from":"sdaReg0","to":"1093556824","type":"store","field":"<java.util.HashMap$HashMapEntry: int hash>"},{"step":6,"from":"1093552016","to":"1093556824","type":"store","field":"<java.util.HashMap$HashMapEntry: java.util.HashMap$HashMapEntry next>"},{"step":7,"from":"1093556768","to":"1093556824","type":"create","field":"arrayIdx_int:0"}],"parameters":[{"id":"1093246512","name":"this","klass":"java.util.HashMap"},{"id":"1093547152","name":"arg#1","klass":"java.lang.Object"},{"id":"1083976944","name":"arg#2","klass":"java.lang.Object"},{"id":"sdaReg0","name":"arg#3","klass":"int"},{"id":"sdaReg1","name":"arg#4","klass":"int"}],"returns":[{"id":null,"name":"return","klass":null}],"colors":{"heapLocToColor":{"sdaReg6":[5],"sdaReg7":[5],"sdaReg4":[2],"sdaReg5":[0],"1093246512":[0],"1093547152":[1],"1093556824":[5],"1083976944":[2],"1093556768":[0],"1093552016":[0],"sdaReg3":[1],"1093246512.<java.util.HashMap: java.util.HashMap$HashMapEntry[] table>":[0],"sdaReg2":[5],"sdaReg1":[4],"sdaReg0":[3]},"colorToColor":{"0":[5],"1":[5],"2":[5],"3":[5],"5":[0]},"colorToLabel":{"0":"this","1":"arg#1","2":"arg#2","3":"arg#3","4":"arg#4","6":"return"}}}

Generated Model
	arg#3->this
	arg#2->this
	arg#1->this

