Scanning method <android.location.Address: void <init>(java.util.Locale)>

All seen event types: MethodReturnRecord, MethodCallRecord, StoreInstanceRecord, 
Ignored event types: 

JSON Encoded Analysis Data (for visualization):{"heapEdges":[{"step":0,"from":"1093511776","to":"sdaReg1","type":"create","field":"<android.location.Address: int mMaxAddressLineIndex>"},{"step":1,"from":"1093511776","to":"sdaReg2","type":"create","field":"<android.location.Address: boolean mHasLatitude>"},{"step":2,"from":"1093511776","to":"sdaReg3","type":"create","field":"<android.location.Address: boolean mHasLongitude>"},{"step":3,"from":"1093511776","to":"sdaReg4","type":"create","field":"<android.location.Address: android.os.Bundle mExtras>"},{"step":4,"from":"1084417120","to":"1093511776","type":"store","field":"<android.location.Address: java.util.Locale mLocale>"}],"parameters":[{"id":"1093511776","name":"this","klass":"android.location.Address"},{"id":"1084417120","name":"arg#1","klass":"java.util.Locale"}],"returns":[{"id":"1093511776","name":"return","klass":"android.location.Address"}],"colors":{"heapLocToColor":{"1093511776":[0],"1084417120":[1],"sdaReg0":[0]},"colorToColor":{"0":[2],"1":[0]},"colorToLabel":{"0":"this","1":"arg#1","2":"return"}}}

Generated Model
	this->return
	arg#1->this
	arg#1->return

