Scanning method <java.io.StringReader: void close()>

All seen event types: StoreInstanceRecord, 
Ignored event types: 

JSON Encoded Analysis Data (for visualization):{"heapEdges":[{"step":0,"from":"1093683832","to":"sdaReg0","type":"create","field":"<java.io.StringReader: java.lang.String str>"}],"parameters":[{"id":"1093683832","name":"this","klass":"java.io.StringReader"}],"returns":[{"id":null,"name":"return","klass":null}],"colors":{"heapLocToColor":{"1093683832":[0]},"colorToColor":{},"colorToLabel":{"0":"this","1":"return"}}}

Generated Model

