Scanning method <java.util.ArrayList: boolean remove(java.lang.Object)>

All seen event types: BinaryOperationRecord, StoreArrayRecord, SimpleAssignmentRecord, MethodReturnRecord, MethodCallRecord, LoadInstanceRecord, LoadArrayRecord, IfRecord, StoreInstanceRecord, 
Ignored event types: IfRecord, 

JSON Encoded Analysis Data (for visualization):{"heapEdges":[{"step":0,"from":"1093317512","to":"1093749568","type":"load","field":"<java.util.ArrayList: java.lang.Object[] array>"},{"step":1,"from":"1093317512","to":"1093317512.<java.util.ArrayList: int size>","type":"load","field":"<java.util.ArrayList: int size>"},{"step":2,"from":"1093749568","to":"1084693312","type":"load","field":"arrayIdx_int:0"},{"step":3,"from":"1093749568","to":"1084438984","type":"load","field":"arrayIdx_int:1"},{"step":4,"from":"1093749568","to":"1085725136","type":"load","field":"arrayIdx_int:2"},{"step":5,"from":"1093749568","to":"1085657080","type":"load","field":"arrayIdx_int:3"},{"step":6,"from":"1093749568","to":"1084422296","type":"load","field":"arrayIdx_int:4"},{"step":7,"from":"1093749568","to":"sdaReg9","type":"create","field":"arrayIdx_int:5"},{"step":8,"from":"sdaReg7","to":"1093317512","type":"store","field":"<java.util.ArrayList: int size>"},{"step":9,"from":"1093317512","to":"1093317512.<java.util.AbstractList: int modCount>","type":"load","field":"<java.util.AbstractList: int modCount>"},{"step":10,"from":"sdaReg10","to":"1093317512","type":"store","field":"<java.util.AbstractList: int modCount>"}],"parameters":[{"id":"1093317512","name":"this","klass":"java.util.ArrayList"},{"id":"1084422296","name":"arg#1","klass":"java.lang.Object"}],"returns":[{"id":null,"name":"return","klass":"boolean"}],"colors":{"heapLocToColor":{"1093317512":[0],"1093317512.<java.util.ArrayList: int size>":[0],"1093317512.<java.util.AbstractList: int modCount>":[0],"sdaReg8":[0],"1093749568.arrayIdx_int:4":[1],"sdaReg7":[0],"1085725136":[0],"sdaReg4":[5],"sdaReg5":[6],"1085657080":[0],"1084422296":[0, 1],"sdaReg10":[0],"1084438984":[0],"sdaReg3":[4],"1084693312":[0],"sdaReg2":[3],"sdaReg1":[2],"1093749568":[0]},"colorToColor":{"0":[0]},"colorToLabel":{"0":"this","1":"arg#1","7":"return"}}}

Generated Model

