Scanning method <java.io.PrintWriter: boolean checkError()>

All seen event types: LoadInstanceRecord, IfRecord, 
Ignored event types: IfRecord, 

JSON Encoded Analysis Data (for visualization):{"heapEdges":[{"step":0,"from":"1093593168","to":"1093593168.<java.io.PrintWriter: boolean ioError>","type":"load","field":"<java.io.PrintWriter: boolean ioError>"}],"parameters":[{"id":"1093593168","name":"this","klass":"java.io.PrintWriter"}],"returns":[{"id":"1093593168.<java.io.PrintWriter: boolean ioError>","name":"return","klass":"boolean"}],"colors":{"heapLocToColor":{"1093593168":[0],"1093593168.<java.io.PrintWriter: boolean ioError>":[0]},"colorToColor":{"0":[1]},"colorToLabel":{"0":"this","1":"return"}}}

Generated Model
	this->return

