Scanning method <java.util.TreeMap$Node: java.util.TreeMap$Node next()>

All seen event types: SimpleAssignmentRecord, LoadInstanceRecord, IfRecord, 
Ignored event types: IfRecord, 

JSON Encoded Analysis Data (for visualization):{"heapEdges":[{"step":0,"from":"1093532984","to":"1093532944","type":"load","field":"<java.util.TreeMap$Node: java.util.TreeMap$Node parent>"},{"step":1,"from":"1093532944","to":"1094178240","type":"load","field":"<java.util.TreeMap$Node: java.util.TreeMap$Node left>"},{"step":2,"from":"1093532944","to":"1094178200","type":"load","field":"<java.util.TreeMap$Node: java.util.TreeMap$Node parent>"},{"step":3,"from":"1094178200","to":"1095218224","type":"load","field":"<java.util.TreeMap$Node: java.util.TreeMap$Node left>"},{"step":4,"from":"1094178200","to":"1093447784","type":"load","field":"<java.util.TreeMap$Node: java.util.TreeMap$Node parent>"},{"step":5,"from":"1093447784","to":"1094753864","type":"load","field":"<java.util.TreeMap$Node: java.util.TreeMap$Node left>"},{"step":6,"from":"1093447784","to":"1093533024","type":"load","field":"<java.util.TreeMap$Node: java.util.TreeMap$Node parent>"},{"step":7,"from":"1093533024","to":"1093447784","type":"load","field":"<java.util.TreeMap$Node: java.util.TreeMap$Node left>"}],"parameters":[{"id":"1093532984","name":"this","klass":"java.util.TreeMap$Node"}],"returns":[{"id":"1093533024","name":"return","klass":"java.util.TreeMap$Node"}],"colors":{"heapLocToColor":{"1093533024.<java.util.TreeMap$Node: java.util.TreeMap$Node left>":[0],"1094178200":[0],"1095218224":[0],"1093532944":[0],"1093532984":[0],"1094178240":[0],"1094753864":[0],"1093533024":[0],"1093447784":[0]},"colorToColor":{"0":[1]},"colorToLabel":{"0":"this","1":"return"}}}

Generated Model
	this->return

