Scanning method <java.util.TreeMap$Node: java.util.TreeMap$Node next()>

All seen event types: SimpleAssignmentRecord, LoadInstanceRecord, IfRecord, 
Ignored event types: IfRecord, 

JSON Encoded Analysis Data (for visualization):{"heapEdges":[{"step":0,"from":"1093684784","to":"1094090032","type":"load","field":"<java.util.TreeMap$Node: java.util.TreeMap$Node parent>"},{"step":1,"from":"1094090032","to":"1094089992","type":"load","field":"<java.util.TreeMap$Node: java.util.TreeMap$Node left>"},{"step":2,"from":"1094090032","to":"1093544664","type":"load","field":"<java.util.TreeMap$Node: java.util.TreeMap$Node parent>"},{"step":3,"from":"1093544664","to":"1094090032","type":"load","field":"<java.util.TreeMap$Node: java.util.TreeMap$Node left>"}],"parameters":[{"id":"1093684784","name":"this","klass":"java.util.TreeMap$Node"}],"returns":[{"id":"1093544664","name":"return","klass":"java.util.TreeMap$Node"}],"colors":{"heapLocToColor":{"1094090032":[0],"1093544664.<java.util.TreeMap$Node: java.util.TreeMap$Node left>":[0],"1093684784":[0],"1093544664":[0],"1094089992":[0]},"colorToColor":{"0":[1]},"colorToLabel":{"0":"this","1":"return"}}}

Generated Model
	this->return

