Scanning method <java.util.TreeMap$Node: java.util.TreeMap$Node next()>

All seen event types: SimpleAssignmentRecord, LoadInstanceRecord, IfRecord, 
Ignored event types: IfRecord, 

JSON Encoded Analysis Data (for visualization):{"heapEdges":[{"step":0,"from":"1097517960","to":"1095477992","type":"load","field":"<java.util.TreeMap$Node: java.util.TreeMap$Node parent>"},{"step":1,"from":"1095477992","to":"1095477952","type":"load","field":"<java.util.TreeMap$Node: java.util.TreeMap$Node left>"},{"step":2,"from":"1095477992","to":"1097092104","type":"load","field":"<java.util.TreeMap$Node: java.util.TreeMap$Node parent>"},{"step":3,"from":"1097092104","to":"1095477992","type":"load","field":"<java.util.TreeMap$Node: java.util.TreeMap$Node left>"}],"parameters":[{"id":"1097517960","name":"this","klass":"java.util.TreeMap$Node"}],"returns":[{"id":"1097092104","name":"return","klass":"java.util.TreeMap$Node"}],"colors":{"heapLocToColor":{"1097092104.<java.util.TreeMap$Node: java.util.TreeMap$Node left>":[0],"1095477952":[0],"1095477992":[0],"1097092104":[0],"1097517960":[0]},"colorToColor":{"0":[1]},"colorToLabel":{"0":"this","1":"return"}}}

Generated Model
	this->return

