Scanning method <java.util.TreeMap$Node: java.util.TreeMap$Node next()>

All seen event types: SimpleAssignmentRecord, LoadInstanceRecord, IfRecord, 
Ignored event types: IfRecord, 

JSON Encoded Analysis Data (for visualization):{"heapEdges":[{"step":0,"from":"1096549600","to":"1094588128","type":"load","field":"<java.util.TreeMap$Node: java.util.TreeMap$Node parent>"},{"step":1,"from":"1094588128","to":"1094845584","type":"load","field":"<java.util.TreeMap$Node: java.util.TreeMap$Node left>"},{"step":2,"from":"1094588128","to":"1096549640","type":"load","field":"<java.util.TreeMap$Node: java.util.TreeMap$Node parent>"},{"step":3,"from":"1096549640","to":"1094588128","type":"load","field":"<java.util.TreeMap$Node: java.util.TreeMap$Node left>"}],"parameters":[{"id":"1096549600","name":"this","klass":"java.util.TreeMap$Node"}],"returns":[{"id":"1096549640","name":"return","klass":"java.util.TreeMap$Node"}],"colors":{"heapLocToColor":{"1094845584":[0],"1096549640":[0],"1096549640.<java.util.TreeMap$Node: java.util.TreeMap$Node left>":[0],"1096549600":[0],"1094588128":[0]},"colorToColor":{"0":[1]},"colorToLabel":{"0":"this","1":"return"}}}

Generated Model
	this->return

