Scanning method <java.util.TreeMap$Node: java.util.TreeMap$Node next()>

All seen event types: SimpleAssignmentRecord, MethodReturnRecord, MethodCallRecord, MethodStartRecord, LoadInstanceRecord, MethodEndRecord, IfRecord, 
Ignored event types: IfRecord, 

JSON Encoded Analysis Data (for visualization):{"heapEdges":[{"step":0,"from":"1096549720","to":"1096549760","type":"load","field":"<java.util.TreeMap$Node: java.util.TreeMap$Node right>"},{"step":1,"from":"1096549720","to":"1096549760","type":"load","field":"<java.util.TreeMap$Node: java.util.TreeMap$Node right>"}],"parameters":[{"id":"1096549720","name":"this","klass":"java.util.TreeMap$Node"}],"returns":[{"id":"1096549760","name":"return","klass":"java.util.TreeMap$Node"}],"colors":{"heapLocToColor":{"1096549760":[0],"sdaReg2":[0],"sdaReg1":[0],"sdaReg0":[0],"1096549720.<java.util.TreeMap$Node: java.util.TreeMap$Node right>":[0],"1096549720":[0]},"colorToColor":{"0":[1]},"colorToLabel":{"0":"this","1":"return"}}}

Generated Model
	this->return

