Scanning method <android.os.Bundle: int getInt(java.lang.String,int)>

All seen event types: StoreArrayRecord, SimpleAssignmentRecord, ExitMonitorRecord, MethodStartRecord, LoadInstanceRecord, IfRecord, NewObjectRecord, StoreInstanceRecord, NewArrayRecord, LoadStaticRecord, BinaryOperationRecord, MethodCallRecord, MethodReturnRecord, SwitchRecord, EnterMonitorRecord, CastRecord, ArrayLengthRecord, LoadArrayRecord, MethodEndRecord, 
Ignored event types: ExitMonitorRecord, SwitchRecord, EnterMonitorRecord, IfRecord, 

JSON Encoded Analysis Data (for visualization):{"heapEdges":[{"step":0,"from":"1094156000","to":"1093460632","type":"load","field":"<android.os.Bundle: android.os.Parcel mParcelledData>"},{"step":1,"from":"1094156000","to":"1093460632","type":"load","field":"<android.os.Bundle: android.os.Parcel mParcelledData>"},{"step":2,"from":"1093460632","to":"sdaReg3","type":"model"},{"step":3,"from":"static.<java.util.HashMap: java.util.Map$Entry[] EMPTY_TABLE>","to":"1083997920","type":"load","field":"<java.util.HashMap: java.util.Map$Entry[] EMPTY_TABLE>"},{"step":4,"from":"1083997920","to":"1093519352","type":"store","field":"<java.util.HashMap: java.util.HashMap$HashMapEntry[] table>"},{"step":5,"from":"1093519352","to":"sdaReg10","type":"create","field":"<java.util.HashMap: int threshold>"},{"step":6,"from":"1094156000","to":"1093519352","type":"create","field":"<android.os.Bundle: java.util.Map mMap>"},{"step":7,"from":"1094156000","to":"1093460632","type":"load","field":"<android.os.Bundle: android.os.Parcel mParcelledData>"},{"step":8,"from":"1093460632","to":"sdaReg17","type":"model"},{"step":9,"from":"1093460632","to":"sdaReg18","type":"model"},{"step":10,"from":"1093460632","to":"sdaReg22","type":"model"},{"step":11,"from":"1093460632","to":"sdaReg23","type":"model"},{"step":12,"from":"sdaReg23","to":"1093924976","type":"model"},{"step":13,"from":"1093519352","to":"1093519352.<java.util.HashMap: int modCount>","type":"load","field":"<java.util.HashMap: int modCount>"},{"step":14,"from":"sdaReg41","to":"1093519352","type":"store","field":"<java.util.HashMap: int modCount>"},{"step":15,"from":"1093519352","to":"1093519352.<java.util.HashMap: int size>","type":"load","field":"<java.util.HashMap: int size>"},{"step":16,"from":"sdaReg42","to":"1093519352","type":"store","field":"<java.util.HashMap: int size>"},{"step":17,"from":"1093519352","to":"1093505432","type":"create","field":"<java.util.HashMap: java.util.HashMap$HashMapEntry[] table>"},{"step":18,"from":"sdaReg50","to":"1093519352","type":"store","field":"<java.util.HashMap: int threshold>"},{"step":19,"from":"1093728848","to":"1093520144","type":"store","field":"<java.util.HashMap$HashMapEntry: java.lang.Object key>"},{"step":20,"from":"1093520144","to":"1093924976","type":"create","field":"<java.util.HashMap$HashMapEntry: java.lang.Object value>"},{"step":21,"from":"sdaReg37","to":"1093520144","type":"store","field":"<java.util.HashMap$HashMapEntry: int hash>"},{"step":22,"from":"1093505432","to":"1093520144","type":"create","field":"arrayIdx_int:2"},{"step":23,"from":"1094156000","to":"1093460632","type":"load","field":"<android.os.Bundle: android.os.Parcel mParcelledData>"},{"step":24,"from":"1093460632","to":"1093460632.<android.os.Parcel: int mOwnObject>","type":"load","field":"<android.os.Parcel: int mOwnObject>"},{"step":25,"from":"static.<android.os.Parcel: android.os.Parcel[] sOwnedPool>","to":"1084044960","type":"load","field":"<android.os.Parcel: android.os.Parcel[] sOwnedPool>"},{"step":26,"from":"1093460632","to":"1084044960","type":"store","field":"arrayIdx_int:0"},{"step":27,"from":"1094156000","to":"sdaReg69","type":"create","field":"<android.os.Bundle: android.os.Parcel mParcelledData>"},{"step":28,"from":"1093924976","to":"sdaReg86","type":"model"}],"parameters":[{"id":"1094156000","name":"this","klass":"android.os.Bundle"},{"id":"sdaReg0","name":"arg#1","klass":"string"},{"id":"sdaReg1","name":"arg#2","klass":"int"}],"returns":[{"id":"sdaReg86","name":"return","klass":"int"}],"colors":{"heapLocToColor":{"sdaReg61":[10],"1084044960":[14],"sdaReg66":[14],"sdaReg67":[14],"sdaReg64":[13],"sdaReg65":[0],"1093519352.<java.util.HashMap: int size>":[4],"sdaReg63":[13],"sdaReg72":[15],"sdaReg13":[4],"sdaReg71":[15],"sdaReg70":[4],"sdaReg11":[4],"sdaReg12":[0],"sdaReg59":[13],"sdaReg58":[10],"sdaReg56":[4],"1083997920":[5],"sdaReg17":[0, 6],"sdaReg18":[0, 7],"sdaReg53":[12],"sdaReg15":[0],"1093460632":[0],"sdaReg51":[12],"1093519352":[4],"sdaReg77":[15],"sdaReg78":[15],"sdaReg79":[15],"1093505432":[12],"sdaReg73":[15],"sdaReg74":[15],"sdaReg75":[15],"sdaReg76":[15],"sdaReg83":[16],"sdaReg82":[15],"sdaReg46":[4],"sdaReg41":[4],"sdaReg40":[11],"1093924976":[10],"sdaReg43":[4],"sdaReg42":[4],"static.<android.os.Parcel: android.os.Parcel[] sOwnedPool>":[14],"sdaReg86":[17, 10],"sdaReg84":[10],"sdaReg85":[10],"sdaReg37":[11],"sdaReg32":[11],"sdaReg31":[11],"1093520144":[13],"static.<java.util.HashMap: java.util.Map$Entry[] EMPTY_TABLE>":[5],"sdaReg30":[11],"1093519352.<java.util.HashMap: int modCount>":[4],"sdaReg36":[11],"sdaReg35":[11],"sdaReg34":[11],"sdaReg33":[11],"1094156000.<android.os.Bundle: android.os.Parcel mParcelledData>":[0],"sdaReg8":[5],"sdaReg9":[5],"sdaReg6":[4],"sdaReg7":[4],"1094156000":[0],"sdaReg4":[4],"sdaReg5":[4],"sdaReg26":[4],"sdaReg29":[11],"1093460632.<android.os.Parcel: int mOwnObject>":[0],"sdaReg28":[10],"sdaReg3":[0, 3],"sdaReg2":[0],"sdaReg1":[2],"sdaReg20":[0],"sdaReg0":[1],"sdaReg23":[0, 9],"sdaReg22":[0, 8],"sdaReg25":[10],"sdaReg24":[10]},"colorToColor":{"17":[18],"0":[10, 14],"4":[0, 4],"5":[4],"9":[10],"10":[18, 13],"11":[13],"12":[4],"13":[12]},"colorToLabel":{"0":"this","1":"arg#1","2":"arg#2","5":"<java.util.HashMap: java.util.Map$Entry[] EMPTY_TABLE>","14":"<android.os.Parcel: android.os.Parcel[] sOwnedPool>","18":"return"}}}

Generated Model
	this->return
	this-><android.os.Parcel: android.os.Parcel[] sOwnedPool>

