Scanning method <java.util.HashMap$KeyIterator: void <init>(java.util.HashMap)>

All seen event types: BinaryOperationRecord, SimpleAssignmentRecord, MethodReturnRecord, MethodCallRecord, ArrayLengthRecord, LoadInstanceRecord, MethodStartRecord, LoadArrayRecord, MethodEndRecord, IfRecord, StoreInstanceRecord, 
Ignored event types: IfRecord, 

JSON Encoded Analysis Data (for visualization):{"heapEdges":[{"step":0,"from":"1093566224","to":"1093645168","type":"store","field":"<java.util.HashMap$KeyIterator: java.util.HashMap this$0>"},{"step":1,"from":"1093566224","to":"1093645168","type":"store","field":"<java.util.HashMap$HashIterator: java.util.HashMap this$0>"},{"step":2,"from":"1093566224","to":"1093566224.<java.util.HashMap: int modCount>","type":"load","field":"<java.util.HashMap: int modCount>"},{"step":3,"from":"1093566224.<java.util.HashMap: int modCount>","to":"1093645168","type":"store","field":"<java.util.HashMap$HashIterator: int expectedModCount>"},{"step":4,"from":"1093566224","to":"1093573416","type":"load","field":"<java.util.HashMap: java.util.HashMap$HashMapEntry[] table>"},{"step":5,"from":"1093645168","to":"1093645168.<java.util.HashMap$HashIterator: int nextIndex>","type":"load","field":"<java.util.HashMap$HashIterator: int nextIndex>"},{"step":6,"from":"1093645168","to":"1093645168.<java.util.HashMap$HashIterator: int nextIndex>","type":"load","field":"<java.util.HashMap$HashIterator: int nextIndex>"},{"step":7,"from":"sdaReg5","to":"1093645168","type":"store","field":"<java.util.HashMap$HashIterator: int nextIndex>"},{"step":8,"from":"sdaReg5","to":"1093645168","type":"store","field":"<java.util.HashMap$HashIterator: int nextIndex>"},{"step":9,"from":"sdaReg5","to":"1093645168","type":"store","field":"<java.util.HashMap$HashIterator: int nextIndex>"},{"step":10,"from":"1093573416","to":"1093623592","type":"load","field":"arrayIdx_int:2"},{"step":11,"from":"1093623592","to":"1093645168","type":"store","field":"<java.util.HashMap$HashIterator: java.util.HashMap$HashMapEntry nextEntry>"}],"parameters":[{"id":"1093645168","name":"this","klass":"java.util.HashMap$KeyIterator"},{"id":"1093566224","name":"arg#1","klass":"java.util.HashMap"}],"returns":[{"id":"1093645168","name":"return","klass":"java.util.HashMap$KeyIterator"}],"colors":{"heapLocToColor":{"1093573416":[1],"sdaReg8":[0],"1093566224.<java.util.HashMap: int modCount>":[1],"1093623592":[1],"1093645168":[0],"1093566224":[1],"sdaReg5":[0],"sdaReg2":[0],"sdaReg1":[1],"sdaReg0":[0],"1093645168.<java.util.HashMap$HashIterator: int nextIndex>":[0]},"colorToColor":{"0":[0, 2],"1":[0]},"colorToLabel":{"0":"this","1":"arg#1","2":"return"}}}

Generated Model
	this->return
	arg#1->this
	arg#1->return

