Scanning method <java.util.ArrayList: void ensureCapacity(int)>

All seen event types: NewArrayRecord, BinaryOperationRecord, MethodReturnRecord, MethodCallRecord, ArrayLengthRecord, LoadInstanceRecord, IfRecord, StoreInstanceRecord, 
Ignored event types: IfRecord, 

JSON Encoded Analysis Data (for visualization):{"heapEdges":[{"step":0,"from":"1093504352","to":"1093581328","type":"load","field":"<java.util.ArrayList: java.lang.Object[] array>"},{"step":1,"from":"1093504352","to":"1093504352.<java.util.ArrayList: int size>","type":"load","field":"<java.util.ArrayList: int size>"},{"step":2,"from":"1093581328","to":"1093759936","type":"model"},{"step":3,"from":"1093504352","to":"1093759936","type":"create","field":"<java.util.ArrayList: java.lang.Object[] array>"},{"step":4,"from":"1093504352","to":"1093504352.<java.util.AbstractList: int modCount>","type":"load","field":"<java.util.AbstractList: int modCount>"},{"step":5,"from":"sdaReg2","to":"1093504352","type":"store","field":"<java.util.AbstractList: int modCount>"}],"parameters":[{"id":"1093504352","name":"this","klass":"java.util.ArrayList"},{"id":"sdaReg0","name":"arg#1","klass":"int"}],"returns":[{"id":null,"name":"return","klass":null}],"colors":{"heapLocToColor":{"1093504352":[0],"1093504352.<java.util.AbstractList: int modCount>":[0],"1093759936":[2],"1093581328":[0],"sdaReg2":[0],"sdaReg0":[1],"1093504352.<java.util.ArrayList: int size>":[0]},"colorToColor":{"0":[0, 2],"2":[0]},"colorToLabel":{"0":"this","1":"arg#1","3":"return"}}}

Generated Model

