Scanning method <java.util.Formatter$FormatToken: void <init>()>

All seen event types: MethodReturnRecord, MethodCallRecord, StoreInstanceRecord, 
Ignored event types: 

JSON Encoded Analysis Data (for visualization):{"heapEdges":[{"step":0,"from":"1093230336","to":"sdaReg1","type":"create","field":"<java.util.Formatter$FormatToken: int argIndex>"},{"step":1,"from":"1093230336","to":"sdaReg2","type":"create","field":"<java.util.Formatter$FormatToken: char conversionType>"},{"step":2,"from":"1093230336","to":"sdaReg3","type":"create","field":"<java.util.Formatter$FormatToken: int precision>"},{"step":3,"from":"1093230336","to":"sdaReg4","type":"create","field":"<java.util.Formatter$FormatToken: int width>"}],"parameters":[{"id":"1093230336","name":"this","klass":"java.util.Formatter$FormatToken"}],"returns":[{"id":"1093230336","name":"return","klass":"java.util.Formatter$FormatToken"}],"colors":{"heapLocToColor":{"1093230336":[0],"sdaReg0":[0]},"colorToColor":{"0":[1]},"colorToLabel":{"0":"this","1":"return"}}}

Generated Model
	this->return

