Scanning method <java.io.ObjectInputStream: int read(byte[],int,int)>

All seen event types: SimpleAssignmentRecord, MethodStartRecord, LoadInstanceRecord, IfRecord, NewObjectRecord, StoreInstanceRecord, NewArrayRecord, BinaryOperationRecord, MethodCallRecord, MethodReturnRecord, SwitchRecord, ArrayLengthRecord, CastRecord, LoadArrayRecord, MethodEndRecord, 
Ignored event types: SwitchRecord, IfRecord, 

JSON Encoded Analysis Data (for visualization):{"heapEdges":[{"step":0,"from":"1093460840","to":"1093331312","type":"load","field":"<java.io.ObjectInputStream: java.io.InputStream primitiveData>"},{"step":1,"from":"1093460840","to":"1093331400","type":"load","field":"<java.io.ObjectInputStream: java.io.DataInputStream input>"},{"step":2,"from":"1093460840","to":"1093331312","type":"load","field":"<java.io.ObjectInputStream: java.io.InputStream primitiveData>"},{"step":3,"from":"1093331312","to":"1093331312.<java.io.ByteArrayInputStream: int count>","type":"load","field":"<java.io.ByteArrayInputStream: int count>"},{"step":4,"from":"1093331312","to":"1093331312.<java.io.ByteArrayInputStream: int pos>","type":"load","field":"<java.io.ByteArrayInputStream: int pos>"},{"step":5,"from":"1093460840","to":"1093460840.<java.io.ObjectInputStream: boolean hasPushbackTC>","type":"load","field":"<java.io.ObjectInputStream: boolean hasPushbackTC>"},{"step":6,"from":"1093460840","to":"1093331400","type":"load","field":"<java.io.ObjectInputStream: java.io.DataInputStream input>"},{"step":7,"from":"1093331400","to":"1093461040","type":"load","field":"<java.io.FilterInputStream: java.io.InputStream in>"},{"step":8,"from":"1093461040","to":"1093461040.<java.io.ByteArrayInputStream: int pos>","type":"load","field":"<java.io.ByteArrayInputStream: int pos>"},{"step":9,"from":"1093461040","to":"1093461040.<java.io.ByteArrayInputStream: int count>","type":"load","field":"<java.io.ByteArrayInputStream: int count>"},{"step":10,"from":"1093461040","to":"1093461072","type":"load","field":"<java.io.ByteArrayInputStream: byte[] buf>"},{"step":11,"from":"1093461040","to":"1093461040.<java.io.ByteArrayInputStream: int pos>","type":"load","field":"<java.io.ByteArrayInputStream: int pos>"},{"step":12,"from":"sdaReg11","to":"1093461040","type":"store","field":"<java.io.ByteArrayInputStream: int pos>"},{"step":13,"from":"1093461072","to":"1093461072.arrayIdx_int:4","type":"load","field":"arrayIdx_int:4"},{"step":14,"from":"sdaReg13","to":"1093460840","type":"store","field":"<java.io.ObjectInputStream: byte pushbackTC>"},{"step":15,"from":"1093460840","to":"1093331400","type":"load","field":"<java.io.ObjectInputStream: java.io.DataInputStream input>"},{"step":16,"from":"1093331400","to":"1093461040","type":"load","field":"<java.io.FilterInputStream: java.io.InputStream in>"},{"step":17,"from":"1093461040","to":"1093461040.<java.io.ByteArrayInputStream: int count>","type":"load","field":"<java.io.ByteArrayInputStream: int count>"},{"step":18,"from":"1093461040","to":"1093461072","type":"load","field":"<java.io.ByteArrayInputStream: byte[] buf>"},{"step":19,"from":"sdaReg17","to":"1093461040","type":"store","field":"<java.io.ByteArrayInputStream: int pos>"},{"step":20,"from":"1093461072","to":"1093461072.arrayIdx_int:5","type":"load","field":"arrayIdx_int:5"},{"step":21,"from":"1093460840","to":"1093331400","type":"load","field":"<java.io.ObjectInputStream: java.io.DataInputStream input>"},{"step":22,"from":"1093331400","to":"1093461040","type":"load","field":"<java.io.FilterInputStream: java.io.InputStream in>"},{"step":23,"from":"1093461040","to":"1093313952","type":"model"},{"step":24,"from":"1093313920","to":"sdaReg33","type":"create","field":"<java.io.ByteArrayInputStream: int mark>"},{"step":25,"from":"1093313920","to":"1093313952","type":"create","field":"<java.io.ByteArrayInputStream: byte[] buf>"},{"step":26,"from":"sdaReg34","to":"1093313920","type":"store","field":"<java.io.ByteArrayInputStream: int count>"},{"step":27,"from":"1093460840","to":"1093313920","type":"create","field":"<java.io.ObjectInputStream: java.io.InputStream primitiveData>"},{"step":28,"from":"1093313920","to":"1093313920.<java.io.ByteArrayInputStream: int pos>","type":"load","field":"<java.io.ByteArrayInputStream: int pos>"},{"step":29,"from":"1093313920","to":"1093313920.<java.io.ByteArrayInputStream: int pos>","type":"load","field":"<java.io.ByteArrayInputStream: int pos>"},{"step":30,"from":"1093313920","to":"1093313920.<java.io.ByteArrayInputStream: int pos>","type":"load","field":"<java.io.ByteArrayInputStream: int pos>"},{"step":31,"from":"1093313952","to":"1093320320","type":"model"},{"step":32,"from":"1093313920","to":"1093313920.<java.io.ByteArrayInputStream: int pos>","type":"load","field":"<java.io.ByteArrayInputStream: int pos>"},{"step":33,"from":"sdaReg44","to":"1093313920","type":"store","field":"<java.io.ByteArrayInputStream: int pos>"}],"parameters":[{"id":"1093460840","name":"this","klass":"java.io.ObjectInputStream"},{"id":"1093320320","name":"arg#1","klass":"byte[]"},{"id":"sdaReg0","name":"arg#2","klass":"int"},{"id":"sdaReg1","name":"arg#3","klass":"int"}],"returns":[{"id":"sdaReg43","name":"return","klass":"int"}],"colors":{"heapLocToColor":{"1093331400.<java.io.FilterInputStream: java.io.InputStream in>":[0],"1093313952":[5],"sdaReg13":[0],"sdaReg14":[0],"sdaReg11":[0],"sdaReg12":[0],"1093461040.<java.io.ByteArrayInputStream: int count>":[0],"1093320320":[1],"sdaReg10":[0],"sdaReg19":[0],"sdaReg18":[0],"sdaReg15":[0],"sdaReg16":[0],"1093313920":[4],"1093461040":[0],"1093331400":[0],"sdaReg44":[3, 4],"sdaReg41":[4],"sdaReg40":[2],"sdaReg43":[3],"sdaReg42":[3],"1093461040.<java.io.ByteArrayInputStream: int pos>":[0],"1093461072":[0],"sdaReg39":[2, 3],"sdaReg37":[1],"1093331312.<java.io.ByteArrayInputStream: int count>":[0],"1093313920.<java.io.ByteArrayInputStream: int pos>":[4],"sdaReg32":[4],"sdaReg31":[4],"sdaReg30":[4],"sdaReg36":[4],"1093331312":[0],"sdaReg35":[4],"1093461040.<java.io.ByteArrayInputStream: byte[] buf>":[0],"sdaReg9":[0],"sdaReg6":[0],"sdaReg7":[0],"sdaReg4":[2],"sdaReg5":[0],"1093460840":[0],"sdaReg27":[5],"sdaReg29":[5],"sdaReg28":[4],"1093461072.arrayIdx_int:4":[0],"1093331312.<java.io.ByteArrayInputStream: int pos>":[0],"sdaReg3":[2, 3],"sdaReg1":[3],"1093460840.<java.io.ObjectInputStream: java.io.InputStream primitiveData>":[0],"sdaReg21":[0],"sdaReg0":[2],"1093461072.arrayIdx_int:5":[0],"sdaReg20":[0],"1093460840.<java.io.ObjectInputStream: java.io.DataInputStream input>":[0],"1093460840.<java.io.ObjectInputStream: boolean hasPushbackTC>":[0],"sdaReg22":[5],"sdaReg25":[5],"sdaReg24":[0]},"colorToColor":{"0":[0, 5],"3":[4, 6],"4":[0, 4],"5":[1, 4]},"colorToLabel":{"0":"this","1":"arg#1","2":"arg#2","3":"arg#3","6":"return"}}}

Generated Model
	this->arg#1
	arg#3->this
	arg#3->return
	arg#3->arg#1

