Scanning method <android.os.Message: android.os.Handler getTarget()>

All seen event types: LoadInstanceRecord, 
Ignored event types: 

JSON Encoded Analysis Data (for visualization):{"heapEdges":[],"parameters":[{"id":"1093482576","name":"this","klass":"android.os.Message"}],"returns":[{"id":"0","name":"return","klass":"android.os.Handler"}],"colors":{"heapLocToColor":{"1093482576":[0]},"colorToColor":{},"colorToLabel":{"0":"this","1":"return"}}}

Generated Model

