Scanning method <java.io.ObjectInputStream: int findStreamSuperclass(java.lang.Class,java.util.List,int)>

All seen event types: SimpleAssignmentRecord, MethodReturnRecord, MethodCallRecord, CastRecord, LoadInstanceRecord, MethodStartRecord, LoadArrayRecord, IfRecord, MethodEndRecord, 
Ignored event types: IfRecord, 

JSON Encoded Analysis Data (for visualization):{"heapEdges":[{"step":0,"from":"1093328432","to":"1093328432.<java.util.ArrayList: int size>","type":"load","field":"<java.util.ArrayList: int size>"},{"step":1,"from":"1093328432","to":"1093328432.<java.util.ArrayList: int size>","type":"load","field":"<java.util.ArrayList: int size>"},{"step":2,"from":"1093328432","to":"1093424448","type":"load","field":"<java.util.ArrayList: java.lang.Object[] array>"},{"step":3,"from":"1093424448","to":"1093497664","type":"load","field":"arrayIdx_int:1"},{"step":4,"from":"1093497664","to":"1083934568","type":"model"},{"step":5,"from":"1083934568","to":"sdaReg7","type":"model"},{"step":6,"from":"1093497664","to":"sdaReg8","type":"model"},{"step":7,"from":"1083934568","to":"sdaReg10","type":"model"},{"step":8,"from":"1093497664","to":"sdaReg11","type":"model"}],"parameters":[{"id":"1093293768","name":"this","klass":"java.io.ObjectInputStream"},{"id":"1083934568","name":"arg#1","klass":"java.lang.Integer.class"},{"id":"1093328432","name":"arg#2","klass":"java.util.List"},{"id":"sdaReg0","name":"arg#3","klass":"int"}],"returns":[{"id":"sdaReg1","name":"return","klass":"int"}],"colors":{"heapLocToColor":{"sdaReg8":[2, 5],"sdaReg9":[6],"sdaReg6":[1, 2],"sdaReg7":[1, 2, 4],"sdaReg4":[2],"1083934568":[1, 2],"sdaReg5":[2],"sdaReg11":[2, 8],"sdaReg12":[9],"1093328432":[2],"1093424448":[2],"sdaReg10":[1, 2, 7],"1093328432.<java.util.ArrayList: int size>":[2],"sdaReg3":[2],"sdaReg2":[2],"1093293768":[0],"sdaReg1":[3],"1093497664":[2],"sdaReg0":[3]},"colorToColor":{"3":[10]},"colorToLabel":{"0":"this","1":"arg#1","2":"arg#2","3":"arg#3","10":"return"}}}

Generated Model
	arg#3->return

