Scanning method <java.util.TreeMap: java.lang.Object put(java.lang.Object,java.lang.Object)>

All seen event types: SimpleAssignmentRecord, MethodStartRecord, LoadInstanceRecord, IfRecord, NewObjectRecord, StoreInstanceRecord, LoadStaticRecord, BinaryOperationRecord, MethodCallRecord, MethodReturnRecord, SwitchRecord, CastRecord, LoadArrayRecord, MethodEndRecord, 
Ignored event types: SwitchRecord, IfRecord, 

JSON Encoded Analysis Data (for visualization):{"heapEdges":[{"step":0,"from":"static.<java.util.TreeMap$Relation: java.util.TreeMap$Relation CREATE>","to":"1085707192","type":"load","field":"<java.util.TreeMap$Relation: java.util.TreeMap$Relation CREATE>"},{"step":1,"from":"1093233072","to":"1096265440","type":"load","field":"<java.util.TreeMap: java.util.TreeMap$Node root>"},{"step":2,"from":"1093233072","to":"1083970648","type":"load","field":"<java.util.TreeMap: java.util.Comparator comparator>"},{"step":3,"from":"static.<java.util.TreeMap: java.util.Comparator NATURAL_ORDER>","to":"1083970648","type":"load","field":"<java.util.TreeMap: java.util.Comparator NATURAL_ORDER>"},{"step":4,"from":"1093233072","to":"1096265440","type":"load","field":"<java.util.TreeMap: java.util.TreeMap$Node root>"},{"step":5,"from":"1096265440","to":"1093351976","type":"load","field":"<java.util.TreeMap$Node: java.lang.Object key>"},{"step":6,"from":"1094062752","to":"1093351976","type":"model"},{"step":7,"from":"1094062752","to":"sdaReg8","type":"model"},{"step":8,"from":"1093351976","to":"1094062752","type":"model"},{"step":9,"from":"1093351976","to":"sdaReg8","type":"model"},{"step":10,"from":"1096265440","to":"1093944824","type":"load","field":"<java.util.TreeMap$Node: java.util.TreeMap$Node right>"},{"step":11,"from":"1093944824","to":"1093356456","type":"load","field":"<java.util.TreeMap$Node: java.lang.Object key>"},{"step":12,"from":"1094062752","to":"1093356456","type":"model"},{"step":13,"from":"1094062752","to":"sdaReg11","type":"model"},{"step":14,"from":"1093356456","to":"1094062752","type":"model"},{"step":15,"from":"1093356456","to":"sdaReg11","type":"model"},{"step":16,"from":"1093944824","to":"1094845544","type":"load","field":"<java.util.TreeMap$Node: java.util.TreeMap$Node right>"},{"step":17,"from":"1094845544","to":"1093349608","type":"load","field":"<java.util.TreeMap$Node: java.lang.Object key>"},{"step":18,"from":"1094062752","to":"1093349608","type":"model"},{"step":19,"from":"1094062752","to":"sdaReg12","type":"model"},{"step":20,"from":"1093349608","to":"1094062752","type":"model"},{"step":21,"from":"1093349608","to":"sdaReg12","type":"model"},{"step":22,"from":"1094845544","to":"1094588128","type":"load","field":"<java.util.TreeMap$Node: java.util.TreeMap$Node right>"},{"step":23,"from":"1094588128","to":"1093514912","type":"load","field":"<java.util.TreeMap$Node: java.lang.Object key>"},{"step":24,"from":"1094062752","to":"1093514912","type":"model"},{"step":25,"from":"1094062752","to":"sdaReg13","type":"model"},{"step":26,"from":"1093514912","to":"1094062752","type":"model"},{"step":27,"from":"1093514912","to":"sdaReg13","type":"model"},{"step":28,"from":"1094588128","to":"1096549640","type":"load","field":"<java.util.TreeMap$Node: java.util.TreeMap$Node right>"},{"step":29,"from":"1096549640","to":"1093522768","type":"load","field":"<java.util.TreeMap$Node: java.lang.Object key>"},{"step":30,"from":"1094062752","to":"1093522768","type":"model"},{"step":31,"from":"1094062752","to":"sdaReg14","type":"model"},{"step":32,"from":"1093522768","to":"1094062752","type":"model"},{"step":33,"from":"1093522768","to":"sdaReg14","type":"model"},{"step":34,"from":"1096549640","to":"1096549680","type":"load","field":"<java.util.TreeMap$Node: java.util.TreeMap$Node right>"},{"step":35,"from":"1096549680","to":"1093719400","type":"load","field":"<java.util.TreeMap$Node: java.lang.Object key>"},{"step":36,"from":"1094062752","to":"1093719400","type":"model"},{"step":37,"from":"1094062752","to":"sdaReg15","type":"model"},{"step":38,"from":"1093719400","to":"1094062752","type":"model"},{"step":39,"from":"1093719400","to":"sdaReg15","type":"model"},{"step":40,"from":"static.<java.util.TreeMap$2: int[] $SwitchMap$java$util$TreeMap$Relation>","to":"1085752200","type":"load","field":"<java.util.TreeMap$2: int[] $SwitchMap$java$util$TreeMap$Relation>"},{"step":41,"from":"1085707192","to":"sdaReg16","type":"model"},{"step":42,"from":"1085752200","to":"1085752200.arrayIdx_int:3","type":"load","field":"arrayIdx_int:3"},{"step":43,"from":"1096549680","to":"1096549720","type":"store","field":"<java.util.TreeMap$Node: java.util.TreeMap$Node parent>"},{"step":44,"from":"1094062752","to":"1096549720","type":"store","field":"<java.util.TreeMap$Node: java.lang.Object key>"},{"step":45,"from":"1096549720","to":"sdaReg21","type":"create","field":"<java.util.TreeMap$Node: int height>"},{"step":46,"from":"1096549680","to":"1096549720","type":"create","field":"<java.util.TreeMap$Node: java.util.TreeMap$Node right>"},{"step":47,"from":"1093233072","to":"1093233072.<java.util.TreeMap: int size>","type":"load","field":"<java.util.TreeMap: int size>"},{"step":48,"from":"sdaReg24","to":"1093233072","type":"store","field":"<java.util.TreeMap: int size>"},{"step":49,"from":"1093233072","to":"1093233072.<java.util.TreeMap: int modCount>","type":"load","field":"<java.util.TreeMap: int modCount>"},{"step":50,"from":"sdaReg25","to":"1093233072","type":"store","field":"<java.util.TreeMap: int modCount>"},{"step":51,"from":"static.<java.util.TreeMap: boolean $assertionsDisabled>","to":"static.<java.util.TreeMap: boolean $assertionsDisabled>","type":"load","field":"<java.util.TreeMap: boolean $assertionsDisabled>"},{"step":52,"from":"sdaReg31","to":"sdaReg32","type":"model"},{"step":53,"from":"sdaReg31","to":"sdaReg34","type":"model"},{"step":54,"from":"sdaReg32","to":"sdaReg31","type":"model"},{"step":55,"from":"sdaReg32","to":"sdaReg34","type":"model"},{"step":56,"from":"sdaReg35","to":"1096549680","type":"store","field":"<java.util.TreeMap$Node: int height>"},{"step":57,"from":"1096549680","to":"1096549640","type":"load","field":"<java.util.TreeMap$Node: java.util.TreeMap$Node parent>"},{"step":58,"from":"1096549640","to":"1096549600","type":"load","field":"<java.util.TreeMap$Node: java.util.TreeMap$Node left>"},{"step":59,"from":"1096549640","to":"1096549680","type":"load","field":"<java.util.TreeMap$Node: java.util.TreeMap$Node right>"},{"step":60,"from":"1096549600","to":"1096549600.<java.util.TreeMap$Node: int height>","type":"load","field":"<java.util.TreeMap$Node: int height>"},{"step":61,"from":"static.<java.util.TreeMap: boolean $assertionsDisabled>","to":"static.<java.util.TreeMap: boolean $assertionsDisabled>","type":"load","field":"<java.util.TreeMap: boolean $assertionsDisabled>"},{"step":62,"from":"sdaReg31","to":"sdaReg32","type":"model"},{"step":63,"from":"sdaReg31","to":"sdaReg36","type":"model"},{"step":64,"from":"sdaReg32","to":"sdaReg31","type":"model"},{"step":65,"from":"sdaReg32","to":"sdaReg36","type":"model"},{"step":66,"from":"sdaReg35","to":"1096549640","type":"store","field":"<java.util.TreeMap$Node: int height>"},{"step":67,"from":"1096549640","to":"1094588128","type":"load","field":"<java.util.TreeMap$Node: java.util.TreeMap$Node parent>"},{"step":68,"from":"1094588128","to":"1094845584","type":"load","field":"<java.util.TreeMap$Node: java.util.TreeMap$Node left>"},{"step":69,"from":"1094588128","to":"1096549640","type":"load","field":"<java.util.TreeMap$Node: java.util.TreeMap$Node right>"},{"step":70,"from":"1094845584","to":"1094845584.<java.util.TreeMap$Node: int height>","type":"load","field":"<java.util.TreeMap$Node: int height>"},{"step":71,"from":"1096549640","to":"1096549600","type":"load","field":"<java.util.TreeMap$Node: java.util.TreeMap$Node left>"},{"step":72,"from":"1096549640","to":"1096549680","type":"load","field":"<java.util.TreeMap$Node: java.util.TreeMap$Node right>"},{"step":73,"from":"1096549600","to":"1096549600.<java.util.TreeMap$Node: int height>","type":"load","field":"<java.util.TreeMap$Node: int height>"},{"step":74,"from":"1094588128","to":"1094845584","type":"load","field":"<java.util.TreeMap$Node: java.util.TreeMap$Node left>"},{"step":75,"from":"1094588128","to":"1096549640","type":"load","field":"<java.util.TreeMap$Node: java.util.TreeMap$Node right>"},{"step":76,"from":"1096549640","to":"1096549600","type":"load","field":"<java.util.TreeMap$Node: java.util.TreeMap$Node left>"},{"step":77,"from":"1096549640","to":"1096549680","type":"load","field":"<java.util.TreeMap$Node: java.util.TreeMap$Node right>"},{"step":78,"from":"1096549600","to":"1094588128","type":"store","field":"<java.util.TreeMap$Node: java.util.TreeMap$Node right>"},{"step":79,"from":"1094588128","to":"1096549600","type":"store","field":"<java.util.TreeMap$Node: java.util.TreeMap$Node parent>"},{"step":80,"from":"1094588128","to":"1094845544","type":"load","field":"<java.util.TreeMap$Node: java.util.TreeMap$Node parent>"},{"step":81,"from":"1094588128","to":"sdaReg45","type":"create","field":"<java.util.TreeMap$Node: java.util.TreeMap$Node parent>"},{"step":82,"from":"1094845544","to":"1096549640","type":"store","field":"<java.util.TreeMap$Node: java.util.TreeMap$Node parent>"},{"step":83,"from":"1094845544","to":"1095193432","type":"load","field":"<java.util.TreeMap$Node: java.util.TreeMap$Node left>"},{"step":84,"from":"static.<java.util.TreeMap: boolean $assertionsDisabled>","to":"static.<java.util.TreeMap: boolean $assertionsDisabled>","type":"load","field":"<java.util.TreeMap: boolean $assertionsDisabled>"},{"step":85,"from":"1096549640","to":"1094845544","type":"store","field":"<java.util.TreeMap$Node: java.util.TreeMap$Node right>"},{"step":86,"from":"1094588128","to":"1096549640","type":"store","field":"<java.util.TreeMap$Node: java.util.TreeMap$Node left>"},{"step":87,"from":"1096549640","to":"1094588128","type":"store","field":"<java.util.TreeMap$Node: java.util.TreeMap$Node parent>"},{"step":88,"from":"1094845584","to":"1094845584.<java.util.TreeMap$Node: int height>","type":"load","field":"<java.util.TreeMap$Node: int height>"},{"step":89,"from":"1096549600","to":"1096549600.<java.util.TreeMap$Node: int height>","type":"load","field":"<java.util.TreeMap$Node: int height>"},{"step":90,"from":"1094845584.<java.util.TreeMap$Node: int height>","to":"1096549600.<java.util.TreeMap$Node: int height>","type":"model"},{"step":91,"from":"1094845584.<java.util.TreeMap$Node: int height>","to":"sdaReg46","type":"model"},{"step":92,"from":"1096549600.<java.util.TreeMap$Node: int height>","to":"1094845584.<java.util.TreeMap$Node: int height>","type":"model"},{"step":93,"from":"1096549600.<java.util.TreeMap$Node: int height>","to":"sdaReg46","type":"model"},{"step":94,"from":"sdaReg47","to":"1094588128","type":"store","field":"<java.util.TreeMap$Node: int height>"},{"step":95,"from":"sdaReg49","to":"1096549640","type":"store","field":"<java.util.TreeMap$Node: int height>"},{"step":96,"from":"1085638584","to":"1096549720","type":"store","field":"<java.util.TreeMap$Node: java.lang.Object value>"}],"parameters":[{"id":"1093233072","name":"this","klass":"java.util.TreeMap"},{"id":"1094062752","name":"arg#1","klass":"java.lang.Object"},{"id":"1085638584","name":"arg#2","klass":"java.lang.Object"}],"returns":[{"id":"0","name":"return","klass":"java.lang.Object"}],"colors":{"heapLocToColor":{"1094845584":[0],"1093349608":[0, 1],"1094845544":[0],"1094062752":[1],"sdaReg13":[1, 8],"1093233072.<java.util.TreeMap: int size>":[0],"sdaReg14":[1, 9],"sdaReg11":[1, 6],"sdaReg12":[1, 7],"1093514912":[0, 1],"1095193432":[0],"1085707192":[3],"sdaReg19":[1],"1096549720":[13],"sdaReg17":[13],"sdaReg18":[0],"sdaReg15":[1, 10],"sdaReg16":[3, 12],"1096549640.<java.util.TreeMap$Node: java.util.TreeMap$Node right>":[0],"sdaReg50":[13],"1085752200":[11],"1094588128.<java.util.TreeMap$Node: java.util.TreeMap$Node right>":[0],"1094588128.<java.util.TreeMap$Node: java.util.TreeMap$Node left>":[0],"1093233072":[0],"static.<java.util.TreeMap$2: int[] $SwitchMap$java$util$TreeMap$Relation>":[11],"sdaReg49":[18],"sdaReg48":[18],"static.<java.util.TreeMap: boolean $assertionsDisabled>":[14],"sdaReg44":[0],"1093719400":[0, 1],"sdaReg47":[17],"1085638584":[2],"sdaReg46":[17],"sdaReg41":[0],"sdaReg40":[0],"sdaReg43":[0],"1094845584.<java.util.TreeMap$Node: int height>":[0],"sdaReg42":[0],"1093351976":[0, 1],"1083970648":[0, 4],"1093233072.<java.util.TreeMap: java.util.TreeMap$Node root>":[0],"static.<java.util.TreeMap: java.util.Comparator NATURAL_ORDER>":[0, 4],"1096549640.<java.util.TreeMap$Node: java.util.TreeMap$Node parent>":[0],"1093356456":[0, 1],"1096549640.<java.util.TreeMap$Node: java.util.TreeMap$Node left>":[0],"1085752200.arrayIdx_int:3":[11],"sdaReg39":[0],"sdaReg38":[0],"1096549680":[0],"sdaReg31":[0],"1096549600.<java.util.TreeMap$Node: int height>":[0],"1093522768":[0, 1],"sdaReg36":[16],"sdaReg35":[16, 15],"sdaReg34":[15],"sdaReg33":[0],"sdaReg8":[1, 5],"1096265440":[0],"sdaReg9":[1, 5, 6, 7, 8, 9, 10],"sdaReg6":[1],"sdaReg7":[1],"sdaReg4":[1],"sdaReg5":[3],"1096549640":[0],"static.<java.util.TreeMap$Relation: java.util.TreeMap$Relation CREATE>":[3],"1093233072.<java.util.TreeMap: int modCount>":[0],"1096549600":[0],"sdaReg27":[0],"1094588128.<java.util.TreeMap$Node: java.util.TreeMap$Node parent>":[0],"sdaReg26":[0],"sdaReg29":[0],"1093944824":[0],"sdaReg3":[0],"sdaReg2":[2],"1096549680.<java.util.TreeMap$Node: java.util.TreeMap$Node parent>":[0],"sdaReg1":[1],"sdaReg0":[0],"sdaReg20":[13],"sdaReg23":[13],"sdaReg22":[13],"sdaReg25":[0],"1094588128":[0],"sdaReg24":[0]},"colorToColor":{"17":[0],"0":[17, 0, 16, 1, 5, 6, 7, 8, 9, 10, 13],"16":[0],"1":[1, 5, 6, 7, 8, 9, 10, 13],"2":[13],"18":[0],"13":[0],"15":[0]},"colorToLabel":{"0":"this","1":"arg#1","2":"arg#2","3":"<java.util.TreeMap$Relation: java.util.TreeMap$Relation CREATE>","4":"<java.util.TreeMap: java.util.Comparator NATURAL_ORDER>","11":"<java.util.TreeMap$2: int[] $SwitchMap$java$util$TreeMap$Relation>","14":"<java.util.TreeMap: boolean $assertionsDisabled>","19":"return"}}}

Generated Model
	this->arg#1
	arg#2->this
	arg#2->arg#1
	arg#1->this

