Scanning method <android.util.Base64: byte[] encode(byte[],int,int,int)>

All seen event types: StoreArrayRecord, SimpleAssignmentRecord, LoadInstanceRecord, MethodStartRecord, IfRecord, NewObjectRecord, StoreInstanceRecord, LoadStaticRecord, NewArrayRecord, BinaryOperationRecord, MethodCallRecord, MethodReturnRecord, SwitchRecord, LoadArrayRecord, MethodEndRecord, 
Ignored event types: SwitchRecord, IfRecord, 

JSON Encoded Analysis Data (for visualization):{"heapEdges":[{"step":0,"from":"1094156792","to":"sdaReg2","type":"model"},{"step":1,"from":"sdaReg2","to":"1094156792","type":"model"},{"step":2,"from":"sdaReg2","to":"1094156792","type":"model"},{"step":3,"from":"1094156792","to":"1094156792.<android.util.Base64$Encoder: boolean do_padding>","type":"load","field":"<android.util.Base64$Encoder: boolean do_padding>"},{"step":4,"from":"1094156792","to":"1094156792.<android.util.Base64$Encoder: boolean do_newline>","type":"load","field":"<android.util.Base64$Encoder: boolean do_newline>"},{"step":5,"from":"1094156792","to":"1093795176","type":"create","field":"<android.util.Base64$Coder: byte[] output>"},{"step":6,"from":"1094156792","to":"1093738224","type":"load","field":"<android.util.Base64$Encoder: byte[] alphabet>"},{"step":7,"from":"1094156792","to":"1094156792.<android.util.Base64$Encoder: int count>","type":"load","field":"<android.util.Base64$Encoder: int count>"},{"step":8,"from":"1094156792","to":"1094156792.<android.util.Base64$Encoder: int tailLen>","type":"load","field":"<android.util.Base64$Encoder: int tailLen>"},{"step":9,"from":"1094156792","to":"1094156792.<android.util.Base64$Encoder: int tailLen>","type":"load","field":"<android.util.Base64$Encoder: int tailLen>"},{"step":10,"from":"1094156792","to":"1094156792.<android.util.Base64$Encoder: int tailLen>","type":"load","field":"<android.util.Base64$Encoder: int tailLen>"},{"step":11,"from":"1093675480","to":"1093675480.arrayIdx_int:0","type":"load","field":"arrayIdx_int:0"},{"step":12,"from":"1094156792","to":"1094156792.<android.util.Base64$Encoder: int tailLen>","type":"load","field":"<android.util.Base64$Encoder: int tailLen>"},{"step":13,"from":"sdaReg22","to":"1094156792","type":"store","field":"<android.util.Base64$Encoder: int tailLen>"},{"step":14,"from":"1093738224","to":"1093738224.arrayIdx_int:24","type":"load","field":"arrayIdx_int:24"},{"step":15,"from":"1093738224.arrayIdx_int:24","to":"1093795176","type":"store","field":"arrayIdx_int:0"},{"step":16,"from":"1093738224","to":"1093738224.arrayIdx_int:16","type":"load","field":"arrayIdx_int:16"},{"step":17,"from":"1093738224.arrayIdx_int:16","to":"1093795176","type":"store","field":"arrayIdx_int:1"},{"step":18,"from":"1094156792","to":"1094156792.<android.util.Base64$Encoder: boolean do_padding>","type":"load","field":"<android.util.Base64$Encoder: boolean do_padding>"},{"step":19,"from":"1094156792","to":"1094156792.<android.util.Base64$Encoder: boolean do_newline>","type":"load","field":"<android.util.Base64$Encoder: boolean do_newline>"},{"step":20,"from":"static.<android.util.Base64$Encoder: boolean $assertionsDisabled>","to":"static.<android.util.Base64$Encoder: boolean $assertionsDisabled>","type":"load","field":"<android.util.Base64$Encoder: boolean $assertionsDisabled>"},{"step":21,"from":"static.<android.util.Base64$Encoder: boolean $assertionsDisabled>","to":"static.<android.util.Base64$Encoder: boolean $assertionsDisabled>","type":"load","field":"<android.util.Base64$Encoder: boolean $assertionsDisabled>"},{"step":22,"from":"sdaReg11","to":"1094156792","type":"store","field":"<android.util.Base64$Coder: int op>"},{"step":23,"from":"1094156792.<android.util.Base64$Encoder: int count>","to":"1094156792","type":"store","field":"<android.util.Base64$Encoder: int count>"},{"step":24,"from":"static.<android.util.Base64: boolean $assertionsDisabled>","to":"static.<android.util.Base64: boolean $assertionsDisabled>","type":"load","field":"<android.util.Base64: boolean $assertionsDisabled>"}],"parameters":[{"id":"1093675480","name":"arg#0","klass":"byte[]"},{"id":"sdaReg0","name":"arg#1","klass":"int"},{"id":"sdaReg1","name":"arg#2","klass":"int"},{"id":"sdaReg2","name":"arg#3","klass":"int"}],"returns":[{"id":"1093795176","name":"return","klass":"byte[]"}],"colors":{"heapLocToColor":{"1094156792.<android.util.Base64$Encoder: int count>":[4],"1094156792.<android.util.Base64$Encoder: int tailLen>":[4],"1093738224.arrayIdx_int:24":[4],"sdaReg13":[1, 2],"sdaReg12":[1],"sdaReg19":[1],"1093675480.arrayIdx_int:0":[0],"1094156792.<android.util.Base64$Encoder: boolean do_newline>":[4],"static.<android.util.Base64: boolean $assertionsDisabled>":[7],"sdaReg17":[1, 2],"sdaReg15":[1],"sdaReg16":[1, 4],"static.<android.util.Base64$Encoder: boolean $assertionsDisabled>":[6],"sdaReg8":[4],"sdaReg9":[0],"sdaReg6":[2],"sdaReg7":[2],"sdaReg4":[4],"sdaReg5":[2],"1093738224.arrayIdx_int:16":[4],"1094156792":[4],"1094156792.<android.util.Base64$Encoder: boolean do_padding>":[4],"sdaReg26":[0],"1093675480":[0],"1093795176":[5],"sdaReg3":[4],"sdaReg2":[3, 4],"sdaReg21":[0],"sdaReg1":[2],"sdaReg20":[0],"sdaReg0":[1],"1093738224":[4],"sdaReg22":[4],"sdaReg25":[0],"sdaReg24":[0]},"colorToColor":{"3":[4],"4":[4, 5],"5":[4, 8]},"colorToLabel":{"0":"arg#0","1":"arg#1","2":"arg#2","3":"arg#3","6":"<android.util.Base64$Encoder: boolean $assertionsDisabled>","7":"<android.util.Base64: boolean $assertionsDisabled>","8":"return"}}}

Generated Model
	arg#3->return

