Scanning method <java.util.Arrays$ArrayList: int size()>

All seen event types: ArrayLengthRecord, LoadInstanceRecord, 
Ignored event types: 

JSON Encoded Analysis Data (for visualization):{"heapEdges":[{"step":0,"from":"1093642824","to":"1093642760","type":"load","field":"<java.util.Arrays$ArrayList: java.lang.Object[] a>"}],"parameters":[{"id":"1093642824","name":"this","klass":"java.util.Arrays$ArrayList"}],"returns":[{"id":"sdaReg0","name":"return","klass":"int"}],"colors":{"heapLocToColor":{"1093642760":[0],"1093642824":[0]},"colorToColor":{},"colorToLabel":{"0":"this","1":"return"}}}

Generated Model

