Scanning method <android.util.Base64: java.lang.String encodeToString(byte[],int,int,int)>

All seen event types: StoreArrayRecord, SimpleAssignmentRecord, MethodStartRecord, LoadInstanceRecord, IfRecord, NewObjectRecord, StoreInstanceRecord, LoadStaticRecord, NewArrayRecord, BinaryOperationRecord, MethodCallRecord, MethodReturnRecord, SwitchRecord, LoadArrayRecord, MethodEndRecord, 
Ignored event types: SwitchRecord, IfRecord, 

JSON Encoded Analysis Data (for visualization):{"heapEdges":[{"step":0,"from":"1094276432","to":"sdaReg2","type":"model"},{"step":1,"from":"sdaReg2","to":"1094276432","type":"model"},{"step":2,"from":"sdaReg2","to":"1094276432","type":"model"},{"step":3,"from":"1094276432","to":"1094276432.<android.util.Base64$Encoder: boolean do_padding>","type":"load","field":"<android.util.Base64$Encoder: boolean do_padding>"},{"step":4,"from":"1094276432","to":"1094276432.<android.util.Base64$Encoder: boolean do_newline>","type":"load","field":"<android.util.Base64$Encoder: boolean do_newline>"},{"step":5,"from":"1094276432","to":"1094276432.<android.util.Base64$Encoder: boolean do_cr>","type":"load","field":"<android.util.Base64$Encoder: boolean do_cr>"},{"step":6,"from":"1094276432","to":"1094077640","type":"create","field":"<android.util.Base64$Coder: byte[] output>"},{"step":7,"from":"1094276432","to":"1093831448","type":"load","field":"<android.util.Base64$Encoder: byte[] alphabet>"},{"step":8,"from":"1094276432","to":"1094276432.<android.util.Base64$Encoder: int count>","type":"load","field":"<android.util.Base64$Encoder: int count>"},{"step":9,"from":"1094276432","to":"1094276432.<android.util.Base64$Encoder: int tailLen>","type":"load","field":"<android.util.Base64$Encoder: int tailLen>"},{"step":10,"from":"1093560192","to":"1093560192.arrayIdx_int:0","type":"load","field":"arrayIdx_int:0"},{"step":11,"from":"1093560192","to":"1093560192.arrayIdx_int:1","type":"load","field":"arrayIdx_int:1"},{"step":12,"from":"1093560192","to":"1093560192.arrayIdx_int:2","type":"load","field":"arrayIdx_int:2"},{"step":13,"from":"1093831448","to":"1093831448.arrayIdx_int:63","type":"load","field":"arrayIdx_int:63"},{"step":14,"from":"1093831448.arrayIdx_int:63","to":"1094077640","type":"store","field":"arrayIdx_int:0"},{"step":15,"from":"1093831448","to":"1093831448.arrayIdx_int:62","type":"load","field":"arrayIdx_int:62"},{"step":16,"from":"1093831448.arrayIdx_int:62","to":"1094077640","type":"store","field":"arrayIdx_int:1"},{"step":17,"from":"1093831448","to":"1093831448.arrayIdx_int:59","type":"load","field":"arrayIdx_int:59"},{"step":18,"from":"1093831448.arrayIdx_int:59","to":"1094077640","type":"store","field":"arrayIdx_int:2"},{"step":19,"from":"1093831448","to":"1093831448.arrayIdx_int:29","type":"load","field":"arrayIdx_int:29"},{"step":20,"from":"1093831448.arrayIdx_int:29","to":"1094077640","type":"store","field":"arrayIdx_int:3"},{"step":21,"from":"1094276432","to":"1094276432.<android.util.Base64$Encoder: int tailLen>","type":"load","field":"<android.util.Base64$Encoder: int tailLen>"},{"step":22,"from":"1094276432","to":"1094276432.<android.util.Base64$Encoder: int tailLen>","type":"load","field":"<android.util.Base64$Encoder: int tailLen>"},{"step":23,"from":"1094276432","to":"1094276432.<android.util.Base64$Encoder: boolean do_newline>","type":"load","field":"<android.util.Base64$Encoder: boolean do_newline>"},{"step":24,"from":"1094276432","to":"1094276432.<android.util.Base64$Encoder: boolean do_cr>","type":"load","field":"<android.util.Base64$Encoder: boolean do_cr>"},{"step":25,"from":"1094077640","to":"sdaReg47","type":"create","field":"arrayIdx_int:4"},{"step":26,"from":"static.<android.util.Base64$Encoder: boolean $assertionsDisabled>","to":"static.<android.util.Base64$Encoder: boolean $assertionsDisabled>","type":"load","field":"<android.util.Base64$Encoder: boolean $assertionsDisabled>"},{"step":27,"from":"static.<android.util.Base64$Encoder: boolean $assertionsDisabled>","to":"static.<android.util.Base64$Encoder: boolean $assertionsDisabled>","type":"load","field":"<android.util.Base64$Encoder: boolean $assertionsDisabled>"},{"step":28,"from":"sdaReg18","to":"1094276432","type":"store","field":"<android.util.Base64$Coder: int op>"},{"step":29,"from":"1094276432.<android.util.Base64$Encoder: int count>","to":"1094276432","type":"store","field":"<android.util.Base64$Encoder: int count>"},{"step":30,"from":"static.<android.util.Base64: boolean $assertionsDisabled>","to":"static.<android.util.Base64: boolean $assertionsDisabled>","type":"load","field":"<android.util.Base64: boolean $assertionsDisabled>"},{"step":31,"from":"1094077640","to":"sdaReg50","type":"model"}],"parameters":[{"id":"1093560192","name":"arg#0","klass":"byte[]"},{"id":"sdaReg0","name":"arg#1","klass":"int"},{"id":"sdaReg1","name":"arg#2","klass":"int"},{"id":"sdaReg2","name":"arg#3","klass":"int"}],"returns":[{"id":"sdaReg50","name":"return","klass":"string"}],"colors":{"heapLocToColor":{"sdaReg14":[2],"sdaReg11":[2],"sdaReg12":[2],"sdaReg10":[2],"sdaReg19":[1],"static.<android.util.Base64: boolean $assertionsDisabled>":[7],"1093831448":[4],"1094276432.<android.util.Base64$Encoder: boolean do_newline>":[4],"1093560192.arrayIdx_int:2":[0],"sdaReg15":[4],"1093560192.arrayIdx_int:1":[0],"sdaReg16":[0],"1093560192.arrayIdx_int:0":[0],"static.<android.util.Base64$Encoder: boolean $assertionsDisabled>":[6],"sdaReg50":[8],"1094276432.<android.util.Base64$Encoder: int count>":[4],"sdaReg49":[5],"sdaReg45":[1, 2],"sdaReg44":[1, 4],"1094077640":[5],"1094276432.<android.util.Base64$Encoder: boolean do_cr>":[4],"sdaReg41":[0],"1093831448.arrayIdx_int:59":[4],"sdaReg43":[1, 2],"sdaReg42":[1, 4],"1093831448.arrayIdx_int:62":[4],"1093831448.arrayIdx_int:29":[4],"sdaReg39":[0],"sdaReg38":[0],"1094276432":[4],"sdaReg32":[0],"sdaReg31":[0],"sdaReg30":[0],"1093831448.arrayIdx_int:63":[4],"sdaReg36":[0],"1093560192":[0],"sdaReg35":[0],"sdaReg33":[0],"sdaReg8":[2],"sdaReg9":[2],"1094276432.<android.util.Base64$Encoder: boolean do_padding>":[4],"sdaReg6":[2],"sdaReg7":[2],"sdaReg4":[4],"sdaReg5":[4],"1094276432.<android.util.Base64$Encoder: int tailLen>":[4],"sdaReg27":[0],"sdaReg26":[0],"sdaReg29":[1],"sdaReg28":[0],"sdaReg3":[0],"sdaReg2":[3, 4],"sdaReg1":[2],"sdaReg0":[1],"sdaReg20":[1, 2],"sdaReg23":[0],"sdaReg22":[1],"sdaReg25":[1],"sdaReg24":[0]},"colorToColor":{"3":[4],"4":[4, 5],"5":[4, 8],"8":[9]},"colorToLabel":{"0":"arg#0","1":"arg#1","2":"arg#2","3":"arg#3","6":"<android.util.Base64$Encoder: boolean $assertionsDisabled>","7":"<android.util.Base64: boolean $assertionsDisabled>","9":"return"}}}

Generated Model
	arg#3->return

