Scanning method <java.util.Formatter$FormatToken: void setConversionType(char)>

All seen event types: StoreInstanceRecord, 
Ignored event types: 

JSON Encoded Analysis Data (for visualization):{"heapEdges":[{"step":0,"from":"sdaReg0","to":"1093230024","type":"store","field":"<java.util.Formatter$FormatToken: char conversionType>"}],"parameters":[{"id":"1093230024","name":"this","klass":"java.util.Formatter$FormatToken"},{"id":"sdaReg0","name":"arg#1","klass":"char"}],"returns":[{"id":null,"name":"return","klass":null}],"colors":{"heapLocToColor":{"sdaReg0":[1],"1093230024":[0]},"colorToColor":{"1":[0]},"colorToLabel":{"0":"this","1":"arg#1","2":"return"}}}

Generated Model
	arg#1->this

