Scanning method <android.util.Base64: byte[] decode(byte[],int,int,int)>

All seen event types: StoreArrayRecord, SimpleAssignmentRecord, MethodStartRecord, LoadInstanceRecord, IfRecord, NewObjectRecord, StoreInstanceRecord, NewArrayRecord, LoadStaticRecord, BinaryOperationRecord, SwitchRecord, MethodCallRecord, MethodReturnRecord, ArrayLengthRecord, CastRecord, LoadArrayRecord, MethodEndRecord, 
Ignored event types: SwitchRecord, IfRecord, 

JSON Encoded Analysis Data (for visualization):{"heapEdges":[{"step":0,"from":"1094058456","to":"1094058488","type":"create","field":"<android.util.Base64$Coder: byte[] output>"},{"step":1,"from":"static.<android.util.Base64$Decoder: int[] DECODE_WEBSAFE>","to":"1093755832","type":"load","field":"<android.util.Base64$Decoder: int[] DECODE_WEBSAFE>"},{"step":2,"from":"1093755832","to":"1094058456","type":"store","field":"<android.util.Base64$Decoder: int[] alphabet>"},{"step":3,"from":"1094058456","to":"sdaReg11","type":"create","field":"<android.util.Base64$Decoder: int state>"},{"step":4,"from":"1094058456","to":"sdaReg12","type":"create","field":"<android.util.Base64$Decoder: int value>"},{"step":5,"from":"1094040392","to":"1094040392.arrayIdx_int:0","type":"load","field":"arrayIdx_int:0"},{"step":6,"from":"1093755832","to":"1093755832.arrayIdx_int:95","type":"load","field":"arrayIdx_int:95"},{"step":7,"from":"1094040392","to":"1094040392.arrayIdx_int:1","type":"load","field":"arrayIdx_int:1"},{"step":8,"from":"1093755832","to":"1093755832.arrayIdx_int:119","type":"load","field":"arrayIdx_int:119"},{"step":9,"from":"1094040392","to":"1094040392.arrayIdx_int:2","type":"load","field":"arrayIdx_int:2"},{"step":10,"from":"1093755832","to":"1093755832.arrayIdx_int:61","type":"load","field":"arrayIdx_int:61"},{"step":11,"from":"1094040392","to":"1094040392.arrayIdx_int:3","type":"load","field":"arrayIdx_int:3"},{"step":12,"from":"1093755832","to":"1093755832.arrayIdx_int:61","type":"load","field":"arrayIdx_int:61"},{"step":13,"from":"1094040392","to":"1094040392.arrayIdx_int:0","type":"load","field":"arrayIdx_int:0"},{"step":14,"from":"1093755832","to":"1093755832.arrayIdx_int:95","type":"load","field":"arrayIdx_int:95"},{"step":15,"from":"1094040392","to":"1094040392.arrayIdx_int:1","type":"load","field":"arrayIdx_int:1"},{"step":16,"from":"1093755832","to":"1093755832.arrayIdx_int:119","type":"load","field":"arrayIdx_int:119"},{"step":17,"from":"1094040392","to":"1094040392.arrayIdx_int:2","type":"load","field":"arrayIdx_int:2"},{"step":18,"from":"1093755832","to":"1093755832.arrayIdx_int:61","type":"load","field":"arrayIdx_int:61"},{"step":19,"from":"sdaReg42","to":"1094058488","type":"store","field":"arrayIdx_int:0"},{"step":20,"from":"1094040392","to":"1094040392.arrayIdx_int:3","type":"load","field":"arrayIdx_int:3"},{"step":21,"from":"1093755832","to":"1093755832.arrayIdx_int:61","type":"load","field":"arrayIdx_int:61"},{"step":22,"from":"sdaReg38","to":"1094058456","type":"store","field":"<android.util.Base64$Decoder: int state>"},{"step":23,"from":"sdaReg20","to":"1094058456","type":"store","field":"<android.util.Base64$Coder: int op>"},{"step":24,"from":"1094058488","to":"1094098848","type":"model"}],"parameters":[{"id":"1094040392","name":"arg#0","klass":"byte[]"},{"id":"sdaReg0","name":"arg#1","klass":"int"},{"id":"sdaReg1","name":"arg#2","klass":"int"},{"id":"sdaReg2","name":"arg#3","klass":"int"}],"returns":[{"id":"1094098848","name":"return","klass":"byte[]"}],"colors":{"heapLocToColor":{"1093755832.arrayIdx_int:119":[6],"sdaReg13":[4],"sdaReg14":[4],"sdaReg10":[3],"sdaReg19":[1, 2],"sdaReg18":[1],"sdaReg15":[4],"sdaReg16":[0],"1094058488":[5],"static.<android.util.Base64$Decoder: int[] DECODE_WEBSAFE>":[6],"1093755832.arrayIdx_int:61":[6],"sdaReg41":[6],"sdaReg42":[6],"1094058456":[4],"sdaReg39":[6],"sdaReg37":[0],"1093755832":[6],"sdaReg32":[1],"1094040392.arrayIdx_int:3":[0],"1094040392.arrayIdx_int:2":[0],"sdaReg31":[6],"sdaReg30":[6],"sdaReg36":[1],"1093755832.arrayIdx_int:95":[6],"sdaReg35":[6],"sdaReg34":[6],"1094040392":[0],"sdaReg33":[0],"sdaReg8":[4],"sdaReg9":[4],"1094040392.arrayIdx_int:0":[0],"sdaReg6":[5],"sdaReg7":[4],"1094040392.arrayIdx_int:1":[0],"sdaReg4":[2],"sdaReg5":[4],"sdaReg27":[6],"sdaReg26":[6],"sdaReg29":[0],"sdaReg28":[1],"sdaReg3":[2],"sdaReg2":[3],"sdaReg21":[1],"sdaReg1":[2],"sdaReg0":[1],"sdaReg23":[6],"1094098848":[7],"sdaReg22":[0],"sdaReg25":[0],"sdaReg24":[1]},"colorToColor":{"5":[4, 7],"6":[4, 5],"7":[8]},"colorToLabel":{"0":"arg#0","1":"arg#1","2":"arg#2","3":"arg#3","6":"<android.util.Base64$Decoder: int[] DECODE_WEBSAFE>","8":"return"}}}

Generated Model

