Scanning method <java.util.HashSet: java.util.Iterator iterator()>

All seen event types: BinaryOperationRecord, SimpleAssignmentRecord, MethodReturnRecord, MethodCallRecord, ArrayLengthRecord, MethodStartRecord, LoadInstanceRecord, LoadArrayRecord, MethodEndRecord, IfRecord, StoreInstanceRecord, NewObjectRecord, 
Ignored event types: IfRecord, 

JSON Encoded Analysis Data (for visualization):{"heapEdges":[{"step":0,"from":"1093582240","to":"1093582256","type":"load","field":"<java.util.HashSet: java.util.HashMap backingMap>"},{"step":1,"from":"1093582256","to":"1093661184","type":"store","field":"<java.util.HashMap$KeySet: java.util.HashMap this$0>"},{"step":2,"from":"1093582256","to":"1093661184","type":"create","field":"<java.util.HashMap: java.util.Set keySet>"},{"step":3,"from":"1093582256","to":"1093661200","type":"store","field":"<java.util.HashMap$KeyIterator: java.util.HashMap this$0>"},{"step":4,"from":"1093582256","to":"1093661200","type":"store","field":"<java.util.HashMap$HashIterator: java.util.HashMap this$0>"},{"step":5,"from":"1093582256","to":"1093582256.<java.util.HashMap: int modCount>","type":"load","field":"<java.util.HashMap: int modCount>"},{"step":6,"from":"1093582256.<java.util.HashMap: int modCount>","to":"1093661200","type":"store","field":"<java.util.HashMap$HashIterator: int expectedModCount>"},{"step":7,"from":"1093582256","to":"1093589448","type":"load","field":"<java.util.HashMap: java.util.HashMap$HashMapEntry[] table>"},{"step":8,"from":"1093661200","to":"1093661200.<java.util.HashMap$HashIterator: int nextIndex>","type":"load","field":"<java.util.HashMap$HashIterator: int nextIndex>"},{"step":9,"from":"1093661200","to":"1093661200.<java.util.HashMap$HashIterator: int nextIndex>","type":"load","field":"<java.util.HashMap$HashIterator: int nextIndex>"},{"step":10,"from":"sdaReg25","to":"1093661200","type":"store","field":"<java.util.HashMap$HashIterator: int nextIndex>"},{"step":11,"from":"sdaReg25","to":"1093661200","type":"store","field":"<java.util.HashMap$HashIterator: int nextIndex>"},{"step":12,"from":"sdaReg25","to":"1093661200","type":"store","field":"<java.util.HashMap$HashIterator: int nextIndex>"},{"step":13,"from":"sdaReg25","to":"1093661200","type":"store","field":"<java.util.HashMap$HashIterator: int nextIndex>"},{"step":14,"from":"1093589448","to":"1093639624","type":"load","field":"arrayIdx_int:3"},{"step":15,"from":"1093639624","to":"1093661200","type":"store","field":"<java.util.HashMap$HashIterator: java.util.HashMap$HashMapEntry nextEntry>"}],"parameters":[{"id":"1093582240","name":"this","klass":"java.util.HashSet"}],"returns":[{"id":"1093661200","name":"return","klass":"java.util.Iterator"}],"colors":{"heapLocToColor":{"1093582256.<java.util.HashMap: int modCount>":[0],"sdaReg13":[1],"sdaReg14":[1],"sdaReg11":[1],"sdaReg12":[1],"1093661200":[2],"sdaReg10":[1],"sdaReg32":[2],"1093582256":[0],"sdaReg31":[2],"sdaReg30":[2],"sdaReg19":[0],"sdaReg17":[0],"sdaReg18":[2],"1093661184":[1],"sdaReg15":[0],"sdaReg33":[2],"sdaReg16":[2],"1093639624":[0],"sdaReg8":[1],"sdaReg9":[1],"sdaReg6":[1],"sdaReg7":[1],"sdaReg4":[0],"1093661200.<java.util.HashMap$HashIterator: int nextIndex>":[2],"sdaReg5":[1],"sdaReg29":[2],"1093589448":[0],"sdaReg3":[1],"sdaReg2":[0],"sdaReg21":[0],"sdaReg1":[1],"sdaReg0":[0],"sdaReg20":[2],"sdaReg22":[2],"sdaReg25":[2],"1093582240":[0]},"colorToColor":{"0":[1, 2],"1":[0],"2":[2, 3]},"colorToLabel":{"0":"this","3":"return"}}}

Generated Model
	this->return

