Scanning method <java.io.FileWriter: void <init>(java.io.File,boolean)>

All seen event types: SimpleAssignmentRecord, MethodStartRecord, LoadInstanceRecord, IfRecord, NewObjectRecord, StoreInstanceRecord, LoadStaticRecord, NewArrayRecord, BinaryOperationRecord, MethodCallRecord, MethodReturnRecord, CastRecord, ArrayLengthRecord, LoadArrayRecord, MethodEndRecord, 
Ignored event types: IfRecord, 

JSON Encoded Analysis Data (for visualization):{"heapEdges":[{"step":0,"from":"1093280688","to":"1083966016","type":"create","field":"<java.io.FileOutputStream: dalvik.system.CloseGuard guard>"},{"step":1,"from":"static.<libcore.io.OsConstants: int O_WRONLY>","to":"static.<libcore.io.OsConstants: int O_WRONLY>","type":"load","field":"<libcore.io.OsConstants: int O_WRONLY>"},{"step":2,"from":"static.<libcore.io.OsConstants: int O_CREAT>","to":"static.<libcore.io.OsConstants: int O_CREAT>","type":"load","field":"<libcore.io.OsConstants: int O_CREAT>"},{"step":3,"from":"static.<libcore.io.OsConstants: int O_APPEND>","to":"static.<libcore.io.OsConstants: int O_APPEND>","type":"load","field":"<libcore.io.OsConstants: int O_APPEND>"},{"step":4,"from":"sdaReg6","to":"1093280688","type":"store","field":"<java.io.FileOutputStream: int mode>"},{"step":5,"from":"1093633328","to":"sdaReg7","type":"model"},{"step":6,"from":"sdaReg7","to":"1093444256","type":"model"},{"step":7,"from":"1093280688","to":"1093444256","type":"create","field":"<java.io.FileOutputStream: java.io.FileDescriptor fd>"},{"step":8,"from":"1093280688","to":"sdaReg9","type":"create","field":"<java.io.FileOutputStream: boolean shouldClose>"},{"step":9,"from":"static.<java.nio.charset.Charset: java.nio.charset.Charset DEFAULT_CHARSET>","to":"1084325896","type":"load","field":"<java.nio.charset.Charset: java.nio.charset.Charset DEFAULT_CHARSET>"},{"step":10,"from":"1093280656","to":"1093280688","type":"create","field":"<java.io.Writer: java.lang.Object lock>"},{"step":11,"from":"1093308608","to":"sdaReg34","type":"create","field":"<java.nio.Buffer: int mark>"},{"step":12,"from":"1093308608","to":"sdaReg35","type":"create","field":"<java.nio.Buffer: int position>"},{"step":13,"from":"1093308608","to":"sdaReg31","type":"create","field":"<java.nio.Buffer: int _elementSizeShift>"},{"step":14,"from":"1093308608","to":"sdaReg21","type":"create","field":"<java.nio.Buffer: int limit>"},{"step":15,"from":"sdaReg21","to":"1093308608","type":"store","field":"<java.nio.Buffer: int capacity>"},{"step":16,"from":"static.<java.nio.ByteOrder: java.nio.ByteOrder BIG_ENDIAN>","to":"1084339448","type":"load","field":"<java.nio.ByteOrder: java.nio.ByteOrder BIG_ENDIAN>"},{"step":17,"from":"1084339448","to":"1093308608","type":"store","field":"<java.nio.ByteBuffer: java.nio.ByteOrder order>"},{"step":18,"from":"1093308608","to":"1093609096","type":"create","field":"<java.nio.HeapByteBuffer: byte[] backingArray>"},{"step":19,"from":"1093308608","to":"sdaReg26","type":"create","field":"<java.nio.HeapByteBuffer: int offset>"},{"step":20,"from":"1093280656","to":"1093308608","type":"create","field":"<java.io.OutputStreamWriter: java.nio.ByteBuffer bytes>"},{"step":21,"from":"1093280688","to":"1093280656","type":"store","field":"<java.io.OutputStreamWriter: java.io.OutputStream out>"},{"step":22,"from":"1084325896","to":"1084325896.<java.nio.charset.CharsetICU: java.lang.String icuCanonicalName>","type":"load","field":"<java.nio.charset.CharsetICU: java.lang.String icuCanonicalName>"},{"step":23,"from":"1084325896.<java.nio.charset.CharsetICU: java.lang.String icuCanonicalName>","to":"sdaReg48","type":"model"},{"step":24,"from":"sdaReg48","to":"sdaReg49","type":"model"},{"step":25,"from":"sdaReg48","to":"sdaReg50","type":"model"},{"step":26,"from":"static.<java.nio.charset.CharsetEncoderICU: java.util.Map DEFAULT_REPLACEMENTS>","to":"1085689080","type":"load","field":"<java.nio.charset.CharsetEncoderICU: java.util.Map DEFAULT_REPLACEMENTS>"},{"step":27,"from":"1085689080","to":"1085689160","type":"load","field":"<java.util.HashMap: java.util.HashMap$HashMapEntry[] table>"},{"step":28,"from":"1085689160","to":"1085689200","type":"load","field":"arrayIdx_int:1"},{"step":29,"from":"1085689200","to":"1083986640","type":"load","field":"<java.util.HashMap$HashMapEntry: java.lang.Object key>"},{"step":30,"from":"1085689200","to":"1085689200.<java.util.HashMap$HashMapEntry: int hash>","type":"load","field":"<java.util.HashMap$HashMapEntry: int hash>"},{"step":31,"from":"1085689200","to":"1085689136","type":"load","field":"<java.util.HashMap$HashMapEntry: java.lang.Object value>"},{"step":32,"from":"1085689136","to":"1093285384","type":"model"},{"step":33,"from":"1084325896","to":"1093261200","type":"store","field":"<java.nio.charset.CharsetEncoder: java.nio.charset.Charset cs>"},{"step":34,"from":"sdaReg49","to":"1093261200","type":"store","field":"<java.nio.charset.CharsetEncoder: float averageBytesPerChar>"},{"step":35,"from":"sdaReg51","to":"1093261200","type":"store","field":"<java.nio.charset.CharsetEncoder: float maxBytesPerChar>"},{"step":36,"from":"1093261200","to":"sdaReg82","type":"create","field":"<java.nio.charset.CharsetEncoder: int status>"},{"step":37,"from":"static.<java.nio.charset.CodingErrorAction: java.nio.charset.CodingErrorAction REPORT>","to":"1084336272","type":"load","field":"<java.nio.charset.CodingErrorAction: java.nio.charset.CodingErrorAction REPORT>"},{"step":38,"from":"1084336272","to":"1093261200","type":"store","field":"<java.nio.charset.CharsetEncoder: java.nio.charset.CodingErrorAction malformedInputAction>"},{"step":39,"from":"static.<java.nio.charset.CodingErrorAction: java.nio.charset.CodingErrorAction REPORT>","to":"1084336272","type":"load","field":"<java.nio.charset.CodingErrorAction: java.nio.charset.CodingErrorAction REPORT>"},{"step":40,"from":"1084336272","to":"1093261200","type":"store","field":"<java.nio.charset.CharsetEncoder: java.nio.charset.CodingErrorAction unmappableCharacterAction>"},{"step":41,"from":"1093261200","to":"1093285384","type":"create","field":"<java.nio.charset.CharsetEncoder: byte[] replacementBytes>"},{"step":42,"from":"1093261200","to":"1093308888","type":"create","field":"<java.nio.charset.CharsetEncoderICU: int[] data>"},{"step":43,"from":"1093261200","to":"sdaReg84","type":"create","field":"<java.nio.charset.CharsetEncoderICU: long converterHandle>"},{"step":44,"from":"1093261200","to":"sdaReg85","type":"create","field":"<java.nio.charset.CharsetEncoderICU: char[] input>"},{"step":45,"from":"1093261200","to":"sdaReg86","type":"create","field":"<java.nio.charset.CharsetEncoderICU: byte[] output>"},{"step":46,"from":"1093261200","to":"sdaReg87","type":"create","field":"<java.nio.charset.CharsetEncoderICU: char[] allocatedInput>"},{"step":47,"from":"1093261200","to":"sdaReg88","type":"create","field":"<java.nio.charset.CharsetEncoderICU: byte[] allocatedOutput>"},{"step":48,"from":"sdaReg48","to":"1093261200","type":"store","field":"<java.nio.charset.CharsetEncoderICU: long converterHandle>"},{"step":49,"from":"static.<java.nio.charset.CodingErrorAction: java.nio.charset.CodingErrorAction REPORT>","to":"1084336272","type":"load","field":"<java.nio.charset.CodingErrorAction: java.nio.charset.CodingErrorAction REPORT>"},{"step":50,"from":"static.<java.nio.charset.CodingErrorAction: java.nio.charset.CodingErrorAction REPORT>","to":"1084336272","type":"load","field":"<java.nio.charset.CodingErrorAction: java.nio.charset.CodingErrorAction REPORT>"},{"step":51,"from":"sdaReg90","to":"sdaReg95","type":"model"},{"step":52,"from":"sdaReg90","to":"sdaReg99","type":"model"},{"step":53,"from":"sdaReg90","to":"1093285384","type":"model"},{"step":54,"from":"sdaReg90","to":"sdaReg102","type":"model"},{"step":55,"from":"sdaReg95","to":"sdaReg90","type":"model"},{"step":56,"from":"sdaReg95","to":"sdaReg99","type":"model"},{"step":57,"from":"sdaReg95","to":"1093285384","type":"model"},{"step":58,"from":"sdaReg95","to":"sdaReg102","type":"model"},{"step":59,"from":"sdaReg99","to":"sdaReg90","type":"model"},{"step":60,"from":"sdaReg99","to":"sdaReg95","type":"model"},{"step":61,"from":"sdaReg99","to":"1093285384","type":"model"},{"step":62,"from":"sdaReg99","to":"sdaReg102","type":"model"},{"step":63,"from":"1093285384","to":"sdaReg90","type":"model"},{"step":64,"from":"1093285384","to":"sdaReg95","type":"model"},{"step":65,"from":"1093285384","to":"sdaReg99","type":"model"},{"step":66,"from":"1093285384","to":"sdaReg102","type":"model"},{"step":67,"from":"sdaReg102","to":"1093261200","type":"store","field":"<java.nio.charset.CharsetEncoderICU: int ec>"},{"step":68,"from":"1093280656","to":"1093261200","type":"create","field":"<java.io.OutputStreamWriter: java.nio.charset.CharsetEncoder encoder>"},{"step":69,"from":"static.<java.nio.charset.CodingErrorAction: java.nio.charset.CodingErrorAction REPLACE>","to":"1084051696","type":"load","field":"<java.nio.charset.CodingErrorAction: java.nio.charset.CodingErrorAction REPLACE>"},{"step":70,"from":"1084051696","to":"1093261200","type":"store","field":"<java.nio.charset.CharsetEncoder: java.nio.charset.CodingErrorAction malformedInputAction>"},{"step":71,"from":"static.<java.nio.charset.CodingErrorAction: java.nio.charset.CodingErrorAction REPORT>","to":"1084336272","type":"load","field":"<java.nio.charset.CodingErrorAction: java.nio.charset.CodingErrorAction REPORT>"},{"step":72,"from":"static.<java.nio.charset.CodingErrorAction: java.nio.charset.CodingErrorAction IGNORE>","to":"1084016976","type":"load","field":"<java.nio.charset.CodingErrorAction: java.nio.charset.CodingErrorAction IGNORE>"},{"step":73,"from":"static.<java.nio.charset.CodingErrorAction: java.nio.charset.CodingErrorAction REPLACE>","to":"1084051696","type":"load","field":"<java.nio.charset.CodingErrorAction: java.nio.charset.CodingErrorAction REPLACE>"},{"step":74,"from":"static.<java.nio.charset.CodingErrorAction: java.nio.charset.CodingErrorAction REPORT>","to":"1084336272","type":"load","field":"<java.nio.charset.CodingErrorAction: java.nio.charset.CodingErrorAction REPORT>"},{"step":75,"from":"sdaReg116","to":"sdaReg121","type":"model"},{"step":76,"from":"sdaReg116","to":"sdaReg125","type":"model"},{"step":77,"from":"sdaReg116","to":"1093285384","type":"model"},{"step":78,"from":"sdaReg116","to":"sdaReg128","type":"model"},{"step":79,"from":"sdaReg121","to":"sdaReg116","type":"model"},{"step":80,"from":"sdaReg121","to":"sdaReg125","type":"model"},{"step":81,"from":"sdaReg121","to":"1093285384","type":"model"},{"step":82,"from":"sdaReg121","to":"sdaReg128","type":"model"},{"step":83,"from":"sdaReg125","to":"sdaReg116","type":"model"},{"step":84,"from":"sdaReg125","to":"sdaReg121","type":"model"},{"step":85,"from":"sdaReg125","to":"1093285384","type":"model"},{"step":86,"from":"sdaReg125","to":"sdaReg128","type":"model"},{"step":87,"from":"1093285384","to":"sdaReg116","type":"model"},{"step":88,"from":"1093285384","to":"sdaReg121","type":"model"},{"step":89,"from":"1093285384","to":"sdaReg125","type":"model"},{"step":90,"from":"1093285384","to":"sdaReg128","type":"model"},{"step":91,"from":"sdaReg128","to":"1093261200","type":"store","field":"<java.nio.charset.CharsetEncoderICU: int ec>"},{"step":92,"from":"static.<java.nio.charset.CodingErrorAction: java.nio.charset.CodingErrorAction REPLACE>","to":"1084051696","type":"load","field":"<java.nio.charset.CodingErrorAction: java.nio.charset.CodingErrorAction REPLACE>"},{"step":93,"from":"1084051696","to":"1093261200","type":"store","field":"<java.nio.charset.CharsetEncoder: java.nio.charset.CodingErrorAction unmappableCharacterAction>"},{"step":94,"from":"static.<java.nio.charset.CodingErrorAction: java.nio.charset.CodingErrorAction REPORT>","to":"1084336272","type":"load","field":"<java.nio.charset.CodingErrorAction: java.nio.charset.CodingErrorAction REPORT>"},{"step":95,"from":"static.<java.nio.charset.CodingErrorAction: java.nio.charset.CodingErrorAction IGNORE>","to":"1084016976","type":"load","field":"<java.nio.charset.CodingErrorAction: java.nio.charset.CodingErrorAction IGNORE>"},{"step":96,"from":"static.<java.nio.charset.CodingErrorAction: java.nio.charset.CodingErrorAction REPLACE>","to":"1084051696","type":"load","field":"<java.nio.charset.CodingErrorAction: java.nio.charset.CodingErrorAction REPLACE>"},{"step":97,"from":"static.<java.nio.charset.CodingErrorAction: java.nio.charset.CodingErrorAction REPORT>","to":"1084336272","type":"load","field":"<java.nio.charset.CodingErrorAction: java.nio.charset.CodingErrorAction REPORT>"},{"step":98,"from":"static.<java.nio.charset.CodingErrorAction: java.nio.charset.CodingErrorAction IGNORE>","to":"1084016976","type":"load","field":"<java.nio.charset.CodingErrorAction: java.nio.charset.CodingErrorAction IGNORE>"},{"step":99,"from":"static.<java.nio.charset.CodingErrorAction: java.nio.charset.CodingErrorAction REPLACE>","to":"1084051696","type":"load","field":"<java.nio.charset.CodingErrorAction: java.nio.charset.CodingErrorAction REPLACE>"},{"step":100,"from":"sdaReg136","to":"sdaReg141","type":"model"},{"step":101,"from":"sdaReg136","to":"sdaReg145","type":"model"},{"step":102,"from":"sdaReg136","to":"1093285384","type":"model"},{"step":103,"from":"sdaReg136","to":"sdaReg148","type":"model"},{"step":104,"from":"sdaReg141","to":"sdaReg136","type":"model"},{"step":105,"from":"sdaReg141","to":"sdaReg145","type":"model"},{"step":106,"from":"sdaReg141","to":"1093285384","type":"model"},{"step":107,"from":"sdaReg141","to":"sdaReg148","type":"model"},{"step":108,"from":"sdaReg145","to":"sdaReg136","type":"model"},{"step":109,"from":"sdaReg145","to":"sdaReg141","type":"model"},{"step":110,"from":"sdaReg145","to":"1093285384","type":"model"},{"step":111,"from":"sdaReg145","to":"sdaReg148","type":"model"},{"step":112,"from":"1093285384","to":"sdaReg136","type":"model"},{"step":113,"from":"1093285384","to":"sdaReg141","type":"model"},{"step":114,"from":"1093285384","to":"sdaReg145","type":"model"},{"step":115,"from":"1093285384","to":"sdaReg148","type":"model"},{"step":116,"from":"sdaReg148","to":"1093261200","type":"store","field":"<java.nio.charset.CharsetEncoderICU: int ec>"}],"parameters":[{"id":"1093280656","name":"this","klass":"java.io.FileWriter"},{"id":"1093633328","name":"arg#1","klass":"java.io.File"},{"id":"sdaReg0","name":"arg#2","klass":"boolean"}],"returns":[{"id":"1093280656","name":"return","klass":"java.io.FileWriter"}],"colors":{"heapLocToColor":{"static.<libcore.io.OsConstants: int O_APPEND>":[7],"sdaReg126":[21],"sdaReg127":[17, 20],"sdaReg128":[27],"1093280688":[3],"sdaReg68":[17, 20],"sdaReg69":[17, 20],"1085689200":[17],"sdaReg66":[17],"sdaReg67":[17],"sdaReg64":[18],"sdaReg65":[19],"sdaReg13":[10],"sdaReg72":[10],"sdaReg14":[0],"sdaReg71":[21],"sdaReg11":[0],"static.<java.nio.charset.CharsetEncoderICU: java.util.Map DEFAULT_REPLACEMENTS>":[17],"sdaReg70":[17, 20],"sdaReg12":[3],"sdaReg10":[3],"1093308888":[23],"sdaReg120":[25],"sdaReg19":[0],"sdaReg122":[21],"sdaReg17":[0],"sdaReg18":[3],"sdaReg124":[22],"sdaReg15":[3],"sdaReg123":[22],"sdaReg16":[10],"1085689200.<java.util.HashMap$HashMapEntry: int hash>":[17],"sdaReg117":[21],"sdaReg114":[25],"sdaReg115":[21],"sdaReg118":[21],"sdaReg119":[25],"1093633328":[1],"sdaReg78":[21],"sdaReg79":[15],"1085689080":[17],"sdaReg73":[17, 20],"sdaReg74":[21],"sdaReg75":[10],"sdaReg76":[17, 20],"sdaReg81":[16, 15],"sdaReg80":[16],"sdaReg83":[21],"1085689136":[17],"sdaReg113":[21],"sdaReg112":[25],"sdaReg111":[21],"sdaReg110":[21],"sdaReg107":[21],"sdaReg108":[14],"sdaReg109":[21],"sdaReg105":[21],"sdaReg106":[21],"1093444256":[9],"sdaReg89":[21],"sdaReg94":[22],"sdaReg93":[22],"sdaReg92":[21],"sdaReg91":[21],"1085689160":[17],"sdaReg100":[21],"sdaReg102":[24],"1084051696":[25],"static.<java.nio.charset.CodingErrorAction: java.nio.charset.CodingErrorAction REPLACE>":[25],"sdaReg101":[17, 20],"1083966016":[4],"1093308608":[11],"sdaReg96":[21],"sdaReg97":[22],"sdaReg98":[22],"1084339448":[13],"1084016976":[26],"sdaReg60":[18],"sdaReg61":[18],"1083986640":[17],"sdaReg59":[18],"sdaReg58":[18],"sdaReg57":[18],"sdaReg56":[18],"sdaReg55":[18],"static.<java.nio.ByteOrder: java.nio.ByteOrder BIG_ENDIAN>":[13],"sdaReg54":[18],"sdaReg53":[18],"sdaReg52":[17],"sdaReg51":[16],"sdaReg50":[16],"1093280656":[0],"1093609096":[12],"sdaReg152":[0],"static.<java.nio.charset.CodingErrorAction: java.nio.charset.CodingErrorAction IGNORE>":[26],"sdaReg151":[0],"sdaReg49":[15],"sdaReg48":[14],"1093285384":[17, 20],"sdaReg45":[10],"sdaReg44":[11],"static.<java.nio.charset.CodingErrorAction: java.nio.charset.CodingErrorAction REPORT>":[22],"1084325896.<java.nio.charset.CharsetICU: java.lang.String icuCanonicalName>":[10],"1084336272":[22],"sdaReg46":[10],"sdaReg41":[11],"sdaReg43":[11],"sdaReg42":[11],"sdaReg148":[28],"static.<java.nio.charset.Charset: java.nio.charset.Charset DEFAULT_CHARSET>":[10],"sdaReg147":[17, 20],"sdaReg143":[25],"sdaReg144":[25],"sdaReg38":[11],"sdaReg146":[21],"sdaReg37":[11],"sdaReg140":[25],"sdaReg142":[21],"sdaReg30":[11],"sdaReg36":[11],"sdaReg33":[11],"sdaReg8":[9],"static.<libcore.io.OsConstants: int O_WRONLY>":[5],"sdaReg6":[5, 6, 7],"sdaReg7":[1, 8],"sdaReg4":[4],"sdaReg5":[5, 6],"1084325896":[10],"sdaReg139":[25],"1093261200":[21],"sdaReg138":[21],"sdaReg137":[21],"sdaReg134":[25],"sdaReg27":[11],"sdaReg135":[21],"sdaReg132":[25],"sdaReg133":[21],"sdaReg28":[11],"sdaReg131":[21],"sdaReg3":[3],"sdaReg2":[1],"sdaReg1":[3],"sdaReg20":[0],"sdaReg0":[2],"sdaReg23":[11],"sdaReg22":[11],"sdaReg25":[12],"sdaReg24":[11],"static.<libcore.io.OsConstants: int O_CREAT>":[6]},"colorToColor":{"0":[29],"1":[9],"3":[0],"4":[3],"5":[3],"6":[3],"7":[3],"8":[9],"9":[3],"10":[21, 14],"11":[0],"12":[11],"13":[11],"14":[16, 21, 15],"15":[21],"17":[21, 24, 27, 28],"16":[21],"21":[0],"20":[21, 24, 27, 28],"23":[21],"22":[21],"25":[21],"24":[21],"27":[21],"28":[21]},"colorToLabel":{"0":"this","1":"arg#1","2":"arg#2","5":"<libcore.io.OsConstants: int O_WRONLY>","6":"<libcore.io.OsConstants: int O_CREAT>","7":"<libcore.io.OsConstants: int O_APPEND>","10":"<java.nio.charset.Charset: java.nio.charset.Charset DEFAULT_CHARSET>","13":"<java.nio.ByteOrder: java.nio.ByteOrder BIG_ENDIAN>","17":"<java.nio.charset.CharsetEncoderICU: java.util.Map DEFAULT_REPLACEMENTS>","22":"<java.nio.charset.CodingErrorAction: java.nio.charset.CodingErrorAction REPORT>","25":"<java.nio.charset.CodingErrorAction: java.nio.charset.CodingErrorAction REPLACE>","26":"<java.nio.charset.CodingErrorAction: java.nio.charset.CodingErrorAction IGNORE>","29":"return"}}}

Generated Model
	this->return
	arg#1->this
	arg#1->return

