Scanning method <java.io.ObjectInputStream: void discardData()>

All seen event types: BinaryOperationRecord, MethodReturnRecord, MethodCallRecord, CastRecord, MethodStartRecord, LoadInstanceRecord, LoadArrayRecord, MethodEndRecord, IfRecord, StoreInstanceRecord, 
Ignored event types: IfRecord, 

JSON Encoded Analysis Data (for visualization):{"heapEdges":[{"step":0,"from":"1093282712","to":"1093296136","type":"load","field":"<java.io.ObjectInputStream: java.io.InputStream emptyStream>"},{"step":1,"from":"1093296136","to":"1093282712","type":"store","field":"<java.io.ObjectInputStream: java.io.InputStream primitiveData>"},{"step":2,"from":"1093282712","to":"1093282712.<java.io.ObjectInputStream: boolean mustResolve>","type":"load","field":"<java.io.ObjectInputStream: boolean mustResolve>"},{"step":3,"from":"1093282712","to":"sdaReg0","type":"create","field":"<java.io.ObjectInputStream: boolean mustResolve>"},{"step":4,"from":"1093282712","to":"1093282712.<java.io.ObjectInputStream: boolean hasPushbackTC>","type":"load","field":"<java.io.ObjectInputStream: boolean hasPushbackTC>"},{"step":5,"from":"1093282712","to":"1093296224","type":"load","field":"<java.io.ObjectInputStream: java.io.DataInputStream input>"},{"step":6,"from":"1093296224","to":"1093608136","type":"load","field":"<java.io.FilterInputStream: java.io.InputStream in>"},{"step":7,"from":"1093608136","to":"1093608136.<java.io.ByteArrayInputStream: int pos>","type":"load","field":"<java.io.ByteArrayInputStream: int pos>"},{"step":8,"from":"1093608136","to":"1093608136.<java.io.ByteArrayInputStream: int count>","type":"load","field":"<java.io.ByteArrayInputStream: int count>"},{"step":9,"from":"1093608136","to":"1093608168","type":"load","field":"<java.io.ByteArrayInputStream: byte[] buf>"},{"step":10,"from":"1093608136","to":"1093608136.<java.io.ByteArrayInputStream: int pos>","type":"load","field":"<java.io.ByteArrayInputStream: int pos>"},{"step":11,"from":"sdaReg4","to":"1093608136","type":"store","field":"<java.io.ByteArrayInputStream: int pos>"},{"step":12,"from":"1093608168","to":"1093608168.arrayIdx_int:6","type":"load","field":"arrayIdx_int:6"},{"step":13,"from":"sdaReg6","to":"1093282712","type":"store","field":"<java.io.ObjectInputStream: byte pushbackTC>"},{"step":14,"from":"1093282712.<java.io.ObjectInputStream: boolean mustResolve>","to":"1093282712","type":"store","field":"<java.io.ObjectInputStream: boolean mustResolve>"}],"parameters":[{"id":"1093282712","name":"this","klass":"java.io.ObjectInputStream"}],"returns":[{"id":null,"name":"return","klass":null}],"colors":{"heapLocToColor":{"1093282712":[0],"1093608168.arrayIdx_int:6":[0],"sdaReg6":[0],"1093282712.<java.io.ObjectInputStream: boolean mustResolve>":[0],"sdaReg4":[0],"sdaReg5":[0],"1093296136":[0],"1093608136.<java.io.ByteArrayInputStream: int count>":[0],"1093608168":[0],"1093608136.<java.io.ByteArrayInputStream: int pos>":[0],"1093296224":[0],"1093608136":[0],"sdaReg3":[0],"sdaReg2":[0],"sdaReg1":[0],"1093282712.<java.io.ObjectInputStream: boolean hasPushbackTC>":[0]},"colorToColor":{"0":[0]},"colorToLabel":{"0":"this","1":"return"}}}

Generated Model

