Scanning method <android.text.Html: void withinBlockquote(java.lang.StringBuilder,android.text.Spanned,int,int)>

All seen event types: LoadStaticRecord, BinaryOperationRecord, SimpleAssignmentRecord, MethodReturnRecord, MethodCallRecord, ArrayLengthRecord, CastRecord, LoadInstanceRecord, MethodStartRecord, LoadArrayRecord, MethodEndRecord, IfRecord, 
Ignored event types: IfRecord, 

JSON Encoded Analysis Data (for visualization):{"heapEdges":[{"step":0,"from":"1093859008","to":"1093859008.<android.text.SpannableStringInternal: int mSpanCount>","type":"load","field":"<android.text.SpannableStringInternal: int mSpanCount>"},{"step":1,"from":"1093859008","to":"1093984448","type":"load","field":"<android.text.SpannableStringInternal: java.lang.Object[] mSpans>"},{"step":2,"from":"1093859008","to":"1093984472","type":"load","field":"<android.text.SpannableStringInternal: int[] mSpanData>"},{"step":3,"from":"1093859008","to":"1093859008.<android.text.SpannableStringInternal: int mSpanCount>","type":"load","field":"<android.text.SpannableStringInternal: int mSpanCount>"},{"step":4,"from":"1093859008","to":"1093984448","type":"load","field":"<android.text.SpannableStringInternal: java.lang.Object[] mSpans>"},{"step":5,"from":"1093859008","to":"1093984472","type":"load","field":"<android.text.SpannableStringInternal: int[] mSpanData>"},{"step":6,"from":"1084661656","to":"sdaReg26","type":"model"},{"step":7,"from":"static.<com.android.internal.util.ArrayUtils: java.lang.Object[] sCache>","to":"1084375760","type":"load","field":"<com.android.internal.util.ArrayUtils: java.lang.Object[] sCache>"},{"step":8,"from":"1084375760","to":"1093978752","type":"load","field":"arrayIdx_int:26"},{"step":9,"from":"1093978752","to":"1085374624","type":"model"},{"step":10,"from":"1085374624","to":"1084661656","type":"model"},{"step":11,"from":"1093859008","to":"1093859008.<android.text.SpannableStringInternal: java.lang.String mText>","type":"load","field":"<android.text.SpannableStringInternal: java.lang.String mText>"},{"step":12,"from":"1093859008.<android.text.SpannableStringInternal: java.lang.String mText>","to":"sdaReg45","type":"model"},{"step":13,"from":"sdaReg45","to":"1093992712","type":"model"},{"step":14,"from":"1093859008","to":"1093859008.<android.text.SpannableStringInternal: java.lang.String mText>","type":"load","field":"<android.text.SpannableStringInternal: java.lang.String mText>"},{"step":15,"from":"1093859008.<android.text.SpannableStringInternal: java.lang.String mText>","to":"sdaReg47","type":"model"},{"step":16,"from":"sdaReg47","to":"1093992712","type":"model"},{"step":17,"from":"1093859008","to":"1093859008.<android.text.SpannableStringInternal: java.lang.String mText>","type":"load","field":"<android.text.SpannableStringInternal: java.lang.String mText>"},{"step":18,"from":"1093859008.<android.text.SpannableStringInternal: java.lang.String mText>","to":"sdaReg49","type":"model"},{"step":19,"from":"sdaReg49","to":"1093992712","type":"model"},{"step":20,"from":"1093859008","to":"1093859008.<android.text.SpannableStringInternal: java.lang.String mText>","type":"load","field":"<android.text.SpannableStringInternal: java.lang.String mText>"},{"step":21,"from":"1093859008.<android.text.SpannableStringInternal: java.lang.String mText>","to":"sdaReg51","type":"model"},{"step":22,"from":"sdaReg51","to":"1093992712","type":"model"},{"step":23,"from":"1093859008","to":"1093859008.<android.text.SpannableStringInternal: java.lang.String mText>","type":"load","field":"<android.text.SpannableStringInternal: java.lang.String mText>"},{"step":24,"from":"1093859008.<android.text.SpannableStringInternal: java.lang.String mText>","to":"sdaReg53","type":"model"},{"step":25,"from":"sdaReg53","to":"1093992712","type":"model"},{"step":26,"from":"1093859008","to":"1093859008.<android.text.SpannableStringInternal: java.lang.String mText>","type":"load","field":"<android.text.SpannableStringInternal: java.lang.String mText>"},{"step":27,"from":"1093859008.<android.text.SpannableStringInternal: java.lang.String mText>","to":"sdaReg55","type":"model"},{"step":28,"from":"1093859008","to":"1093859008.<android.text.SpannableStringInternal: java.lang.String mText>","type":"load","field":"<android.text.SpannableStringInternal: java.lang.String mText>"},{"step":29,"from":"1093859008.<android.text.SpannableStringInternal: java.lang.String mText>","to":"sdaReg59","type":"model"},{"step":30,"from":"1093859008","to":"1093859008.<android.text.SpannableStringInternal: java.lang.String mText>","type":"load","field":"<android.text.SpannableStringInternal: java.lang.String mText>"},{"step":31,"from":"1093859008.<android.text.SpannableStringInternal: java.lang.String mText>","to":"sdaReg61","type":"model"},{"step":32,"from":"1093859008","to":"1093859008.<android.text.SpannableStringInternal: java.lang.String mText>","type":"load","field":"<android.text.SpannableStringInternal: java.lang.String mText>"},{"step":33,"from":"1093859008.<android.text.SpannableStringInternal: java.lang.String mText>","to":"sdaReg63","type":"model"},{"step":34,"from":"sdaReg63","to":"1093992712","type":"model"},{"step":35,"from":"1093859008","to":"1093859008.<android.text.SpannableStringInternal: java.lang.String mText>","type":"load","field":"<android.text.SpannableStringInternal: java.lang.String mText>"},{"step":36,"from":"1093859008.<android.text.SpannableStringInternal: java.lang.String mText>","to":"sdaReg65","type":"model"},{"step":37,"from":"sdaReg65","to":"1093992712","type":"model"},{"step":38,"from":"1093859008","to":"1093859008.<android.text.SpannableStringInternal: java.lang.String mText>","type":"load","field":"<android.text.SpannableStringInternal: java.lang.String mText>"},{"step":39,"from":"1093859008.<android.text.SpannableStringInternal: java.lang.String mText>","to":"sdaReg67","type":"model"},{"step":40,"from":"sdaReg67","to":"1093992712","type":"model"},{"step":41,"from":"1093859008","to":"1093859008.<android.text.SpannableStringInternal: java.lang.String mText>","type":"load","field":"<android.text.SpannableStringInternal: java.lang.String mText>"},{"step":42,"from":"1093859008.<android.text.SpannableStringInternal: java.lang.String mText>","to":"sdaReg69","type":"model"},{"step":43,"from":"sdaReg69","to":"1093992712","type":"model"},{"step":44,"from":"1093859008","to":"1093859008.<android.text.SpannableStringInternal: java.lang.String mText>","type":"load","field":"<android.text.SpannableStringInternal: java.lang.String mText>"},{"step":45,"from":"1093859008.<android.text.SpannableStringInternal: java.lang.String mText>","to":"sdaReg71","type":"model"},{"step":46,"from":"sdaReg71","to":"1093992712","type":"model"},{"step":47,"from":"sdaReg75","to":"1093992712","type":"model"}],"parameters":[{"id":"1093992712","name":"arg#0","klass":"java.lang.StringBuilder"},{"id":"1093859008","name":"arg#1","klass":"android.text.Spanned"},{"id":"sdaReg0","name":"arg#2","klass":"int"},{"id":"sdaReg1","name":"arg#3","klass":"int"}],"returns":[{"id":null,"name":"return","klass":null}],"colors":{"heapLocToColor":{"sdaReg60":[1],"sdaReg61":[1, 16],"1093859008.<android.text.SpannableStringInternal: int mSpanCount>":[1],"sdaReg68":[1],"sdaReg69":[1, 20],"sdaReg66":[1],"sdaReg67":[1, 19],"sdaReg64":[1],"sdaReg65":[1, 18],"sdaReg62":[1],"1093859008.<android.text.SpannableStringInternal: java.lang.String mText>":[1],"sdaReg63":[17, 1],"sdaReg71":[1, 21],"1093992712":[0],"sdaReg14":[1],"sdaReg70":[1],"sdaReg11":[2, 3, 4],"sdaReg12":[1],"sdaReg10":[1],"sdaReg59":[1, 15],"sdaReg58":[1],"sdaReg57":[2],"sdaReg56":[2],"sdaReg19":[1],"sdaReg55":[1, 14],"sdaReg54":[1],"sdaReg17":[1],"sdaReg53":[1, 13],"1093859008":[1],"sdaReg52":[1],"sdaReg51":[1, 12],"1093984448":[1],"sdaReg50":[1],"1093978752":[6],"1093859008.<android.text.SpannableStringInternal: int[] mSpanData>":[1],"1084661656":[6, 7, 8],"sdaReg49":[1, 11],"sdaReg48":[1],"sdaReg45":[1, 9],"sdaReg44":[1],"sdaReg47":[1, 10],"sdaReg46":[1],"sdaReg41":[0],"sdaReg43":[2],"sdaReg42":[1],"1093984472":[1],"static.<com.android.internal.util.ArrayUtils: java.lang.Object[] sCache>":[6],"1085374624":[6, 7],"sdaReg38":[6],"1084375760":[6],"sdaReg37":[6],"sdaReg31":[6, 7, 8],"sdaReg30":[6, 7],"sdaReg36":[6],"sdaReg35":[6],"sdaReg34":[6],"sdaReg9":[0],"sdaReg6":[3, 4],"sdaReg5":[2],"sdaReg27":[5],"sdaReg26":[5],"sdaReg29":[5],"sdaReg28":[5],"1093859008.<android.text.SpannableStringInternal: java.lang.Object[] mSpans>":[1],"sdaReg3":[3, 4],"sdaReg2":[2, 3, 4],"sdaReg1":[3],"sdaReg0":[2]},"colorToColor":{"17":[0],"1":[0],"19":[0],"18":[0],"21":[0],"20":[0],"9":[0],"10":[0],"11":[0],"12":[0],"13":[0]},"colorToLabel":{"0":"arg#0","1":"arg#1","2":"arg#2","3":"arg#3","6":"<com.android.internal.util.ArrayUtils: java.lang.Object[] sCache>","22":"return"}}}

Generated Model
	arg#1->arg#0

