Scanning method <android.text.Html: void withinBlockquote(java.lang.StringBuilder,android.text.Spanned,int,int)>

All seen event types: StoreArrayRecord, SimpleAssignmentRecord, MethodStartRecord, LoadInstanceRecord, IfRecord, InstanceOfRecord, LoadStaticRecord, BinaryOperationRecord, MethodCallRecord, MethodReturnRecord, CastRecord, ArrayLengthRecord, LoadArrayRecord, MethodEndRecord, 
Ignored event types: IfRecord, 

JSON Encoded Analysis Data (for visualization):{"heapEdges":[{"step":0,"from":"1093755096","to":"1093755096.<android.text.SpannableStringInternal: int mSpanCount>","type":"load","field":"<android.text.SpannableStringInternal: int mSpanCount>"},{"step":1,"from":"1093755096","to":"1093802704","type":"load","field":"<android.text.SpannableStringInternal: java.lang.Object[] mSpans>"},{"step":2,"from":"1093755096","to":"1094554136","type":"load","field":"<android.text.SpannableStringInternal: int[] mSpanData>"},{"step":3,"from":"1094554136","to":"1094554136.arrayIdx_int:0","type":"load","field":"arrayIdx_int:0"},{"step":4,"from":"1094554136","to":"1094554136.arrayIdx_int:1","type":"load","field":"arrayIdx_int:1"},{"step":5,"from":"1093802704","to":"1094287240","type":"load","field":"arrayIdx_int:0"},{"step":6,"from":"1093755096","to":"1093755096.<android.text.SpannableStringInternal: int mSpanCount>","type":"load","field":"<android.text.SpannableStringInternal: int mSpanCount>"},{"step":7,"from":"1093755096","to":"1093802704","type":"load","field":"<android.text.SpannableStringInternal: java.lang.Object[] mSpans>"},{"step":8,"from":"1093755096","to":"1094554136","type":"load","field":"<android.text.SpannableStringInternal: int[] mSpanData>"},{"step":9,"from":"1093802704","to":"1094287240","type":"load","field":"arrayIdx_int:0"},{"step":10,"from":"1094554136","to":"1094554136.arrayIdx_int:0","type":"load","field":"arrayIdx_int:0"},{"step":11,"from":"1094554136","to":"1094554136.arrayIdx_int:1","type":"load","field":"arrayIdx_int:1"},{"step":12,"from":"1084661656","to":"sdaReg36","type":"model"},{"step":13,"from":"static.<com.android.internal.util.ArrayUtils: java.lang.Object[] sCache>","to":"1084375760","type":"load","field":"<com.android.internal.util.ArrayUtils: java.lang.Object[] sCache>"},{"step":14,"from":"1084375760","to":"1093550768","type":"load","field":"arrayIdx_int:26"},{"step":15,"from":"1093550768","to":"1085374624","type":"model"},{"step":16,"from":"1085374624","to":"1084661656","type":"model"},{"step":17,"from":"1093755096","to":"1093755096.<android.text.SpannableStringInternal: java.lang.String mText>","type":"load","field":"<android.text.SpannableStringInternal: java.lang.String mText>"},{"step":18,"from":"1093755096.<android.text.SpannableStringInternal: java.lang.String mText>","to":"sdaReg55","type":"model"},{"step":19,"from":"sdaReg55","to":"1093471344","type":"model"},{"step":20,"from":"1093755096","to":"1093755096.<android.text.SpannableStringInternal: java.lang.String mText>","type":"load","field":"<android.text.SpannableStringInternal: java.lang.String mText>"},{"step":21,"from":"1093755096.<android.text.SpannableStringInternal: java.lang.String mText>","to":"sdaReg57","type":"model"},{"step":22,"from":"sdaReg57","to":"1093471344","type":"model"},{"step":23,"from":"1093755096","to":"1093755096.<android.text.SpannableStringInternal: java.lang.String mText>","type":"load","field":"<android.text.SpannableStringInternal: java.lang.String mText>"},{"step":24,"from":"1093755096.<android.text.SpannableStringInternal: java.lang.String mText>","to":"sdaReg59","type":"model"},{"step":25,"from":"sdaReg59","to":"1093471344","type":"model"},{"step":26,"from":"1093755096","to":"1093755096.<android.text.SpannableStringInternal: java.lang.String mText>","type":"load","field":"<android.text.SpannableStringInternal: java.lang.String mText>"},{"step":27,"from":"1093755096.<android.text.SpannableStringInternal: java.lang.String mText>","to":"sdaReg61","type":"model"},{"step":28,"from":"sdaReg61","to":"1093471344","type":"model"},{"step":29,"from":"1093755096","to":"1093755096.<android.text.SpannableStringInternal: java.lang.String mText>","type":"load","field":"<android.text.SpannableStringInternal: java.lang.String mText>"},{"step":30,"from":"1093755096.<android.text.SpannableStringInternal: java.lang.String mText>","to":"sdaReg63","type":"model"},{"step":31,"from":"sdaReg63","to":"1093471344","type":"model"},{"step":32,"from":"1093755096","to":"1093755096.<android.text.SpannableStringInternal: java.lang.String mText>","type":"load","field":"<android.text.SpannableStringInternal: java.lang.String mText>"},{"step":33,"from":"1093755096.<android.text.SpannableStringInternal: java.lang.String mText>","to":"sdaReg65","type":"model"},{"step":34,"from":"1093755096","to":"1093755096.<android.text.SpannableStringInternal: int mSpanCount>","type":"load","field":"<android.text.SpannableStringInternal: int mSpanCount>"},{"step":35,"from":"1093755096","to":"1093802704","type":"load","field":"<android.text.SpannableStringInternal: java.lang.Object[] mSpans>"},{"step":36,"from":"1093755096","to":"1094554136","type":"load","field":"<android.text.SpannableStringInternal: int[] mSpanData>"},{"step":37,"from":"1094554136","to":"1094554136.arrayIdx_int:0","type":"load","field":"arrayIdx_int:0"},{"step":38,"from":"1094554136","to":"1094554136.arrayIdx_int:1","type":"load","field":"arrayIdx_int:1"},{"step":39,"from":"1093802704","to":"1094287240","type":"load","field":"arrayIdx_int:0"},{"step":40,"from":"1093755096","to":"1093755096.<android.text.SpannableStringInternal: int mSpanCount>","type":"load","field":"<android.text.SpannableStringInternal: int mSpanCount>"},{"step":41,"from":"1093755096","to":"1093802704","type":"load","field":"<android.text.SpannableStringInternal: java.lang.Object[] mSpans>"},{"step":42,"from":"1093755096","to":"1094554136","type":"load","field":"<android.text.SpannableStringInternal: int[] mSpanData>"},{"step":43,"from":"1093802704","to":"1094287240","type":"load","field":"arrayIdx_int:0"},{"step":44,"from":"1094554136","to":"1094554136.arrayIdx_int:0","type":"load","field":"arrayIdx_int:0"},{"step":45,"from":"1094554136","to":"1094554136.arrayIdx_int:1","type":"load","field":"arrayIdx_int:1"},{"step":46,"from":"1093802704","to":"1094287240","type":"load","field":"arrayIdx_int:0"},{"step":47,"from":"1094287240","to":"1094618000","type":"store","field":"arrayIdx_int:0"},{"step":48,"from":"1093755096","to":"1093755096.<android.text.SpannableStringInternal: java.lang.String mText>","type":"load","field":"<android.text.SpannableStringInternal: java.lang.String mText>"},{"step":49,"from":"1093755096.<android.text.SpannableStringInternal: java.lang.String mText>","to":"sdaReg114","type":"model"},{"step":50,"from":"sdaReg114","to":"1093471344","type":"model"},{"step":51,"from":"1093755096","to":"1093755096.<android.text.SpannableStringInternal: java.lang.String mText>","type":"load","field":"<android.text.SpannableStringInternal: java.lang.String mText>"},{"step":52,"from":"1093755096.<android.text.SpannableStringInternal: java.lang.String mText>","to":"sdaReg116","type":"model"},{"step":53,"from":"sdaReg116","to":"1093471344","type":"model"},{"step":54,"from":"1093755096","to":"1093755096.<android.text.SpannableStringInternal: java.lang.String mText>","type":"load","field":"<android.text.SpannableStringInternal: java.lang.String mText>"},{"step":55,"from":"1093755096.<android.text.SpannableStringInternal: java.lang.String mText>","to":"sdaReg118","type":"model"},{"step":56,"from":"sdaReg118","to":"1093471344","type":"model"},{"step":57,"from":"1093755096","to":"1093755096.<android.text.SpannableStringInternal: java.lang.String mText>","type":"load","field":"<android.text.SpannableStringInternal: java.lang.String mText>"},{"step":58,"from":"1093755096.<android.text.SpannableStringInternal: java.lang.String mText>","to":"sdaReg120","type":"model"},{"step":59,"from":"sdaReg120","to":"1093471344","type":"model"},{"step":60,"from":"1093755096","to":"1093755096.<android.text.SpannableStringInternal: java.lang.String mText>","type":"load","field":"<android.text.SpannableStringInternal: java.lang.String mText>"},{"step":61,"from":"1093755096.<android.text.SpannableStringInternal: java.lang.String mText>","to":"sdaReg122","type":"model"},{"step":62,"from":"sdaReg122","to":"1093471344","type":"model"},{"step":63,"from":"1093755096","to":"1093755096.<android.text.SpannableStringInternal: java.lang.String mText>","type":"load","field":"<android.text.SpannableStringInternal: java.lang.String mText>"},{"step":64,"from":"1093755096.<android.text.SpannableStringInternal: java.lang.String mText>","to":"sdaReg124","type":"model"},{"step":65,"from":"sdaReg124","to":"1093471344","type":"model"},{"step":66,"from":"1093755096","to":"1093755096.<android.text.SpannableStringInternal: java.lang.String mText>","type":"load","field":"<android.text.SpannableStringInternal: java.lang.String mText>"},{"step":67,"from":"1093755096.<android.text.SpannableStringInternal: java.lang.String mText>","to":"sdaReg126","type":"model"},{"step":68,"from":"sdaReg126","to":"1093471344","type":"model"},{"step":69,"from":"1093755096","to":"1093755096.<android.text.SpannableStringInternal: java.lang.String mText>","type":"load","field":"<android.text.SpannableStringInternal: java.lang.String mText>"},{"step":70,"from":"1093755096.<android.text.SpannableStringInternal: java.lang.String mText>","to":"sdaReg128","type":"model"},{"step":71,"from":"sdaReg128","to":"1093471344","type":"model"},{"step":72,"from":"1093755096","to":"1093755096.<android.text.SpannableStringInternal: java.lang.String mText>","type":"load","field":"<android.text.SpannableStringInternal: java.lang.String mText>"},{"step":73,"from":"1093755096.<android.text.SpannableStringInternal: java.lang.String mText>","to":"sdaReg130","type":"model"},{"step":74,"from":"sdaReg130","to":"1093471344","type":"model"},{"step":75,"from":"1093755096","to":"1093755096.<android.text.SpannableStringInternal: java.lang.String mText>","type":"load","field":"<android.text.SpannableStringInternal: java.lang.String mText>"},{"step":76,"from":"1093755096.<android.text.SpannableStringInternal: java.lang.String mText>","to":"sdaReg132","type":"model"},{"step":77,"from":"sdaReg132","to":"1093471344","type":"model"},{"step":78,"from":"1093755096","to":"1093755096.<android.text.SpannableStringInternal: java.lang.String mText>","type":"load","field":"<android.text.SpannableStringInternal: java.lang.String mText>"},{"step":79,"from":"1093755096.<android.text.SpannableStringInternal: java.lang.String mText>","to":"sdaReg134","type":"model"},{"step":80,"from":"sdaReg134","to":"1093471344","type":"model"},{"step":81,"from":"1093755096","to":"1093755096.<android.text.SpannableStringInternal: int mSpanCount>","type":"load","field":"<android.text.SpannableStringInternal: int mSpanCount>"},{"step":82,"from":"1093755096","to":"1093802704","type":"load","field":"<android.text.SpannableStringInternal: java.lang.Object[] mSpans>"},{"step":83,"from":"1093755096","to":"1094554136","type":"load","field":"<android.text.SpannableStringInternal: int[] mSpanData>"},{"step":84,"from":"1094554136","to":"1094554136.arrayIdx_int:0","type":"load","field":"arrayIdx_int:0"},{"step":85,"from":"1094554136","to":"1094554136.arrayIdx_int:1","type":"load","field":"arrayIdx_int:1"},{"step":86,"from":"1093755096","to":"1093755096.<android.text.SpannableStringInternal: int mSpanCount>","type":"load","field":"<android.text.SpannableStringInternal: int mSpanCount>"},{"step":87,"from":"1093755096","to":"1093802704","type":"load","field":"<android.text.SpannableStringInternal: java.lang.Object[] mSpans>"},{"step":88,"from":"1093755096","to":"1094554136","type":"load","field":"<android.text.SpannableStringInternal: int[] mSpanData>"},{"step":89,"from":"1093802704","to":"1094287240","type":"load","field":"arrayIdx_int:0"},{"step":90,"from":"1094554136","to":"1094554136.arrayIdx_int:0","type":"load","field":"arrayIdx_int:0"},{"step":91,"from":"1094554136","to":"1094554136.arrayIdx_int:1","type":"load","field":"arrayIdx_int:1"},{"step":92,"from":"1084661656","to":"sdaReg168","type":"model"},{"step":93,"from":"static.<com.android.internal.util.ArrayUtils: java.lang.Object[] sCache>","to":"1084375760","type":"load","field":"<com.android.internal.util.ArrayUtils: java.lang.Object[] sCache>"},{"step":94,"from":"1084375760","to":"1093550768","type":"load","field":"arrayIdx_int:26"},{"step":95,"from":"1093550768","to":"1085374624","type":"model"},{"step":96,"from":"1085374624","to":"1084661656","type":"model"},{"step":97,"from":"1093755096","to":"1093755096.<android.text.SpannableStringInternal: java.lang.String mText>","type":"load","field":"<android.text.SpannableStringInternal: java.lang.String mText>"},{"step":98,"from":"1093755096.<android.text.SpannableStringInternal: java.lang.String mText>","to":"sdaReg185","type":"model"},{"step":99,"from":"1093755096","to":"1093755096.<android.text.SpannableStringInternal: java.lang.String mText>","type":"load","field":"<android.text.SpannableStringInternal: java.lang.String mText>"},{"step":100,"from":"1093755096.<android.text.SpannableStringInternal: java.lang.String mText>","to":"sdaReg189","type":"model"},{"step":101,"from":"1093755096","to":"1093755096.<android.text.SpannableStringInternal: java.lang.String mText>","type":"load","field":"<android.text.SpannableStringInternal: java.lang.String mText>"},{"step":102,"from":"1093755096.<android.text.SpannableStringInternal: java.lang.String mText>","to":"sdaReg191","type":"model"},{"step":103,"from":"sdaReg191","to":"1093471344","type":"model"},{"step":104,"from":"1093755096","to":"1093755096.<android.text.SpannableStringInternal: java.lang.String mText>","type":"load","field":"<android.text.SpannableStringInternal: java.lang.String mText>"},{"step":105,"from":"1093755096.<android.text.SpannableStringInternal: java.lang.String mText>","to":"sdaReg193","type":"model"},{"step":106,"from":"sdaReg193","to":"1093471344","type":"model"},{"step":107,"from":"1093755096","to":"1093755096.<android.text.SpannableStringInternal: java.lang.String mText>","type":"load","field":"<android.text.SpannableStringInternal: java.lang.String mText>"},{"step":108,"from":"1093755096.<android.text.SpannableStringInternal: java.lang.String mText>","to":"sdaReg195","type":"model"},{"step":109,"from":"sdaReg195","to":"1093471344","type":"model"},{"step":110,"from":"1093755096","to":"1093755096.<android.text.SpannableStringInternal: java.lang.String mText>","type":"load","field":"<android.text.SpannableStringInternal: java.lang.String mText>"},{"step":111,"from":"1093755096.<android.text.SpannableStringInternal: java.lang.String mText>","to":"sdaReg197","type":"model"},{"step":112,"from":"sdaReg197","to":"1093471344","type":"model"},{"step":113,"from":"1093755096","to":"1093755096.<android.text.SpannableStringInternal: java.lang.String mText>","type":"load","field":"<android.text.SpannableStringInternal: java.lang.String mText>"},{"step":114,"from":"1093755096.<android.text.SpannableStringInternal: java.lang.String mText>","to":"sdaReg199","type":"model"},{"step":115,"from":"sdaReg199","to":"1093471344","type":"model"},{"step":116,"from":"sdaReg202","to":"1093471344","type":"model"}],"parameters":[{"id":"1093471344","name":"arg#0","klass":"java.lang.StringBuilder"},{"id":"1093755096","name":"arg#1","klass":"android.text.Spanned"},{"id":"sdaReg0","name":"arg#2","klass":"int"},{"id":"sdaReg1","name":"arg#3","klass":"int"}],"returns":[{"id":null,"name":"return","klass":null}],"colors":{"heapLocToColor":{"sdaReg191":[1, 35],"sdaReg125":[1],"sdaReg190":[1],"1093755096.<android.text.SpannableStringInternal: int[] mSpanData>":[1],"sdaReg126":[1, 26],"sdaReg193":[1, 36],"1093550768":[8],"sdaReg127":[1],"sdaReg192":[1],"sdaReg128":[1, 27],"sdaReg129":[1],"sdaReg199":[1, 39],"sdaReg198":[1],"1093755096.<android.text.SpannableStringInternal: int mSpanCount>":[1],"sdaReg69":[1],"sdaReg66":[2],"sdaReg195":[1, 37],"sdaReg64":[1],"sdaReg194":[1],"sdaReg65":[1, 16],"sdaReg197":[1, 38],"sdaReg62":[1],"sdaReg196":[1],"sdaReg63":[1, 15],"sdaReg72":[8, 9, 10],"sdaReg14":[1],"sdaReg71":[1],"sdaReg11":[1, 2, 3, 4],"sdaReg70":[8, 9, 10],"sdaReg12":[1],"sdaReg10":[1],"sdaReg120":[1, 23],"sdaReg122":[1, 24],"sdaReg121":[1],"sdaReg124":[1, 25],"sdaReg123":[1],"sdaReg116":[1, 21],"sdaReg117":[1],"sdaReg114":[1, 20],"sdaReg115":[1],"sdaReg118":[1, 22],"sdaReg119":[1],"sdaReg78":[17],"sdaReg79":[1],"sdaReg81":[1],"sdaReg80":[8, 9, 10],"1094554136":[1],"sdaReg82":[8, 9, 10],"1093755096":[1],"sdaReg113":[1],"sdaReg112":[1, 2, 3, 4],"sdaReg111":[1],"1094287240":[1],"sdaReg110":[0],"sdaReg171":[32],"sdaReg170":[32],"sdaReg173":[8, 9, 10],"static.<com.android.internal.util.ArrayUtils: java.lang.Object[] sCache>":[8],"sdaReg172":[8, 9],"sdaReg87":[18],"sdaReg175":[8],"sdaReg174":[8],"sdaReg177":[8],"sdaReg176":[8],"sdaReg179":[8],"1094554136.arrayIdx_int:0":[1],"sdaReg178":[8],"1094554136.arrayIdx_int:1":[1],"sdaReg94":[19],"sdaReg93":[19],"1093802704":[1],"sdaReg92":[19],"sdaReg182":[1],"sdaReg181":[0],"sdaReg186":[1, 2, 3, 4],"sdaReg95":[19],"sdaReg185":[1, 33],"sdaReg96":[19],"sdaReg184":[1],"sdaReg97":[19],"sdaReg183":[1, 2, 3, 4],"sdaReg189":[34, 1],"sdaReg188":[1],"sdaReg187":[1, 2, 3, 4],"sdaReg60":[1],"sdaReg61":[1, 14],"1084375760.arrayIdx_int:26":[8],"sdaReg169":[32],"sdaReg162":[31],"sdaReg167":[8, 9, 10],"sdaReg168":[32],"sdaReg59":[1, 13],"sdaReg58":[1],"sdaReg57":[1, 12],"sdaReg56":[1],"sdaReg55":[1, 11],"1093755096.<android.text.SpannableStringInternal: java.lang.String mText>":[1],"sdaReg54":[1],"sdaReg53":[2],"sdaReg52":[1],"sdaReg51":[0],"1093802704.arrayIdx_int:0":[1],"1084661656":[8, 9, 10],"sdaReg156":[1],"sdaReg157":[8, 9, 10],"sdaReg48":[19, 8],"sdaReg154":[1],"sdaReg155":[8, 9, 10],"sdaReg45":[8],"sdaReg44":[8],"sdaReg47":[8],"1094618000":[19],"sdaReg46":[8],"sdaReg41":[8, 9, 10],"sdaReg40":[8, 9],"sdaReg148":[8, 9, 10],"sdaReg147":[1],"1085374624":[8, 9],"sdaReg39":[7],"sdaReg145":[1],"sdaReg38":[7],"sdaReg146":[8, 9, 10],"1084375760":[8],"sdaReg37":[7],"sdaReg30":[6],"sdaReg36":[7],"sdaReg9":[0],"sdaReg6":[1, 3, 4],"1093471344":[0],"sdaReg5":[2],"1093755096.<android.text.SpannableStringInternal: java.lang.Object[] mSpans>":[1],"sdaReg134":[1, 30],"sdaReg132":[1, 29],"sdaReg133":[1],"sdaReg130":[1, 28],"sdaReg131":[1],"sdaReg3":[3, 4],"sdaReg2":[2, 3, 4],"sdaReg1":[3],"sdaReg21":[5],"sdaReg0":[2],"sdaReg22":[1],"sdaReg24":[1]},"colorToColor":{"1":[0, 19],"8":[32],"9":[32],"10":[32],"11":[0],"12":[0],"13":[0],"14":[0],"15":[0],"21":[0],"20":[0],"23":[0],"22":[0],"25":[0],"24":[0],"27":[0],"26":[0],"29":[0],"28":[0],"30":[0],"35":[0],"38":[0],"39":[0],"36":[0],"37":[0]},"colorToLabel":{"0":"arg#0","1":"arg#1","2":"arg#2","3":"arg#3","8":"<com.android.internal.util.ArrayUtils: java.lang.Object[] sCache>","40":"return"}}}

Generated Model
	arg#1->arg#0

