Scanning method <java.io.ObjectInputStream: void readObjectForClass(java.lang.Object,java.io.ObjectStreamClass)>

All seen event types: StoreArrayRecord, SimpleAssignmentRecord, LoadInstanceRecord, MethodStartRecord, IfRecord, NewObjectRecord, StoreInstanceRecord, InstanceOfRecord, NewArrayRecord, LoadStaticRecord, BinaryOperationRecord, SwitchRecord, MethodCallRecord, MethodReturnRecord, ArrayLengthRecord, CastRecord, LoadArrayRecord, MethodEndRecord, 
Ignored event types: SwitchRecord, IfRecord, 

JSON Encoded Analysis Data (for visualization):{"heapEdges":[{"step":0,"from":"1093377416","to":"1093381560","type":"store","field":"<java.io.ObjectInputStream: java.lang.Object currentObject>"},{"step":1,"from":"1093299576","to":"1093381560","type":"store","field":"<java.io.ObjectInputStream: java.io.ObjectStreamClass currentClass>"},{"step":2,"from":"1093299576","to":"sdaReg0","type":"model"},{"step":3,"from":"1093299576","to":"1093399144","type":"model"},{"step":4,"from":"1093381560","to":"1093381560.<java.io.ObjectInputStream: boolean mustResolve>","type":"load","field":"<java.io.ObjectInputStream: boolean mustResolve>"},{"step":5,"from":"1093299576","to":"0","type":"model"},{"step":6,"from":"1093299576","to":"1094464912","type":"model"},{"step":7,"from":"1093299576","to":"1093399144","type":"model"},{"step":8,"from":"1094464912","to":"1093668624","type":"load","field":"arrayIdx_int:0"},{"step":9,"from":"1093299576","to":"1093668624","type":"model"},{"step":10,"from":"1093299576","to":"1094526808","type":"model"},{"step":11,"from":"1093668624","to":"1093299576","type":"model"},{"step":12,"from":"1093668624","to":"1094526808","type":"model"},{"step":13,"from":"1093668624","to":"1093534896","type":"load","field":"<java.io.ObjectStreamField: java.lang.Object type>"},{"step":14,"from":"1093668624","to":"1093534896","type":"load","field":"<java.io.ObjectStreamField: java.lang.Object type>"},{"step":15,"from":"1093534896","to":"1083912376","type":"model"},{"step":16,"from":"static.<java.lang.Byte: java.lang.Class TYPE>","to":"1083909112","type":"load","field":"<java.lang.Byte: java.lang.Class TYPE>"},{"step":17,"from":"static.<java.lang.Character: java.lang.Class TYPE>","to":"1083909448","type":"load","field":"<java.lang.Character: java.lang.Class TYPE>"},{"step":18,"from":"static.<java.lang.Double: java.lang.Class TYPE>","to":"1083910120","type":"load","field":"<java.lang.Double: java.lang.Class TYPE>"},{"step":19,"from":"static.<java.lang.Float: java.lang.Class TYPE>","to":"1083909952","type":"load","field":"<java.lang.Float: java.lang.Class TYPE>"},{"step":20,"from":"static.<java.lang.Integer: java.lang.Class TYPE>","to":"1083909616","type":"load","field":"<java.lang.Integer: java.lang.Class TYPE>"},{"step":21,"from":"static.<java.lang.Long: java.lang.Class TYPE>","to":"1083909784","type":"load","field":"<java.lang.Long: java.lang.Class TYPE>"},{"step":22,"from":"static.<java.lang.Short: java.lang.Class TYPE>","to":"1083909280","type":"load","field":"<java.lang.Short: java.lang.Class TYPE>"},{"step":23,"from":"static.<java.lang.Boolean: java.lang.Class TYPE>","to":"1083908944","type":"load","field":"<java.lang.Boolean: java.lang.Class TYPE>"},{"step":24,"from":"1093668624","to":"1093668624.<java.io.ObjectStreamField: boolean unshared>","type":"load","field":"<java.io.ObjectStreamField: boolean unshared>"},{"step":25,"from":"1093381560","to":"1093381896","type":"load","field":"<java.io.ObjectInputStream: java.io.InputStream primitiveData>"},{"step":26,"from":"1093381560","to":"1093340944","type":"load","field":"<java.io.ObjectInputStream: java.io.DataInputStream input>"},{"step":27,"from":"1093381560","to":"1093381560.<java.io.ObjectInputStream: boolean subclassOverridingImplementation>","type":"load","field":"<java.io.ObjectInputStream: boolean subclassOverridingImplementation>"},{"step":28,"from":"1093381560","to":"1093381560.<java.io.ObjectInputStream: int nestedLevels>","type":"load","field":"<java.io.ObjectInputStream: int nestedLevels>"},{"step":29,"from":"sdaReg30","to":"1093381560","type":"store","field":"<java.io.ObjectInputStream: int nestedLevels>"},{"step":30,"from":"1093381560","to":"1093381896","type":"load","field":"<java.io.ObjectInputStream: java.io.InputStream primitiveData>"},{"step":31,"from":"1093381560","to":"1093340944","type":"load","field":"<java.io.ObjectInputStream: java.io.DataInputStream input>"},{"step":32,"from":"1093381560","to":"1093381896","type":"load","field":"<java.io.ObjectInputStream: java.io.InputStream primitiveData>"},{"step":33,"from":"1093381896","to":"1093381896.<java.io.ByteArrayInputStream: int count>","type":"load","field":"<java.io.ByteArrayInputStream: int count>"},{"step":34,"from":"1093381896","to":"1093381896.<java.io.ByteArrayInputStream: int pos>","type":"load","field":"<java.io.ByteArrayInputStream: int pos>"},{"step":35,"from":"1093381560","to":"1093381560.<java.io.ObjectInputStream: boolean hasPushbackTC>","type":"load","field":"<java.io.ObjectInputStream: boolean hasPushbackTC>"},{"step":36,"from":"1093381560","to":"1093340944","type":"load","field":"<java.io.ObjectInputStream: java.io.DataInputStream input>"},{"step":37,"from":"1093340944","to":"1093381648","type":"load","field":"<java.io.FilterInputStream: java.io.InputStream in>"},{"step":38,"from":"1093381648","to":"1093381648.<java.io.ByteArrayInputStream: int pos>","type":"load","field":"<java.io.ByteArrayInputStream: int pos>"},{"step":39,"from":"1093381648","to":"1093381648.<java.io.ByteArrayInputStream: int count>","type":"load","field":"<java.io.ByteArrayInputStream: int count>"},{"step":40,"from":"1093381648","to":"1093381680","type":"load","field":"<java.io.ByteArrayInputStream: byte[] buf>"},{"step":41,"from":"1093381648","to":"1093381648.<java.io.ByteArrayInputStream: int pos>","type":"load","field":"<java.io.ByteArrayInputStream: int pos>"},{"step":42,"from":"sdaReg38","to":"1093381648","type":"store","field":"<java.io.ByteArrayInputStream: int pos>"},{"step":43,"from":"1093381680","to":"1093381680.arrayIdx_int:184","type":"load","field":"arrayIdx_int:184"},{"step":44,"from":"sdaReg40","to":"1093381560","type":"store","field":"<java.io.ObjectInputStream: byte pushbackTC>"},{"step":45,"from":"1093381560","to":"sdaReg42","type":"create","field":"<java.io.ObjectInputStream: boolean hasPushbackTC>"},{"step":46,"from":"1093381560","to":"1093381896","type":"load","field":"<java.io.ObjectInputStream: java.io.InputStream primitiveData>"},{"step":47,"from":"1093381896","to":"1093381896.<java.io.ByteArrayInputStream: int count>","type":"load","field":"<java.io.ByteArrayInputStream: int count>"},{"step":48,"from":"1093381896","to":"1093381896.<java.io.ByteArrayInputStream: int pos>","type":"load","field":"<java.io.ByteArrayInputStream: int pos>"},{"step":49,"from":"1093381560","to":"sdaReg46","type":"create","field":"<java.io.ObjectInputStream: boolean hasPushbackTC>"},{"step":50,"from":"1093381560","to":"1093340944","type":"load","field":"<java.io.ObjectInputStream: java.io.DataInputStream input>"},{"step":51,"from":"1093340944","to":"1093381648","type":"load","field":"<java.io.FilterInputStream: java.io.InputStream in>"},{"step":52,"from":"1093340944","to":"1093340968","type":"load","field":"<java.io.DataInputStream: byte[] scratch>"},{"step":53,"from":"1093381648","to":"1093340968","type":"model"},{"step":54,"from":"1093340944","to":"1093340968","type":"load","field":"<java.io.DataInputStream: byte[] scratch>"},{"step":55,"from":"static.<java.nio.ByteOrder: java.nio.ByteOrder BIG_ENDIAN>","to":"1084339448","type":"load","field":"<java.nio.ByteOrder: java.nio.ByteOrder BIG_ENDIAN>"},{"step":56,"from":"1093340968","to":"sdaReg52","type":"model"},{"step":57,"from":"1093340944","to":"1093381648","type":"load","field":"<java.io.FilterInputStream: java.io.InputStream in>"},{"step":58,"from":"1093381648","to":"1093454080","type":"model"},{"step":59,"from":"1093454080","to":"1093454080.arrayIdx_int:0","type":"load","field":"arrayIdx_int:0"},{"step":60,"from":"sdaReg66","to":"1094855728","type":"store","field":"arrayIdx_int:0"},{"step":61,"from":"1093454080","to":"1093454080.arrayIdx_int:1","type":"load","field":"arrayIdx_int:1"},{"step":62,"from":"sdaReg66","to":"1094855728","type":"store","field":"arrayIdx_int:1"},{"step":63,"from":"1093454080","to":"1093454080.arrayIdx_int:2","type":"load","field":"arrayIdx_int:2"},{"step":64,"from":"sdaReg66","to":"1094855728","type":"store","field":"arrayIdx_int:2"},{"step":65,"from":"1093454080","to":"1093454080.arrayIdx_int:3","type":"load","field":"arrayIdx_int:3"},{"step":66,"from":"sdaReg66","to":"1094855728","type":"store","field":"arrayIdx_int:3"},{"step":67,"from":"1094855728","to":"sdaReg67","type":"model"},{"step":68,"from":"1093381560","to":"1093381560.<java.io.ObjectInputStream: boolean enableResolve>","type":"load","field":"<java.io.ObjectInputStream: boolean enableResolve>"},{"step":69,"from":"1093381560","to":"1093381560.<java.io.ObjectInputStream: int nextHandle>","type":"load","field":"<java.io.ObjectInputStream: int nextHandle>"},{"step":70,"from":"sdaReg70","to":"1093381560","type":"store","field":"<java.io.ObjectInputStream: int nextHandle>"},{"step":71,"from":"1093381560","to":"1093341056","type":"load","field":"<java.io.ObjectInputStream: java.util.ArrayList objectsRead>"},{"step":72,"from":"1093341056","to":"1093341056.<java.util.ArrayList: int size>","type":"load","field":"<java.util.ArrayList: int size>"},{"step":73,"from":"1093381560","to":"1093341056","type":"load","field":"<java.io.ObjectInputStream: java.util.ArrayList objectsRead>"},{"step":74,"from":"1093341056","to":"1093346672","type":"load","field":"<java.util.ArrayList: java.lang.Object[] array>"},{"step":75,"from":"1093341056","to":"1093341056.<java.util.ArrayList: int size>","type":"load","field":"<java.util.ArrayList: int size>"},{"step":76,"from":"1094877728","to":"1093346672","type":"store","field":"arrayIdx_int:4"},{"step":77,"from":"sdaReg78","to":"1093341056","type":"store","field":"<java.util.ArrayList: int size>"},{"step":78,"from":"1093341056","to":"1093341056.<java.util.AbstractList: int modCount>","type":"load","field":"<java.util.AbstractList: int modCount>"},{"step":79,"from":"sdaReg79","to":"1093341056","type":"store","field":"<java.util.AbstractList: int modCount>"},{"step":80,"from":"sdaReg83","to":"1093381560","type":"store","field":"<java.io.ObjectInputStream: int nestedLevels>"},{"step":81,"from":"1093668624","to":"1093668624.<java.io.ObjectStreamField: java.lang.String name>","type":"load","field":"<java.io.ObjectStreamField: java.lang.String name>"},{"step":82,"from":"1093299576","to":"1093668624.<java.io.ObjectStreamField: java.lang.String name>","type":"model"},{"step":83,"from":"1093299576","to":"1093668624","type":"model"},{"step":84,"from":"1093668624.<java.io.ObjectStreamField: java.lang.String name>","to":"1093299576","type":"model"},{"step":85,"from":"1093668624.<java.io.ObjectStreamField: java.lang.String name>","to":"1093668624","type":"model"},{"step":86,"from":"1093668624","to":"1093534896","type":"load","field":"<java.io.ObjectStreamField: java.lang.Object type>"},{"step":87,"from":"1093668624","to":"1093534896","type":"load","field":"<java.io.ObjectStreamField: java.lang.Object type>"},{"step":88,"from":"1093534896","to":"1083912376","type":"model"},{"step":89,"from":"1094877728","to":"1083912376","type":"model"},{"step":90,"from":"1083912376","to":"sdaReg96","type":"model"},{"step":91,"from":"1083912376","to":"sdaReg96","type":"model"},{"step":92,"from":"1094526808","to":"1093377416","type":"model"},{"step":93,"from":"1094526808","to":"1094877728","type":"model"},{"step":94,"from":"1093377416","to":"1094526808","type":"model"},{"step":95,"from":"1093377416","to":"1094877728","type":"model"},{"step":96,"from":"1094877728","to":"1094526808","type":"model"},{"step":97,"from":"1094877728","to":"1093377416","type":"model"},{"step":98,"from":"1093381560","to":"sdaReg97","type":"create","field":"<java.io.ObjectInputStream: java.lang.Object currentObject>"},{"step":99,"from":"1093381560","to":"sdaReg98","type":"create","field":"<java.io.ObjectInputStream: java.io.ObjectStreamClass currentClass>"}],"parameters":[{"id":"1093381560","name":"this","klass":"java.io.ObjectInputStream"},{"id":"1093377416","name":"arg#1","klass":"java.lang.Object"},{"id":"1093299576","name":"arg#2","klass":"java.io.ObjectStreamClass"}],"returns":[{"id":null,"name":"return","klass":null}],"colors":{"heapLocToColor":{"1093381648":[0],"1093381560.<java.io.ObjectInputStream: int nextHandle>":[0],"sdaReg69":[0],"sdaReg66":[19],"1093341056":[0],"sdaReg67":[21],"1093399144":[2, 4],"1093668624.<java.io.ObjectStreamField: boolean unshared>":[2, 6],"1093454080.arrayIdx_int:0":[19],"sdaReg13":[2, 4],"sdaReg71":[0],"1093454080.arrayIdx_int:1":[19],"sdaReg14":[2, 6],"sdaReg70":[0],"sdaReg11":[2, 6],"sdaReg12":[2, 6],"sdaReg10":[2, 6],"1093340944.<java.io.FilterInputStream: java.io.InputStream in>":[0],"1094877728":[2, 7],"1093454080.arrayIdx_int:2":[19],"1093454080.arrayIdx_int:3":[19],"1093668624.<java.io.ObjectStreamField: java.lang.String name>":[2, 6],"sdaReg17":[2, 7],"sdaReg18":[2, 6],"sdaReg78":[0],"sdaReg79":[0],"sdaReg73":[0],"1083909280":[15],"sdaReg74":[0],"sdaReg75":[0],"static.<java.lang.Boolean: java.lang.Class TYPE>":[16],"0":[2, 5],"1094526808":[2, 7],"1093381560":[0],"1093381560.<java.io.ObjectInputStream: java.io.DataInputStream input>":[0],"1093381560.<java.io.ObjectInputStream: java.io.InputStream primitiveData>":[0],"1093340944.<java.io.DataInputStream: byte[] scratch>":[0],"1093381896.<java.io.ByteArrayInputStream: int pos>":[0],"static.<java.lang.Character: java.lang.Class TYPE>":[10],"1093340944":[0],"sdaReg87":[2, 6],"1093341056.<java.util.AbstractList: int modCount>":[0],"sdaReg88":[2, 6],"sdaReg89":[2, 6],"1083909616":[13],"sdaReg94":[2, 6, 8],"sdaReg93":[2, 6, 8],"1094855728":[20],"sdaReg92":[2, 6, 8],"sdaReg91":[2, 6],"1093381560.<java.io.ObjectInputStream: java.util.ArrayList objectsRead>":[0],"1093381560.<java.io.ObjectInputStream: boolean mustResolve>":[0],"1093668624":[2, 6],"sdaReg95":[2, 6, 8],"sdaReg96":[2, 6, 22, 8],"1084339448":[17],"1093381680":[0],"1093381680.arrayIdx_int:184":[0],"sdaReg60":[20],"1093381648.<java.io.ByteArrayInputStream: int count>":[0],"static.<java.lang.Float: java.lang.Class TYPE>":[12],"1093381896.<java.io.ByteArrayInputStream: int count>":[0],"1083909784":[14],"static.<java.lang.Byte: java.lang.Class TYPE>":[9],"1083909112":[9],"1093668624.<java.io.ObjectStreamField: java.lang.Object type>":[2, 6],"sdaReg59":[19],"1093381648.<java.io.ByteArrayInputStream: int pos>":[0],"sdaReg57":[19],"sdaReg56":[0],"1093341056.<java.util.ArrayList: int size>":[0],"sdaReg55":[0],"static.<java.nio.ByteOrder: java.nio.ByteOrder BIG_ENDIAN>":[17],"sdaReg54":[0],"1093340968":[0],"sdaReg53":[18],"sdaReg52":[18],"static.<java.lang.Double: java.lang.Class TYPE>":[11],"sdaReg51":[0],"sdaReg50":[0],"1093381560.<java.io.ObjectInputStream: boolean enableResolve>":[0],"1093381896":[0],"sdaReg49":[0],"sdaReg48":[0],"sdaReg45":[0],"sdaReg44":[0],"1083910120":[11],"sdaReg41":[0],"1083909448":[10],"1093381560.<java.io.ObjectInputStream: boolean hasPushbackTC>":[0],"sdaReg40":[0],"sdaReg43":[0],"1093381560.<java.io.ObjectInputStream: int nestedLevels>":[0],"static.<java.lang.Long: java.lang.Class TYPE>":[14],"sdaReg39":[0],"sdaReg38":[0],"1083909952":[12],"sdaReg37":[0],"sdaReg32":[0],"sdaReg31":[0],"sdaReg30":[0],"1093377416":[1, 2, 7],"sdaReg36":[0],"sdaReg34":[0],"sdaReg33":[0],"1093454080":[19],"1093299576":[2],"sdaReg8":[1],"sdaReg9":[2],"sdaReg6":[0],"sdaReg7":[0],"sdaReg4":[2, 4],"sdaReg5":[2, 5],"1094464912":[2, 6],"static.<java.lang.Short: java.lang.Class TYPE>":[15],"1093346672":[0],"sdaReg26":[0],"1093534896":[2, 6],"1093381560.<java.io.ObjectInputStream: boolean subclassOverridingImplementation>":[0],"static.<java.lang.Integer: java.lang.Class TYPE>":[13],"1083908944":[16],"sdaReg21":[2, 6, 8],"sdaReg1":[2, 3],"1083912376":[2, 6, 8],"sdaReg20":[2, 6],"sdaReg0":[2, 3],"sdaReg23":[2, 6, 8],"sdaReg22":[2, 6, 8],"sdaReg25":[0],"sdaReg24":[2, 6]},"colorToColor":{"0":[0, 19, 18],"1":[0, 2, 7],"19":[20],"2":[0, 1, 2, 6, 22, 7, 8],"20":[21],"6":[2, 6, 22, 7, 8],"7":[1, 2, 7],"8":[2, 6, 22, 8]},"colorToLabel":{"0":"this","1":"arg#1","2":"arg#2","9":"<java.lang.Byte: java.lang.Class TYPE>","10":"<java.lang.Character: java.lang.Class TYPE>","11":"<java.lang.Double: java.lang.Class TYPE>","12":"<java.lang.Float: java.lang.Class TYPE>","13":"<java.lang.Integer: java.lang.Class TYPE>","14":"<java.lang.Long: java.lang.Class TYPE>","15":"<java.lang.Short: java.lang.Class TYPE>","16":"<java.lang.Boolean: java.lang.Class TYPE>","17":"<java.nio.ByteOrder: java.nio.ByteOrder BIG_ENDIAN>","23":"return"}}}

Generated Model
	arg#2->this
	arg#2->arg#1
	arg#1->this
	arg#1->arg#2

