Scanning method <java.util.ArrayList: void <init>()>

All seen event types: LoadStaticRecord, MethodReturnRecord, MethodCallRecord, MethodStartRecord, MethodEndRecord, StoreInstanceRecord, 
Ignored event types: 

JSON Encoded Analysis Data (for visualization):{"heapEdges":[{"step":0,"from":"static.<libcore.util.EmptyArray: java.lang.Object[] OBJECT>","to":"1083994088","type":"load","field":"<libcore.util.EmptyArray: java.lang.Object[] OBJECT>"},{"step":1,"from":"1083994088","to":"1093499336","type":"store","field":"<java.util.ArrayList: java.lang.Object[] array>"}],"parameters":[{"id":"1093499336","name":"this","klass":"java.util.ArrayList"}],"returns":[{"id":"1093499336","name":"return","klass":"java.util.ArrayList"}],"colors":{"heapLocToColor":{"1083994088":[1],"sdaReg4":[0],"1093499336":[0],"sdaReg3":[0],"static.<libcore.util.EmptyArray: java.lang.Object[] OBJECT>":[1],"sdaReg2":[0],"sdaReg1":[0],"sdaReg0":[0]},"colorToColor":{"0":[2],"1":[0]},"colorToLabel":{"0":"this","1":"<libcore.util.EmptyArray: java.lang.Object[] OBJECT>","2":"return"}}}

Generated Model
	this->return

