Scanning method <java.util.Vector: java.util.List subList(int,int)>

All seen event types: BinaryOperationRecord, MethodReturnRecord, MethodCallRecord, LoadInstanceRecord, MethodStartRecord, MethodEndRecord, IfRecord, StoreInstanceRecord, InstanceOfRecord, NewObjectRecord, 
Ignored event types: IfRecord, 

JSON Encoded Analysis Data (for visualization):{"heapEdges":[{"step":0,"from":"1093368616","to":"1093368616.<java.util.Vector: int elementCount>","type":"load","field":"<java.util.Vector: int elementCount>"},{"step":1,"from":"1093368616","to":"1096445368","type":"store","field":"<java.util.AbstractList$SubAbstractList: java.util.AbstractList fullList>"},{"step":2,"from":"1093368616","to":"1093368616.<java.util.AbstractList: int modCount>","type":"load","field":"<java.util.AbstractList: int modCount>"},{"step":3,"from":"1093368616.<java.util.AbstractList: int modCount>","to":"1096445368","type":"store","field":"<java.util.AbstractList: int modCount>"},{"step":4,"from":"sdaReg0","to":"1096445368","type":"store","field":"<java.util.AbstractList$SubAbstractList: int offset>"},{"step":5,"from":"sdaReg14","to":"1096445368","type":"store","field":"<java.util.AbstractList$SubAbstractList: int size>"},{"step":6,"from":"1093506888","to":"1096445368","type":"create","field":"<java.util.Collections$SynchronizedCollection: java.util.Collection c>"},{"step":7,"from":"1093368616","to":"1093506888","type":"store","field":"<java.util.Collections$SynchronizedCollection: java.lang.Object mutex>"},{"step":8,"from":"1096445368","to":"1093506888","type":"store","field":"<java.util.Collections$SynchronizedList: java.util.List list>"}],"parameters":[{"id":"1093368616","name":"this","klass":"java.util.Vector"},{"id":"sdaReg0","name":"arg#1","klass":"int"},{"id":"sdaReg1","name":"arg#2","klass":"int"}],"returns":[{"id":"1093506888","name":"return","klass":"java.util.List"}],"colors":{"heapLocToColor":{"sdaReg13":[4],"sdaReg14":[1, 2],"sdaReg11":[4],"sdaReg12":[4],"sdaReg10":[4],"sdaReg30":[3],"sdaReg19":[4],"sdaReg17":[4],"sdaReg18":[3],"1096445368":[4],"sdaReg15":[4],"1093368616.<java.util.Vector: int elementCount>":[0],"sdaReg16":[4],"sdaReg8":[0],"sdaReg9":[4],"sdaReg6":[0],"sdaReg7":[4],"sdaReg5":[4],"sdaReg27":[3],"sdaReg26":[0],"sdaReg29":[3],"sdaReg28":[3],"1093368616":[0],"sdaReg3":[0],"sdaReg2":[0],"1093368616.<java.util.AbstractList: int modCount>":[0],"sdaReg21":[3],"sdaReg1":[2],"sdaReg0":[1],"sdaReg20":[0],"sdaReg23":[0],"sdaReg22":[4],"sdaReg25":[4],"sdaReg24":[3],"1093506888":[3]},"colorToColor":{"0":[3, 4],"1":[4],"2":[4],"3":[5],"4":[3]},"colorToLabel":{"0":"this","1":"arg#1","2":"arg#2","5":"return"}}}

Generated Model
	this->return
	arg#2->return
	arg#1->return

