Scanning method <java.net.URLConnection: void setFileNameMap(java.net.FileNameMap)>

All seen event types: StoreStaticRecord, SimpleAssignmentRecord, ExitMonitorRecord, EnterMonitorRecord, 
Ignored event types: ExitMonitorRecord, EnterMonitorRecord, 

JSON Encoded Analysis Data (for visualization):{"heapEdges":[{"step":0,"from":"1093688592","to":"static.<java.net.URLConnection: java.net.FileNameMap fileNameMap>","type":"store","field":"<java.net.URLConnection: java.net.FileNameMap fileNameMap>"}],"parameters":[{"id":"1093688592","name":"arg#0","klass":"java.net.FileNameMap"}],"returns":[{"id":null,"name":"return","klass":null}],"colors":{"heapLocToColor":{"1093688592":[0],"static.<java.net.URLConnection: java.net.FileNameMap fileNameMap>":[1]},"colorToColor":{"0":[1]},"colorToLabel":{"0":"arg#0","1":"<java.net.URLConnection: java.net.FileNameMap fileNameMap>","2":"return"}}}

Generated Model
	arg#0-><java.net.URLConnection: java.net.FileNameMap fileNameMap>

