Scanning method <java.net.URLConnection: void setFileNameMap(java.net.FileNameMap)>

All seen event types: StoreStaticRecord, SimpleAssignmentRecord, ExitMonitorRecord, EnterMonitorRecord, 
Ignored event types: ExitMonitorRecord, EnterMonitorRecord, 

JSON Encoded Analysis Data (for visualization):{"heapEdges":[],"parameters":[{"id":"0","name":"arg#0","klass":"java.net.FileNameMap"}],"returns":[{"id":null,"name":"return","klass":null}],"colors":{"heapLocToColor":{"static.<java.net.URLConnection: java.net.FileNameMap fileNameMap>":[1],"0":[0]},"colorToColor":{},"colorToLabel":{"0":"arg#0","1":"<java.net.URLConnection: java.net.FileNameMap fileNameMap>","2":"return"}}}

Generated Model

