Scanning method <java.net.InetAddress: java.lang.String getHostAddress()>

All seen event types: LoadStaticRecord, MethodReturnRecord, MethodCallRecord, 
Ignored event types: 

JSON Encoded Analysis Data (for visualization):{"heapEdges":[{"step":0,"from":"static.<libcore.io.Libcore: libcore.io.Os os>","to":"1083982784","type":"load","field":"<libcore.io.Libcore: libcore.io.Os os>"},{"step":1,"from":"static.<libcore.io.OsConstants: int NI_NUMERICHOST>","to":"static.<libcore.io.OsConstants: int NI_NUMERICHOST>","type":"load","field":"<libcore.io.OsConstants: int NI_NUMERICHOST>"},{"step":2,"from":"static.<libcore.io.OsConstants: int NI_NUMERICHOST>","to":"sdaReg0","type":"model"},{"step":3,"from":"1093507816","to":"sdaReg0","type":"model"}],"parameters":[{"id":"1093507816","name":"this","klass":"java.net.InetAddress"}],"returns":[{"id":"sdaReg0","name":"return","klass":"string"}],"colors":{"heapLocToColor":{"static.<libcore.io.OsConstants: int NI_NUMERICHOST>":[2],"1083982784":[1],"1093507816":[0],"sdaReg0":[3],"static.<libcore.io.Libcore: libcore.io.Os os>":[1]},"colorToColor":{"0":[3],"2":[3],"3":[4]},"colorToLabel":{"0":"this","1":"<libcore.io.Libcore: libcore.io.Os os>","2":"<libcore.io.OsConstants: int NI_NUMERICHOST>","4":"return"}}}

Generated Model
	this->return

