Scanning method <tests.api.java.util.ArrayListTest: void <init>()>

All seen event types: MethodReturnRecord, MethodCallRecord, MethodStartRecord, MethodEndRecord, StoreInstanceRecord, 
Ignored event types: 

JSON Encoded Analysis Data (for visualization):{"heapEdges":[{"step":0,"from":"1093571424","to":"sdaReg4","type":"create","field":"<junit.framework.TestCase: java.lang.String fName>"}],"parameters":[{"id":"1093571424","name":"this","klass":"tests.api.java.util.ArrayListTest"}],"returns":[{"id":"1093571424","name":"return","klass":"tests.api.java.util.ArrayListTest"}],"colors":{"heapLocToColor":{"sdaReg5":[0],"sdaReg3":[0],"sdaReg2":[0],"sdaReg1":[0],"sdaReg0":[0],"1093571424":[0]},"colorToColor":{"0":[1]},"colorToLabel":{"0":"this","1":"return"}}}

Generated Model
	this->return

