Scanning method <android.os.Message: void setData(android.os.Bundle)>

All seen event types: StoreInstanceRecord, 
Ignored event types: 

JSON Encoded Analysis Data (for visualization):{"heapEdges":[{"step":0,"from":"1093862120","to":"1093479120","type":"store","field":"<android.os.Message: android.os.Bundle data>"}],"parameters":[{"id":"1093479120","name":"this","klass":"android.os.Message"},{"id":"1093862120","name":"arg#1","klass":"android.os.Bundle"}],"returns":[{"id":null,"name":"return","klass":null}],"colors":{"heapLocToColor":{"1093479120":[0],"1093862120":[1]},"colorToColor":{"1":[0]},"colorToLabel":{"0":"this","1":"arg#1","2":"return"}}}

Generated Model
	arg#1->this

