Scanning method <android.os.Message: void setData(android.os.Bundle)>

All seen event types: StoreInstanceRecord, 
Ignored event types: 

JSON Encoded Analysis Data (for visualization):{"heapEdges":[{"step":0,"from":"1094182736","to":"1093532416","type":"store","field":"<android.os.Message: android.os.Bundle data>"}],"parameters":[{"id":"1093532416","name":"this","klass":"android.os.Message"},{"id":"1094182736","name":"arg#1","klass":"android.os.Bundle"}],"returns":[{"id":null,"name":"return","klass":null}],"colors":{"heapLocToColor":{"1094182736":[1],"1093532416":[0]},"colorToColor":{"1":[0]},"colorToLabel":{"0":"this","1":"arg#1","2":"return"}}}

Generated Model
	arg#1->this

