Scanning method <java.util.LinkedList: void add(int,java.lang.Object)>

All seen event types: BinaryOperationRecord, SimpleAssignmentRecord, MethodReturnRecord, MethodCallRecord, MethodStartRecord, LoadInstanceRecord, MethodEndRecord, IfRecord, StoreInstanceRecord, NewObjectRecord, 
Ignored event types: IfRecord, 

JSON Encoded Analysis Data (for visualization):{"heapEdges":[{"step":0,"from":"1093425968","to":"1093425968.<java.util.LinkedList: int size>","type":"load","field":"<java.util.LinkedList: int size>"},{"step":1,"from":"1093425968","to":"1093492248","type":"load","field":"<java.util.LinkedList: java.util.LinkedList$Link voidLink>"},{"step":2,"from":"1093425968","to":"1093425968.<java.util.LinkedList: int size>","type":"load","field":"<java.util.LinkedList: int size>"},{"step":3,"from":"1093492248","to":"1093495160","type":"load","field":"<java.util.LinkedList$Link: java.util.LinkedList$Link next>"},{"step":4,"from":"1093495160","to":"1093522952","type":"load","field":"<java.util.LinkedList$Link: java.util.LinkedList$Link next>"},{"step":5,"from":"1093522952","to":"1093247272","type":"load","field":"<java.util.LinkedList$Link: java.util.LinkedList$Link next>"},{"step":6,"from":"1093247272","to":"1093285808","type":"load","field":"<java.util.LinkedList$Link: java.util.LinkedList$Link next>"},{"step":7,"from":"1093285808","to":"1093289736","type":"load","field":"<java.util.LinkedList$Link: java.util.LinkedList$Link next>"},{"step":8,"from":"1093289736","to":"1093371976","type":"load","field":"<java.util.LinkedList$Link: java.util.LinkedList$Link next>"},{"step":9,"from":"1093371976","to":"1093372632","type":"load","field":"<java.util.LinkedList$Link: java.util.LinkedList$Link next>"},{"step":10,"from":"1093372632","to":"1093372304","type":"load","field":"<java.util.LinkedList$Link: java.util.LinkedList$Link next>"},{"step":11,"from":"1093372304","to":"1093373616","type":"load","field":"<java.util.LinkedList$Link: java.util.LinkedList$Link next>"},{"step":12,"from":"1093373616","to":"1093373944","type":"load","field":"<java.util.LinkedList$Link: java.util.LinkedList$Link next>"},{"step":13,"from":"1093373944","to":"1093379248","type":"load","field":"<java.util.LinkedList$Link: java.util.LinkedList$Link next>"},{"step":14,"from":"1093379248","to":"1093383600","type":"load","field":"<java.util.LinkedList$Link: java.util.LinkedList$Link next>"},{"step":15,"from":"1093383600","to":"1093384896","type":"load","field":"<java.util.LinkedList$Link: java.util.LinkedList$Link next>"},{"step":16,"from":"1093384896","to":"1093390168","type":"load","field":"<java.util.LinkedList$Link: java.util.LinkedList$Link next>"},{"step":17,"from":"1093390168","to":"1093391776","type":"load","field":"<java.util.LinkedList$Link: java.util.LinkedList$Link next>"},{"step":18,"from":"1093391776","to":"1093392760","type":"load","field":"<java.util.LinkedList$Link: java.util.LinkedList$Link next>"},{"step":19,"from":"1093392760","to":"1093393408","type":"load","field":"<java.util.LinkedList$Link: java.util.LinkedList$Link next>"},{"step":20,"from":"1093393408","to":"1093393080","type":"load","field":"<java.util.LinkedList$Link: java.util.LinkedList$Link next>"},{"step":21,"from":"1093393080","to":"1093397768","type":"load","field":"<java.util.LinkedList$Link: java.util.LinkedList$Link next>"},{"step":22,"from":"1093397768","to":"1093395456","type":"load","field":"<java.util.LinkedList$Link: java.util.LinkedList$Link next>"},{"step":23,"from":"1093395456","to":"1093398408","type":"load","field":"<java.util.LinkedList$Link: java.util.LinkedList$Link next>"},{"step":24,"from":"1093398408","to":"1093398728","type":"load","field":"<java.util.LinkedList$Link: java.util.LinkedList$Link next>"},{"step":25,"from":"1093398728","to":"1093399376","type":"load","field":"<java.util.LinkedList$Link: java.util.LinkedList$Link next>"},{"step":26,"from":"1093399376","to":"1093399048","type":"load","field":"<java.util.LinkedList$Link: java.util.LinkedList$Link next>"},{"step":27,"from":"1093399048","to":"1093399704","type":"load","field":"<java.util.LinkedList$Link: java.util.LinkedList$Link next>"},{"step":28,"from":"1093399704","to":"1093400032","type":"load","field":"<java.util.LinkedList$Link: java.util.LinkedList$Link next>"},{"step":29,"from":"1093400032","to":"1093399704","type":"load","field":"<java.util.LinkedList$Link: java.util.LinkedList$Link previous>"},{"step":30,"from":"1093399704","to":"1093809984","type":"store","field":"<java.util.LinkedList$Link: java.util.LinkedList$Link previous>"},{"step":31,"from":"1093400032","to":"1093809984","type":"store","field":"<java.util.LinkedList$Link: java.util.LinkedList$Link next>"},{"step":32,"from":"1093399704","to":"1093809984","type":"create","field":"<java.util.LinkedList$Link: java.util.LinkedList$Link next>"},{"step":33,"from":"1093809984","to":"1093400032","type":"store","field":"<java.util.LinkedList$Link: java.util.LinkedList$Link previous>"},{"step":34,"from":"1093425968","to":"1093425968.<java.util.LinkedList: int size>","type":"load","field":"<java.util.LinkedList: int size>"},{"step":35,"from":"sdaReg10","to":"1093425968","type":"store","field":"<java.util.LinkedList: int size>"},{"step":36,"from":"1093425968","to":"1093425968.<java.util.AbstractList: int modCount>","type":"load","field":"<java.util.AbstractList: int modCount>"},{"step":37,"from":"sdaReg11","to":"1093425968","type":"store","field":"<java.util.AbstractList: int modCount>"}],"parameters":[{"id":"1093425968","name":"this","klass":"java.util.LinkedList"},{"id":"sdaReg0","name":"arg#1","klass":"int"},{"id":"0","name":"arg#2","klass":"java.lang.Object"}],"returns":[{"id":null,"name":"return","klass":null}],"colors":{"heapLocToColor":{"1093379248":[0],"1093809984":[3],"1093289736":[0],"1093399704":[0],"1093372632":[0],"1093391776":[0],"1093399048":[0],"1093373944":[0],"1093373616":[0],"1093398408":[0],"1093425968.<java.util.AbstractList: int modCount>":[0],"sdaReg11":[0],"1093400032":[0],"1093390168":[0],"sdaReg10":[0],"1093399376":[0],"1093495160":[0],"1093384896":[0],"1093393080":[0],"1093492248":[0],"1093522952":[0],"1093393408":[0],"sdaReg8":[3],"sdaReg9":[3],"sdaReg6":[0],"1093397768":[0],"sdaReg7":[3],"1093371976":[0],"sdaReg4":[2],"1093398728":[0],"1093425968.<java.util.LinkedList: int size>":[0],"sdaReg5":[0],"1093400032.<java.util.LinkedList$Link: java.util.LinkedList$Link previous>":[0],"1093383600":[0],"1093392760":[0],"1093372304":[0],"1093247272":[0],"0":[2],"1093425968":[0],"1093395456":[0],"sdaReg3":[3],"sdaReg1":[0],"1093285808":[0],"sdaReg0":[1]},"colorToColor":{"0":[0, 3],"3":[0]},"colorToLabel":{"0":"this","1":"arg#1","2":"arg#2","4":"return"}}}

Generated Model

