Scanning method <java.util.LinkedList: void add(int,java.lang.Object)>

All seen event types: BinaryOperationRecord, SimpleAssignmentRecord, MethodReturnRecord, MethodCallRecord, MethodStartRecord, LoadInstanceRecord, MethodEndRecord, IfRecord, StoreInstanceRecord, NewObjectRecord, 
Ignored event types: IfRecord, 

JSON Encoded Analysis Data (for visualization):{"heapEdges":[{"step":0,"from":"1094773376","to":"1094773376.<java.util.LinkedList: int size>","type":"load","field":"<java.util.LinkedList: int size>"},{"step":1,"from":"1094773376","to":"1094773400","type":"load","field":"<java.util.LinkedList: java.util.LinkedList$Link voidLink>"},{"step":2,"from":"1094773376","to":"1094773376.<java.util.LinkedList: int size>","type":"load","field":"<java.util.LinkedList: int size>"},{"step":3,"from":"1094773376","to":"1094773376.<java.util.LinkedList: int size>","type":"load","field":"<java.util.LinkedList: int size>"},{"step":4,"from":"1094773400","to":"1093501912","type":"load","field":"<java.util.LinkedList$Link: java.util.LinkedList$Link previous>"},{"step":5,"from":"1093501912","to":"1093501888","type":"load","field":"<java.util.LinkedList$Link: java.util.LinkedList$Link previous>"},{"step":6,"from":"1093501888","to":"1093503096","type":"load","field":"<java.util.LinkedList$Link: java.util.LinkedList$Link previous>"},{"step":7,"from":"1093503096","to":"1093517000","type":"load","field":"<java.util.LinkedList$Link: java.util.LinkedList$Link previous>"},{"step":8,"from":"1093517000","to":"1093519664","type":"load","field":"<java.util.LinkedList$Link: java.util.LinkedList$Link previous>"},{"step":9,"from":"1093519664","to":"1093519640","type":"load","field":"<java.util.LinkedList$Link: java.util.LinkedList$Link previous>"},{"step":10,"from":"1093519640","to":"1093520648","type":"load","field":"<java.util.LinkedList$Link: java.util.LinkedList$Link previous>"},{"step":11,"from":"1093520648","to":"1093520624","type":"load","field":"<java.util.LinkedList$Link: java.util.LinkedList$Link previous>"},{"step":12,"from":"1093520624","to":"1093521352","type":"load","field":"<java.util.LinkedList$Link: java.util.LinkedList$Link previous>"},{"step":13,"from":"1093521352","to":"1093521328","type":"load","field":"<java.util.LinkedList$Link: java.util.LinkedList$Link previous>"},{"step":14,"from":"1093521328","to":"1093523496","type":"load","field":"<java.util.LinkedList$Link: java.util.LinkedList$Link previous>"},{"step":15,"from":"1093523496","to":"1093523472","type":"load","field":"<java.util.LinkedList$Link: java.util.LinkedList$Link previous>"},{"step":16,"from":"1093523472","to":"1093525304","type":"load","field":"<java.util.LinkedList$Link: java.util.LinkedList$Link previous>"},{"step":17,"from":"1093525304","to":"1093525280","type":"load","field":"<java.util.LinkedList$Link: java.util.LinkedList$Link previous>"},{"step":18,"from":"1093525280","to":"1093525624","type":"load","field":"<java.util.LinkedList$Link: java.util.LinkedList$Link previous>"},{"step":19,"from":"1093525624","to":"1093525600","type":"load","field":"<java.util.LinkedList$Link: java.util.LinkedList$Link previous>"},{"step":20,"from":"1093525600","to":"1093546408","type":"load","field":"<java.util.LinkedList$Link: java.util.LinkedList$Link previous>"},{"step":21,"from":"1093546408","to":"1093335088","type":"load","field":"<java.util.LinkedList$Link: java.util.LinkedList$Link previous>"},{"step":22,"from":"1093335088","to":"1093346744","type":"load","field":"<java.util.LinkedList$Link: java.util.LinkedList$Link previous>"},{"step":23,"from":"1093346744","to":"1093346720","type":"load","field":"<java.util.LinkedList$Link: java.util.LinkedList$Link previous>"},{"step":24,"from":"1093346720","to":"1093393944","type":"load","field":"<java.util.LinkedList$Link: java.util.LinkedList$Link previous>"},{"step":25,"from":"1093393944","to":"1093393920","type":"load","field":"<java.util.LinkedList$Link: java.util.LinkedList$Link previous>"},{"step":26,"from":"1093393920","to":"1093400832","type":"load","field":"<java.util.LinkedList$Link: java.util.LinkedList$Link previous>"},{"step":27,"from":"1093400832","to":"1093400808","type":"load","field":"<java.util.LinkedList$Link: java.util.LinkedList$Link previous>"},{"step":28,"from":"1093400808","to":"1093406592","type":"load","field":"<java.util.LinkedList$Link: java.util.LinkedList$Link previous>"},{"step":29,"from":"1093406592","to":"1093406568","type":"load","field":"<java.util.LinkedList$Link: java.util.LinkedList$Link previous>"},{"step":30,"from":"1093406568","to":"1093407656","type":"load","field":"<java.util.LinkedList$Link: java.util.LinkedList$Link previous>"},{"step":31,"from":"1093407656","to":"1093407632","type":"load","field":"<java.util.LinkedList$Link: java.util.LinkedList$Link previous>"},{"step":32,"from":"1093407632","to":"1093266296","type":"load","field":"<java.util.LinkedList$Link: java.util.LinkedList$Link previous>"},{"step":33,"from":"1093266296","to":"1093266272","type":"load","field":"<java.util.LinkedList$Link: java.util.LinkedList$Link previous>"},{"step":34,"from":"1093266272","to":"1093291496","type":"load","field":"<java.util.LinkedList$Link: java.util.LinkedList$Link previous>"},{"step":35,"from":"1093291496","to":"1093291472","type":"load","field":"<java.util.LinkedList$Link: java.util.LinkedList$Link previous>"},{"step":36,"from":"1093291472","to":"1093291808","type":"load","field":"<java.util.LinkedList$Link: java.util.LinkedList$Link previous>"},{"step":37,"from":"1093291808","to":"1093291784","type":"load","field":"<java.util.LinkedList$Link: java.util.LinkedList$Link previous>"},{"step":38,"from":"1093291784","to":"1093313856","type":"load","field":"<java.util.LinkedList$Link: java.util.LinkedList$Link previous>"},{"step":39,"from":"1093313856","to":"1093313832","type":"load","field":"<java.util.LinkedList$Link: java.util.LinkedList$Link previous>"},{"step":40,"from":"1093313832","to":"1093391800","type":"load","field":"<java.util.LinkedList$Link: java.util.LinkedList$Link previous>"},{"step":41,"from":"1093391800","to":"1093377600","type":"load","field":"<java.util.LinkedList$Link: java.util.LinkedList$Link previous>"},{"step":42,"from":"1093377600","to":"1093381232","type":"load","field":"<java.util.LinkedList$Link: java.util.LinkedList$Link previous>"},{"step":43,"from":"1093381232","to":"1093385792","type":"load","field":"<java.util.LinkedList$Link: java.util.LinkedList$Link previous>"},{"step":44,"from":"1093385792","to":"1093388808","type":"load","field":"<java.util.LinkedList$Link: java.util.LinkedList$Link previous>"},{"step":45,"from":"1093388808","to":"1093452272","type":"load","field":"<java.util.LinkedList$Link: java.util.LinkedList$Link previous>"},{"step":46,"from":"1093452272","to":"1093517328","type":"load","field":"<java.util.LinkedList$Link: java.util.LinkedList$Link previous>"},{"step":47,"from":"1093517328","to":"1093263192","type":"load","field":"<java.util.LinkedList$Link: java.util.LinkedList$Link previous>"},{"step":48,"from":"1093263192","to":"1093272416","type":"load","field":"<java.util.LinkedList$Link: java.util.LinkedList$Link previous>"},{"step":49,"from":"1093272416","to":"1093285424","type":"load","field":"<java.util.LinkedList$Link: java.util.LinkedList$Link previous>"},{"step":50,"from":"1093285424","to":"1093285960","type":"load","field":"<java.util.LinkedList$Link: java.util.LinkedList$Link previous>"},{"step":51,"from":"1093285960","to":"1093289320","type":"load","field":"<java.util.LinkedList$Link: java.util.LinkedList$Link previous>"},{"step":52,"from":"1093289320","to":"1093301528","type":"load","field":"<java.util.LinkedList$Link: java.util.LinkedList$Link previous>"},{"step":53,"from":"1093301528","to":"1093303672","type":"load","field":"<java.util.LinkedList$Link: java.util.LinkedList$Link previous>"},{"step":54,"from":"1093303672","to":"1093307064","type":"load","field":"<java.util.LinkedList$Link: java.util.LinkedList$Link previous>"},{"step":55,"from":"1093685480","to":"1093320960","type":"store","field":"<java.util.LinkedList$Link: java.lang.Object data>"},{"step":56,"from":"1093307064","to":"1093320960","type":"store","field":"<java.util.LinkedList$Link: java.util.LinkedList$Link previous>"},{"step":57,"from":"1093303672","to":"1093320960","type":"store","field":"<java.util.LinkedList$Link: java.util.LinkedList$Link next>"},{"step":58,"from":"1093307064","to":"1093320960","type":"create","field":"<java.util.LinkedList$Link: java.util.LinkedList$Link next>"},{"step":59,"from":"1093320960","to":"1093303672","type":"store","field":"<java.util.LinkedList$Link: java.util.LinkedList$Link previous>"},{"step":60,"from":"1094773376","to":"1094773376.<java.util.LinkedList: int size>","type":"load","field":"<java.util.LinkedList: int size>"},{"step":61,"from":"sdaReg9","to":"1094773376","type":"store","field":"<java.util.LinkedList: int size>"},{"step":62,"from":"1094773376","to":"1094773376.<java.util.AbstractList: int modCount>","type":"load","field":"<java.util.AbstractList: int modCount>"},{"step":63,"from":"sdaReg10","to":"1094773376","type":"store","field":"<java.util.AbstractList: int modCount>"}],"parameters":[{"id":"1094773376","name":"this","klass":"java.util.LinkedList"},{"id":"sdaReg0","name":"arg#1","klass":"int"},{"id":"1093685480","name":"arg#2","klass":"java.lang.Object"}],"returns":[{"id":null,"name":"return","klass":null}],"colors":{"heapLocToColor":{"1093407656":[0],"1093313856":[0],"1093517328":[0],"1093266296":[0],"1093263192":[0],"1093519664":[0],"1093291808":[0],"sdaReg10":[0],"1093303672":[0],"1093520624":[0],"1093346744":[0],"1093377600":[0],"1094773376.<java.util.LinkedList: int size>":[0],"1093503096":[0],"1093335088":[0],"1093301528":[0],"1093400808":[0],"1093525624":[0],"1093381232":[0],"1093525280":[0],"1093393920":[0],"1093289320":[0],"1093285424":[0],"1093501912":[0],"1093517000":[0],"1094773376.<java.util.AbstractList: int modCount>":[0],"1093407632":[0],"1093501888":[0],"1093313832":[0],"1093291496":[0],"1093291472":[0],"1093519640":[0],"1093525304":[0],"1093266272":[0],"1093452272":[0],"1093406592":[0],"1093346720":[0],"1093320960":[3],"1093307064":[0],"1093388808":[0],"1093385792":[0],"1093523472":[0],"1093521328":[0],"1093546408":[0],"sdaReg8":[3],"sdaReg9":[0],"sdaReg6":[3],"sdaReg7":[3],"sdaReg4":[0],"sdaReg5":[0],"1093525600":[0],"1093285960":[0],"1093523496":[0],"1093520648":[0],"1093272416":[0],"1093521352":[0],"1093393944":[0],"1093685480":[2],"1093291784":[0],"1093406568":[0],"sdaReg3":[2],"sdaReg2":[3],"1093400832":[0],"1094773376":[0],"sdaReg1":[0],"sdaReg0":[1],"1094773400":[0],"1093391800":[0]},"colorToColor":{"0":[0, 3],"2":[3],"3":[0]},"colorToLabel":{"0":"this","1":"arg#1","2":"arg#2","4":"return"}}}

Generated Model
	arg#2->this

