Scanning method <java.util.HashMap: java.lang.Object put(java.lang.Object,java.lang.Object)>

All seen event types: BinaryOperationRecord, StoreArrayRecord, MethodReturnRecord, MethodCallRecord, ArrayLengthRecord, LoadInstanceRecord, MethodStartRecord, LoadArrayRecord, MethodEndRecord, IfRecord, NewObjectRecord, StoreInstanceRecord, 
Ignored event types: IfRecord, 

JSON Encoded Analysis Data (for visualization):{"heapEdges":[{"step":0,"from":"1093228992","to":"1093229048","type":"load","field":"<java.util.HashMap: java.util.HashMap$HashMapEntry[] table>"},{"step":1,"from":"1093229048","to":"1093229192","type":"load","field":"arrayIdx_int:1"},{"step":2,"from":"1093229192","to":"1093229192.<java.util.HashMap$HashMapEntry: int hash>","type":"load","field":"<java.util.HashMap$HashMapEntry: int hash>"},{"step":3,"from":"1093228992","to":"1093228992.<java.util.HashMap: int modCount>","type":"load","field":"<java.util.HashMap: int modCount>"},{"step":4,"from":"sdaReg12","to":"1093228992","type":"store","field":"<java.util.HashMap: int modCount>"},{"step":5,"from":"1093228992","to":"1093228992.<java.util.HashMap: int size>","type":"load","field":"<java.util.HashMap: int size>"},{"step":6,"from":"sdaReg13","to":"1093228992","type":"store","field":"<java.util.HashMap: int size>"},{"step":7,"from":"1093228992","to":"1093228992.<java.util.HashMap: int threshold>","type":"load","field":"<java.util.HashMap: int threshold>"},{"step":8,"from":"1093228992","to":"1093229048","type":"load","field":"<java.util.HashMap: java.util.HashMap$HashMapEntry[] table>"},{"step":9,"from":"1093228992","to":"1093229048","type":"load","field":"<java.util.HashMap: java.util.HashMap$HashMapEntry[] table>"},{"step":10,"from":"1093229048","to":"1093229192","type":"load","field":"arrayIdx_int:1"},{"step":11,"from":"1093567016","to":"1093229224","type":"store","field":"<java.util.HashMap$HashMapEntry: java.lang.Object key>"},{"step":12,"from":"1093582896","to":"1093229224","type":"store","field":"<java.util.HashMap$HashMapEntry: java.lang.Object value>"},{"step":13,"from":"sdaReg8","to":"1093229224","type":"store","field":"<java.util.HashMap$HashMapEntry: int hash>"},{"step":14,"from":"1093229192","to":"1093229224","type":"store","field":"<java.util.HashMap$HashMapEntry: java.util.HashMap$HashMapEntry next>"},{"step":15,"from":"1093229048","to":"1093229224","type":"create","field":"arrayIdx_int:1"}],"parameters":[{"id":"1093228992","name":"this","klass":"java.util.HashMap"},{"id":"1093567016","name":"arg#1","klass":"java.lang.Object"},{"id":"1093582896","name":"arg#2","klass":"java.lang.Object"}],"returns":[{"id":"0","name":"return","klass":"java.lang.Object"}],"colors":{"heapLocToColor":{"1093228992.<java.util.HashMap: int threshold>":[0],"1093228992.<java.util.HashMap: java.util.HashMap$HashMapEntry[] table>":[0],"1093229192.<java.util.HashMap$HashMapEntry: int hash>":[0],"1093229048.arrayIdx_int:1":[0],"sdaReg13":[0],"sdaReg14":[0],"1093229224":[4],"sdaReg11":[3],"sdaReg12":[0],"1093228992.<java.util.HashMap: int size>":[0],"sdaReg19":[2],"sdaReg17":[4],"sdaReg18":[1],"sdaReg15":[1],"sdaReg16":[2],"sdaReg8":[3],"sdaReg6":[3],"sdaReg7":[3],"sdaReg4":[3],"sdaReg5":[3],"1093229048":[0],"1093228992":[0],"1093582896":[2],"1093567016":[1],"1093229192":[0],"1093228992.<java.util.HashMap: int modCount>":[0],"sdaReg3":[3],"sdaReg2":[3],"sdaReg21":[4],"sdaReg1":[3],"sdaReg20":[0],"sdaReg0":[3],"sdaReg22":[4]},"colorToColor":{"0":[0, 4],"1":[4],"2":[4],"3":[4],"4":[0]},"colorToLabel":{"0":"this","1":"arg#1","2":"arg#2","5":"return"}}}

Generated Model
	arg#2->this
	arg#1->this

