Scanning method <java.io.StringReader: long skip(long)>

All seen event types: SimpleAssignmentRecord, ExitMonitorRecord, LoadInstanceRecord, MethodStartRecord, IfRecord, StoreInstanceRecord, BinaryOperationRecord, NegationRecord, MethodCallRecord, MethodReturnRecord, EnterMonitorRecord, CastRecord, MethodEndRecord, 
Ignored event types: NegationRecord, ExitMonitorRecord, EnterMonitorRecord, IfRecord, 

JSON Encoded Analysis Data (for visualization):{"heapEdges":[{"step":0,"from":"1093738008","to":"1093738008","type":"load","field":"<java.io.Reader: java.lang.Object lock>"},{"step":1,"from":"1093738008","to":"1093738008.<java.io.StringReader: java.lang.String str>","type":"load","field":"<java.io.StringReader: java.lang.String str>"},{"step":2,"from":"1093738008","to":"1093738008.<java.io.StringReader: int pos>","type":"load","field":"<java.io.StringReader: int pos>"},{"step":3,"from":"1093738008","to":"1093738008.<java.io.StringReader: int count>","type":"load","field":"<java.io.StringReader: int count>"},{"step":4,"from":"1093738008","to":"1093738008.<java.io.StringReader: int pos>","type":"load","field":"<java.io.StringReader: int pos>"},{"step":5,"from":"1093738008","to":"1093738008.<java.io.StringReader: int pos>","type":"load","field":"<java.io.StringReader: int pos>"},{"step":6,"from":"sdaReg12","to":"1093738008","type":"store","field":"<java.io.StringReader: int pos>"}],"parameters":[{"id":"1093738008","name":"this","klass":"java.io.StringReader"},{"id":"sdaReg0","name":"arg#1","klass":"long"}],"returns":[{"id":"sdaReg0","name":"return","klass":"long"}],"colors":{"heapLocToColor":{"1093738008":[0],"sdaReg9":[1],"1093738008.<java.io.Reader: java.lang.Object lock>":[0],"sdaReg6":[0],"sdaReg7":[0, 1],"sdaReg5":[0],"1093738008.<java.io.StringReader: java.lang.String str>":[0],"sdaReg11":[0, 1],"sdaReg12":[0, 1],"sdaReg10":[0],"1093738008.<java.io.StringReader: int count>":[0],"sdaReg3":[0],"sdaReg2":[0],"sdaReg1":[0],"1093738008.<java.io.StringReader: int pos>":[0],"sdaReg0":[1]},"colorToColor":{"0":[0],"1":[0, 2]},"colorToLabel":{"0":"this","1":"arg#1","2":"return"}}}

Generated Model
	arg#1->this
	arg#1->return

