Scanning method <java.io.StringReader: int read(char[],int,int)>

All seen event types: BinaryOperationRecord, SimpleAssignmentRecord, ExitMonitorRecord, MethodReturnRecord, MethodCallRecord, EnterMonitorRecord, ArrayLengthRecord, MethodStartRecord, LoadInstanceRecord, MethodEndRecord, IfRecord, StoreInstanceRecord, 
Ignored event types: ExitMonitorRecord, EnterMonitorRecord, IfRecord, 

JSON Encoded Analysis Data (for visualization):{"heapEdges":[{"step":0,"from":"1093650048","to":"1093650048","type":"load","field":"<java.io.Reader: java.lang.Object lock>"},{"step":1,"from":"1093650048","to":"1093650048.<java.io.StringReader: java.lang.String str>","type":"load","field":"<java.io.StringReader: java.lang.String str>"},{"step":2,"from":"1093650048","to":"1093650048.<java.io.StringReader: int pos>","type":"load","field":"<java.io.StringReader: int pos>"},{"step":3,"from":"1093650048","to":"1093650048.<java.io.StringReader: int count>","type":"load","field":"<java.io.StringReader: int count>"},{"step":4,"from":"1093650048","to":"1093650048.<java.io.StringReader: int pos>","type":"load","field":"<java.io.StringReader: int pos>"},{"step":5,"from":"1093650048","to":"1093650048.<java.io.StringReader: int count>","type":"load","field":"<java.io.StringReader: int count>"},{"step":6,"from":"1093650048","to":"1093650048.<java.io.StringReader: int pos>","type":"load","field":"<java.io.StringReader: int pos>"},{"step":7,"from":"1093650048","to":"1093650048.<java.io.StringReader: java.lang.String str>","type":"load","field":"<java.io.StringReader: java.lang.String str>"},{"step":8,"from":"1093650048","to":"1093650048.<java.io.StringReader: int pos>","type":"load","field":"<java.io.StringReader: int pos>"},{"step":9,"from":"1093650048.<java.io.StringReader: java.lang.String str>","to":"1093650368","type":"model"},{"step":10,"from":"1093650048","to":"1093650048.<java.io.StringReader: int pos>","type":"load","field":"<java.io.StringReader: int pos>"},{"step":11,"from":"sdaReg11","to":"1093650048","type":"store","field":"<java.io.StringReader: int pos>"}],"parameters":[{"id":"1093650048","name":"this","klass":"java.io.StringReader"},{"id":"1093650368","name":"arg#1","klass":"char[]"},{"id":"sdaReg0","name":"arg#2","klass":"int"},{"id":"sdaReg1","name":"arg#3","klass":"int"}],"returns":[{"id":"sdaReg12","name":"return","klass":"int"}],"colors":{"heapLocToColor":{"1093650048.<java.io.StringReader: int count>":[0],"1093650048":[0],"1093650048.<java.io.StringReader: java.lang.String str>":[0],"sdaReg8":[2],"sdaReg9":[0, 3],"sdaReg7":[2, 3],"sdaReg4":[0],"1093650048.<java.io.Reader: java.lang.Object lock>":[0],"sdaReg11":[0, 3],"sdaReg12":[0, 3],"sdaReg10":[0, 3],"1093650368":[0, 1],"sdaReg3":[0],"sdaReg2":[0],"sdaReg1":[3],"sdaReg0":[2],"1093650048.<java.io.StringReader: int pos>":[0]},"colorToColor":{"0":[0, 4],"3":[0, 4]},"colorToLabel":{"0":"this","1":"arg#1","2":"arg#2","3":"arg#3","4":"return"}}}

Generated Model
	this->return
	arg#3->this
	arg#3->return

