Scanning method <java.io.InputStreamReader: void <init>(java.io.InputStream)>

All seen event types: SimpleAssignmentRecord, MethodStartRecord, LoadInstanceRecord, IfRecord, StoreInstanceRecord, NewObjectRecord, LoadStaticRecord, NewArrayRecord, BinaryOperationRecord, MethodCallRecord, MethodReturnRecord, ArrayLengthRecord, MethodEndRecord, 
Ignored event types: IfRecord, 

JSON Encoded Analysis Data (for visualization):{"heapEdges":[{"step":0,"from":"static.<java.nio.charset.Charset: java.nio.charset.Charset DEFAULT_CHARSET>","to":"1084325896","type":"load","field":"<java.nio.charset.Charset: java.nio.charset.Charset DEFAULT_CHARSET>"},{"step":1,"from":"1093647768","to":"1093647800","type":"store","field":"<java.io.Reader: java.lang.Object lock>"},{"step":2,"from":"1093647800","to":"sdaReg8","type":"create","field":"<java.io.InputStreamReader: boolean endOfInput>"},{"step":3,"from":"1093647832","to":"sdaReg22","type":"create","field":"<java.nio.Buffer: int mark>"},{"step":4,"from":"1093647832","to":"sdaReg23","type":"create","field":"<java.nio.Buffer: int position>"},{"step":5,"from":"1093647832","to":"sdaReg19","type":"create","field":"<java.nio.Buffer: int _elementSizeShift>"},{"step":6,"from":"1093647832","to":"sdaReg9","type":"create","field":"<java.nio.Buffer: int limit>"},{"step":7,"from":"sdaReg9","to":"1093647832","type":"store","field":"<java.nio.Buffer: int capacity>"},{"step":8,"from":"static.<java.nio.ByteOrder: java.nio.ByteOrder BIG_ENDIAN>","to":"1084339448","type":"load","field":"<java.nio.ByteOrder: java.nio.ByteOrder BIG_ENDIAN>"},{"step":9,"from":"1084339448","to":"1093647832","type":"store","field":"<java.nio.ByteBuffer: java.nio.ByteOrder order>"},{"step":10,"from":"1093647832","to":"1093422280","type":"create","field":"<java.nio.HeapByteBuffer: byte[] backingArray>"},{"step":11,"from":"1093647832","to":"sdaReg14","type":"create","field":"<java.nio.HeapByteBuffer: int offset>"},{"step":12,"from":"1093647800","to":"1093647832","type":"create","field":"<java.io.InputStreamReader: java.nio.ByteBuffer bytes>"},{"step":13,"from":"1093647768","to":"1093647800","type":"store","field":"<java.io.InputStreamReader: java.io.InputStream in>"},{"step":14,"from":"1084325896","to":"1084325896.<java.nio.charset.CharsetICU: java.lang.String icuCanonicalName>","type":"load","field":"<java.nio.charset.CharsetICU: java.lang.String icuCanonicalName>"},{"step":15,"from":"1084325896.<java.nio.charset.CharsetICU: java.lang.String icuCanonicalName>","to":"sdaReg36","type":"model"},{"step":16,"from":"sdaReg36","to":"sdaReg37","type":"model"},{"step":17,"from":"sdaReg37","to":"1093321696","type":"store","field":"<java.nio.charset.CharsetDecoder: float averageCharsPerByte>"},{"step":18,"from":"1093321696","to":"sdaReg42","type":"create","field":"<java.nio.charset.CharsetDecoder: float maxCharsPerByte>"},{"step":19,"from":"1084325896","to":"1093321696","type":"store","field":"<java.nio.charset.CharsetDecoder: java.nio.charset.Charset cs>"},{"step":20,"from":"1093321696","to":"sdaReg47","type":"create","field":"<java.nio.charset.CharsetDecoder: int status>"},{"step":21,"from":"static.<java.nio.charset.CodingErrorAction: java.nio.charset.CodingErrorAction REPORT>","to":"1084336272","type":"load","field":"<java.nio.charset.CodingErrorAction: java.nio.charset.CodingErrorAction REPORT>"},{"step":22,"from":"1084336272","to":"1093321696","type":"store","field":"<java.nio.charset.CharsetDecoder: java.nio.charset.CodingErrorAction malformedInputAction>"},{"step":23,"from":"static.<java.nio.charset.CodingErrorAction: java.nio.charset.CodingErrorAction REPORT>","to":"1084336272","type":"load","field":"<java.nio.charset.CodingErrorAction: java.nio.charset.CodingErrorAction REPORT>"},{"step":24,"from":"1084336272","to":"1093321696","type":"store","field":"<java.nio.charset.CharsetDecoder: java.nio.charset.CodingErrorAction unmappableCharacterAction>"},{"step":25,"from":"1093321696","to":"sdaReg48","type":"create","field":"<java.nio.charset.CharsetDecoder: java.lang.String replacementChars>"},{"step":26,"from":"1093321696","to":"1093295808","type":"create","field":"<java.nio.charset.CharsetDecoderICU: int[] data>"},{"step":27,"from":"1093321696","to":"sdaReg50","type":"create","field":"<java.nio.charset.CharsetDecoderICU: long converterHandle>"},{"step":28,"from":"1093321696","to":"sdaReg51","type":"create","field":"<java.nio.charset.CharsetDecoderICU: byte[] input>"},{"step":29,"from":"1093321696","to":"sdaReg52","type":"create","field":"<java.nio.charset.CharsetDecoderICU: char[] output>"},{"step":30,"from":"1093321696","to":"sdaReg53","type":"create","field":"<java.nio.charset.CharsetDecoderICU: byte[] allocatedInput>"},{"step":31,"from":"1093321696","to":"sdaReg54","type":"create","field":"<java.nio.charset.CharsetDecoderICU: char[] allocatedOutput>"},{"step":32,"from":"sdaReg36","to":"1093321696","type":"store","field":"<java.nio.charset.CharsetDecoderICU: long converterHandle>"},{"step":33,"from":"static.<java.nio.charset.CodingErrorAction: java.nio.charset.CodingErrorAction REPORT>","to":"1084336272","type":"load","field":"<java.nio.charset.CodingErrorAction: java.nio.charset.CodingErrorAction REPORT>"},{"step":34,"from":"static.<java.nio.charset.CodingErrorAction: java.nio.charset.CodingErrorAction REPORT>","to":"1084336272","type":"load","field":"<java.nio.charset.CodingErrorAction: java.nio.charset.CodingErrorAction REPORT>"},{"step":35,"from":"sdaReg58","to":"sdaReg63","type":"model"},{"step":36,"from":"sdaReg58","to":"sdaReg67","type":"model"},{"step":37,"from":"sdaReg58","to":"sdaReg69","type":"model"},{"step":38,"from":"sdaReg58","to":"sdaReg70","type":"model"},{"step":39,"from":"sdaReg63","to":"sdaReg58","type":"model"},{"step":40,"from":"sdaReg63","to":"sdaReg67","type":"model"},{"step":41,"from":"sdaReg63","to":"sdaReg69","type":"model"},{"step":42,"from":"sdaReg63","to":"sdaReg70","type":"model"},{"step":43,"from":"sdaReg67","to":"sdaReg58","type":"model"},{"step":44,"from":"sdaReg67","to":"sdaReg63","type":"model"},{"step":45,"from":"sdaReg67","to":"sdaReg69","type":"model"},{"step":46,"from":"sdaReg67","to":"sdaReg70","type":"model"},{"step":47,"from":"sdaReg69","to":"sdaReg58","type":"model"},{"step":48,"from":"sdaReg69","to":"sdaReg63","type":"model"},{"step":49,"from":"sdaReg69","to":"sdaReg67","type":"model"},{"step":50,"from":"sdaReg69","to":"sdaReg70","type":"model"},{"step":51,"from":"sdaReg70","to":"1093321696","type":"store","field":"<java.nio.charset.CharsetDecoderICU: int ec>"},{"step":52,"from":"static.<java.nio.charset.CodingErrorAction: java.nio.charset.CodingErrorAction REPLACE>","to":"1084051696","type":"load","field":"<java.nio.charset.CodingErrorAction: java.nio.charset.CodingErrorAction REPLACE>"},{"step":53,"from":"1084051696","to":"1093321696","type":"store","field":"<java.nio.charset.CharsetDecoder: java.nio.charset.CodingErrorAction malformedInputAction>"},{"step":54,"from":"static.<java.nio.charset.CodingErrorAction: java.nio.charset.CodingErrorAction REPORT>","to":"1084336272","type":"load","field":"<java.nio.charset.CodingErrorAction: java.nio.charset.CodingErrorAction REPORT>"},{"step":55,"from":"static.<java.nio.charset.CodingErrorAction: java.nio.charset.CodingErrorAction IGNORE>","to":"1084016976","type":"load","field":"<java.nio.charset.CodingErrorAction: java.nio.charset.CodingErrorAction IGNORE>"},{"step":56,"from":"static.<java.nio.charset.CodingErrorAction: java.nio.charset.CodingErrorAction REPLACE>","to":"1084051696","type":"load","field":"<java.nio.charset.CodingErrorAction: java.nio.charset.CodingErrorAction REPLACE>"},{"step":57,"from":"static.<java.nio.charset.CodingErrorAction: java.nio.charset.CodingErrorAction REPORT>","to":"1084336272","type":"load","field":"<java.nio.charset.CodingErrorAction: java.nio.charset.CodingErrorAction REPORT>"},{"step":58,"from":"sdaReg82","to":"sdaReg87","type":"model"},{"step":59,"from":"sdaReg82","to":"sdaReg91","type":"model"},{"step":60,"from":"sdaReg82","to":"sdaReg93","type":"model"},{"step":61,"from":"sdaReg82","to":"sdaReg94","type":"model"},{"step":62,"from":"sdaReg87","to":"sdaReg82","type":"model"},{"step":63,"from":"sdaReg87","to":"sdaReg91","type":"model"},{"step":64,"from":"sdaReg87","to":"sdaReg93","type":"model"},{"step":65,"from":"sdaReg87","to":"sdaReg94","type":"model"},{"step":66,"from":"sdaReg91","to":"sdaReg82","type":"model"},{"step":67,"from":"sdaReg91","to":"sdaReg87","type":"model"},{"step":68,"from":"sdaReg91","to":"sdaReg93","type":"model"},{"step":69,"from":"sdaReg91","to":"sdaReg94","type":"model"},{"step":70,"from":"sdaReg93","to":"sdaReg82","type":"model"},{"step":71,"from":"sdaReg93","to":"sdaReg87","type":"model"},{"step":72,"from":"sdaReg93","to":"sdaReg91","type":"model"},{"step":73,"from":"sdaReg93","to":"sdaReg94","type":"model"},{"step":74,"from":"sdaReg94","to":"1093321696","type":"store","field":"<java.nio.charset.CharsetDecoderICU: int ec>"},{"step":75,"from":"static.<java.nio.charset.CodingErrorAction: java.nio.charset.CodingErrorAction REPLACE>","to":"1084051696","type":"load","field":"<java.nio.charset.CodingErrorAction: java.nio.charset.CodingErrorAction REPLACE>"},{"step":76,"from":"1084051696","to":"1093321696","type":"store","field":"<java.nio.charset.CharsetDecoder: java.nio.charset.CodingErrorAction unmappableCharacterAction>"},{"step":77,"from":"static.<java.nio.charset.CodingErrorAction: java.nio.charset.CodingErrorAction REPORT>","to":"1084336272","type":"load","field":"<java.nio.charset.CodingErrorAction: java.nio.charset.CodingErrorAction REPORT>"},{"step":78,"from":"static.<java.nio.charset.CodingErrorAction: java.nio.charset.CodingErrorAction IGNORE>","to":"1084016976","type":"load","field":"<java.nio.charset.CodingErrorAction: java.nio.charset.CodingErrorAction IGNORE>"},{"step":79,"from":"static.<java.nio.charset.CodingErrorAction: java.nio.charset.CodingErrorAction REPLACE>","to":"1084051696","type":"load","field":"<java.nio.charset.CodingErrorAction: java.nio.charset.CodingErrorAction REPLACE>"},{"step":80,"from":"static.<java.nio.charset.CodingErrorAction: java.nio.charset.CodingErrorAction REPORT>","to":"1084336272","type":"load","field":"<java.nio.charset.CodingErrorAction: java.nio.charset.CodingErrorAction REPORT>"},{"step":81,"from":"static.<java.nio.charset.CodingErrorAction: java.nio.charset.CodingErrorAction IGNORE>","to":"1084016976","type":"load","field":"<java.nio.charset.CodingErrorAction: java.nio.charset.CodingErrorAction IGNORE>"},{"step":82,"from":"static.<java.nio.charset.CodingErrorAction: java.nio.charset.CodingErrorAction REPLACE>","to":"1084051696","type":"load","field":"<java.nio.charset.CodingErrorAction: java.nio.charset.CodingErrorAction REPLACE>"},{"step":83,"from":"sdaReg103","to":"sdaReg108","type":"model"},{"step":84,"from":"sdaReg103","to":"sdaReg112","type":"model"},{"step":85,"from":"sdaReg103","to":"sdaReg114","type":"model"},{"step":86,"from":"sdaReg103","to":"sdaReg115","type":"model"},{"step":87,"from":"sdaReg108","to":"sdaReg103","type":"model"},{"step":88,"from":"sdaReg108","to":"sdaReg112","type":"model"},{"step":89,"from":"sdaReg108","to":"sdaReg114","type":"model"},{"step":90,"from":"sdaReg108","to":"sdaReg115","type":"model"},{"step":91,"from":"sdaReg112","to":"sdaReg103","type":"model"},{"step":92,"from":"sdaReg112","to":"sdaReg108","type":"model"},{"step":93,"from":"sdaReg112","to":"sdaReg114","type":"model"},{"step":94,"from":"sdaReg112","to":"sdaReg115","type":"model"},{"step":95,"from":"sdaReg114","to":"sdaReg103","type":"model"},{"step":96,"from":"sdaReg114","to":"sdaReg108","type":"model"},{"step":97,"from":"sdaReg114","to":"sdaReg112","type":"model"},{"step":98,"from":"sdaReg114","to":"sdaReg115","type":"model"},{"step":99,"from":"sdaReg115","to":"1093321696","type":"store","field":"<java.nio.charset.CharsetDecoderICU: int ec>"},{"step":100,"from":"1093647800","to":"1093321696","type":"create","field":"<java.io.InputStreamReader: java.nio.charset.CharsetDecoder decoder>"},{"step":101,"from":"1093647832","to":"sdaReg120","type":"create","field":"<java.nio.Buffer: int limit>"}],"parameters":[{"id":"1093647800","name":"this","klass":"java.io.InputStreamReader"},{"id":"1093647768","name":"arg#1","klass":"java.io.InputStream"}],"returns":[{"id":"1093647800","name":"return","klass":"java.io.InputStreamReader"}],"colors":{"heapLocToColor":{"1093321696":[8],"sdaReg68":[8],"sdaReg66":[9],"1093647768":[1],"sdaReg64":[8],"sdaReg65":[9],"sdaReg62":[9],"sdaReg13":[4],"sdaReg11":[3],"sdaReg70":[11],"sdaReg12":[3],"sdaReg10":[3],"sdaReg122":[0],"sdaReg121":[3],"sdaReg18":[3],"sdaReg15":[3],"sdaReg16":[3],"sdaReg115":[15],"sdaReg118":[8],"sdaReg119":[3],"sdaReg77":[8],"sdaReg78":[12],"sdaReg79":[8],"sdaReg73":[8],"sdaReg74":[6],"sdaReg75":[8],"sdaReg76":[8],"sdaReg81":[8],"sdaReg80":[12],"sdaReg83":[8],"1093422280":[4],"1093647800":[0],"sdaReg113":[8],"sdaReg111":[12],"sdaReg110":[12],"sdaReg107":[12],"sdaReg109":[8],"sdaReg104":[8],"sdaReg105":[8],"sdaReg106":[12],"sdaReg86":[12],"sdaReg84":[8],"sdaReg85":[12],"sdaReg88":[8],"sdaReg89":[9],"sdaReg90":[9],"sdaReg94":[14],"1093647832":[3],"sdaReg92":[8],"sdaReg100":[8],"sdaReg102":[8],"static.<java.nio.charset.CodingErrorAction: java.nio.charset.CodingErrorAction REPLACE>":[12],"1084051696":[12],"sdaReg101":[12],"sdaReg97":[8],"sdaReg98":[8],"sdaReg99":[12],"1084339448":[5],"1093295808":[10],"1084016976":[13],"sdaReg60":[8],"sdaReg61":[9],"sdaReg59":[8],"sdaReg57":[8],"sdaReg56":[8],"sdaReg55":[8],"static.<java.nio.ByteOrder: java.nio.ByteOrder BIG_ENDIAN>":[5],"static.<java.nio.charset.CodingErrorAction: java.nio.charset.CodingErrorAction IGNORE>":[13],"sdaReg49":[8],"static.<java.nio.charset.CodingErrorAction: java.nio.charset.CodingErrorAction REPORT>":[9],"sdaReg44":[7],"1084336272":[9],"1084325896.<java.nio.charset.CharsetICU: java.lang.String icuCanonicalName>":[2],"sdaReg46":[7],"sdaReg41":[2],"sdaReg40":[8],"sdaReg43":[8],"static.<java.nio.charset.Charset: java.nio.charset.Charset DEFAULT_CHARSET>":[2],"sdaReg39":[2],"sdaReg38":[8],"sdaReg37":[7],"sdaReg32":[3],"sdaReg31":[3],"sdaReg30":[3],"sdaReg36":[6],"sdaReg34":[2],"sdaReg33":[2],"sdaReg6":[0],"sdaReg7":[0],"sdaReg4":[0],"sdaReg5":[1],"1084325896":[2],"sdaReg26":[3],"sdaReg29":[3],"sdaReg3":[2],"sdaReg2":[1],"sdaReg1":[0],"sdaReg21":[3],"sdaReg0":[2],"sdaReg25":[3],"sdaReg24":[3]},"colorToColor":{"0":[16],"1":[0],"2":[6, 8],"3":[0],"4":[3],"5":[3],"6":[7, 8],"7":[8],"8":[0],"9":[8],"10":[8],"11":[8],"12":[8],"14":[8],"15":[8]},"colorToLabel":{"0":"this","1":"arg#1","2":"<java.nio.charset.Charset: java.nio.charset.Charset DEFAULT_CHARSET>","5":"<java.nio.ByteOrder: java.nio.ByteOrder BIG_ENDIAN>","9":"<java.nio.charset.CodingErrorAction: java.nio.charset.CodingErrorAction REPORT>","12":"<java.nio.charset.CodingErrorAction: java.nio.charset.CodingErrorAction REPLACE>","13":"<java.nio.charset.CodingErrorAction: java.nio.charset.CodingErrorAction IGNORE>","16":"return"}}}

Generated Model
	this->return
	arg#1->this
	arg#1->return

