Scanning method <android.util.Base64: void <clinit>()>

All seen event types: StoreStaticRecord, SimpleAssignmentRecord, MethodReturnRecord, MethodCallRecord, IfRecord, 
Ignored event types: IfRecord, 

JSON Encoded Analysis Data (for visualization):{"heapEdges":[{"step":0,"from":"1084936224","to":"sdaReg1","type":"model"},{"step":1,"from":"sdaReg2","to":"static.<android.util.Base64: boolean $assertionsDisabled>","type":"store","field":"<android.util.Base64: boolean $assertionsDisabled>"}],"parameters":[],"returns":[{"id":null,"name":"return","klass":null}],"colors":{"heapLocToColor":{"sdaReg1":[0],"static.<android.util.Base64: boolean $assertionsDisabled>":[1]},"colorToColor":{},"colorToLabel":{"1":"<android.util.Base64: boolean $assertionsDisabled>","2":"return"}}}

Generated Model

