Scanning method <java.io.ObjectInputStream: void checkedSetSuperClassDesc(java.io.ObjectStreamClass,java.io.ObjectStreamClass)>

All seen event types: MethodReturnRecord, MethodCallRecord, IfRecord, 
Ignored event types: IfRecord, 

JSON Encoded Analysis Data (for visualization):{"heapEdges":[],"parameters":[{"id":"1093299576","name":"arg#0","klass":"java.io.ObjectStreamClass"},{"id":"0","name":"arg#1","klass":"java.io.ObjectStreamClass"}],"returns":[{"id":null,"name":"return","klass":null}],"colors":{"heapLocToColor":{"1093299576":[0],"0":[1],"sdaReg0":[2]},"colorToColor":{},"colorToLabel":{"0":"arg#0","1":"arg#1","3":"return"}}}

Generated Model

