Scanning method <java.io.ObjectInputStream: java.io.ObjectStreamClass readClassDescriptor()>

All seen event types: StoreArrayRecord, SimpleAssignmentRecord, LoadInstanceRecord, MethodStartRecord, IfRecord, StoreInstanceRecord, NewObjectRecord, LoadStaticRecord, NewArrayRecord, BinaryOperationRecord, SwitchRecord, MethodCallRecord, MethodReturnRecord, ArrayLengthRecord, CastRecord, LoadArrayRecord, MethodEndRecord, 
Ignored event types: SwitchRecord, IfRecord, 

JSON Encoded Analysis Data (for visualization):{"heapEdges":[{"step":0,"from":"1093381560","to":"1093340944","type":"load","field":"<java.io.ObjectInputStream: java.io.DataInputStream input>"},{"step":1,"from":"1093340944","to":"1093381648","type":"load","field":"<java.io.FilterInputStream: java.io.InputStream in>"},{"step":2,"from":"1093340944","to":"1093340968","type":"load","field":"<java.io.DataInputStream: byte[] scratch>"},{"step":3,"from":"1093381648","to":"1093340968","type":"model"},{"step":4,"from":"1093340944","to":"1093340968","type":"load","field":"<java.io.DataInputStream: byte[] scratch>"},{"step":5,"from":"static.<java.nio.ByteOrder: java.nio.ByteOrder BIG_ENDIAN>","to":"1084339448","type":"load","field":"<java.nio.ByteOrder: java.nio.ByteOrder BIG_ENDIAN>"},{"step":6,"from":"1093340968","to":"sdaReg5","type":"model"},{"step":7,"from":"1093340944","to":"1093381648","type":"load","field":"<java.io.FilterInputStream: java.io.InputStream in>"},{"step":8,"from":"1093381648","to":"1093307744","type":"model"},{"step":9,"from":"1093307744","to":"1093307744.arrayIdx_int:0","type":"load","field":"arrayIdx_int:0"},{"step":10,"from":"sdaReg19","to":"1093345480","type":"store","field":"arrayIdx_int:0"},{"step":11,"from":"1093307744","to":"1093307744.arrayIdx_int:1","type":"load","field":"arrayIdx_int:1"},{"step":12,"from":"sdaReg19","to":"1093345480","type":"store","field":"arrayIdx_int:1"},{"step":13,"from":"1093307744","to":"1093307744.arrayIdx_int:2","type":"load","field":"arrayIdx_int:2"},{"step":14,"from":"sdaReg19","to":"1093345480","type":"store","field":"arrayIdx_int:2"},{"step":15,"from":"1093307744","to":"1093307744.arrayIdx_int:3","type":"load","field":"arrayIdx_int:3"},{"step":16,"from":"sdaReg19","to":"1093345480","type":"store","field":"arrayIdx_int:3"},{"step":17,"from":"1093307744","to":"1093307744.arrayIdx_int:4","type":"load","field":"arrayIdx_int:4"},{"step":18,"from":"sdaReg19","to":"1093345480","type":"store","field":"arrayIdx_int:4"},{"step":19,"from":"1093307744","to":"1093307744.arrayIdx_int:5","type":"load","field":"arrayIdx_int:5"},{"step":20,"from":"sdaReg19","to":"1093345480","type":"store","field":"arrayIdx_int:5"},{"step":21,"from":"1093307744","to":"1093307744.arrayIdx_int:6","type":"load","field":"arrayIdx_int:6"},{"step":22,"from":"sdaReg19","to":"1093345480","type":"store","field":"arrayIdx_int:6"},{"step":23,"from":"1093307744","to":"1093307744.arrayIdx_int:7","type":"load","field":"arrayIdx_int:7"},{"step":24,"from":"sdaReg19","to":"1093345480","type":"store","field":"arrayIdx_int:7"},{"step":25,"from":"1093307744","to":"1093307744.arrayIdx_int:8","type":"load","field":"arrayIdx_int:8"},{"step":26,"from":"sdaReg19","to":"1093345480","type":"store","field":"arrayIdx_int:8"},{"step":27,"from":"1093307744","to":"1093307744.arrayIdx_int:9","type":"load","field":"arrayIdx_int:9"},{"step":28,"from":"sdaReg19","to":"1093345480","type":"store","field":"arrayIdx_int:9"},{"step":29,"from":"1093307744","to":"1093307744.arrayIdx_int:10","type":"load","field":"arrayIdx_int:10"},{"step":30,"from":"sdaReg19","to":"1093345480","type":"store","field":"arrayIdx_int:10"},{"step":31,"from":"1093307744","to":"1093307744.arrayIdx_int:11","type":"load","field":"arrayIdx_int:11"},{"step":32,"from":"sdaReg19","to":"1093345480","type":"store","field":"arrayIdx_int:11"},{"step":33,"from":"1093307744","to":"1093307744.arrayIdx_int:12","type":"load","field":"arrayIdx_int:12"},{"step":34,"from":"sdaReg19","to":"1093345480","type":"store","field":"arrayIdx_int:12"},{"step":35,"from":"1093307744","to":"1093307744.arrayIdx_int:13","type":"load","field":"arrayIdx_int:13"},{"step":36,"from":"sdaReg19","to":"1093345480","type":"store","field":"arrayIdx_int:13"},{"step":37,"from":"1093307744","to":"1093307744.arrayIdx_int:14","type":"load","field":"arrayIdx_int:14"},{"step":38,"from":"sdaReg19","to":"1093345480","type":"store","field":"arrayIdx_int:14"},{"step":39,"from":"1093307744","to":"1093307744.arrayIdx_int:15","type":"load","field":"arrayIdx_int:15"},{"step":40,"from":"sdaReg19","to":"1093345480","type":"store","field":"arrayIdx_int:15"},{"step":41,"from":"1093307744","to":"1093307744.arrayIdx_int:16","type":"load","field":"arrayIdx_int:16"},{"step":42,"from":"sdaReg19","to":"1093345480","type":"store","field":"arrayIdx_int:16"},{"step":43,"from":"1093307744","to":"1093307744.arrayIdx_int:17","type":"load","field":"arrayIdx_int:17"},{"step":44,"from":"sdaReg19","to":"1093345480","type":"store","field":"arrayIdx_int:17"},{"step":45,"from":"1093307744","to":"1093307744.arrayIdx_int:18","type":"load","field":"arrayIdx_int:18"},{"step":46,"from":"sdaReg19","to":"1093345480","type":"store","field":"arrayIdx_int:18"},{"step":47,"from":"1093307744","to":"1093307744.arrayIdx_int:19","type":"load","field":"arrayIdx_int:19"},{"step":48,"from":"sdaReg19","to":"1093345480","type":"store","field":"arrayIdx_int:19"},{"step":49,"from":"1093307744","to":"1093307744.arrayIdx_int:20","type":"load","field":"arrayIdx_int:20"},{"step":50,"from":"sdaReg19","to":"1093345480","type":"store","field":"arrayIdx_int:20"},{"step":51,"from":"1093307744","to":"1093307744.arrayIdx_int:21","type":"load","field":"arrayIdx_int:21"},{"step":52,"from":"sdaReg19","to":"1093345480","type":"store","field":"arrayIdx_int:21"},{"step":53,"from":"1093307744","to":"1093307744.arrayIdx_int:22","type":"load","field":"arrayIdx_int:22"},{"step":54,"from":"sdaReg19","to":"1093345480","type":"store","field":"arrayIdx_int:22"},{"step":55,"from":"1093307744","to":"1093307744.arrayIdx_int:23","type":"load","field":"arrayIdx_int:23"},{"step":56,"from":"sdaReg19","to":"1093345480","type":"store","field":"arrayIdx_int:23"},{"step":57,"from":"1093307744","to":"1093307744.arrayIdx_int:24","type":"load","field":"arrayIdx_int:24"},{"step":58,"from":"sdaReg19","to":"1093345480","type":"store","field":"arrayIdx_int:24"},{"step":59,"from":"1093307744","to":"1093307744.arrayIdx_int:25","type":"load","field":"arrayIdx_int:25"},{"step":60,"from":"sdaReg19","to":"1093345480","type":"store","field":"arrayIdx_int:25"},{"step":61,"from":"1093307744","to":"1093307744.arrayIdx_int:26","type":"load","field":"arrayIdx_int:26"},{"step":62,"from":"sdaReg19","to":"1093345480","type":"store","field":"arrayIdx_int:26"},{"step":63,"from":"1093307744","to":"1093307744.arrayIdx_int:27","type":"load","field":"arrayIdx_int:27"},{"step":64,"from":"sdaReg19","to":"1093345480","type":"store","field":"arrayIdx_int:27"},{"step":65,"from":"1093307744","to":"1093307744.arrayIdx_int:28","type":"load","field":"arrayIdx_int:28"},{"step":66,"from":"sdaReg19","to":"1093345480","type":"store","field":"arrayIdx_int:28"},{"step":67,"from":"1093307744","to":"1093307744.arrayIdx_int:29","type":"load","field":"arrayIdx_int:29"},{"step":68,"from":"sdaReg19","to":"1093345480","type":"store","field":"arrayIdx_int:29"},{"step":69,"from":"1093307744","to":"1093307744.arrayIdx_int:30","type":"load","field":"arrayIdx_int:30"},{"step":70,"from":"sdaReg19","to":"1093345480","type":"store","field":"arrayIdx_int:30"},{"step":71,"from":"1093307744","to":"1093307744.arrayIdx_int:31","type":"load","field":"arrayIdx_int:31"},{"step":72,"from":"sdaReg19","to":"1093345480","type":"store","field":"arrayIdx_int:31"},{"step":73,"from":"1093307744","to":"1093307744.arrayIdx_int:32","type":"load","field":"arrayIdx_int:32"},{"step":74,"from":"sdaReg19","to":"1093345480","type":"store","field":"arrayIdx_int:32"},{"step":75,"from":"1093307744","to":"1093307744.arrayIdx_int:33","type":"load","field":"arrayIdx_int:33"},{"step":76,"from":"sdaReg19","to":"1093345480","type":"store","field":"arrayIdx_int:33"},{"step":77,"from":"1093307744","to":"1093307744.arrayIdx_int:34","type":"load","field":"arrayIdx_int:34"},{"step":78,"from":"sdaReg19","to":"1093345480","type":"store","field":"arrayIdx_int:34"},{"step":79,"from":"1093307744","to":"1093307744.arrayIdx_int:35","type":"load","field":"arrayIdx_int:35"},{"step":80,"from":"sdaReg19","to":"1093345480","type":"store","field":"arrayIdx_int:35"},{"step":81,"from":"1093307744","to":"1093307744.arrayIdx_int:36","type":"load","field":"arrayIdx_int:36"},{"step":82,"from":"sdaReg19","to":"1093345480","type":"store","field":"arrayIdx_int:36"},{"step":83,"from":"1093307744","to":"1093307744.arrayIdx_int:37","type":"load","field":"arrayIdx_int:37"},{"step":84,"from":"sdaReg19","to":"1093345480","type":"store","field":"arrayIdx_int:37"},{"step":85,"from":"1093307744","to":"1093307744.arrayIdx_int:38","type":"load","field":"arrayIdx_int:38"},{"step":86,"from":"sdaReg19","to":"1093345480","type":"store","field":"arrayIdx_int:38"},{"step":87,"from":"1093307744","to":"1093307744.arrayIdx_int:39","type":"load","field":"arrayIdx_int:39"},{"step":88,"from":"sdaReg19","to":"1093345480","type":"store","field":"arrayIdx_int:39"},{"step":89,"from":"1093307744","to":"1093307744.arrayIdx_int:40","type":"load","field":"arrayIdx_int:40"},{"step":90,"from":"sdaReg19","to":"1093345480","type":"store","field":"arrayIdx_int:40"},{"step":91,"from":"1093307744","to":"1093307744.arrayIdx_int:41","type":"load","field":"arrayIdx_int:41"},{"step":92,"from":"sdaReg19","to":"1093345480","type":"store","field":"arrayIdx_int:41"},{"step":93,"from":"1093307744","to":"1093307744.arrayIdx_int:42","type":"load","field":"arrayIdx_int:42"},{"step":94,"from":"sdaReg19","to":"1093345480","type":"store","field":"arrayIdx_int:42"},{"step":95,"from":"1093307744","to":"1093307744.arrayIdx_int:43","type":"load","field":"arrayIdx_int:43"},{"step":96,"from":"sdaReg19","to":"1093345480","type":"store","field":"arrayIdx_int:43"},{"step":97,"from":"1093307744","to":"1093307744.arrayIdx_int:44","type":"load","field":"arrayIdx_int:44"},{"step":98,"from":"sdaReg19","to":"1093345480","type":"store","field":"arrayIdx_int:44"},{"step":99,"from":"1093307744","to":"1093307744.arrayIdx_int:45","type":"load","field":"arrayIdx_int:45"},{"step":100,"from":"sdaReg19","to":"1093345480","type":"store","field":"arrayIdx_int:45"},{"step":101,"from":"1093307744","to":"1093307744.arrayIdx_int:46","type":"load","field":"arrayIdx_int:46"},{"step":102,"from":"sdaReg19","to":"1093345480","type":"store","field":"arrayIdx_int:46"},{"step":103,"from":"1093307744","to":"1093307744.arrayIdx_int:47","type":"load","field":"arrayIdx_int:47"},{"step":104,"from":"sdaReg19","to":"1093345480","type":"store","field":"arrayIdx_int:47"},{"step":105,"from":"1093307744","to":"1093307744.arrayIdx_int:48","type":"load","field":"arrayIdx_int:48"},{"step":106,"from":"sdaReg19","to":"1093345480","type":"store","field":"arrayIdx_int:48"},{"step":107,"from":"1093307744","to":"1093307744.arrayIdx_int:49","type":"load","field":"arrayIdx_int:49"},{"step":108,"from":"sdaReg19","to":"1093345480","type":"store","field":"arrayIdx_int:49"},{"step":109,"from":"1093307744","to":"1093307744.arrayIdx_int:50","type":"load","field":"arrayIdx_int:50"},{"step":110,"from":"sdaReg19","to":"1093345480","type":"store","field":"arrayIdx_int:50"},{"step":111,"from":"1093307744","to":"1093307744.arrayIdx_int:51","type":"load","field":"arrayIdx_int:51"},{"step":112,"from":"sdaReg19","to":"1093345480","type":"store","field":"arrayIdx_int:51"},{"step":113,"from":"1093307744","to":"1093307744.arrayIdx_int:52","type":"load","field":"arrayIdx_int:52"},{"step":114,"from":"sdaReg19","to":"1093345480","type":"store","field":"arrayIdx_int:52"},{"step":115,"from":"1093307744","to":"1093307744.arrayIdx_int:53","type":"load","field":"arrayIdx_int:53"},{"step":116,"from":"sdaReg19","to":"1093345480","type":"store","field":"arrayIdx_int:53"},{"step":117,"from":"1093307744","to":"1093307744.arrayIdx_int:54","type":"load","field":"arrayIdx_int:54"},{"step":118,"from":"sdaReg19","to":"1093345480","type":"store","field":"arrayIdx_int:54"},{"step":119,"from":"1093307744","to":"1093307744.arrayIdx_int:55","type":"load","field":"arrayIdx_int:55"},{"step":120,"from":"sdaReg19","to":"1093345480","type":"store","field":"arrayIdx_int:55"},{"step":121,"from":"1093307744","to":"1093307744.arrayIdx_int:56","type":"load","field":"arrayIdx_int:56"},{"step":122,"from":"sdaReg19","to":"1093345480","type":"store","field":"arrayIdx_int:56"},{"step":123,"from":"1093307744","to":"1093307744.arrayIdx_int:57","type":"load","field":"arrayIdx_int:57"},{"step":124,"from":"sdaReg19","to":"1093345480","type":"store","field":"arrayIdx_int:57"},{"step":125,"from":"1093307744","to":"1093307744.arrayIdx_int:58","type":"load","field":"arrayIdx_int:58"},{"step":126,"from":"sdaReg19","to":"1093345480","type":"store","field":"arrayIdx_int:58"},{"step":127,"from":"1093307744","to":"1093307744.arrayIdx_int:59","type":"load","field":"arrayIdx_int:59"},{"step":128,"from":"sdaReg19","to":"1093345480","type":"store","field":"arrayIdx_int:59"},{"step":129,"from":"1093345480","to":"sdaReg20","type":"model"},{"step":130,"from":"1093299576","to":"sdaReg20","type":"model"},{"step":131,"from":"sdaReg20","to":"1093299576","type":"model"},{"step":132,"from":"1093381560","to":"1093340944","type":"load","field":"<java.io.ObjectInputStream: java.io.DataInputStream input>"},{"step":133,"from":"1093340944","to":"1093381648","type":"load","field":"<java.io.FilterInputStream: java.io.InputStream in>"},{"step":134,"from":"1093340944","to":"1093340968","type":"load","field":"<java.io.DataInputStream: byte[] scratch>"},{"step":135,"from":"1093381648","to":"1093340968","type":"model"},{"step":136,"from":"1093340944","to":"1093340968","type":"load","field":"<java.io.DataInputStream: byte[] scratch>"},{"step":137,"from":"static.<java.nio.ByteOrder: java.nio.ByteOrder BIG_ENDIAN>","to":"1084339448","type":"load","field":"<java.nio.ByteOrder: java.nio.ByteOrder BIG_ENDIAN>"},{"step":138,"from":"1093340968","to":"sdaReg23","type":"model"},{"step":139,"from":"1093299576","to":"sdaReg23","type":"model"},{"step":140,"from":"sdaReg23","to":"1093299576","type":"model"},{"step":141,"from":"1093381560","to":"1093340944","type":"load","field":"<java.io.ObjectInputStream: java.io.DataInputStream input>"},{"step":142,"from":"1093340944","to":"1093381648","type":"load","field":"<java.io.FilterInputStream: java.io.InputStream in>"},{"step":143,"from":"1093381648","to":"1093381648.<java.io.ByteArrayInputStream: int pos>","type":"load","field":"<java.io.ByteArrayInputStream: int pos>"},{"step":144,"from":"1093381648","to":"1093381648.<java.io.ByteArrayInputStream: int count>","type":"load","field":"<java.io.ByteArrayInputStream: int count>"},{"step":145,"from":"1093381648","to":"1093381680","type":"load","field":"<java.io.ByteArrayInputStream: byte[] buf>"},{"step":146,"from":"1093381648","to":"1093381648.<java.io.ByteArrayInputStream: int pos>","type":"load","field":"<java.io.ByteArrayInputStream: int pos>"},{"step":147,"from":"sdaReg26","to":"1093381648","type":"store","field":"<java.io.ByteArrayInputStream: int pos>"},{"step":148,"from":"1093381680","to":"1093381680.arrayIdx_int:151","type":"load","field":"arrayIdx_int:151"},{"step":149,"from":"1093299576","to":"sdaReg28","type":"model"},{"step":150,"from":"sdaReg28","to":"1093299576","type":"model"},{"step":151,"from":"1093381560","to":"1093381560.<java.io.ObjectInputStream: int descriptorHandle>","type":"load","field":"<java.io.ObjectInputStream: int descriptorHandle>"},{"step":152,"from":"1093381560","to":"1093381560.<java.io.ObjectInputStream: int descriptorHandle>","type":"load","field":"<java.io.ObjectInputStream: int descriptorHandle>"},{"step":153,"from":"1093381560","to":"1093341056","type":"load","field":"<java.io.ObjectInputStream: java.util.ArrayList objectsRead>"},{"step":154,"from":"1093341056","to":"1093341056.<java.util.ArrayList: int size>","type":"load","field":"<java.util.ArrayList: int size>"},{"step":155,"from":"1093381560","to":"1093341056","type":"load","field":"<java.io.ObjectInputStream: java.util.ArrayList objectsRead>"},{"step":156,"from":"1093341056","to":"1093346672","type":"load","field":"<java.util.ArrayList: java.lang.Object[] array>"},{"step":157,"from":"1093341056","to":"1093341056.<java.util.ArrayList: int size>","type":"load","field":"<java.util.ArrayList: int size>"},{"step":158,"from":"1093346672","to":"1093299576","type":"create","field":"arrayIdx_int:1"},{"step":159,"from":"sdaReg37","to":"1093341056","type":"store","field":"<java.util.ArrayList: int size>"},{"step":160,"from":"1093341056","to":"1093341056.<java.util.AbstractList: int modCount>","type":"load","field":"<java.util.AbstractList: int modCount>"},{"step":161,"from":"sdaReg38","to":"1093341056","type":"store","field":"<java.util.AbstractList: int modCount>"},{"step":162,"from":"1093381560","to":"1093340944","type":"load","field":"<java.io.ObjectInputStream: java.io.DataInputStream input>"},{"step":163,"from":"1093340944","to":"1093381648","type":"load","field":"<java.io.FilterInputStream: java.io.InputStream in>"},{"step":164,"from":"1093340944","to":"1093340968","type":"load","field":"<java.io.DataInputStream: byte[] scratch>"},{"step":165,"from":"1093381648","to":"1093340968","type":"model"},{"step":166,"from":"1093340944","to":"1093340968","type":"load","field":"<java.io.DataInputStream: byte[] scratch>"},{"step":167,"from":"static.<java.nio.ByteOrder: java.nio.ByteOrder BIG_ENDIAN>","to":"1084339448","type":"load","field":"<java.nio.ByteOrder: java.nio.ByteOrder BIG_ENDIAN>"},{"step":168,"from":"1093340968","to":"sdaReg43","type":"model"},{"step":169,"from":"1093299576","to":"1094464912","type":"model"},{"step":170,"from":"1094464912","to":"1093299576","type":"model"},{"step":171,"from":"1093381560","to":"1093340944","type":"load","field":"<java.io.ObjectInputStream: java.io.DataInputStream input>"},{"step":172,"from":"1093340944","to":"1093381648","type":"load","field":"<java.io.FilterInputStream: java.io.InputStream in>"},{"step":173,"from":"1093381648","to":"1093381648.<java.io.ByteArrayInputStream: int count>","type":"load","field":"<java.io.ByteArrayInputStream: int count>"},{"step":174,"from":"1093381648","to":"1093381680","type":"load","field":"<java.io.ByteArrayInputStream: byte[] buf>"},{"step":175,"from":"sdaReg47","to":"1093381648","type":"store","field":"<java.io.ByteArrayInputStream: int pos>"},{"step":176,"from":"1093381680","to":"1093381680.arrayIdx_int:154","type":"load","field":"arrayIdx_int:154"},{"step":177,"from":"1093381560","to":"1093340944","type":"load","field":"<java.io.ObjectInputStream: java.io.DataInputStream input>"},{"step":178,"from":"1093340944","to":"1093381648","type":"load","field":"<java.io.FilterInputStream: java.io.InputStream in>"},{"step":179,"from":"1093340944","to":"1093340968","type":"load","field":"<java.io.DataInputStream: byte[] scratch>"},{"step":180,"from":"1093381648","to":"1093340968","type":"model"},{"step":181,"from":"1093340944","to":"1093340968","type":"load","field":"<java.io.DataInputStream: byte[] scratch>"},{"step":182,"from":"static.<java.nio.ByteOrder: java.nio.ByteOrder BIG_ENDIAN>","to":"1084339448","type":"load","field":"<java.nio.ByteOrder: java.nio.ByteOrder BIG_ENDIAN>"},{"step":183,"from":"1093340968","to":"sdaReg54","type":"model"},{"step":184,"from":"1093340944","to":"1093381648","type":"load","field":"<java.io.FilterInputStream: java.io.InputStream in>"},{"step":185,"from":"1093381648","to":"1094475080","type":"model"},{"step":186,"from":"1094475080","to":"1094475080.arrayIdx_int:0","type":"load","field":"arrayIdx_int:0"},{"step":187,"from":"sdaReg68","to":"1094495392","type":"store","field":"arrayIdx_int:0"},{"step":188,"from":"1094475080","to":"1094475080.arrayIdx_int:1","type":"load","field":"arrayIdx_int:1"},{"step":189,"from":"sdaReg68","to":"1094495392","type":"store","field":"arrayIdx_int:1"},{"step":190,"from":"1094475080","to":"1094475080.arrayIdx_int:2","type":"load","field":"arrayIdx_int:2"},{"step":191,"from":"sdaReg68","to":"1094495392","type":"store","field":"arrayIdx_int:2"},{"step":192,"from":"1094475080","to":"1094475080.arrayIdx_int:3","type":"load","field":"arrayIdx_int:3"},{"step":193,"from":"sdaReg68","to":"1094495392","type":"store","field":"arrayIdx_int:3"},{"step":194,"from":"1094495392","to":"sdaReg69","type":"model"},{"step":195,"from":"sdaReg50","to":"sdaReg70","type":"model"},{"step":196,"from":"1093381560","to":"1093381560.<java.io.ObjectInputStream: boolean enableResolve>","type":"load","field":"<java.io.ObjectInputStream: boolean enableResolve>"},{"step":197,"from":"1093381560","to":"sdaReg71","type":"create","field":"<java.io.ObjectInputStream: boolean enableResolve>"},{"step":198,"from":"1093381560","to":"1093340944","type":"load","field":"<java.io.ObjectInputStream: java.io.InputStream primitiveData>"},{"step":199,"from":"1093381560","to":"1093340944","type":"load","field":"<java.io.ObjectInputStream: java.io.DataInputStream input>"},{"step":200,"from":"1093381560","to":"1093381896","type":"load","field":"<java.io.ObjectInputStream: java.io.InputStream emptyStream>"},{"step":201,"from":"1093381896","to":"1093381560","type":"store","field":"<java.io.ObjectInputStream: java.io.InputStream primitiveData>"},{"step":202,"from":"1093381560","to":"1093381560.<java.io.ObjectInputStream: boolean subclassOverridingImplementation>","type":"load","field":"<java.io.ObjectInputStream: boolean subclassOverridingImplementation>"},{"step":203,"from":"1093381560","to":"1093381560.<java.io.ObjectInputStream: int nestedLevels>","type":"load","field":"<java.io.ObjectInputStream: int nestedLevels>"},{"step":204,"from":"sdaReg77","to":"1093381560","type":"store","field":"<java.io.ObjectInputStream: int nestedLevels>"},{"step":205,"from":"1093381560","to":"1093340944","type":"load","field":"<java.io.ObjectInputStream: java.io.DataInputStream input>"},{"step":206,"from":"1093381896","to":"1093381896.<java.io.ByteArrayInputStream: int count>","type":"load","field":"<java.io.ByteArrayInputStream: int count>"},{"step":207,"from":"1093381896","to":"1093381896.<java.io.ByteArrayInputStream: int pos>","type":"load","field":"<java.io.ByteArrayInputStream: int pos>"},{"step":208,"from":"1093381560","to":"1093381560.<java.io.ObjectInputStream: boolean hasPushbackTC>","type":"load","field":"<java.io.ObjectInputStream: boolean hasPushbackTC>"},{"step":209,"from":"1093381560","to":"1093340944","type":"load","field":"<java.io.ObjectInputStream: java.io.DataInputStream input>"},{"step":210,"from":"1093340944","to":"1093381648","type":"load","field":"<java.io.FilterInputStream: java.io.InputStream in>"},{"step":211,"from":"1093381648","to":"1093381648.<java.io.ByteArrayInputStream: int count>","type":"load","field":"<java.io.ByteArrayInputStream: int count>"},{"step":212,"from":"1093381648","to":"1093381680","type":"load","field":"<java.io.ByteArrayInputStream: byte[] buf>"},{"step":213,"from":"sdaReg85","to":"1093381648","type":"store","field":"<java.io.ByteArrayInputStream: int pos>"},{"step":214,"from":"1093381680","to":"1093381680.arrayIdx_int:161","type":"load","field":"arrayIdx_int:161"},{"step":215,"from":"sdaReg87","to":"1093381560","type":"store","field":"<java.io.ObjectInputStream: byte pushbackTC>"},{"step":216,"from":"1093381560","to":"sdaReg89","type":"create","field":"<java.io.ObjectInputStream: boolean hasPushbackTC>"},{"step":217,"from":"1093381896","to":"1093381896.<java.io.ByteArrayInputStream: int count>","type":"load","field":"<java.io.ByteArrayInputStream: int count>"},{"step":218,"from":"1093381896","to":"1093381896.<java.io.ByteArrayInputStream: int pos>","type":"load","field":"<java.io.ByteArrayInputStream: int pos>"},{"step":219,"from":"1093381560","to":"sdaReg93","type":"create","field":"<java.io.ObjectInputStream: boolean hasPushbackTC>"},{"step":220,"from":"1093381560","to":"1093340944","type":"load","field":"<java.io.ObjectInputStream: java.io.DataInputStream input>"},{"step":221,"from":"1093340944","to":"1093381648","type":"load","field":"<java.io.FilterInputStream: java.io.InputStream in>"},{"step":222,"from":"1093340944","to":"1093340968","type":"load","field":"<java.io.DataInputStream: byte[] scratch>"},{"step":223,"from":"1093381648","to":"1093340968","type":"model"},{"step":224,"from":"1093340944","to":"1093340968","type":"load","field":"<java.io.DataInputStream: byte[] scratch>"},{"step":225,"from":"static.<java.nio.ByteOrder: java.nio.ByteOrder BIG_ENDIAN>","to":"1084339448","type":"load","field":"<java.nio.ByteOrder: java.nio.ByteOrder BIG_ENDIAN>"},{"step":226,"from":"1093340968","to":"sdaReg99","type":"model"},{"step":227,"from":"1093340944","to":"1093381648","type":"load","field":"<java.io.FilterInputStream: java.io.InputStream in>"},{"step":228,"from":"1093381648","to":"1094526208","type":"model"},{"step":229,"from":"1094526208","to":"1094526208.arrayIdx_int:0","type":"load","field":"arrayIdx_int:0"},{"step":230,"from":"sdaReg113","to":"1094536392","type":"store","field":"arrayIdx_int:0"},{"step":231,"from":"1094526208","to":"1094526208.arrayIdx_int:1","type":"load","field":"arrayIdx_int:1"},{"step":232,"from":"sdaReg113","to":"1094536392","type":"store","field":"arrayIdx_int:1"},{"step":233,"from":"1094526208","to":"1094526208.arrayIdx_int:2","type":"load","field":"arrayIdx_int:2"},{"step":234,"from":"sdaReg113","to":"1094536392","type":"store","field":"arrayIdx_int:2"},{"step":235,"from":"1094526208","to":"1094526208.arrayIdx_int:3","type":"load","field":"arrayIdx_int:3"},{"step":236,"from":"sdaReg113","to":"1094536392","type":"store","field":"arrayIdx_int:3"},{"step":237,"from":"1094526208","to":"1094526208.arrayIdx_int:4","type":"load","field":"arrayIdx_int:4"},{"step":238,"from":"sdaReg113","to":"1094536392","type":"store","field":"arrayIdx_int:4"},{"step":239,"from":"1094526208","to":"1094526208.arrayIdx_int:5","type":"load","field":"arrayIdx_int:5"},{"step":240,"from":"sdaReg113","to":"1094536392","type":"store","field":"arrayIdx_int:5"},{"step":241,"from":"1094526208","to":"1094526208.arrayIdx_int:6","type":"load","field":"arrayIdx_int:6"},{"step":242,"from":"sdaReg113","to":"1094536392","type":"store","field":"arrayIdx_int:6"},{"step":243,"from":"1094526208","to":"1094526208.arrayIdx_int:7","type":"load","field":"arrayIdx_int:7"},{"step":244,"from":"sdaReg113","to":"1094536392","type":"store","field":"arrayIdx_int:7"},{"step":245,"from":"1094526208","to":"1094526208.arrayIdx_int:8","type":"load","field":"arrayIdx_int:8"},{"step":246,"from":"sdaReg113","to":"1094536392","type":"store","field":"arrayIdx_int:8"},{"step":247,"from":"1094526208","to":"1094526208.arrayIdx_int:9","type":"load","field":"arrayIdx_int:9"},{"step":248,"from":"sdaReg113","to":"1094536392","type":"store","field":"arrayIdx_int:9"},{"step":249,"from":"1094526208","to":"1094526208.arrayIdx_int:10","type":"load","field":"arrayIdx_int:10"},{"step":250,"from":"sdaReg113","to":"1094536392","type":"store","field":"arrayIdx_int:10"},{"step":251,"from":"1094526208","to":"1094526208.arrayIdx_int:11","type":"load","field":"arrayIdx_int:11"},{"step":252,"from":"sdaReg113","to":"1094536392","type":"store","field":"arrayIdx_int:11"},{"step":253,"from":"1094526208","to":"1094526208.arrayIdx_int:12","type":"load","field":"arrayIdx_int:12"},{"step":254,"from":"sdaReg113","to":"1094536392","type":"store","field":"arrayIdx_int:12"},{"step":255,"from":"1094526208","to":"1094526208.arrayIdx_int:13","type":"load","field":"arrayIdx_int:13"},{"step":256,"from":"sdaReg113","to":"1094536392","type":"store","field":"arrayIdx_int:13"},{"step":257,"from":"1094526208","to":"1094526208.arrayIdx_int:14","type":"load","field":"arrayIdx_int:14"},{"step":258,"from":"sdaReg113","to":"1094536392","type":"store","field":"arrayIdx_int:14"},{"step":259,"from":"1094526208","to":"1094526208.arrayIdx_int:15","type":"load","field":"arrayIdx_int:15"},{"step":260,"from":"sdaReg113","to":"1094536392","type":"store","field":"arrayIdx_int:15"},{"step":261,"from":"1094526208","to":"1094526208.arrayIdx_int:16","type":"load","field":"arrayIdx_int:16"},{"step":262,"from":"sdaReg113","to":"1094536392","type":"store","field":"arrayIdx_int:16"},{"step":263,"from":"1094526208","to":"1094526208.arrayIdx_int:17","type":"load","field":"arrayIdx_int:17"},{"step":264,"from":"sdaReg113","to":"1094536392","type":"store","field":"arrayIdx_int:17"},{"step":265,"from":"1094536392","to":"sdaReg114","type":"model"},{"step":266,"from":"1093381560","to":"1093381560.<java.io.ObjectInputStream: int nextHandle>","type":"load","field":"<java.io.ObjectInputStream: int nextHandle>"},{"step":267,"from":"sdaReg117","to":"1093381560","type":"store","field":"<java.io.ObjectInputStream: int nextHandle>"},{"step":268,"from":"1093381560","to":"1093341056","type":"load","field":"<java.io.ObjectInputStream: java.util.ArrayList objectsRead>"},{"step":269,"from":"1093381560","to":"1093341056","type":"load","field":"<java.io.ObjectInputStream: java.util.ArrayList objectsRead>"},{"step":270,"from":"1093341056","to":"1093346672","type":"load","field":"<java.util.ArrayList: java.lang.Object[] array>"},{"step":271,"from":"1093280016","to":"1093346672","type":"store","field":"arrayIdx_int:2"},{"step":272,"from":"sdaReg126","to":"1093341056","type":"store","field":"<java.util.ArrayList: int size>"},{"step":273,"from":"sdaReg127","to":"1093341056","type":"store","field":"<java.util.AbstractList: int modCount>"},{"step":274,"from":"1093381560","to":"1093340944","type":"load","field":"<java.io.ObjectInputStream: java.io.DataInputStream input>"},{"step":275,"from":"1093340944","to":"1093381560","type":"store","field":"<java.io.ObjectInputStream: java.io.InputStream primitiveData>"},{"step":276,"from":"sdaReg131","to":"1093381560","type":"store","field":"<java.io.ObjectInputStream: int nestedLevels>"},{"step":277,"from":"1093381560.<java.io.ObjectInputStream: boolean enableResolve>","to":"1093381560","type":"store","field":"<java.io.ObjectInputStream: boolean enableResolve>"},{"step":278,"from":"sdaReg134","to":"sdaReg135","type":"model"},{"step":279,"from":"sdaReg134","to":"sdaReg137","type":"model"},{"step":280,"from":"sdaReg135","to":"sdaReg134","type":"model"},{"step":281,"from":"sdaReg135","to":"sdaReg137","type":"model"},{"step":282,"from":"sdaReg69","to":"1093668624","type":"store","field":"<java.io.ObjectStreamField: java.lang.String name>"},{"step":283,"from":"sdaReg134","to":"sdaReg140","type":"model"},{"step":284,"from":"sdaReg140","to":"sdaReg141","type":"model"},{"step":285,"from":"sdaReg141","to":"1093668624","type":"store","field":"<java.io.ObjectStreamField: java.lang.String typeString>"},{"step":286,"from":"1083910288","to":"1093668624","type":"store","field":"<java.io.ObjectStreamField: java.lang.Object type>"},{"step":287,"from":"1093668624","to":"sdaReg145","type":"create","field":"<java.io.ObjectStreamField: boolean isDeserialized>"},{"step":288,"from":"1094464912","to":"1093668624","type":"create","field":"arrayIdx_int:0"}],"parameters":[{"id":"1093381560","name":"this","klass":"java.io.ObjectInputStream"}],"returns":[{"id":"1093299576","name":"return","klass":"java.io.ObjectStreamClass"}],"colors":{"heapLocToColor":{"1093381560.<java.io.ObjectInputStream: int nextHandle>":[0],"1093307744.arrayIdx_int:20":[4],"1094526208.arrayIdx_int:6":[17],"1093307744.arrayIdx_int:21":[4],"1094526208.arrayIdx_int:5":[17],"1093307744.arrayIdx_int:22":[4],"1094526208.arrayIdx_int:4":[17],"1093307744.arrayIdx_int:23":[4],"1094526208.arrayIdx_int:3":[17],"1094526208.arrayIdx_int:9":[17],"1094526208.arrayIdx_int:8":[17],"1094526208.arrayIdx_int:7":[17],"1094526208.arrayIdx_int:15":[17],"1093307744.arrayIdx_int:29":[4],"sdaReg13":[5],"1093381648.<java.io.ByteArrayInputStream: byte[] buf>":[0],"1094526208.arrayIdx_int:14":[17],"1093307744.arrayIdx_int:28":[4],"1094526208.arrayIdx_int:13":[17],"1094526208.arrayIdx_int:12":[17],"sdaReg12":[4],"1094526208.arrayIdx_int:11":[17],"1093307744.arrayIdx_int:25":[4],"1094526208.arrayIdx_int:10":[17],"1093307744.arrayIdx_int:24":[4],"sdaReg10":[4],"1093307744.arrayIdx_int:27":[4],"1093307744.arrayIdx_int:26":[4],"sdaReg19":[4],"1094526208.arrayIdx_int:17":[17],"1094526208.arrayIdx_int:16":[17],"1093307744.arrayIdx_int:11":[4],"1093307744.arrayIdx_int:12":[4],"1093307744.arrayIdx_int:10":[4],"1093307744.arrayIdx_int:19":[4],"1093307744.arrayIdx_int:18":[4],"1093307744.arrayIdx_int:17":[4],"1093307744.arrayIdx_int:16":[4],"1093307744.arrayIdx_int:15":[4],"1093307744.arrayIdx_int:14":[4],"1093307744.arrayIdx_int:13":[4],"1093381560.<java.io.ObjectInputStream: java.io.DataInputStream input>":[0],"1093381680.arrayIdx_int:161":[0],"1093381560.<java.io.ObjectInputStream: java.io.InputStream primitiveData>":[0],"1093307744":[4],"1093307744.arrayIdx_int:40":[4],"1093307744.arrayIdx_int:41":[4],"1093307744.arrayIdx_int:42":[4],"1093307744.arrayIdx_int:43":[4],"1093341056.<java.util.AbstractList: int modCount>":[0],"1093307744.arrayIdx_int:44":[4],"1093307744.arrayIdx_int:45":[4],"1093307744.arrayIdx_int:47":[4],"1093307744.arrayIdx_int:46":[4],"1093307744.arrayIdx_int:49":[4],"1093307744.arrayIdx_int:48":[4],"1093381560.<java.io.ObjectInputStream: java.util.ArrayList objectsRead>":[0],"1093307744.arrayIdx_int:30":[4],"1093307744.arrayIdx_int:33":[4],"1093307744.arrayIdx_int:34":[4],"1093307744.arrayIdx_int:31":[4],"1093307744.arrayIdx_int:32":[4],"1093307744.arrayIdx_int:38":[4],"1093307744.arrayIdx_int:37":[4],"1093307744.arrayIdx_int:36":[4],"1093307744.arrayIdx_int:35":[4],"1093307744.arrayIdx_int:39":[4],"1093381648.<java.io.ByteArrayInputStream: int count>":[0],"sdaReg61":[12],"sdaReg59":[12],"1093381648.<java.io.ByteArrayInputStream: int pos>":[0],"sdaReg58":[0],"sdaReg57":[0],"1094536392":[18],"sdaReg56":[0],"sdaReg55":[11],"sdaReg54":[11],"1093340968":[0],"sdaReg53":[0],"sdaReg52":[0],"sdaReg51":[0],"sdaReg50":[0],"sdaReg49":[0],"sdaReg48":[0],"sdaReg45":[0],"sdaReg46":[0],"sdaReg41":[1],"sdaReg40":[0],"1093381560.<java.io.ObjectInputStream: boolean hasPushbackTC>":[0],"sdaReg43":[9],"sdaReg42":[0],"1093381560.<java.io.ObjectInputStream: int nestedLevels>":[0],"1094526208":[17],"sdaReg38":[0],"sdaReg37":[0],"sdaReg32":[0],"sdaReg30":[1],"sdaReg35":[1],"sdaReg34":[0],"sdaReg33":[0],"sdaReg8":[0],"sdaReg9":[0],"sdaReg6":[3],"sdaReg7":[0],"sdaReg4":[0],"sdaReg5":[3],"1094464912":[1, 10],"sdaReg27":[0],"sdaReg26":[0],"sdaReg29":[0],"sdaReg28":[0, 1],"sdaReg3":[0],"1094526208.arrayIdx_int:0":[17],"sdaReg2":[0],"sdaReg21":[7],"sdaReg1":[1],"1094526208.arrayIdx_int:2":[17],"sdaReg20":[1, 6],"sdaReg0":[1],"1094526208.arrayIdx_int:1":[17],"sdaReg23":[1, 8],"sdaReg22":[0],"sdaReg25":[0],"sdaReg24":[0],"1093381648":[0],"sdaReg68":[12],"sdaReg69":[14],"1093341056":[0],"sdaReg62":[13],"sdaReg72":[0],"sdaReg70":[15],"1093340944.<java.io.FilterInputStream: java.io.InputStream in>":[0],"sdaReg120":[0],"sdaReg121":[0],"sdaReg123":[0],"sdaReg116":[0],"sdaReg117":[0],"sdaReg114":[19],"sdaReg118":[0],"sdaReg77":[0],"sdaReg78":[0],"sdaReg79":[0],"sdaReg73":[0],"sdaReg81":[0],"sdaReg80":[0],"sdaReg83":[0],"1093381560":[0],"1093340944.<java.io.DataInputStream: byte[] scratch>":[0],"sdaReg113":[17],"sdaReg107":[18],"1093345480":[5],"1093381896.<java.io.ByteArrayInputStream: int pos>":[0],"1093340944":[0],"sdaReg103":[0],"sdaReg104":[17],"sdaReg106":[17],"sdaReg86":[0],"1094495392":[13],"sdaReg87":[0],"sdaReg84":[0],"sdaReg88":[0],"sdaReg90":[0],"sdaReg92":[0],"sdaReg91":[0],"1094475080":[12],"sdaReg100":[16],"sdaReg102":[0],"sdaReg101":[0],"1093668624":[22],"sdaReg95":[0],"sdaReg96":[0],"sdaReg97":[0],"sdaReg98":[0],"sdaReg99":[16],"1084339448":[2],"1093381680":[0],"1093381896.<java.io.ByteArrayInputStream: int count>":[0],"1093341056.<java.util.ArrayList: int size>":[0],"static.<java.nio.ByteOrder: java.nio.ByteOrder BIG_ENDIAN>":[2],"1094475080.arrayIdx_int:1":[12],"1094475080.arrayIdx_int:0":[12],"1094475080.arrayIdx_int:3":[12],"1094475080.arrayIdx_int:2":[12],"1093381680.arrayIdx_int:151":[0],"1093307744.arrayIdx_int:57":[4],"1093381680.arrayIdx_int:154":[0],"1093307744.arrayIdx_int:58":[4],"1093307744.arrayIdx_int:59":[4],"1093307744.arrayIdx_int:54":[4],"1093307744.arrayIdx_int:53":[4],"1093381560.<java.io.ObjectInputStream: boolean enableResolve>":[0],"1093341056.<java.util.ArrayList: java.lang.Object[] array>":[0],"1093307744.arrayIdx_int:56":[4],"1093307744.arrayIdx_int:55":[4],"1093307744.arrayIdx_int:50":[4],"1093381896":[0],"1093307744.arrayIdx_int:52":[4],"1093307744.arrayIdx_int:51":[4],"sdaReg147":[22],"sdaReg143":[25],"sdaReg146":[22],"sdaReg140":[23],"sdaReg141":[23, 24],"sdaReg142":[22],"1093299576":[1],"sdaReg139":[22],"sdaReg138":[22],"sdaReg137":[21],"sdaReg136":[20],"1093346672":[0],"1093307744.arrayIdx_int:1":[4],"1093307744.arrayIdx_int:0":[4],"1093381560.<java.io.ObjectInputStream: boolean subclassOverridingImplementation>":[0],"1093307744.arrayIdx_int:3":[4],"1093307744.arrayIdx_int:2":[4],"1093307744.arrayIdx_int:5":[4],"1093307744.arrayIdx_int:4":[4],"1093307744.arrayIdx_int:7":[4],"1093307744.arrayIdx_int:6":[4],"1093307744.arrayIdx_int:9":[4],"1093307744.arrayIdx_int:8":[4],"1093381560.<java.io.ObjectInputStream: int descriptorHandle>":[0]},"colorToColor":{"0":[17, 0, 16, 1, 3, 4, 8, 9, 11, 12, 15],"1":[0, 1, 26],"4":[5],"5":[6],"6":[1],"8":[1],"10":[1],"12":[13],"13":[14],"14":[22],"17":[18],"18":[19],"23":[22],"22":[1, 10],"24":[22]},"colorToLabel":{"0":"this","2":"<java.nio.ByteOrder: java.nio.ByteOrder BIG_ENDIAN>","26":"return"}}}

Generated Model
	this->return

