Scanning method <java.io.DataOutputStream: void writeShort(int)>

All seen event types: LoadStaticRecord, BinaryOperationRecord, MethodReturnRecord, MethodCallRecord, MethodStartRecord, CastRecord, LoadInstanceRecord, MethodEndRecord, StoreInstanceRecord, 
Ignored event types: 

JSON Encoded Analysis Data (for visualization):{"heapEdges":[{"step":0,"from":"1093509648","to":"1093266696","type":"load","field":"<java.io.DataOutputStream: byte[] scratch>"},{"step":1,"from":"static.<java.nio.ByteOrder: java.nio.ByteOrder BIG_ENDIAN>","to":"1084339448","type":"load","field":"<java.nio.ByteOrder: java.nio.ByteOrder BIG_ENDIAN>"},{"step":2,"from":"1093266696","to":"sdaReg1","type":"model"},{"step":3,"from":"1093266696","to":"1084339448","type":"model"},{"step":4,"from":"sdaReg1","to":"1093266696","type":"model"},{"step":5,"from":"sdaReg1","to":"1084339448","type":"model"},{"step":6,"from":"1084339448","to":"1093266696","type":"model"},{"step":7,"from":"1084339448","to":"sdaReg1","type":"model"},{"step":8,"from":"1093509648","to":"1093638520","type":"load","field":"<java.io.FilterOutputStream: java.io.OutputStream out>"},{"step":9,"from":"1093509648","to":"1093266696","type":"load","field":"<java.io.DataOutputStream: byte[] scratch>"},{"step":10,"from":"1093638520","to":"1093266696","type":"model"},{"step":11,"from":"1093638520","to":"sdaReg4","type":"model"},{"step":12,"from":"1093638520","to":"sdaReg5","type":"model"},{"step":13,"from":"1093266696","to":"1093638520","type":"model"},{"step":14,"from":"1093266696","to":"sdaReg4","type":"model"},{"step":15,"from":"1093266696","to":"sdaReg5","type":"model"},{"step":16,"from":"sdaReg4","to":"1093638520","type":"model"},{"step":17,"from":"sdaReg4","to":"1093266696","type":"model"},{"step":18,"from":"sdaReg4","to":"sdaReg5","type":"model"},{"step":19,"from":"sdaReg5","to":"1093638520","type":"model"},{"step":20,"from":"sdaReg5","to":"1093266696","type":"model"},{"step":21,"from":"sdaReg5","to":"sdaReg4","type":"model"},{"step":22,"from":"1093509648","to":"1093509648.<java.io.DataOutputStream: int written>","type":"load","field":"<java.io.DataOutputStream: int written>"},{"step":23,"from":"sdaReg6","to":"1093509648","type":"store","field":"<java.io.DataOutputStream: int written>"}],"parameters":[{"id":"1093509648","name":"this","klass":"java.io.DataOutputStream"},{"id":"sdaReg0","name":"arg#1","klass":"int"}],"returns":[{"id":null,"name":"return","klass":null}],"colors":{"heapLocToColor":{"sdaReg6":[0],"sdaReg4":[0],"sdaReg5":[0],"1093509648":[0],"1093638520":[0],"1093509648.<java.io.DataOutputStream: byte[] scratch>":[0],"1093509648.<java.io.DataOutputStream: int written>":[0],"1093266696":[0],"1084339448":[2],"sdaReg3":[0],"sdaReg2":[0],"sdaReg1":[1],"sdaReg0":[1],"static.<java.nio.ByteOrder: java.nio.ByteOrder BIG_ENDIAN>":[2]},"colorToColor":{"0":[0, 1, 2],"1":[0, 2],"2":[0, 1]},"colorToLabel":{"0":"this","1":"arg#1","2":"<java.nio.ByteOrder: java.nio.ByteOrder BIG_ENDIAN>","3":"return"}}}

Generated Model
	this->arg#1
	this-><java.nio.ByteOrder: java.nio.ByteOrder BIG_ENDIAN>
	arg#1->this
	arg#1-><java.nio.ByteOrder: java.nio.ByteOrder BIG_ENDIAN>

