Scanning method <android.os.Bundle: void <init>()>

All seen event types: LoadStaticRecord, MethodReturnRecord, MethodCallRecord, CastRecord, MethodStartRecord, MethodEndRecord, NewObjectRecord, StoreInstanceRecord, 
Ignored event types: 

JSON Encoded Analysis Data (for visualization):{"heapEdges":[{"step":0,"from":"1093499008","to":"sdaReg1","type":"create","field":"<android.os.Bundle: java.util.Map mMap>"},{"step":1,"from":"1093499008","to":"sdaReg2","type":"create","field":"<android.os.Bundle: android.os.Parcel mParcelledData>"},{"step":2,"from":"1093499008","to":"sdaReg3","type":"create","field":"<android.os.Bundle: boolean mHasFds>"},{"step":3,"from":"1093499008","to":"sdaReg4","type":"create","field":"<android.os.Bundle: boolean mFdsKnown>"},{"step":4,"from":"1093499008","to":"sdaReg5","type":"create","field":"<android.os.Bundle: boolean mAllowFds>"},{"step":5,"from":"static.<java.util.HashMap: java.util.Map$Entry[] EMPTY_TABLE>","to":"1083997920","type":"load","field":"<java.util.HashMap: java.util.Map$Entry[] EMPTY_TABLE>"},{"step":6,"from":"1083997920","to":"1093682856","type":"store","field":"<java.util.HashMap: java.util.HashMap$HashMapEntry[] table>"},{"step":7,"from":"1093682856","to":"sdaReg12","type":"create","field":"<java.util.HashMap: int threshold>"},{"step":8,"from":"1093499008","to":"1093682856","type":"create","field":"<android.os.Bundle: java.util.Map mMap>"},{"step":9,"from":"1093499008","to":"1084342632","type":"model"},{"step":10,"from":"1084342632","to":"1083999984","type":"model"},{"step":11,"from":"1093499008","to":"1083999984","type":"create","field":"<android.os.Bundle: java.lang.ClassLoader mClassLoader>"}],"parameters":[{"id":"1093499008","name":"this","klass":"android.os.Bundle"}],"returns":[{"id":"1093499008","name":"return","klass":"android.os.Bundle"}],"colors":{"heapLocToColor":{"sdaReg8":[1],"sdaReg9":[1],"sdaReg6":[1],"1093499008":[0],"sdaReg7":[1],"1093682856":[1],"sdaReg13":[1],"sdaReg14":[0, 3],"sdaReg11":[2],"sdaReg10":[2],"1084342632":[0, 3],"1083999984":[0, 3, 4],"static.<java.util.HashMap: java.util.Map$Entry[] EMPTY_TABLE>":[2],"1083997920":[2],"sdaReg0":[0],"sdaReg15":[0, 3, 4]},"colorToColor":{"0":[0, 5],"1":[0],"2":[1],"3":[0],"4":[0]},"colorToLabel":{"0":"this","2":"<java.util.HashMap: java.util.Map$Entry[] EMPTY_TABLE>","5":"return"}}}

Generated Model
	this->return

