Scanning method <java.net.URL: void <init>(java.lang.String,java.lang.String,java.lang.String)>

All seen event types: StoreArrayRecord, SimpleAssignmentRecord, MethodStartRecord, LoadInstanceRecord, IfRecord, NewObjectRecord, StoreInstanceRecord, LoadStaticRecord, BinaryOperationRecord, MethodCallRecord, MethodReturnRecord, ArrayLengthRecord, CastRecord, LoadArrayRecord, MethodEndRecord, 
Ignored event types: IfRecord, 

JSON Encoded Analysis Data (for visualization):{"heapEdges":[{"step":0,"from":"1093676584","to":"sdaReg6","type":"create","field":"<java.net.URL: int port>"},{"step":1,"from":"sdaReg1","to":"sdaReg7","type":"model"},{"step":2,"from":"sdaReg0","to":"1093676584","type":"store","field":"<java.net.URL: java.lang.String protocol>"},{"step":3,"from":"sdaReg1","to":"1093676584","type":"store","field":"<java.net.URL: java.lang.String host>"},{"step":4,"from":"1093676584","to":"sdaReg4","type":"create","field":"<java.net.URL: int port>"},{"step":5,"from":"sdaReg1","to":"sdaReg8","type":"model"},{"step":6,"from":"sdaReg2","to":"sdaReg9","type":"model"},{"step":7,"from":"sdaReg2","to":"1093676584","type":"store","field":"<java.net.URL: java.lang.String file>"},{"step":8,"from":"sdaReg14","to":"1093676584","type":"store","field":"<java.net.URL: java.lang.String authority>"},{"step":9,"from":"1093676584","to":"sdaReg17","type":"create","field":"<java.net.URL: java.lang.String query>"},{"step":10,"from":"sdaReg18","to":"1093676584","type":"store","field":"<java.net.URL: java.lang.String path>"},{"step":11,"from":"static.<java.net.URL: java.util.Hashtable streamHandlers>","to":"1084315112","type":"load","field":"<java.net.URL: java.util.Hashtable streamHandlers>"},{"step":12,"from":"1084315112","to":"1084321912","type":"load","field":"<java.util.Hashtable: java.util.Hashtable$HashtableEntry[] table>"},{"step":13,"from":"1093485520","to":"1093291176","type":"model"},{"step":14,"from":"1093676584","to":"1093291320","type":"create","field":"<java.net.URL: java.net.URLStreamHandler streamHandler>"},{"step":15,"from":"static.<java.net.URL: java.util.Hashtable streamHandlers>","to":"1084315112","type":"load","field":"<java.net.URL: java.util.Hashtable streamHandlers>"},{"step":16,"from":"1084315112","to":"1084321912","type":"load","field":"<java.util.Hashtable: java.util.Hashtable$HashtableEntry[] table>"},{"step":17,"from":"1084315112","to":"1084315112.<java.util.Hashtable: int modCount>","type":"load","field":"<java.util.Hashtable: int modCount>"},{"step":18,"from":"sdaReg63","to":"1084315112","type":"store","field":"<java.util.Hashtable: int modCount>"},{"step":19,"from":"1084315112","to":"1084315112.<java.util.Hashtable: int size>","type":"load","field":"<java.util.Hashtable: int size>"},{"step":20,"from":"sdaReg64","to":"1084315112","type":"store","field":"<java.util.Hashtable: int size>"},{"step":21,"from":"1084315112","to":"1084315112.<java.util.Hashtable: int threshold>","type":"load","field":"<java.util.Hashtable: int threshold>"},{"step":22,"from":"1084321368","to":"1093311368","type":"store","field":"<java.util.Hashtable$HashtableEntry: java.lang.Object key>"},{"step":23,"from":"1093291320","to":"1093311368","type":"store","field":"<java.util.Hashtable$HashtableEntry: java.lang.Object value>"},{"step":24,"from":"sdaReg58","to":"1093311368","type":"store","field":"<java.util.Hashtable$HashtableEntry: int hash>"},{"step":25,"from":"1084321912","to":"1093311368","type":"create","field":"arrayIdx_int:1"}],"parameters":[{"id":"1093676584","name":"this","klass":"java.net.URL"},{"id":"sdaReg0","name":"arg#1","klass":"string"},{"id":"sdaReg1","name":"arg#2","klass":"string"},{"id":"sdaReg2","name":"arg#3","klass":"string"}],"returns":[{"id":"1093676584","name":"return","klass":"java.net.URL"}],"colors":{"heapLocToColor":{"1084315112.<java.util.Hashtable: int modCount>":[10],"sdaReg61":[20],"1084315112.<java.util.Hashtable: int threshold>":[10],"sdaReg69":[21],"1093485520":[14],"sdaReg67":[19],"sdaReg64":[10],"sdaReg65":[21],"sdaReg63":[10],"sdaReg13":[8],"sdaReg71":[0],"sdaReg70":[21],"sdaReg11":[0],"sdaReg10":[7],"sdaReg58":[20],"sdaReg57":[20],"sdaReg56":[20],"sdaReg19":[0],"sdaReg55":[20],"sdaReg54":[20],"sdaReg53":[20],"sdaReg15":[9],"sdaReg52":[20],"sdaReg16":[9],"sdaReg51":[20],"sdaReg50":[20],"1084315112.<java.util.Hashtable: int size>":[10],"1084321912":[10],"sdaReg49":[19],"sdaReg45":[19],"sdaReg44":[19],"sdaReg47":[10],"sdaReg46":[19],"sdaReg41":[18],"sdaReg40":[17],"1084315112":[10],"sdaReg43":[19],"sdaReg42":[19],"static.<java.net.URL: java.util.Hashtable streamHandlers>":[10],"1093311368":[21],"1093291320":[19],"sdaReg39":[16],"1084315112.<java.util.Hashtable: java.util.Hashtable$HashtableEntry[] table>":[10],"sdaReg38":[14, 15],"sdaReg37":[14],"sdaReg30":[11],"sdaReg36":[13],"1093676584":[0],"sdaReg33":[11],"sdaReg8":[2, 5],"sdaReg9":[3, 6],"sdaReg7":[2, 4],"sdaReg5":[0],"1093291176":[14, 15],"sdaReg27":[11],"sdaReg26":[11],"sdaReg29":[11],"sdaReg28":[11],"sdaReg3":[0],"sdaReg2":[3],"sdaReg1":[2],"sdaReg20":[10],"sdaReg0":[1],"sdaReg23":[11],"static.<java.net.URL: java.net.URLStreamHandlerFactory streamHandlerFactory>":[12],"sdaReg22":[11],"sdaReg25":[11],"sdaReg24":[11]},"colorToColor":{"0":[22],"1":[0],"19":[0, 21],"2":[0],"3":[0],"21":[10],"20":[21],"10":[10]},"colorToLabel":{"0":"this","1":"arg#1","2":"arg#2","3":"arg#3","10":"<java.net.URL: java.util.Hashtable streamHandlers>","12":"<java.net.URL: java.net.URLStreamHandlerFactory streamHandlerFactory>","22":"return"}}}

Generated Model
	this->return
	arg#3->this
	arg#3->return
	arg#2->this
	arg#2->return
	arg#1->this
	arg#1->return

