Scanning method <java.io.BufferedReader: int fillBuf()>

All seen event types: StoreArrayRecord, SimpleAssignmentRecord, ExitMonitorRecord, LoadInstanceRecord, MethodStartRecord, IfRecord, NewObjectRecord, StoreInstanceRecord, LoadStaticRecord, BinaryOperationRecord, MethodCallRecord, MethodReturnRecord, EnterMonitorRecord, ArrayLengthRecord, LoadArrayRecord, MethodEndRecord, 
Ignored event types: ExitMonitorRecord, EnterMonitorRecord, IfRecord, 

JSON Encoded Analysis Data (for visualization):{"heapEdges":[{"step":0,"from":"1093532616","to":"1093532616.<java.io.BufferedReader: int mark>","type":"load","field":"<java.io.BufferedReader: int mark>"},{"step":1,"from":"1093532616","to":"1093277872","type":"load","field":"<java.io.BufferedReader: java.io.Reader in>"},{"step":2,"from":"1093532616","to":"1093428328","type":"load","field":"<java.io.BufferedReader: char[] buf>"},{"step":3,"from":"1093532616","to":"1093428328","type":"load","field":"<java.io.BufferedReader: char[] buf>"},{"step":4,"from":"1093277872","to":"1093532656","type":"load","field":"<java.io.Reader: java.lang.Object lock>"},{"step":5,"from":"1093277872","to":"1093532656","type":"load","field":"<java.io.InputStreamReader: java.io.InputStream in>"},{"step":6,"from":"1093343680","to":"sdaReg26","type":"create","field":"<java.nio.Buffer: int mark>"},{"step":7,"from":"1093343680","to":"sdaReg27","type":"create","field":"<java.nio.Buffer: int position>"},{"step":8,"from":"1093343680","to":"sdaReg24","type":"create","field":"<java.nio.Buffer: int _elementSizeShift>"},{"step":9,"from":"sdaReg18","to":"1093343680","type":"store","field":"<java.nio.Buffer: int limit>"},{"step":10,"from":"sdaReg18","to":"1093343680","type":"store","field":"<java.nio.Buffer: int capacity>"},{"step":11,"from":"1093428328","to":"1093343680","type":"store","field":"<java.nio.CharArrayBuffer: char[] backingArray>"},{"step":12,"from":"1093343680","to":"sdaReg21","type":"create","field":"<java.nio.CharArrayBuffer: int offset>"},{"step":13,"from":"1093343680","to":"sdaReg3","type":"create","field":"<java.nio.Buffer: int position>"},{"step":14,"from":"sdaReg34","to":"1093343680","type":"store","field":"<java.nio.Buffer: int limit>"},{"step":15,"from":"static.<java.nio.charset.CoderResult: java.nio.charset.CoderResult UNDERFLOW>","to":"1084215096","type":"load","field":"<java.nio.charset.CoderResult: java.nio.charset.CoderResult UNDERFLOW>"},{"step":16,"from":"1093277872","to":"1093511552","type":"load","field":"<java.io.InputStreamReader: java.nio.ByteBuffer bytes>"},{"step":17,"from":"1093511552","to":"1093511552.<java.nio.Buffer: int position>","type":"load","field":"<java.nio.Buffer: int position>"},{"step":18,"from":"1093511552","to":"1093511552.<java.nio.Buffer: int limit>","type":"load","field":"<java.nio.Buffer: int limit>"},{"step":19,"from":"1093277872","to":"1093532656","type":"load","field":"<java.io.InputStreamReader: java.io.InputStream in>"},{"step":20,"from":"1093532656","to":"1093532656.<java.io.ByteArrayInputStream: int count>","type":"load","field":"<java.io.ByteArrayInputStream: int count>"},{"step":21,"from":"1093532656","to":"1093532656.<java.io.ByteArrayInputStream: int pos>","type":"load","field":"<java.io.ByteArrayInputStream: int pos>"},{"step":22,"from":"1093277872","to":"1093511552","type":"load","field":"<java.io.InputStreamReader: java.nio.ByteBuffer bytes>"},{"step":23,"from":"1093511552","to":"1093511552.<java.nio.Buffer: int capacity>","type":"load","field":"<java.nio.Buffer: int capacity>"},{"step":24,"from":"1093277872","to":"1093511552","type":"load","field":"<java.io.InputStreamReader: java.nio.ByteBuffer bytes>"},{"step":25,"from":"1093511552","to":"1093511552.<java.nio.Buffer: int limit>","type":"load","field":"<java.nio.Buffer: int limit>"},{"step":26,"from":"1093277872","to":"1093511552","type":"load","field":"<java.io.InputStreamReader: java.nio.ByteBuffer bytes>"},{"step":27,"from":"1093511552","to":"1093511552.<java.nio.HeapByteBuffer: int offset>","type":"load","field":"<java.nio.HeapByteBuffer: int offset>"},{"step":28,"from":"1093277872","to":"1093511552","type":"load","field":"<java.io.InputStreamReader: java.nio.ByteBuffer bytes>"},{"step":29,"from":"1093511552","to":"1093511552.<java.nio.Buffer: int limit>","type":"load","field":"<java.nio.Buffer: int limit>"},{"step":30,"from":"1093277872","to":"1093532656","type":"load","field":"<java.io.InputStreamReader: java.io.InputStream in>"},{"step":31,"from":"1093277872","to":"1093511552","type":"load","field":"<java.io.InputStreamReader: java.nio.ByteBuffer bytes>"},{"step":32,"from":"1093511552","to":"1093360856","type":"load","field":"<java.nio.HeapByteBuffer: byte[] backingArray>"},{"step":33,"from":"1093532656","to":"1093532656.<java.io.ByteArrayInputStream: int pos>","type":"load","field":"<java.io.ByteArrayInputStream: int pos>"},{"step":34,"from":"1093532656","to":"1093532656.<java.io.ByteArrayInputStream: int count>","type":"load","field":"<java.io.ByteArrayInputStream: int count>"},{"step":35,"from":"1093532656","to":"1093532656.<java.io.ByteArrayInputStream: int count>","type":"load","field":"<java.io.ByteArrayInputStream: int count>"},{"step":36,"from":"1093532656","to":"1093532656.<java.io.ByteArrayInputStream: int pos>","type":"load","field":"<java.io.ByteArrayInputStream: int pos>"},{"step":37,"from":"1093532656","to":"1093532656.<java.io.ByteArrayInputStream: int count>","type":"load","field":"<java.io.ByteArrayInputStream: int count>"},{"step":38,"from":"1093532656","to":"1093532656.<java.io.ByteArrayInputStream: int pos>","type":"load","field":"<java.io.ByteArrayInputStream: int pos>"},{"step":39,"from":"1093532656","to":"1093532688","type":"load","field":"<java.io.ByteArrayInputStream: byte[] buf>"},{"step":40,"from":"1093532656","to":"1093532656.<java.io.ByteArrayInputStream: int pos>","type":"load","field":"<java.io.ByteArrayInputStream: int pos>"},{"step":41,"from":"1093532688","to":"1093360856","type":"model"},{"step":42,"from":"1093532656","to":"1093532656.<java.io.ByteArrayInputStream: int pos>","type":"load","field":"<java.io.ByteArrayInputStream: int pos>"},{"step":43,"from":"sdaReg63","to":"1093532656","type":"store","field":"<java.io.ByteArrayInputStream: int pos>"},{"step":44,"from":"1093277872","to":"1093511552","type":"load","field":"<java.io.InputStreamReader: java.nio.ByteBuffer bytes>"},{"step":45,"from":"1093277872","to":"1093511552","type":"load","field":"<java.io.InputStreamReader: java.nio.ByteBuffer bytes>"},{"step":46,"from":"1093511552","to":"1093511552.<java.nio.Buffer: int limit>","type":"load","field":"<java.nio.Buffer: int limit>"},{"step":47,"from":"1093511552","to":"1093511552.<java.nio.Buffer: int capacity>","type":"load","field":"<java.nio.Buffer: int capacity>"},{"step":48,"from":"sdaReg65","to":"1093511552","type":"store","field":"<java.nio.Buffer: int limit>"},{"step":49,"from":"1093511552","to":"1093511552.<java.nio.Buffer: int position>","type":"load","field":"<java.nio.Buffer: int position>"},{"step":50,"from":"1093511552","to":"1093511552.<java.nio.Buffer: int mark>","type":"load","field":"<java.nio.Buffer: int mark>"},{"step":51,"from":"1093277872","to":"1093263904","type":"load","field":"<java.io.InputStreamReader: java.nio.charset.CharsetDecoder decoder>"},{"step":52,"from":"1093277872","to":"1093511552","type":"load","field":"<java.io.InputStreamReader: java.nio.ByteBuffer bytes>"},{"step":53,"from":"1093263904","to":"1093263904.<java.nio.charset.CharsetDecoder: int status>","type":"load","field":"<java.nio.charset.CharsetDecoder: int status>"},{"step":54,"from":"1093263904","to":"1093263904.<java.nio.charset.CharsetDecoder: int status>","type":"load","field":"<java.nio.charset.CharsetDecoder: int status>"},{"step":55,"from":"1093511552","to":"1093511552.<java.nio.Buffer: int position>","type":"load","field":"<java.nio.Buffer: int position>"},{"step":56,"from":"1093263904","to":"1093483416","type":"load","field":"<java.nio.charset.CharsetDecoderICU: int[] data>"},{"step":57,"from":"1093511552","to":"1093360856","type":"load","field":"<java.nio.HeapByteBuffer: byte[] backingArray>"},{"step":58,"from":"1093360856","to":"1093263904","type":"store","field":"<java.nio.charset.CharsetDecoderICU: byte[] input>"},{"step":59,"from":"1093511552","to":"1093511552.<java.nio.HeapByteBuffer: int offset>","type":"load","field":"<java.nio.HeapByteBuffer: int offset>"},{"step":60,"from":"sdaReg93","to":"1093263904","type":"store","field":"<java.nio.charset.CharsetDecoderICU: int inEnd>"},{"step":61,"from":"1093511552","to":"1093511552.<java.nio.HeapByteBuffer: int offset>","type":"load","field":"<java.nio.HeapByteBuffer: int offset>"},{"step":62,"from":"1093511552","to":"1093511552.<java.nio.Buffer: int position>","type":"load","field":"<java.nio.Buffer: int position>"},{"step":63,"from":"sdaReg97","to":"1093483416","type":"store","field":"arrayIdx_int:0"},{"step":64,"from":"1093263904","to":"1093483416","type":"load","field":"<java.nio.charset.CharsetDecoderICU: int[] data>"},{"step":65,"from":"1093428328","to":"1093263904","type":"store","field":"<java.nio.charset.CharsetDecoderICU: char[] output>"},{"step":66,"from":"sdaReg112","to":"1093263904","type":"store","field":"<java.nio.charset.CharsetDecoderICU: int outEnd>"},{"step":67,"from":"sdaReg118","to":"1093483416","type":"store","field":"arrayIdx_int:1"},{"step":68,"from":"1093263904","to":"1093263904.<java.nio.charset.CharsetDecoderICU: long converterHandle>","type":"load","field":"<java.nio.charset.CharsetDecoderICU: long converterHandle>"},{"step":69,"from":"1093263904","to":"1093483416","type":"load","field":"<java.nio.charset.CharsetDecoderICU: int[] data>"},{"step":70,"from":"1093263904.<java.nio.charset.CharsetDecoderICU: long converterHandle>","to":"1093360856","type":"model"},{"step":71,"from":"1093263904.<java.nio.charset.CharsetDecoderICU: long converterHandle>","to":"1093428328","type":"model"},{"step":72,"from":"1093263904.<java.nio.charset.CharsetDecoderICU: long converterHandle>","to":"1093483416","type":"model"},{"step":73,"from":"1093263904.<java.nio.charset.CharsetDecoderICU: long converterHandle>","to":"sdaReg119","type":"model"},{"step":74,"from":"1093360856","to":"1093263904.<java.nio.charset.CharsetDecoderICU: long converterHandle>","type":"model"},{"step":75,"from":"1093360856","to":"1093428328","type":"model"},{"step":76,"from":"1093360856","to":"1093483416","type":"model"},{"step":77,"from":"1093360856","to":"sdaReg119","type":"model"},{"step":78,"from":"1093428328","to":"1093263904.<java.nio.charset.CharsetDecoderICU: long converterHandle>","type":"model"},{"step":79,"from":"1093428328","to":"1093360856","type":"model"},{"step":80,"from":"1093428328","to":"1093483416","type":"model"},{"step":81,"from":"1093428328","to":"sdaReg119","type":"model"},{"step":82,"from":"1093483416","to":"1093263904.<java.nio.charset.CharsetDecoderICU: long converterHandle>","type":"model"},{"step":83,"from":"1093483416","to":"1093360856","type":"model"},{"step":84,"from":"1093483416","to":"1093428328","type":"model"},{"step":85,"from":"1093483416","to":"sdaReg119","type":"model"},{"step":86,"from":"sdaReg119","to":"1093263904","type":"store","field":"<java.nio.charset.CharsetDecoderICU: int ec>"},{"step":87,"from":"static.<java.nio.charset.CoderResult: java.nio.charset.CoderResult UNDERFLOW>","to":"1084215096","type":"load","field":"<java.nio.charset.CoderResult: java.nio.charset.CoderResult UNDERFLOW>"},{"step":88,"from":"1093511552","to":"1093511552.<java.nio.Buffer: int position>","type":"load","field":"<java.nio.Buffer: int position>"},{"step":89,"from":"1093263904","to":"1093483416","type":"load","field":"<java.nio.charset.CharsetDecoderICU: int[] data>"},{"step":90,"from":"sdaReg123","to":"1093511552","type":"store","field":"<java.nio.Buffer: int position>"},{"step":91,"from":"1093511552","to":"1093511552.<java.nio.Buffer: int mark>","type":"load","field":"<java.nio.Buffer: int mark>"},{"step":92,"from":"1093263904","to":"sdaReg126","type":"create","field":"<java.nio.charset.CharsetDecoderICU: byte[] input>"},{"step":93,"from":"1093263904","to":"1093483416","type":"load","field":"<java.nio.charset.CharsetDecoderICU: int[] data>"},{"step":94,"from":"sdaReg138","to":"1093343680","type":"store","field":"<java.nio.Buffer: int position>"},{"step":95,"from":"1093263904","to":"sdaReg141","type":"create","field":"<java.nio.charset.CharsetDecoderICU: char[] output>"},{"step":96,"from":"1084215096","to":"1084215096.<java.nio.charset.CoderResult: int type>","type":"load","field":"<java.nio.charset.CoderResult: int type>"},{"step":97,"from":"sdaReg147","to":"1093263904","type":"store","field":"<java.nio.charset.CharsetDecoder: int status>"},{"step":98,"from":"1084215096","to":"1084215096.<java.nio.charset.CoderResult: int type>","type":"load","field":"<java.nio.charset.CoderResult: int type>"},{"step":99,"from":"1093277872","to":"1093511552","type":"load","field":"<java.io.InputStreamReader: java.nio.ByteBuffer bytes>"},{"step":100,"from":"1093277872","to":"1093511552","type":"load","field":"<java.io.InputStreamReader: java.nio.ByteBuffer bytes>"},{"step":101,"from":"1093511552","to":"1093511552.<java.nio.Buffer: int capacity>","type":"load","field":"<java.nio.Buffer: int capacity>"},{"step":102,"from":"1093277872","to":"1093532656","type":"load","field":"<java.io.InputStreamReader: java.io.InputStream in>"},{"step":103,"from":"1093532656","to":"1093532656.<java.io.ByteArrayInputStream: int count>","type":"load","field":"<java.io.ByteArrayInputStream: int count>"},{"step":104,"from":"static.<java.nio.charset.CoderResult: java.nio.charset.CoderResult UNDERFLOW>","to":"1084215096","type":"load","field":"<java.nio.charset.CoderResult: java.nio.charset.CoderResult UNDERFLOW>"},{"step":105,"from":"1093277872","to":"1093277872.<java.io.InputStreamReader: boolean endOfInput>","type":"load","field":"<java.io.InputStreamReader: boolean endOfInput>"},{"step":106,"from":"1084215096","to":"1084215096.<java.nio.charset.CoderResult: int type>","type":"load","field":"<java.nio.charset.CoderResult: int type>"},{"step":107,"from":"1084215096","to":"1084215096.<java.nio.charset.CoderResult: int type>","type":"load","field":"<java.nio.charset.CoderResult: int type>"},{"step":108,"from":"1093532616","to":"sdaReg170","type":"create","field":"<java.io.BufferedReader: int mark>"},{"step":109,"from":"1093532616","to":"sdaReg171","type":"create","field":"<java.io.BufferedReader: int pos>"},{"step":110,"from":"sdaReg169","to":"1093532616","type":"store","field":"<java.io.BufferedReader: int end>"}],"parameters":[{"id":"1093532616","name":"this","klass":"java.io.BufferedReader"}],"returns":[{"id":"sdaReg169","name":"return","klass":"int"}],"colors":{"heapLocToColor":{"sdaReg125":[0],"sdaReg127":[0],"sdaReg128":[1],"sdaReg129":[1],"1093263904":[0],"sdaReg69":[0],"sdaReg66":[0],"1093277872.<java.io.InputStreamReader: java.io.InputStream in>":[0],"sdaReg67":[0],"sdaReg64":[0],"sdaReg65":[0],"sdaReg62":[0],"sdaReg63":[0],"sdaReg14":[1],"sdaReg71":[1],"sdaReg70":[0],"sdaReg10":[0],"sdaReg120":[0],"sdaReg19":[1],"sdaReg122":[0],"sdaReg17":[0],"sdaReg121":[0],"sdaReg124":[0],"sdaReg15":[0],"sdaReg123":[0],"sdaReg16":[1],"sdaReg116":[1],"sdaReg114":[1],"1093263904.<java.nio.charset.CharsetDecoder: int status>":[0],"sdaReg119":[3],"sdaReg77":[1],"sdaReg78":[0],"sdaReg75":[0],"sdaReg76":[0],"1093532616.<java.io.BufferedReader: char[] buf>":[0],"sdaReg81":[0],"sdaReg80":[0],"sdaReg83":[0],"sdaReg82":[0],"1084215096":[2],"sdaReg113":[1],"sdaReg110":[1],"sdaReg107":[1],"sdaReg108":[1],"1093263904.<java.nio.charset.CharsetDecoderICU: int[] data>":[0],"sdaReg103":[1],"sdaReg104":[1],"sdaReg105":[0],"sdaReg106":[0],"sdaReg86":[0],"sdaReg87":[0],"sdaReg85":[0],"sdaReg88":[0],"sdaReg89":[0],"sdaReg90":[0],"sdaReg94":[0],"sdaReg93":[0],"sdaReg91":[0],"sdaReg100":[1],"1093511552":[0],"sdaReg101":[1],"1093343680":[1],"1093277872.<java.io.InputStreamReader: java.nio.ByteBuffer bytes>":[0],"sdaReg95":[0],"sdaReg96":[0],"sdaReg97":[0],"sdaReg98":[0],"sdaReg99":[1],"1093532656":[0],"1093428328":[0],"1093511552.<java.nio.Buffer: int mark>":[0],"1093360856":[0],"sdaReg60":[0],"sdaReg61":[0],"1093511552.<java.nio.Buffer: int limit>":[0],"sdaReg162":[2],"sdaReg164":[1],"1093532656.<java.io.ByteArrayInputStream: int pos>":[0],"sdaReg167":[1],"1093511552.<java.nio.Buffer: int position>":[0],"sdaReg59":[0],"sdaReg58":[0],"sdaReg56":[0],"sdaReg55":[0],"sdaReg54":[0],"sdaReg53":[0],"sdaReg52":[0],"sdaReg160":[2],"sdaReg51":[0],"sdaReg50":[0],"1093511552.<java.nio.HeapByteBuffer: int offset>":[0],"1093277872":[0],"1093532616":[0],"sdaReg158":[1],"sdaReg153":[0],"sdaReg151":[0],"sdaReg156":[0],"sdaReg49":[0],"sdaReg157":[0],"sdaReg48":[0],"sdaReg154":[1],"sdaReg45":[0],"sdaReg44":[0],"sdaReg47":[0],"sdaReg46":[0],"sdaReg40":[1],"sdaReg43":[0],"1093483416":[0],"sdaReg42":[0],"1093532688":[0],"sdaReg148":[2],"static.<java.nio.charset.CoderResult: java.nio.charset.CoderResult UNDERFLOW>":[2],"1093277872.<java.io.InputStreamReader: boolean endOfInput>":[0],"1093511552.<java.nio.HeapByteBuffer: byte[] backingArray>":[0],"sdaReg149":[2],"sdaReg143":[2],"sdaReg145":[0],"sdaReg140":[1],"sdaReg142":[2],"1093532656.<java.io.ByteArrayInputStream: int count>":[0],"sdaReg32":[1],"sdaReg31":[1],"sdaReg30":[1],"1084215096.<java.nio.charset.CoderResult: int type>":[2],"1093511552.<java.nio.Buffer: int capacity>":[0],"sdaReg36":[0],"sdaReg35":[1],"1093263904.<java.nio.charset.CharsetDecoderICU: long converterHandle>":[0],"sdaReg33":[1],"sdaReg5":[0],"sdaReg139":[1],"1093532616.<java.io.BufferedReader: int mark>":[0],"sdaReg136":[1],"sdaReg135":[1],"sdaReg132":[1],"sdaReg29":[1],"sdaReg28":[1],"sdaReg130":[1],"sdaReg2":[0],"sdaReg1":[0],"sdaReg20":[0],"sdaReg23":[1],"sdaReg22":[1],"sdaReg25":[1]},"colorToColor":{"0":[0, 1, 3],"3":[0]},"colorToLabel":{"0":"this","2":"<java.nio.charset.CoderResult: java.nio.charset.CoderResult UNDERFLOW>","4":"return"}}}

Generated Model

