Scanning method <java.io.InputStreamReader: int read(char[],int,int)>

All seen event types: StoreArrayRecord, SimpleAssignmentRecord, ExitMonitorRecord, LoadInstanceRecord, MethodStartRecord, IfRecord, NewObjectRecord, StoreInstanceRecord, LoadStaticRecord, BinaryOperationRecord, MethodCallRecord, MethodReturnRecord, EnterMonitorRecord, ArrayLengthRecord, LoadArrayRecord, MethodEndRecord, 
Ignored event types: ExitMonitorRecord, EnterMonitorRecord, IfRecord, 

JSON Encoded Analysis Data (for visualization):{"heapEdges":[{"step":0,"from":"1093652160","to":"1093651256","type":"load","field":"<java.io.Reader: java.lang.Object lock>"},{"step":1,"from":"1093652160","to":"1093651256","type":"load","field":"<java.io.InputStreamReader: java.io.InputStream in>"},{"step":2,"from":"1093813072","to":"sdaReg24","type":"create","field":"<java.nio.Buffer: int mark>"},{"step":3,"from":"1093813072","to":"sdaReg25","type":"create","field":"<java.nio.Buffer: int position>"},{"step":4,"from":"1093813072","to":"sdaReg22","type":"create","field":"<java.nio.Buffer: int _elementSizeShift>"},{"step":5,"from":"sdaReg16","to":"1093813072","type":"store","field":"<java.nio.Buffer: int limit>"},{"step":6,"from":"sdaReg16","to":"1093813072","type":"store","field":"<java.nio.Buffer: int capacity>"},{"step":7,"from":"1093626336","to":"1093813072","type":"store","field":"<java.nio.CharArrayBuffer: char[] backingArray>"},{"step":8,"from":"1093813072","to":"sdaReg19","type":"create","field":"<java.nio.CharArrayBuffer: int offset>"},{"step":9,"from":"sdaReg0","to":"1093813072","type":"store","field":"<java.nio.Buffer: int position>"},{"step":10,"from":"sdaReg32","to":"1093813072","type":"store","field":"<java.nio.Buffer: int limit>"},{"step":11,"from":"static.<java.nio.charset.CoderResult: java.nio.charset.CoderResult UNDERFLOW>","to":"1084215096","type":"load","field":"<java.nio.charset.CoderResult: java.nio.charset.CoderResult UNDERFLOW>"},{"step":12,"from":"1093652160","to":"1093652256","type":"load","field":"<java.io.InputStreamReader: java.nio.ByteBuffer bytes>"},{"step":13,"from":"1093652256","to":"1093652256.<java.nio.Buffer: int position>","type":"load","field":"<java.nio.Buffer: int position>"},{"step":14,"from":"1093652256","to":"1093652256.<java.nio.Buffer: int limit>","type":"load","field":"<java.nio.Buffer: int limit>"},{"step":15,"from":"1093652160","to":"1093670896","type":"load","field":"<java.io.InputStreamReader: java.nio.charset.CharsetDecoder decoder>"},{"step":16,"from":"1093652160","to":"1093652256","type":"load","field":"<java.io.InputStreamReader: java.nio.ByteBuffer bytes>"},{"step":17,"from":"1093670896","to":"1093670896.<java.nio.charset.CharsetDecoder: int status>","type":"load","field":"<java.nio.charset.CharsetDecoder: int status>"},{"step":18,"from":"1093670896","to":"1093670896.<java.nio.charset.CharsetDecoder: int status>","type":"load","field":"<java.nio.charset.CharsetDecoder: int status>"},{"step":19,"from":"1093652256","to":"1093652256.<java.nio.Buffer: int position>","type":"load","field":"<java.nio.Buffer: int position>"},{"step":20,"from":"1093652256","to":"1093652256.<java.nio.Buffer: int limit>","type":"load","field":"<java.nio.Buffer: int limit>"},{"step":21,"from":"1093670896","to":"1093671048","type":"load","field":"<java.nio.charset.CharsetDecoderICU: int[] data>"},{"step":22,"from":"1093652256","to":"1093652312","type":"load","field":"<java.nio.HeapByteBuffer: byte[] backingArray>"},{"step":23,"from":"1093652312","to":"1093670896","type":"store","field":"<java.nio.charset.CharsetDecoderICU: byte[] input>"},{"step":24,"from":"1093652256","to":"1093652256.<java.nio.HeapByteBuffer: int offset>","type":"load","field":"<java.nio.HeapByteBuffer: int offset>"},{"step":25,"from":"1093652256","to":"1093652256.<java.nio.Buffer: int limit>","type":"load","field":"<java.nio.Buffer: int limit>"},{"step":26,"from":"sdaReg63","to":"1093670896","type":"store","field":"<java.nio.charset.CharsetDecoderICU: int inEnd>"},{"step":27,"from":"1093652256","to":"1093652256.<java.nio.HeapByteBuffer: int offset>","type":"load","field":"<java.nio.HeapByteBuffer: int offset>"},{"step":28,"from":"1093652256","to":"1093652256.<java.nio.Buffer: int position>","type":"load","field":"<java.nio.Buffer: int position>"},{"step":29,"from":"sdaReg67","to":"1093671048","type":"store","field":"arrayIdx_int:0"},{"step":30,"from":"1093670896","to":"1093671048","type":"load","field":"<java.nio.charset.CharsetDecoderICU: int[] data>"},{"step":31,"from":"1093626336","to":"1093670896","type":"store","field":"<java.nio.charset.CharsetDecoderICU: char[] output>"},{"step":32,"from":"sdaReg82","to":"1093670896","type":"store","field":"<java.nio.charset.CharsetDecoderICU: int outEnd>"},{"step":33,"from":"sdaReg88","to":"1093671048","type":"store","field":"arrayIdx_int:1"},{"step":34,"from":"1093670896","to":"1093670896.<java.nio.charset.CharsetDecoderICU: long converterHandle>","type":"load","field":"<java.nio.charset.CharsetDecoderICU: long converterHandle>"},{"step":35,"from":"1093670896","to":"1093671048","type":"load","field":"<java.nio.charset.CharsetDecoderICU: int[] data>"},{"step":36,"from":"1093652312","to":"1093626336","type":"model"},{"step":37,"from":"sdaReg89","to":"1093670896","type":"store","field":"<java.nio.charset.CharsetDecoderICU: int ec>"},{"step":38,"from":"static.<java.nio.charset.CoderResult: java.nio.charset.CoderResult OVERFLOW>","to":"1084347232","type":"load","field":"<java.nio.charset.CoderResult: java.nio.charset.CoderResult OVERFLOW>"},{"step":39,"from":"1093652256","to":"1093652256.<java.nio.Buffer: int position>","type":"load","field":"<java.nio.Buffer: int position>"},{"step":40,"from":"1093670896","to":"1093671048","type":"load","field":"<java.nio.charset.CharsetDecoderICU: int[] data>"},{"step":41,"from":"1093652256","to":"1093652256.<java.nio.Buffer: int limit>","type":"load","field":"<java.nio.Buffer: int limit>"},{"step":42,"from":"sdaReg93","to":"1093652256","type":"store","field":"<java.nio.Buffer: int position>"},{"step":43,"from":"1093652256","to":"1093652256.<java.nio.Buffer: int mark>","type":"load","field":"<java.nio.Buffer: int mark>"},{"step":44,"from":"1093670896","to":"sdaReg96","type":"create","field":"<java.nio.charset.CharsetDecoderICU: byte[] input>"},{"step":45,"from":"1093670896","to":"1093671048","type":"load","field":"<java.nio.charset.CharsetDecoderICU: int[] data>"},{"step":46,"from":"sdaReg108","to":"1093813072","type":"store","field":"<java.nio.Buffer: int position>"},{"step":47,"from":"1093670896","to":"sdaReg111","type":"create","field":"<java.nio.charset.CharsetDecoderICU: char[] output>"},{"step":48,"from":"1084347232","to":"1084347232.<java.nio.charset.CoderResult: int type>","type":"load","field":"<java.nio.charset.CoderResult: int type>"},{"step":49,"from":"1084347232","to":"1084347232.<java.nio.charset.CoderResult: int type>","type":"load","field":"<java.nio.charset.CoderResult: int type>"},{"step":50,"from":"1084347232","to":"1084347232.<java.nio.charset.CoderResult: int type>","type":"load","field":"<java.nio.charset.CoderResult: int type>"},{"step":51,"from":"static.<java.nio.charset.CoderResult: java.nio.charset.CoderResult UNDERFLOW>","to":"1084215096","type":"load","field":"<java.nio.charset.CoderResult: java.nio.charset.CoderResult UNDERFLOW>"},{"step":52,"from":"1084347232","to":"1084347232.<java.nio.charset.CoderResult: int type>","type":"load","field":"<java.nio.charset.CoderResult: int type>"},{"step":53,"from":"1084347232","to":"1084347232.<java.nio.charset.CoderResult: int type>","type":"load","field":"<java.nio.charset.CoderResult: int type>"}],"parameters":[{"id":"1093652160","name":"this","klass":"java.io.InputStreamReader"},{"id":"1093626336","name":"arg#1","klass":"char[]"},{"id":"sdaReg0","name":"arg#2","klass":"int"},{"id":"sdaReg1","name":"arg#3","klass":"int"}],"returns":[{"id":"sdaReg129","name":"return","klass":"int"}],"colors":{"heapLocToColor":{"sdaReg126":[2],"sdaReg127":[4],"sdaReg129":[2],"sdaReg68":[0],"sdaReg69":[4],"sdaReg66":[0],"sdaReg67":[0],"sdaReg64":[0],"sdaReg65":[0],"sdaReg62":[0],"sdaReg63":[0],"sdaReg13":[1],"sdaReg14":[4],"sdaReg71":[4],"sdaReg11":[2],"sdaReg70":[4],"sdaReg12":[4],"sdaReg10":[2, 3],"sdaReg120":[7],"sdaReg122":[7],"sdaReg17":[4],"sdaReg18":[1],"sdaReg124":[4],"sdaReg15":[1],"sdaReg117":[7],"1093652256.<java.nio.Buffer: int limit>":[0],"sdaReg115":[7],"sdaReg118":[7],"static.<java.nio.charset.CoderResult: java.nio.charset.CoderResult OVERFLOW>":[7],"sdaReg77":[4],"sdaReg78":[4],"1084347232.<java.nio.charset.CoderResult: int type>":[7],"sdaReg73":[4],"sdaReg74":[4],"sdaReg75":[1],"sdaReg76":[1],"sdaReg80":[4],"sdaReg83":[4],"1084215096":[5],"1093670896.<java.nio.charset.CharsetDecoderICU: int[] data>":[0],"sdaReg113":[7],"sdaReg112":[7],"sdaReg110":[4],"sdaReg109":[4],"sdaReg105":[4],"sdaReg106":[4],"sdaReg86":[4],"sdaReg84":[4],"sdaReg89":[6],"sdaReg90":[0],"1093652256.<java.nio.Buffer: int position>":[0],"sdaReg94":[0],"sdaReg93":[0],"1093671048":[0],"sdaReg92":[0],"sdaReg91":[0],"sdaReg100":[4],"1093652256":[0],"sdaReg102":[4],"1093670896.<java.nio.charset.CharsetDecoder: int status>":[0],"sdaReg95":[0],"sdaReg97":[0],"sdaReg98":[4],"sdaReg99":[4],"1093652312":[0],"1093652160.<java.io.InputStreamReader: java.nio.ByteBuffer bytes>":[0],"1093652256.<java.nio.HeapByteBuffer: int offset>":[0],"sdaReg60":[0],"sdaReg61":[0],"1084347232":[7],"1093670896.<java.nio.charset.CharsetDecoderICU: long converterHandle>":[0],"sdaReg59":[0],"sdaReg58":[0],"sdaReg57":[0],"sdaReg56":[0],"sdaReg54":[0],"sdaReg53":[0],"sdaReg52":[0],"sdaReg51":[0],"1093652160.<java.io.InputStreamReader: java.io.InputStream in>":[0],"sdaReg49":[0],"sdaReg48":[4],"sdaReg47":[0],"sdaReg46":[0],"sdaReg41":[0],"sdaReg40":[0],"sdaReg42":[4],"static.<java.nio.charset.CoderResult: java.nio.charset.CoderResult UNDERFLOW>":[5],"sdaReg38":[4],"1093813072":[4],"sdaReg32":[2, 3],"sdaReg31":[4],"sdaReg30":[4],"sdaReg34":[0],"sdaReg33":[4],"sdaReg8":[1],"sdaReg6":[2, 3],"1093651256":[0],"sdaReg7":[2],"1093670896":[0],"1093652160":[0],"sdaReg27":[4],"1093652256.<java.nio.Buffer: int mark>":[0],"sdaReg26":[4],"sdaReg29":[4],"sdaReg28":[4],"sdaReg3":[0],"sdaReg1":[3],"sdaReg21":[4],"sdaReg0":[2],"sdaReg20":[4],"sdaReg23":[4],"1093626336":[1]},"colorToColor":{"0":[0, 1],"1":[0, 4],"2":[4, 8],"3":[4],"6":[0]},"colorToLabel":{"0":"this","1":"arg#1","2":"arg#2","3":"arg#3","5":"<java.nio.charset.CoderResult: java.nio.charset.CoderResult UNDERFLOW>","7":"<java.nio.charset.CoderResult: java.nio.charset.CoderResult OVERFLOW>","8":"return"}}}

Generated Model
	this->arg#1
	arg#2->return
	arg#1->this

