Scanning method <java.io.FileOutputStream: void close()>

All seen event types: SimpleAssignmentRecord, ExitMonitorRecord, MethodReturnRecord, MethodCallRecord, EnterMonitorRecord, MethodStartRecord, LoadInstanceRecord, MethodEndRecord, IfRecord, 
Ignored event types: ExitMonitorRecord, EnterMonitorRecord, IfRecord, 

JSON Encoded Analysis Data (for visualization):{"heapEdges":[{"step":0,"from":"1093412424","to":"1083966016","type":"load","field":"<java.io.FileOutputStream: dalvik.system.CloseGuard guard>"},{"step":1,"from":"1093412424","to":"1093412760","type":"load","field":"<java.io.FileOutputStream: java.nio.channels.FileChannel channel>"},{"step":2,"from":"1093412424","to":"1093412760","type":"load","field":"<java.io.FileOutputStream: java.nio.channels.FileChannel channel>"},{"step":3,"from":"1093412760","to":"1093412760.<java.nio.channels.spi.AbstractInterruptibleChannel: boolean closed>","type":"load","field":"<java.nio.channels.spi.AbstractInterruptibleChannel: boolean closed>"},{"step":4,"from":"1093412424","to":"1093412424.<java.io.FileOutputStream: boolean shouldClose>","type":"load","field":"<java.io.FileOutputStream: boolean shouldClose>"},{"step":5,"from":"1093412424","to":"1093422264","type":"load","field":"<java.io.FileOutputStream: java.io.FileDescriptor fd>"}],"parameters":[{"id":"1093412424","name":"this","klass":"java.io.FileOutputStream"}],"returns":[{"id":null,"name":"return","klass":null}],"colors":{"heapLocToColor":{"1093412760":[0],"1093412424.<java.io.FileOutputStream: boolean shouldClose>":[0],"1093422264":[0],"sdaReg1":[0],"1093412424.<java.io.FileOutputStream: java.nio.channels.FileChannel channel>":[0],"1093412760.<java.nio.channels.spi.AbstractInterruptibleChannel: boolean closed>":[0],"1083966016":[0],"1093412424":[0]},"colorToColor":{},"colorToLabel":{"0":"this","1":"return"}}}

Generated Model

