Scanning method <java.net.URL: void <init>(java.net.URL,java.lang.String)>

All seen event types: BinaryOperationRecord, SimpleAssignmentRecord, SwitchRecord, MethodReturnRecord, MethodCallRecord, LoadInstanceRecord, MethodStartRecord, MethodEndRecord, IfRecord, NewObjectRecord, StoreInstanceRecord, 
Ignored event types: SwitchRecord, IfRecord, 

JSON Encoded Analysis Data (for visualization):{"heapEdges":[{"step":0,"from":"1093532472","to":"sdaReg4","type":"create","field":"<java.net.URL: int port>"},{"step":1,"from":"sdaReg0","to":"sdaReg5","type":"model"},{"step":2,"from":"sdaReg5","to":"sdaReg6","type":"model"},{"step":3,"from":"1093532472","to":"sdaReg7","type":"create","field":"<java.net.URL: java.lang.String protocol>"},{"step":4,"from":"1093675688","to":"1093675688.<java.net.URL: java.lang.String protocol>","type":"load","field":"<java.net.URL: java.lang.String protocol>"},{"step":5,"from":"1093675688","to":"1093675688.<java.net.URL: java.lang.String host>","type":"load","field":"<java.net.URL: java.lang.String host>"},{"step":6,"from":"1093675688","to":"1093675688.<java.net.URL: int port>","type":"load","field":"<java.net.URL: int port>"},{"step":7,"from":"1093675688","to":"1093675688.<java.net.URL: java.lang.String authority>","type":"load","field":"<java.net.URL: java.lang.String authority>"},{"step":8,"from":"1093675688","to":"1093675688.<java.net.URL: java.lang.String userInfo>","type":"load","field":"<java.net.URL: java.lang.String userInfo>"},{"step":9,"from":"1093675688","to":"1093675688.<java.net.URL: java.lang.String path>","type":"load","field":"<java.net.URL: java.lang.String path>"},{"step":10,"from":"1093675688","to":"1093675688.<java.net.URL: java.lang.String query>","type":"load","field":"<java.net.URL: java.lang.String query>"},{"step":11,"from":"1093675688","to":"1093675688.<java.net.URL: java.lang.String ref>","type":"load","field":"<java.net.URL: java.lang.String ref>"},{"step":12,"from":"1093675688.<java.net.URL: java.lang.String query>","to":"sdaReg19","type":"model"},{"step":13,"from":"sdaReg18","to":"1093230344","type":"model"},{"step":14,"from":"sdaReg18","to":"1093230344","type":"model"},{"step":15,"from":"1093675688.<java.net.URL: java.lang.String query>","to":"1093230344","type":"model"},{"step":16,"from":"1093675688.<java.net.URL: java.lang.String query>","to":"1093230344","type":"model"},{"step":17,"from":"1093230344","to":"sdaReg24","type":"model"},{"step":18,"from":"1093675688.<java.net.URL: java.lang.String protocol>","to":"1093532472","type":"store","field":"<java.net.URL: java.lang.String protocol>"},{"step":19,"from":"1093675688.<java.net.URL: java.lang.String host>","to":"1093532472","type":"store","field":"<java.net.URL: java.lang.String host>"},{"step":20,"from":"sdaReg24","to":"1093532472","type":"store","field":"<java.net.URL: java.lang.String file>"},{"step":21,"from":"1093675688.<java.net.URL: int port>","to":"1093532472","type":"store","field":"<java.net.URL: int port>"},{"step":22,"from":"1093675688.<java.net.URL: java.lang.String ref>","to":"1093532472","type":"store","field":"<java.net.URL: java.lang.String ref>"},{"step":23,"from":"1093532472","to":"sdaReg26","type":"create","field":"<java.net.URL: int hashCode>"},{"step":24,"from":"sdaReg30","to":"1093532472","type":"store","field":"<java.net.URL: java.lang.String authority>"},{"step":25,"from":"1093532472","to":"sdaReg33","type":"create","field":"<java.net.URL: java.lang.String userInfo>"},{"step":26,"from":"sdaReg36","to":"sdaReg37","type":"model"},{"step":27,"from":"sdaReg37","to":"1093532472","type":"store","field":"<java.net.URL: java.lang.String query>"},{"step":28,"from":"sdaReg38","to":"1093532472","type":"store","field":"<java.net.URL: java.lang.String path>"},{"step":29,"from":"1093675688.<java.net.URL: java.lang.String authority>","to":"1093532472","type":"store","field":"<java.net.URL: java.lang.String authority>"},{"step":30,"from":"1093675688.<java.net.URL: java.lang.String userInfo>","to":"1093532472","type":"store","field":"<java.net.URL: java.lang.String userInfo>"},{"step":31,"from":"1093675688.<java.net.URL: java.lang.String path>","to":"1093532472","type":"store","field":"<java.net.URL: java.lang.String path>"},{"step":32,"from":"1093675688.<java.net.URL: java.lang.String query>","to":"1093532472","type":"store","field":"<java.net.URL: java.lang.String query>"},{"step":33,"from":"1093675688","to":"1093271080","type":"load","field":"<java.net.URL: java.net.URLStreamHandler streamHandler>"},{"step":34,"from":"1093271080","to":"1093532472","type":"store","field":"<java.net.URL: java.net.URLStreamHandler streamHandler>"},{"step":35,"from":"sdaReg5","to":"sdaReg9","type":"model"},{"step":36,"from":"sdaReg5","to":"sdaReg43","type":"model"},{"step":37,"from":"sdaReg9","to":"sdaReg5","type":"model"},{"step":38,"from":"sdaReg9","to":"sdaReg43","type":"model"},{"step":39,"from":"sdaReg5","to":"sdaReg60","type":"model"},{"step":40,"from":"sdaReg5","to":"sdaReg63","type":"model"},{"step":41,"from":"sdaReg61","to":"sdaReg63","type":"model"},{"step":42,"from":"sdaReg61","to":"sdaReg64","type":"model"},{"step":43,"from":"sdaReg63","to":"sdaReg61","type":"model"},{"step":44,"from":"sdaReg63","to":"sdaReg64","type":"model"},{"step":45,"from":"sdaReg5","to":"sdaReg65","type":"model"},{"step":46,"from":"sdaReg65","to":"sdaReg66","type":"model"},{"step":47,"from":"sdaReg54","to":"sdaReg68","type":"model"},{"step":48,"from":"sdaReg54","to":"sdaReg70","type":"model"},{"step":49,"from":"sdaReg70","to":"1093477960","type":"model"},{"step":50,"from":"sdaReg70","to":"1093477960","type":"model"},{"step":51,"from":"sdaReg65","to":"1093477960","type":"model"},{"step":52,"from":"sdaReg65","to":"1093477960","type":"model"},{"step":53,"from":"1093477960","to":"sdaReg73","type":"model"},{"step":54,"from":"sdaReg73","to":"sdaReg80","type":"model"},{"step":55,"from":"sdaReg73","to":"sdaReg86","type":"model"},{"step":56,"from":"sdaReg73","to":"sdaReg89","type":"model"},{"step":57,"from":"sdaReg73","to":"sdaReg75","type":"model"},{"step":58,"from":"sdaReg73","to":"sdaReg90","type":"model"},{"step":59,"from":"sdaReg75","to":"sdaReg73","type":"model"},{"step":60,"from":"sdaReg75","to":"sdaReg90","type":"model"},{"step":61,"from":"sdaReg73","to":"sdaReg93","type":"model"},{"step":62,"from":"sdaReg73","to":"sdaReg96","type":"model"},{"step":63,"from":"sdaReg73","to":"sdaReg75","type":"model"},{"step":64,"from":"sdaReg73","to":"sdaReg97","type":"model"},{"step":65,"from":"sdaReg75","to":"sdaReg73","type":"model"},{"step":66,"from":"sdaReg75","to":"sdaReg97","type":"model"},{"step":67,"from":"sdaReg73","to":"sdaReg100","type":"model"},{"step":68,"from":"sdaReg73","to":"sdaReg75","type":"model"},{"step":69,"from":"sdaReg73","to":"sdaReg103","type":"model"},{"step":70,"from":"sdaReg75","to":"sdaReg73","type":"model"},{"step":71,"from":"sdaReg75","to":"sdaReg103","type":"model"},{"step":72,"from":"sdaReg46","to":"sdaReg105","type":"model"},{"step":73,"from":"sdaReg73","to":"sdaReg106","type":"model"},{"step":74,"from":"sdaReg73","to":"sdaReg107","type":"model"},{"step":75,"from":"sdaReg50","to":"1093532472","type":"store","field":"<java.net.URL: java.lang.String host>"},{"step":76,"from":"sdaReg113","to":"1093532472","type":"store","field":"<java.net.URL: java.lang.String file>"},{"step":77,"from":"sdaReg52","to":"1093532472","type":"store","field":"<java.net.URL: int port>"},{"step":78,"from":"sdaReg58","to":"1093532472","type":"store","field":"<java.net.URL: java.lang.String ref>"},{"step":79,"from":"1093532472","to":"sdaReg115","type":"create","field":"<java.net.URL: int hashCode>"},{"step":80,"from":"sdaReg119","to":"1093532472","type":"store","field":"<java.net.URL: java.lang.String authority>"},{"step":81,"from":"1093532472","to":"sdaReg122","type":"create","field":"<java.net.URL: java.lang.String userInfo>"},{"step":82,"from":"1093532472","to":"sdaReg125","type":"create","field":"<java.net.URL: java.lang.String query>"},{"step":83,"from":"sdaReg126","to":"1093532472","type":"store","field":"<java.net.URL: java.lang.String path>"},{"step":84,"from":"sdaReg46","to":"1093532472","type":"store","field":"<java.net.URL: java.lang.String authority>"},{"step":85,"from":"sdaReg48","to":"1093532472","type":"store","field":"<java.net.URL: java.lang.String userInfo>"},{"step":86,"from":"sdaReg73","to":"1093532472","type":"store","field":"<java.net.URL: java.lang.String path>"},{"step":87,"from":"sdaReg56","to":"1093532472","type":"store","field":"<java.net.URL: java.lang.String query>"}],"parameters":[{"id":"1093532472","name":"this","klass":"java.net.URL"},{"id":"1093675688","name":"arg#1","klass":"java.net.URL"},{"id":"sdaReg0","name":"arg#2","klass":"string"}],"returns":[{"id":"1093532472","name":"return","klass":"java.net.URL"}],"colors":{"heapLocToColor":{"sdaReg127":[0],"sdaReg68":[21],"sdaReg69":[21],"sdaReg66":[2, 19, 18, 3],"sdaReg67":[20],"sdaReg64":[17],"sdaReg65":[2, 3, 18],"sdaReg62":[2, 3],"sdaReg63":[16, 2, 3],"sdaReg13":[1],"sdaReg72":[20],"sdaReg14":[1],"sdaReg71":[20],"sdaReg11":[1],"sdaReg70":[22],"sdaReg12":[1],"sdaReg10":[1],"1093532472":[0],"1093675688.<java.net.URL: java.lang.String authority>":[1],"sdaReg120":[52],"sdaReg19":[1, 5],"sdaReg17":[0],"sdaReg121":[52],"sdaReg18":[1],"sdaReg124":[53],"sdaReg15":[1],"sdaReg123":[53],"sdaReg16":[1],"sdaReg116":[0],"sdaReg114":[0],"sdaReg118":[51],"sdaReg78":[24],"sdaReg79":[25],"sdaReg73":[20, 23],"sdaReg75":[20, 23],"sdaReg80":[20, 23, 26],"sdaReg83":[20, 23],"sdaReg82":[20, 23],"1093675688.<java.net.URL: java.lang.String host>":[1],"1093675688.<java.net.URL: java.lang.String ref>":[1],"sdaReg113":[20, 23],"sdaReg112":[0],"sdaReg111":[0],"sdaReg110":[1],"sdaReg107":[50, 20, 23],"sdaReg108":[0],"sdaReg103":[20, 23, 46],"sdaReg104":[47],"sdaReg105":[48],"sdaReg106":[49, 20, 23],"sdaReg86":[20, 23, 29],"sdaReg87":[30],"1093230344":[6],"1093675688.<java.net.URL: java.lang.String path>":[1],"sdaReg84":[27],"sdaReg85":[28],"sdaReg88":[31],"sdaReg89":[32, 20, 23],"sdaReg90":[33, 20, 23],"1093675688.<java.net.URL: java.lang.String userInfo>":[1],"sdaReg94":[37],"sdaReg93":[20, 23, 36],"sdaReg92":[35],"sdaReg91":[34],"sdaReg100":[20, 23, 43],"sdaReg102":[45],"sdaReg101":[44],"sdaReg95":[38],"sdaReg96":[20, 39, 23],"sdaReg97":[20, 23, 40],"sdaReg98":[41],"sdaReg99":[42],"sdaReg60":[2, 3, 15],"1093675688.<java.net.URL: int port>":[1],"sdaReg59":[2, 3, 13],"sdaReg57":[0],"sdaReg55":[0],"sdaReg53":[0],"sdaReg51":[0],"1093675688":[1],"sdaReg49":[0],"sdaReg45":[0],"sdaReg44":[2, 3],"sdaReg47":[0],"sdaReg41":[0],"sdaReg40":[1],"sdaReg43":[2, 3, 14],"1093675688.<java.net.URL: java.lang.String protocol>":[1],"1093675688.<java.net.URL: java.lang.String query>":[1],"sdaReg39":[13],"sdaReg38":[12],"sdaReg37":[11],"sdaReg32":[9],"sdaReg31":[9],"sdaReg36":[10],"sdaReg35":[10],"sdaReg34":[10],"sdaReg9":[2, 3],"sdaReg6":[2, 3, 4],"1093271080":[1],"sdaReg5":[2, 3],"sdaReg27":[0],"sdaReg29":[8],"sdaReg3":[0],"sdaReg2":[1],"sdaReg21":[6],"sdaReg1":[0],"sdaReg20":[6],"sdaReg0":[2],"sdaReg23":[6],"1093477960":[20],"sdaReg22":[6],"sdaReg25":[0],"sdaReg24":[6, 7]},"colorToColor":{"0":[54],"1":[0, 6],"2":[17, 2, 3, 20, 14],"3":[17, 2, 3, 20, 14],"6":[0],"7":[0],"10":[11],"11":[0],"12":[0],"16":[17],"18":[20],"20":[0, 33, 20, 23, 40, 46],"23":[0, 33, 20, 23, 40, 46],"22":[20]},"colorToLabel":{"0":"this","1":"arg#1","2":"arg#2","54":"return"}}}

Generated Model
	this->return
	arg#2->this
	arg#2->return
	arg#1->this
	arg#1->return

