Scanning method <java.net.URL: void <init>(java.net.URL,java.lang.String)>

All seen event types: SimpleAssignmentRecord, MethodStartRecord, LoadInstanceRecord, IfRecord, StoreInstanceRecord, LoadStaticRecord, BinaryOperationRecord, MethodCallRecord, MethodReturnRecord, ArrayLengthRecord, CastRecord, LoadArrayRecord, MethodEndRecord, 
Ignored event types: IfRecord, 

JSON Encoded Analysis Data (for visualization):{"heapEdges":[{"step":0,"from":"1093644736","to":"sdaReg4","type":"create","field":"<java.net.URL: int port>"},{"step":1,"from":"sdaReg0","to":"sdaReg5","type":"model"},{"step":2,"from":"sdaReg5","to":"sdaReg6","type":"model"},{"step":3,"from":"sdaReg5","to":"sdaReg8","type":"model"},{"step":4,"from":"sdaReg5","to":"sdaReg10","type":"model"},{"step":5,"from":"sdaReg5","to":"sdaReg12","type":"model"},{"step":6,"from":"sdaReg5","to":"sdaReg14","type":"model"},{"step":7,"from":"sdaReg5","to":"sdaReg16","type":"model"},{"step":8,"from":"sdaReg5","to":"sdaReg18","type":"model"},{"step":9,"from":"static.<java.util.Locale: java.util.Locale US>","to":"1084317688","type":"load","field":"<java.util.Locale: java.util.Locale US>"},{"step":10,"from":"sdaReg18","to":"1084317688","type":"model"},{"step":11,"from":"sdaReg18","to":"sdaReg19","type":"model"},{"step":12,"from":"1084317688","to":"sdaReg18","type":"model"},{"step":13,"from":"1084317688","to":"sdaReg19","type":"model"},{"step":14,"from":"sdaReg19","to":"1093644736","type":"store","field":"<java.net.URL: java.lang.String protocol>"},{"step":15,"from":"1093645672","to":"1093645672.<java.net.URL: java.lang.String protocol>","type":"load","field":"<java.net.URL: java.lang.String protocol>"},{"step":16,"from":"static.<java.net.URL: java.util.Hashtable streamHandlers>","to":"1084315112","type":"load","field":"<java.net.URL: java.util.Hashtable streamHandlers>"},{"step":17,"from":"1084315112","to":"1084321912","type":"load","field":"<java.util.Hashtable: java.util.Hashtable$HashtableEntry[] table>"},{"step":18,"from":"1084321912","to":"1093290728","type":"load","field":"arrayIdx_int:0"},{"step":19,"from":"1093290728","to":"1093285680","type":"load","field":"<java.util.Hashtable$HashtableEntry: java.lang.Object key>"},{"step":20,"from":"1093290728","to":"1093290728.<java.util.Hashtable$HashtableEntry: int hash>","type":"load","field":"<java.util.Hashtable$HashtableEntry: int hash>"},{"step":21,"from":"1093290728","to":"1093290648","type":"load","field":"<java.util.Hashtable$HashtableEntry: java.lang.Object value>"},{"step":22,"from":"1093290648","to":"1093644736","type":"store","field":"<java.net.URL: java.net.URLStreamHandler streamHandler>"},{"step":23,"from":"sdaReg5","to":"sdaReg22","type":"model"},{"step":24,"from":"sdaReg5","to":"sdaReg46","type":"model"},{"step":25,"from":"sdaReg22","to":"sdaReg5","type":"model"},{"step":26,"from":"sdaReg22","to":"sdaReg46","type":"model"},{"step":27,"from":"sdaReg5","to":"sdaReg50","type":"model"},{"step":28,"from":"sdaReg5","to":"sdaReg60","type":"model"},{"step":29,"from":"sdaReg50","to":"sdaReg66","type":"model"},{"step":30,"from":"sdaReg60","to":"1093644736","type":"store","field":"<java.net.URL: java.lang.String host>"},{"step":31,"from":"sdaReg72","to":"1093644736","type":"store","field":"<java.net.URL: java.lang.String file>"},{"step":32,"from":"sdaReg45","to":"1093644736","type":"store","field":"<java.net.URL: int port>"},{"step":33,"from":"sdaReg64","to":"1093644736","type":"store","field":"<java.net.URL: java.lang.String ref>"},{"step":34,"from":"1093644736","to":"sdaReg74","type":"create","field":"<java.net.URL: int hashCode>"},{"step":35,"from":"1093644736","to":"sdaReg80","type":"create","field":"<java.net.URL: java.lang.String userInfo>"},{"step":36,"from":"1093644736","to":"sdaReg83","type":"create","field":"<java.net.URL: java.lang.String query>"},{"step":37,"from":"sdaReg84","to":"1093644736","type":"store","field":"<java.net.URL: java.lang.String path>"},{"step":38,"from":"sdaReg50","to":"1093644736","type":"store","field":"<java.net.URL: java.lang.String authority>"},{"step":39,"from":"sdaReg53","to":"1093644736","type":"store","field":"<java.net.URL: java.lang.String userInfo>"},{"step":40,"from":"sdaReg62","to":"1093644736","type":"store","field":"<java.net.URL: java.lang.String path>"},{"step":41,"from":"sdaReg63","to":"1093644736","type":"store","field":"<java.net.URL: java.lang.String query>"}],"parameters":[{"id":"1093644736","name":"this","klass":"java.net.URL"},{"id":"1093645672","name":"arg#1","klass":"java.net.URL"},{"id":"sdaReg0","name":"arg#2","klass":"string"}],"returns":[{"id":"1093644736","name":"return","klass":"java.net.URL"}],"colors":{"heapLocToColor":{"sdaReg60":[2, 3, 21],"sdaReg61":[18],"1093290728.<java.util.Hashtable$HashtableEntry: int hash>":[15],"sdaReg69":[15],"sdaReg66":[2, 3, 20, 22],"sdaReg67":[0],"sdaReg65":[18],"sdaReg71":[0],"sdaReg14":[2, 3, 8],"sdaReg70":[0],"sdaReg12":[2, 3, 7],"sdaReg10":[2, 3, 6],"sdaReg59":[2, 3, 13],"sdaReg57":[2, 3, 13],"1093645672.<java.net.URL: java.lang.String protocol>":[1],"sdaReg19":[2, 3, 10, 12],"sdaReg55":[2, 3, 13],"sdaReg54":[2, 3, 13],"sdaReg18":[2, 3, 10],"sdaReg52":[2, 3, 13],"sdaReg16":[2, 3, 9],"sdaReg50":[2, 3, 20],"1084317688":[2, 3, 10, 11],"sdaReg77":[23],"sdaReg78":[24],"sdaReg79":[24],"sdaReg73":[0],"sdaReg75":[0],"sdaReg81":[25],"1084321912":[15],"sdaReg82":[25],"sdaReg49":[2, 3, 13],"sdaReg44":[0],"sdaReg47":[2, 3, 13],"1093290728":[15],"sdaReg46":[2, 19, 3],"sdaReg41":[15],"sdaReg40":[15],"1084315112":[15],"sdaReg43":[15],"sdaReg42":[18],"static.<java.net.URL: java.util.Hashtable streamHandlers>":[15],"1093644736":[0],"sdaReg85":[0],"1093645672":[1],"sdaReg39":[17],"sdaReg38":[16],"1093285680":[15],"sdaReg32":[16],"sdaReg31":[16],"sdaReg30":[16],"sdaReg35":[16],"sdaReg34":[16],"sdaReg33":[16],"sdaReg8":[2, 3, 5],"sdaReg6":[2, 3, 4],"sdaReg5":[2, 3],"sdaReg27":[16],"sdaReg29":[16],"static.<java.util.Locale: java.util.Locale US>":[11],"sdaReg28":[16],"sdaReg3":[0],"sdaReg2":[1],"sdaReg21":[13],"sdaReg1":[0],"sdaReg20":[13],"sdaReg0":[2],"sdaReg23":[14],"sdaReg22":[2, 3, 13],"1093290648":[15],"sdaReg25":[15],"sdaReg24":[0]},"colorToColor":{"0":[26],"2":[0, 19, 2, 3, 10, 12],"3":[0, 19, 2, 3, 10, 12],"21":[0],"20":[0],"10":[0, 2, 3, 10, 12],"11":[2, 3, 10, 12],"12":[0],"13":[19, 2, 3],"15":[0]},"colorToLabel":{"0":"this","1":"arg#1","2":"arg#2","11":"<java.util.Locale: java.util.Locale US>","15":"<java.net.URL: java.util.Hashtable streamHandlers>","26":"return"}}}

Generated Model
	this->return
	arg#2->this
	arg#2->return

