Scanning method <java.net.URL: void <init>(java.net.URL,java.lang.String)>

All seen event types: BinaryOperationRecord, SimpleAssignmentRecord, SwitchRecord, MethodReturnRecord, MethodCallRecord, LoadInstanceRecord, MethodStartRecord, MethodEndRecord, IfRecord, NewObjectRecord, StoreInstanceRecord, 
Ignored event types: SwitchRecord, IfRecord, 

JSON Encoded Analysis Data (for visualization):{"heapEdges":[{"step":0,"from":"1093456712","to":"sdaReg4","type":"create","field":"<java.net.URL: int port>"},{"step":1,"from":"sdaReg0","to":"sdaReg5","type":"model"},{"step":2,"from":"sdaReg5","to":"sdaReg6","type":"model"},{"step":3,"from":"1093456712","to":"sdaReg7","type":"create","field":"<java.net.URL: java.lang.String protocol>"},{"step":4,"from":"1093666160","to":"1093666160.<java.net.URL: java.lang.String protocol>","type":"load","field":"<java.net.URL: java.lang.String protocol>"},{"step":5,"from":"1093666160","to":"1093666160.<java.net.URL: java.lang.String host>","type":"load","field":"<java.net.URL: java.lang.String host>"},{"step":6,"from":"1093666160","to":"1093666160.<java.net.URL: int port>","type":"load","field":"<java.net.URL: int port>"},{"step":7,"from":"1093666160","to":"1093666160.<java.net.URL: java.lang.String authority>","type":"load","field":"<java.net.URL: java.lang.String authority>"},{"step":8,"from":"1093666160","to":"1093666160.<java.net.URL: java.lang.String userInfo>","type":"load","field":"<java.net.URL: java.lang.String userInfo>"},{"step":9,"from":"1093666160","to":"1093666160.<java.net.URL: java.lang.String path>","type":"load","field":"<java.net.URL: java.lang.String path>"},{"step":10,"from":"1093666160","to":"1093666160.<java.net.URL: java.lang.String query>","type":"load","field":"<java.net.URL: java.lang.String query>"},{"step":11,"from":"1093666160","to":"1093666160.<java.net.URL: java.lang.String ref>","type":"load","field":"<java.net.URL: java.lang.String ref>"},{"step":12,"from":"1093666160.<java.net.URL: java.lang.String query>","to":"sdaReg19","type":"model"},{"step":13,"from":"sdaReg18","to":"1093663336","type":"model"},{"step":14,"from":"sdaReg18","to":"1093663336","type":"model"},{"step":15,"from":"1093666160.<java.net.URL: java.lang.String query>","to":"1093663336","type":"model"},{"step":16,"from":"1093666160.<java.net.URL: java.lang.String query>","to":"1093663336","type":"model"},{"step":17,"from":"1093663336","to":"sdaReg24","type":"model"},{"step":18,"from":"1093666160.<java.net.URL: java.lang.String protocol>","to":"1093456712","type":"store","field":"<java.net.URL: java.lang.String protocol>"},{"step":19,"from":"1093666160.<java.net.URL: java.lang.String host>","to":"1093456712","type":"store","field":"<java.net.URL: java.lang.String host>"},{"step":20,"from":"sdaReg24","to":"1093456712","type":"store","field":"<java.net.URL: java.lang.String file>"},{"step":21,"from":"1093666160.<java.net.URL: int port>","to":"1093456712","type":"store","field":"<java.net.URL: int port>"},{"step":22,"from":"1093666160.<java.net.URL: java.lang.String ref>","to":"1093456712","type":"store","field":"<java.net.URL: java.lang.String ref>"},{"step":23,"from":"1093456712","to":"sdaReg26","type":"create","field":"<java.net.URL: int hashCode>"},{"step":24,"from":"sdaReg30","to":"1093456712","type":"store","field":"<java.net.URL: java.lang.String authority>"},{"step":25,"from":"1093456712","to":"sdaReg33","type":"create","field":"<java.net.URL: java.lang.String userInfo>"},{"step":26,"from":"sdaReg36","to":"sdaReg37","type":"model"},{"step":27,"from":"sdaReg37","to":"1093456712","type":"store","field":"<java.net.URL: java.lang.String query>"},{"step":28,"from":"sdaReg38","to":"1093456712","type":"store","field":"<java.net.URL: java.lang.String path>"},{"step":29,"from":"1093666160.<java.net.URL: java.lang.String authority>","to":"1093456712","type":"store","field":"<java.net.URL: java.lang.String authority>"},{"step":30,"from":"1093666160.<java.net.URL: java.lang.String userInfo>","to":"1093456712","type":"store","field":"<java.net.URL: java.lang.String userInfo>"},{"step":31,"from":"1093666160.<java.net.URL: java.lang.String path>","to":"1093456712","type":"store","field":"<java.net.URL: java.lang.String path>"},{"step":32,"from":"1093666160.<java.net.URL: java.lang.String query>","to":"1093456712","type":"store","field":"<java.net.URL: java.lang.String query>"},{"step":33,"from":"1093666160","to":"1093688464","type":"load","field":"<java.net.URL: java.net.URLStreamHandler streamHandler>"},{"step":34,"from":"1093688464","to":"1093456712","type":"store","field":"<java.net.URL: java.net.URLStreamHandler streamHandler>"},{"step":35,"from":"sdaReg5","to":"sdaReg9","type":"model"},{"step":36,"from":"sdaReg5","to":"sdaReg43","type":"model"},{"step":37,"from":"sdaReg9","to":"sdaReg5","type":"model"},{"step":38,"from":"sdaReg9","to":"sdaReg43","type":"model"},{"step":39,"from":"sdaReg5","to":"sdaReg60","type":"model"},{"step":40,"from":"sdaReg5","to":"sdaReg63","type":"model"},{"step":41,"from":"sdaReg61","to":"sdaReg63","type":"model"},{"step":42,"from":"sdaReg61","to":"sdaReg64","type":"model"},{"step":43,"from":"sdaReg63","to":"sdaReg61","type":"model"},{"step":44,"from":"sdaReg63","to":"sdaReg64","type":"model"},{"step":45,"from":"sdaReg5","to":"sdaReg65","type":"model"},{"step":46,"from":"sdaReg61","to":"sdaReg65","type":"model"},{"step":47,"from":"sdaReg61","to":"sdaReg66","type":"model"},{"step":48,"from":"sdaReg65","to":"sdaReg61","type":"model"},{"step":49,"from":"sdaReg65","to":"sdaReg66","type":"model"},{"step":50,"from":"sdaReg5","to":"sdaReg67","type":"model"},{"step":51,"from":"sdaReg61","to":"sdaReg67","type":"model"},{"step":52,"from":"sdaReg61","to":"sdaReg68","type":"model"},{"step":53,"from":"sdaReg67","to":"sdaReg61","type":"model"},{"step":54,"from":"sdaReg67","to":"sdaReg68","type":"model"},{"step":55,"from":"sdaReg5","to":"sdaReg69","type":"model"},{"step":56,"from":"sdaReg61","to":"sdaReg69","type":"model"},{"step":57,"from":"sdaReg61","to":"sdaReg70","type":"model"},{"step":58,"from":"sdaReg69","to":"sdaReg61","type":"model"},{"step":59,"from":"sdaReg69","to":"sdaReg70","type":"model"},{"step":60,"from":"sdaReg5","to":"sdaReg71","type":"model"},{"step":61,"from":"sdaReg61","to":"sdaReg71","type":"model"},{"step":62,"from":"sdaReg61","to":"sdaReg72","type":"model"},{"step":63,"from":"sdaReg71","to":"sdaReg61","type":"model"},{"step":64,"from":"sdaReg71","to":"sdaReg72","type":"model"},{"step":65,"from":"sdaReg5","to":"sdaReg73","type":"model"},{"step":66,"from":"sdaReg61","to":"sdaReg73","type":"model"},{"step":67,"from":"sdaReg61","to":"sdaReg74","type":"model"},{"step":68,"from":"sdaReg73","to":"sdaReg61","type":"model"},{"step":69,"from":"sdaReg73","to":"sdaReg74","type":"model"},{"step":70,"from":"sdaReg5","to":"sdaReg75","type":"model"},{"step":71,"from":"sdaReg61","to":"sdaReg75","type":"model"},{"step":72,"from":"sdaReg61","to":"sdaReg76","type":"model"},{"step":73,"from":"sdaReg75","to":"sdaReg61","type":"model"},{"step":74,"from":"sdaReg75","to":"sdaReg76","type":"model"},{"step":75,"from":"sdaReg5","to":"sdaReg77","type":"model"},{"step":76,"from":"sdaReg61","to":"sdaReg77","type":"model"},{"step":77,"from":"sdaReg61","to":"sdaReg78","type":"model"},{"step":78,"from":"sdaReg77","to":"sdaReg61","type":"model"},{"step":79,"from":"sdaReg77","to":"sdaReg78","type":"model"},{"step":80,"from":"sdaReg5","to":"sdaReg79","type":"model"},{"step":81,"from":"sdaReg61","to":"sdaReg79","type":"model"},{"step":82,"from":"sdaReg61","to":"sdaReg80","type":"model"},{"step":83,"from":"sdaReg79","to":"sdaReg61","type":"model"},{"step":84,"from":"sdaReg79","to":"sdaReg80","type":"model"},{"step":85,"from":"sdaReg5","to":"sdaReg81","type":"model"},{"step":86,"from":"sdaReg81","to":"sdaReg82","type":"model"},{"step":87,"from":"sdaReg54","to":"sdaReg84","type":"model"},{"step":88,"from":"sdaReg54","to":"sdaReg86","type":"model"},{"step":89,"from":"sdaReg86","to":"1093325920","type":"model"},{"step":90,"from":"sdaReg86","to":"1093325920","type":"model"},{"step":91,"from":"sdaReg81","to":"1093325920","type":"model"},{"step":92,"from":"sdaReg81","to":"1093325920","type":"model"},{"step":93,"from":"1093325920","to":"sdaReg89","type":"model"},{"step":94,"from":"sdaReg89","to":"sdaReg96","type":"model"},{"step":95,"from":"sdaReg89","to":"sdaReg102","type":"model"},{"step":96,"from":"sdaReg89","to":"sdaReg105","type":"model"},{"step":97,"from":"sdaReg89","to":"sdaReg91","type":"model"},{"step":98,"from":"sdaReg89","to":"sdaReg106","type":"model"},{"step":99,"from":"sdaReg91","to":"sdaReg89","type":"model"},{"step":100,"from":"sdaReg91","to":"sdaReg106","type":"model"},{"step":101,"from":"sdaReg89","to":"sdaReg109","type":"model"},{"step":102,"from":"sdaReg89","to":"sdaReg112","type":"model"},{"step":103,"from":"sdaReg89","to":"sdaReg91","type":"model"},{"step":104,"from":"sdaReg89","to":"sdaReg113","type":"model"},{"step":105,"from":"sdaReg91","to":"sdaReg89","type":"model"},{"step":106,"from":"sdaReg91","to":"sdaReg113","type":"model"},{"step":107,"from":"sdaReg89","to":"sdaReg116","type":"model"},{"step":108,"from":"sdaReg89","to":"sdaReg119","type":"model"},{"step":109,"from":"sdaReg89","to":"sdaReg122","type":"model"},{"step":110,"from":"sdaReg89","to":"sdaReg125","type":"model"},{"step":111,"from":"sdaReg89","to":"sdaReg128","type":"model"},{"step":112,"from":"sdaReg89","to":"sdaReg131","type":"model"},{"step":113,"from":"sdaReg89","to":"sdaReg134","type":"model"},{"step":114,"from":"sdaReg89","to":"sdaReg137","type":"model"},{"step":115,"from":"sdaReg89","to":"sdaReg91","type":"model"},{"step":116,"from":"sdaReg89","to":"sdaReg138","type":"model"},{"step":117,"from":"sdaReg91","to":"sdaReg89","type":"model"},{"step":118,"from":"sdaReg91","to":"sdaReg138","type":"model"},{"step":119,"from":"sdaReg89","to":"sdaReg140","type":"model"},{"step":120,"from":"sdaReg140","to":"1093301824","type":"model"},{"step":121,"from":"sdaReg140","to":"1093301824","type":"model"},{"step":122,"from":"sdaReg89","to":"sdaReg97","type":"model"},{"step":123,"from":"sdaReg89","to":"sdaReg142","type":"model"},{"step":124,"from":"sdaReg97","to":"sdaReg89","type":"model"},{"step":125,"from":"sdaReg97","to":"sdaReg142","type":"model"},{"step":126,"from":"sdaReg142","to":"1093301824","type":"model"},{"step":127,"from":"sdaReg142","to":"1093301824","type":"model"},{"step":128,"from":"1093301824","to":"sdaReg144","type":"model"},{"step":129,"from":"sdaReg144","to":"sdaReg147","type":"model"},{"step":130,"from":"sdaReg144","to":"sdaReg91","type":"model"},{"step":131,"from":"sdaReg144","to":"sdaReg150","type":"model"},{"step":132,"from":"sdaReg91","to":"sdaReg144","type":"model"},{"step":133,"from":"sdaReg91","to":"sdaReg150","type":"model"},{"step":134,"from":"sdaReg46","to":"sdaReg152","type":"model"},{"step":135,"from":"sdaReg144","to":"sdaReg153","type":"model"},{"step":136,"from":"sdaReg144","to":"sdaReg154","type":"model"},{"step":137,"from":"sdaReg50","to":"1093456712","type":"store","field":"<java.net.URL: java.lang.String host>"},{"step":138,"from":"sdaReg160","to":"1093456712","type":"store","field":"<java.net.URL: java.lang.String file>"},{"step":139,"from":"sdaReg52","to":"1093456712","type":"store","field":"<java.net.URL: int port>"},{"step":140,"from":"sdaReg58","to":"1093456712","type":"store","field":"<java.net.URL: java.lang.String ref>"},{"step":141,"from":"1093456712","to":"sdaReg162","type":"create","field":"<java.net.URL: int hashCode>"},{"step":142,"from":"sdaReg166","to":"1093456712","type":"store","field":"<java.net.URL: java.lang.String authority>"},{"step":143,"from":"1093456712","to":"sdaReg169","type":"create","field":"<java.net.URL: java.lang.String userInfo>"},{"step":144,"from":"1093456712","to":"sdaReg172","type":"create","field":"<java.net.URL: java.lang.String query>"},{"step":145,"from":"sdaReg173","to":"1093456712","type":"store","field":"<java.net.URL: java.lang.String path>"},{"step":146,"from":"sdaReg46","to":"1093456712","type":"store","field":"<java.net.URL: java.lang.String authority>"},{"step":147,"from":"sdaReg48","to":"1093456712","type":"store","field":"<java.net.URL: java.lang.String userInfo>"},{"step":148,"from":"sdaReg144","to":"1093456712","type":"store","field":"<java.net.URL: java.lang.String path>"},{"step":149,"from":"sdaReg56","to":"1093456712","type":"store","field":"<java.net.URL: java.lang.String query>"}],"parameters":[{"id":"1093456712","name":"this","klass":"java.net.URL"},{"id":"1093666160","name":"arg#1","klass":"java.net.URL"},{"id":"sdaReg0","name":"arg#2","klass":"string"}],"returns":[{"id":"1093456712","name":"return","klass":"java.net.URL"}],"colors":{"heapLocToColor":{"sdaReg125":[68, 39, 36],"sdaReg126":[69],"sdaReg127":[70],"sdaReg128":[71, 39, 36],"sdaReg129":[72],"sdaReg68":[21],"sdaReg69":[2, 3, 22],"sdaReg66":[19],"sdaReg67":[2, 3, 20],"sdaReg64":[17],"sdaReg65":[2, 3, 18],"sdaReg62":[2, 3],"sdaReg63":[16, 2, 3],"sdaReg13":[1],"sdaReg72":[25],"sdaReg14":[1],"sdaReg71":[2, 3, 24],"sdaReg11":[1],"sdaReg70":[23],"sdaReg12":[1],"sdaReg10":[1],"1093666160.<java.net.URL: java.lang.String userInfo>":[1],"sdaReg120":[63],"sdaReg19":[1, 5],"sdaReg122":[39, 65, 36],"sdaReg17":[0],"sdaReg121":[64],"sdaReg18":[1],"sdaReg124":[67],"sdaReg15":[1],"sdaReg123":[66],"sdaReg16":[1],"sdaReg116":[39, 36, 59],"sdaReg117":[60],"sdaReg114":[57],"sdaReg115":[58],"sdaReg118":[61],"sdaReg119":[39, 36, 62],"sdaReg77":[2, 3, 30],"sdaReg78":[31],"sdaReg79":[2, 32, 3],"sdaReg73":[2, 3, 26],"sdaReg74":[27],"sdaReg75":[2, 3, 28],"sdaReg76":[29],"sdaReg81":[34, 2, 3],"sdaReg80":[33],"sdaReg83":[36],"sdaReg82":[34, 35, 2, 3],"sdaReg113":[39, 36, 56],"sdaReg112":[55, 39, 36],"sdaReg111":[54],"sdaReg110":[53],"sdaReg107":[50],"sdaReg108":[51],"sdaReg109":[39, 36, 52],"sdaReg103":[46],"sdaReg104":[47],"sdaReg171":[98],"sdaReg105":[48, 39, 36],"sdaReg170":[98],"sdaReg106":[49, 39, 36],"sdaReg86":[38],"sdaReg87":[36],"sdaReg84":[37],"sdaReg174":[0],"sdaReg85":[37],"1093666160.<java.net.URL: java.lang.String ref>":[1],"sdaReg88":[36],"sdaReg89":[39, 36],"sdaReg94":[40],"sdaReg93":[39, 36],"sdaReg91":[85, 39, 36, 82],"sdaReg100":[43],"sdaReg102":[39, 36, 45],"sdaReg101":[44],"sdaReg95":[41],"sdaReg96":[39, 36, 42],"sdaReg97":[39, 36],"sdaReg98":[39, 36],"sdaReg99":[85, 39, 36, 82],"1093666160.<java.net.URL: java.lang.String query>":[1],"1093666160.<java.net.URL: java.lang.String protocol>":[1],"1093688464":[1],"sdaReg60":[2, 3, 15],"1093325920":[36],"sdaReg161":[0],"sdaReg163":[0],"sdaReg165":[96],"sdaReg167":[97],"sdaReg168":[97],"sdaReg59":[2, 3, 13],"sdaReg57":[0],"sdaReg55":[0],"sdaReg53":[0],"sdaReg160":[85, 82],"sdaReg51":[0],"sdaReg159":[0],"sdaReg158":[0],"sdaReg152":[93],"sdaReg153":[85, 82, 94],"sdaReg150":[85, 82, 91],"sdaReg151":[92],"sdaReg49":[0],"sdaReg157":[1],"sdaReg154":[85, 82, 95],"sdaReg155":[0],"sdaReg45":[0],"sdaReg44":[2, 3],"sdaReg47":[0],"sdaReg41":[0],"sdaReg40":[1],"sdaReg43":[2, 3, 14],"1093301824":[82],"sdaReg148":[89],"sdaReg147":[85, 82, 88],"1093666160.<java.net.URL: java.lang.String authority>":[1],"1093666160.<java.net.URL: java.lang.String path>":[1],"1093456712":[0],"sdaReg149":[90],"sdaReg143":[82],"sdaReg144":[85, 82],"sdaReg39":[13],"sdaReg145":[86],"sdaReg38":[12],"sdaReg146":[87],"sdaReg37":[11],"sdaReg140":[39, 36, 83],"sdaReg141":[82],"sdaReg142":[84, 39, 36],"sdaReg32":[9],"sdaReg31":[9],"sdaReg36":[10],"sdaReg35":[10],"sdaReg34":[10],"sdaReg9":[2, 3],"1093666160":[1],"sdaReg6":[2, 3, 4],"1093666160.<java.net.URL: int port>":[1],"sdaReg5":[2, 3],"1093666160.<java.net.URL: java.lang.String host>":[1],"sdaReg139":[82],"1093663336":[6],"sdaReg138":[81, 39, 36],"sdaReg137":[39, 80, 36],"sdaReg136":[79],"sdaReg134":[39, 36, 77],"sdaReg27":[0],"sdaReg135":[78],"sdaReg132":[75],"sdaReg29":[8],"sdaReg133":[76],"sdaReg130":[73],"sdaReg131":[39, 36, 74],"sdaReg3":[0],"sdaReg2":[1],"sdaReg21":[6],"sdaReg1":[0],"sdaReg20":[6],"sdaReg0":[2],"sdaReg23":[6],"sdaReg22":[6],"sdaReg25":[0],"sdaReg24":[6, 7]},"colorToColor":{"0":[99],"1":[0, 6],"2":[2, 3, 33, 36, 14, 17, 19, 21, 23, 25, 27, 29, 31],"3":[2, 3, 33, 36, 14, 17, 19, 21, 23, 25, 27, 29, 31],"6":[0],"7":[0],"10":[11],"11":[0],"12":[0],"85":[0, 85, 82, 91],"16":[17],"84":[82],"18":[19],"20":[21],"83":[82],"22":[23],"82":[0, 85, 82, 91],"24":[25],"26":[27],"28":[29],"30":[31],"34":[36],"32":[33],"38":[36],"39":[85, 84, 49, 81, 39, 36, 82, 56, 91],"36":[85, 84, 49, 81, 39, 36, 82, 56, 91]},"colorToLabel":{"0":"this","1":"arg#1","2":"arg#2","99":"return"}}}

Generated Model
	this->return
	arg#2->this
	arg#2->return
	arg#1->this
	arg#1->return

