Scanning method <java.net.URL: void <init>(java.net.URL,java.lang.String)>

All seen event types: BinaryOperationRecord, SimpleAssignmentRecord, SwitchRecord, MethodReturnRecord, MethodCallRecord, LoadInstanceRecord, MethodStartRecord, MethodEndRecord, IfRecord, NewObjectRecord, StoreInstanceRecord, 
Ignored event types: SwitchRecord, IfRecord, 

JSON Encoded Analysis Data (for visualization):{"heapEdges":[{"step":0,"from":"1094037960","to":"sdaReg4","type":"create","field":"<java.net.URL: int port>"},{"step":1,"from":"sdaReg0","to":"sdaReg5","type":"model"},{"step":2,"from":"sdaReg5","to":"sdaReg6","type":"model"},{"step":3,"from":"1094037960","to":"sdaReg7","type":"create","field":"<java.net.URL: java.lang.String protocol>"},{"step":4,"from":"1093675688","to":"1093675688.<java.net.URL: java.lang.String protocol>","type":"load","field":"<java.net.URL: java.lang.String protocol>"},{"step":5,"from":"1093675688","to":"1093675688.<java.net.URL: java.lang.String host>","type":"load","field":"<java.net.URL: java.lang.String host>"},{"step":6,"from":"1093675688","to":"1093675688.<java.net.URL: int port>","type":"load","field":"<java.net.URL: int port>"},{"step":7,"from":"1093675688","to":"1093675688.<java.net.URL: java.lang.String authority>","type":"load","field":"<java.net.URL: java.lang.String authority>"},{"step":8,"from":"1093675688","to":"1093675688.<java.net.URL: java.lang.String userInfo>","type":"load","field":"<java.net.URL: java.lang.String userInfo>"},{"step":9,"from":"1093675688","to":"1093675688.<java.net.URL: java.lang.String path>","type":"load","field":"<java.net.URL: java.lang.String path>"},{"step":10,"from":"1093675688","to":"1093675688.<java.net.URL: java.lang.String query>","type":"load","field":"<java.net.URL: java.lang.String query>"},{"step":11,"from":"1093675688","to":"1093675688.<java.net.URL: java.lang.String ref>","type":"load","field":"<java.net.URL: java.lang.String ref>"},{"step":12,"from":"1093675688.<java.net.URL: java.lang.String query>","to":"sdaReg19","type":"model"},{"step":13,"from":"sdaReg18","to":"1094059776","type":"model"},{"step":14,"from":"sdaReg18","to":"1094059776","type":"model"},{"step":15,"from":"1093675688.<java.net.URL: java.lang.String query>","to":"1094059776","type":"model"},{"step":16,"from":"1093675688.<java.net.URL: java.lang.String query>","to":"1094059776","type":"model"},{"step":17,"from":"1094059776","to":"sdaReg24","type":"model"},{"step":18,"from":"1093675688.<java.net.URL: java.lang.String protocol>","to":"1094037960","type":"store","field":"<java.net.URL: java.lang.String protocol>"},{"step":19,"from":"1093675688.<java.net.URL: java.lang.String host>","to":"1094037960","type":"store","field":"<java.net.URL: java.lang.String host>"},{"step":20,"from":"sdaReg24","to":"1094037960","type":"store","field":"<java.net.URL: java.lang.String file>"},{"step":21,"from":"1093675688.<java.net.URL: int port>","to":"1094037960","type":"store","field":"<java.net.URL: int port>"},{"step":22,"from":"1093675688.<java.net.URL: java.lang.String ref>","to":"1094037960","type":"store","field":"<java.net.URL: java.lang.String ref>"},{"step":23,"from":"1094037960","to":"sdaReg26","type":"create","field":"<java.net.URL: int hashCode>"},{"step":24,"from":"sdaReg30","to":"1094037960","type":"store","field":"<java.net.URL: java.lang.String authority>"},{"step":25,"from":"1094037960","to":"sdaReg33","type":"create","field":"<java.net.URL: java.lang.String userInfo>"},{"step":26,"from":"sdaReg36","to":"sdaReg37","type":"model"},{"step":27,"from":"sdaReg37","to":"1094037960","type":"store","field":"<java.net.URL: java.lang.String query>"},{"step":28,"from":"sdaReg38","to":"1094037960","type":"store","field":"<java.net.URL: java.lang.String path>"},{"step":29,"from":"1093675688.<java.net.URL: java.lang.String authority>","to":"1094037960","type":"store","field":"<java.net.URL: java.lang.String authority>"},{"step":30,"from":"1093675688.<java.net.URL: java.lang.String userInfo>","to":"1094037960","type":"store","field":"<java.net.URL: java.lang.String userInfo>"},{"step":31,"from":"1093675688.<java.net.URL: java.lang.String path>","to":"1094037960","type":"store","field":"<java.net.URL: java.lang.String path>"},{"step":32,"from":"1093675688.<java.net.URL: java.lang.String query>","to":"1094037960","type":"store","field":"<java.net.URL: java.lang.String query>"},{"step":33,"from":"1093675688","to":"1093271080","type":"load","field":"<java.net.URL: java.net.URLStreamHandler streamHandler>"},{"step":34,"from":"1093271080","to":"1094037960","type":"store","field":"<java.net.URL: java.net.URLStreamHandler streamHandler>"},{"step":35,"from":"sdaReg5","to":"sdaReg9","type":"model"},{"step":36,"from":"sdaReg5","to":"sdaReg43","type":"model"},{"step":37,"from":"sdaReg9","to":"sdaReg5","type":"model"},{"step":38,"from":"sdaReg9","to":"sdaReg43","type":"model"},{"step":39,"from":"sdaReg5","to":"sdaReg60","type":"model"},{"step":40,"from":"sdaReg5","to":"sdaReg63","type":"model"},{"step":41,"from":"sdaReg61","to":"sdaReg63","type":"model"},{"step":42,"from":"sdaReg61","to":"sdaReg64","type":"model"},{"step":43,"from":"sdaReg63","to":"sdaReg61","type":"model"},{"step":44,"from":"sdaReg63","to":"sdaReg64","type":"model"},{"step":45,"from":"sdaReg5","to":"sdaReg65","type":"model"},{"step":46,"from":"sdaReg61","to":"sdaReg65","type":"model"},{"step":47,"from":"sdaReg61","to":"sdaReg66","type":"model"},{"step":48,"from":"sdaReg65","to":"sdaReg61","type":"model"},{"step":49,"from":"sdaReg65","to":"sdaReg66","type":"model"},{"step":50,"from":"sdaReg5","to":"sdaReg67","type":"model"},{"step":51,"from":"sdaReg67","to":"sdaReg68","type":"model"},{"step":52,"from":"sdaReg54","to":"sdaReg70","type":"model"},{"step":53,"from":"sdaReg54","to":"sdaReg72","type":"model"},{"step":54,"from":"sdaReg72","to":"1094093200","type":"model"},{"step":55,"from":"sdaReg72","to":"1094093200","type":"model"},{"step":56,"from":"sdaReg67","to":"1094093200","type":"model"},{"step":57,"from":"sdaReg67","to":"1094093200","type":"model"},{"step":58,"from":"1094093200","to":"sdaReg75","type":"model"},{"step":59,"from":"sdaReg75","to":"sdaReg82","type":"model"},{"step":60,"from":"sdaReg75","to":"sdaReg88","type":"model"},{"step":61,"from":"sdaReg75","to":"sdaReg91","type":"model"},{"step":62,"from":"sdaReg75","to":"sdaReg77","type":"model"},{"step":63,"from":"sdaReg75","to":"sdaReg92","type":"model"},{"step":64,"from":"sdaReg77","to":"sdaReg75","type":"model"},{"step":65,"from":"sdaReg77","to":"sdaReg92","type":"model"},{"step":66,"from":"sdaReg75","to":"sdaReg95","type":"model"},{"step":67,"from":"sdaReg75","to":"sdaReg98","type":"model"},{"step":68,"from":"sdaReg75","to":"sdaReg77","type":"model"},{"step":69,"from":"sdaReg75","to":"sdaReg99","type":"model"},{"step":70,"from":"sdaReg77","to":"sdaReg75","type":"model"},{"step":71,"from":"sdaReg77","to":"sdaReg99","type":"model"},{"step":72,"from":"sdaReg75","to":"sdaReg102","type":"model"},{"step":73,"from":"sdaReg75","to":"sdaReg77","type":"model"},{"step":74,"from":"sdaReg75","to":"sdaReg105","type":"model"},{"step":75,"from":"sdaReg77","to":"sdaReg75","type":"model"},{"step":76,"from":"sdaReg77","to":"sdaReg105","type":"model"},{"step":77,"from":"sdaReg5","to":"sdaReg107","type":"model"},{"step":78,"from":"sdaReg5","to":"sdaReg110","type":"model"},{"step":79,"from":"sdaReg108","to":"sdaReg110","type":"model"},{"step":80,"from":"sdaReg108","to":"sdaReg111","type":"model"},{"step":81,"from":"sdaReg110","to":"sdaReg108","type":"model"},{"step":82,"from":"sdaReg110","to":"sdaReg111","type":"model"},{"step":83,"from":"sdaReg5","to":"sdaReg112","type":"model"},{"step":84,"from":"sdaReg108","to":"sdaReg112","type":"model"},{"step":85,"from":"sdaReg108","to":"sdaReg113","type":"model"},{"step":86,"from":"sdaReg112","to":"sdaReg108","type":"model"},{"step":87,"from":"sdaReg112","to":"sdaReg113","type":"model"},{"step":88,"from":"sdaReg5","to":"sdaReg115","type":"model"},{"step":89,"from":"sdaReg46","to":"sdaReg116","type":"model"},{"step":90,"from":"sdaReg75","to":"sdaReg117","type":"model"},{"step":91,"from":"sdaReg75","to":"sdaReg118","type":"model"},{"step":92,"from":"sdaReg115","to":"sdaReg125","type":"model"},{"step":93,"from":"sdaReg124","to":"1094136688","type":"model"},{"step":94,"from":"sdaReg124","to":"1094136688","type":"model"},{"step":95,"from":"sdaReg115","to":"1094136688","type":"model"},{"step":96,"from":"sdaReg115","to":"1094136688","type":"model"},{"step":97,"from":"1094136688","to":"sdaReg130","type":"model"},{"step":98,"from":"sdaReg50","to":"1094037960","type":"store","field":"<java.net.URL: java.lang.String host>"},{"step":99,"from":"sdaReg130","to":"1094037960","type":"store","field":"<java.net.URL: java.lang.String file>"},{"step":100,"from":"sdaReg52","to":"1094037960","type":"store","field":"<java.net.URL: int port>"},{"step":101,"from":"sdaReg58","to":"1094037960","type":"store","field":"<java.net.URL: java.lang.String ref>"},{"step":102,"from":"1094037960","to":"sdaReg132","type":"create","field":"<java.net.URL: int hashCode>"},{"step":103,"from":"sdaReg136","to":"1094037960","type":"store","field":"<java.net.URL: java.lang.String authority>"},{"step":104,"from":"1094037960","to":"sdaReg139","type":"create","field":"<java.net.URL: java.lang.String userInfo>"},{"step":105,"from":"sdaReg142","to":"sdaReg143","type":"model"},{"step":106,"from":"sdaReg143","to":"1094037960","type":"store","field":"<java.net.URL: java.lang.String query>"},{"step":107,"from":"sdaReg144","to":"1094037960","type":"store","field":"<java.net.URL: java.lang.String path>"},{"step":108,"from":"sdaReg46","to":"1094037960","type":"store","field":"<java.net.URL: java.lang.String authority>"},{"step":109,"from":"sdaReg48","to":"1094037960","type":"store","field":"<java.net.URL: java.lang.String userInfo>"},{"step":110,"from":"sdaReg75","to":"1094037960","type":"store","field":"<java.net.URL: java.lang.String path>"},{"step":111,"from":"sdaReg115","to":"1094037960","type":"store","field":"<java.net.URL: java.lang.String query>"}],"parameters":[{"id":"1094037960","name":"this","klass":"java.net.URL"},{"id":"1093675688","name":"arg#1","klass":"java.net.URL"},{"id":"sdaReg0","name":"arg#2","klass":"string"}],"returns":[{"id":"1094037960","name":"return","klass":"java.net.URL"}],"colors":{"heapLocToColor":{"sdaReg125":[2, 3, 55, 59],"sdaReg126":[60],"sdaReg127":[60],"sdaReg128":[60],"sdaReg129":[60],"sdaReg68":[2, 3, 21, 20],"sdaReg69":[22],"sdaReg66":[19],"sdaReg67":[2, 3, 20],"sdaReg64":[17],"sdaReg65":[2, 3, 18],"sdaReg62":[2, 3],"sdaReg63":[16, 2, 3],"sdaReg13":[1],"sdaReg72":[24],"sdaReg14":[1],"sdaReg71":[23],"sdaReg11":[1],"sdaReg70":[23],"sdaReg12":[1],"sdaReg10":[1],"1093675688.<java.net.URL: java.lang.String authority>":[1],"sdaReg19":[1, 5],"sdaReg122":[0],"sdaReg17":[0],"sdaReg121":[1],"sdaReg18":[1],"sdaReg124":[22, 25],"sdaReg15":[1],"sdaReg123":[0],"1094037960":[0],"sdaReg16":[1],"sdaReg116":[56],"sdaReg117":[22, 25, 57],"sdaReg114":[2, 3],"sdaReg115":[2, 3, 55],"sdaReg118":[22, 25, 58],"sdaReg119":[0],"sdaReg77":[22, 25],"sdaReg73":[22],"sdaReg74":[22],"sdaReg75":[22, 25],"sdaReg81":[27],"sdaReg80":[26],"sdaReg82":[22, 25, 28],"1093675688.<java.net.URL: java.lang.String host>":[1],"1093675688.<java.net.URL: java.lang.String ref>":[1],"sdaReg113":[54],"sdaReg112":[2, 3, 53],"sdaReg111":[52],"sdaReg110":[51, 2, 3],"sdaReg107":[50, 2, 3],"sdaReg109":[2, 3],"sdaReg103":[46],"sdaReg104":[47],"sdaReg105":[48, 22, 25],"sdaReg106":[49],"1094059776":[6],"sdaReg86":[29],"sdaReg87":[30],"1093675688.<java.net.URL: java.lang.String path>":[1],"sdaReg84":[22, 25],"sdaReg85":[22, 25],"sdaReg88":[22, 25, 31],"sdaReg89":[32],"sdaReg90":[33],"1093675688.<java.net.URL: java.lang.String userInfo>":[1],"sdaReg94":[37],"sdaReg93":[36],"sdaReg92":[35, 22, 25],"sdaReg91":[34, 22, 25],"sdaReg100":[43],"sdaReg102":[22, 25, 45],"sdaReg101":[44],"sdaReg95":[38, 22, 25],"sdaReg96":[39],"sdaReg97":[40],"sdaReg98":[22, 25, 41],"sdaReg99":[22, 25, 42],"sdaReg60":[2, 3, 15],"1093675688.<java.net.URL: int port>":[1],"sdaReg59":[2, 3, 13],"sdaReg57":[0],"sdaReg55":[0],"sdaReg53":[0],"sdaReg51":[0],"1093675688":[1],"1094136688":[60],"1094093200":[22],"sdaReg49":[0],"sdaReg45":[0],"sdaReg44":[2, 3],"sdaReg47":[0],"sdaReg41":[0],"sdaReg40":[1],"sdaReg43":[2, 3, 14],"1093675688.<java.net.URL: java.lang.String protocol>":[1],"1093675688.<java.net.URL: java.lang.String query>":[1],"sdaReg143":[65],"sdaReg144":[66],"sdaReg39":[13],"sdaReg145":[0],"sdaReg38":[12],"sdaReg37":[11],"sdaReg140":[64],"sdaReg141":[64],"sdaReg142":[64],"sdaReg32":[9],"sdaReg31":[9],"sdaReg36":[10],"sdaReg35":[10],"sdaReg34":[10],"sdaReg9":[2, 3],"sdaReg6":[2, 3, 4],"1093271080":[1],"sdaReg5":[2, 3],"sdaReg138":[63],"sdaReg137":[63],"sdaReg27":[0],"sdaReg135":[62],"sdaReg29":[8],"sdaReg133":[0],"sdaReg130":[61, 60],"sdaReg131":[0],"sdaReg3":[0],"sdaReg2":[1],"sdaReg21":[6],"sdaReg1":[0],"sdaReg20":[6],"sdaReg0":[2],"sdaReg23":[6],"sdaReg22":[6],"sdaReg25":[0],"sdaReg24":[6, 7]},"colorToColor":{"0":[67],"1":[0, 6],"2":[0, 17, 19, 2, 3, 54, 52, 22, 14, 60],"3":[0, 17, 19, 2, 3, 54, 52, 22, 14, 60],"64":[65],"65":[0],"66":[0],"6":[0],"7":[0],"10":[11],"11":[0],"12":[0],"51":[52],"16":[17],"18":[19],"55":[0, 60],"20":[22],"53":[54],"22":[0, 35, 48, 22, 42, 25, 60],"25":[0, 35, 48, 22, 42, 25, 60],"24":[22],"61":[0],"60":[0]},"colorToLabel":{"0":"this","1":"arg#1","2":"arg#2","67":"return"}}}

Generated Model
	this->return
	arg#2->this
	arg#2->return
	arg#1->this
	arg#1->return

