Scanning method <android.os.Bundle: java.lang.Byte getByte(java.lang.String,byte)>

All seen event types: BinaryOperationRecord, MethodReturnRecord, MethodCallRecord, CastRecord, ArrayLengthRecord, LoadInstanceRecord, MethodStartRecord, LoadArrayRecord, MethodEndRecord, IfRecord, 
Ignored event types: IfRecord, 

JSON Encoded Analysis Data (for visualization):{"heapEdges":[{"step":0,"from":"1093523416","to":"1093486824","type":"load","field":"<android.os.Bundle: java.util.Map mMap>"},{"step":1,"from":"1093486824","to":"1094028480","type":"load","field":"<java.util.HashMap: java.util.HashMap$HashMapEntry[] table>"},{"step":2,"from":"1094028480","to":"1094048920","type":"load","field":"arrayIdx_int:2"},{"step":3,"from":"1094048920","to":"1093529984","type":"load","field":"<java.util.HashMap$HashMapEntry: java.lang.Object key>"},{"step":4,"from":"1094048920","to":"1085840752","type":"load","field":"<java.util.HashMap$HashMapEntry: java.lang.Object value>"}],"parameters":[{"id":"1093523416","name":"this","klass":"android.os.Bundle"},{"id":"sdaReg0","name":"arg#1","klass":"string"},{"id":"sdaReg1","name":"arg#2","klass":"byte"}],"returns":[{"id":"1085840752","name":"return","klass":"java.lang.Byte"}],"colors":{"heapLocToColor":{"sdaReg8":[3],"sdaReg9":[3],"sdaReg6":[3],"sdaReg7":[3],"sdaReg4":[3],"sdaReg5":[3],"1094048920":[0],"1093486824":[0],"1093529984":[0],"1094028480":[0],"1085840752":[0],"sdaReg11":[3],"sdaReg12":[3],"sdaReg10":[3],"sdaReg3":[0],"sdaReg2":[0],"sdaReg1":[2],"sdaReg0":[1],"sdaReg17":[0],"sdaReg15":[3],"1093523416":[0],"sdaReg16":[0]},"colorToColor":{"0":[4]},"colorToLabel":{"0":"this","1":"arg#1","2":"arg#2","4":"return"}}}

Generated Model
	this->return

