Scanning method <java.util.Vector: java.lang.Object clone()>

All seen event types: MethodReturnRecord, MethodCallRecord, LoadInstanceRecord, CastRecord, StoreInstanceRecord, 
Ignored event types: 

JSON Encoded Analysis Data (for visualization):{"heapEdges":[{"step":0,"from":"1093344600","to":"1093571464","type":"model"},{"step":1,"from":"1093344600","to":"1093344120","type":"load","field":"<java.util.Vector: java.lang.Object[] elementData>"},{"step":2,"from":"1093344120","to":"1093571496","type":"model"},{"step":3,"from":"1093571464","to":"1093571496","type":"create","field":"<java.util.Vector: java.lang.Object[] elementData>"}],"parameters":[{"id":"1093344600","name":"this","klass":"java.util.Vector"}],"returns":[{"id":"1093571464","name":"return","klass":"java.lang.Object"}],"colors":{"heapLocToColor":{"1093344600":[0],"1093571464":[0, 1],"sdaReg3":[0, 2],"sdaReg2":[0, 2],"1093344120":[0],"sdaReg1":[0, 1],"1093571496":[0, 2],"sdaReg0":[0, 1]},"colorToColor":{"0":[0, 1, 3],"1":[3],"2":[0, 1]},"colorToLabel":{"0":"this","3":"return"}}}

Generated Model
	this->return

