Scanning method <android.os.Bundle: void <init>(android.os.Parcel,int)>

All seen event types: StoreArrayRecord, SimpleAssignmentRecord, ExitMonitorRecord, MethodStartRecord, IfRecord, StoreInstanceRecord, LoadStaticRecord, BinaryOperationRecord, MethodCallRecord, MethodReturnRecord, EnterMonitorRecord, LoadArrayRecord, MethodEndRecord, 
Ignored event types: ExitMonitorRecord, EnterMonitorRecord, IfRecord, 

JSON Encoded Analysis Data (for visualization):{"heapEdges":[{"step":0,"from":"1094114040","to":"sdaReg2","type":"create","field":"<android.os.Bundle: java.util.Map mMap>"},{"step":1,"from":"1094114040","to":"sdaReg3","type":"create","field":"<android.os.Bundle: android.os.Parcel mParcelledData>"},{"step":2,"from":"1094114040","to":"sdaReg4","type":"create","field":"<android.os.Bundle: boolean mHasFds>"},{"step":3,"from":"1094114040","to":"sdaReg5","type":"create","field":"<android.os.Bundle: boolean mFdsKnown>"},{"step":4,"from":"1094114040","to":"sdaReg6","type":"create","field":"<android.os.Bundle: boolean mAllowFds>"},{"step":5,"from":"1093484800","to":"sdaReg9","type":"model"},{"step":6,"from":"1093484800","to":"sdaReg10","type":"model"},{"step":7,"from":"1093484800","to":"sdaReg11","type":"model"},{"step":8,"from":"sdaReg11","to":"1093484800","type":"model"},{"step":9,"from":"static.<android.os.Parcel: android.os.Parcel[] sOwnedPool>","to":"1084044960","type":"load","field":"<android.os.Parcel: android.os.Parcel[] sOwnedPool>"},{"step":10,"from":"1084044960","to":"1093481224","type":"load","field":"arrayIdx_int:2"},{"step":11,"from":"1084044960","to":"sdaReg14","type":"create","field":"arrayIdx_int:2"},{"step":12,"from":"1093481224","to":"1093484800","type":"model"},{"step":13,"from":"1093481224","to":"sdaReg10","type":"model"},{"step":14,"from":"1093481224","to":"sdaReg0","type":"model"},{"step":15,"from":"1093484800","to":"1093481224","type":"model"},{"step":16,"from":"1093484800","to":"sdaReg10","type":"model"},{"step":17,"from":"1093484800","to":"sdaReg0","type":"model"},{"step":18,"from":"sdaReg10","to":"1093481224","type":"model"},{"step":19,"from":"sdaReg10","to":"1093484800","type":"model"},{"step":20,"from":"sdaReg10","to":"sdaReg0","type":"model"},{"step":21,"from":"sdaReg0","to":"1093481224","type":"model"},{"step":22,"from":"sdaReg0","to":"1093484800","type":"model"},{"step":23,"from":"sdaReg0","to":"sdaReg10","type":"model"},{"step":24,"from":"1093481224","to":"1094114040","type":"store","field":"<android.os.Bundle: android.os.Parcel mParcelledData>"},{"step":25,"from":"1093481224","to":"sdaReg16","type":"model"},{"step":26,"from":"sdaReg16","to":"1094114040","type":"store","field":"<android.os.Bundle: boolean mHasFds>"},{"step":27,"from":"1094114040","to":"sdaReg17","type":"create","field":"<android.os.Bundle: boolean mFdsKnown>"}],"parameters":[{"id":"1094114040","name":"this","klass":"android.os.Bundle"},{"id":"1093484800","name":"arg#1","klass":"android.os.Parcel"},{"id":"sdaReg0","name":"arg#2","klass":"int"}],"returns":[{"id":"1094114040","name":"return","klass":"android.os.Bundle"}],"colors":{"heapLocToColor":{"1094114040":[0],"1093481224":[5],"sdaReg8":[1],"sdaReg9":[1, 3],"sdaReg7":[0],"static.<android.os.Parcel: android.os.Parcel[] sOwnedPool>":[5],"1084044960":[5],"sdaReg11":[1, 2, 4],"sdaReg12":[5],"sdaReg10":[1, 4, 5],"1093484800":[1, 5],"sdaReg1":[0],"sdaReg0":[2, 5],"sdaReg15":[5],"sdaReg16":[5, 6]},"colorToColor":{"0":[7],"1":[1, 2, 4, 5],"2":[1, 4, 5],"4":[1, 2, 5],"5":[0, 1, 2, 4, 5],"6":[0]},"colorToLabel":{"0":"this","1":"arg#1","2":"arg#2","5":"<android.os.Parcel: android.os.Parcel[] sOwnedPool>","7":"return"}}}

Generated Model
	this->return
	arg#2->this
	arg#2->return
	arg#2->arg#1
	arg#2-><android.os.Parcel: android.os.Parcel[] sOwnedPool>
	arg#1->this
	arg#1->return
	arg#1->arg#2
	arg#1-><android.os.Parcel: android.os.Parcel[] sOwnedPool>

