Scanning method <java.net.URL: java.lang.String toString()>

All seen event types: SimpleAssignmentRecord, MethodReturnRecord, MethodCallRecord, LoadInstanceRecord, MethodStartRecord, MethodEndRecord, IfRecord, NewObjectRecord, 
Ignored event types: IfRecord, 

JSON Encoded Analysis Data (for visualization):{"heapEdges":[{"step":0,"from":"1093381648","to":"1093279000","type":"load","field":"<java.net.URL: java.net.URLStreamHandler streamHandler>"},{"step":1,"from":"1093381648","to":"1093279000","type":"load","field":"<java.net.URL: java.net.URLStreamHandler streamHandler>"},{"step":2,"from":"1093381648","to":"1093381648.<java.net.URL: java.lang.String protocol>","type":"load","field":"<java.net.URL: java.lang.String protocol>"},{"step":3,"from":"1093381648.<java.net.URL: java.lang.String protocol>","to":"1093533048","type":"model"},{"step":4,"from":"1093381648","to":"1093381648.<java.net.URL: java.lang.String authority>","type":"load","field":"<java.net.URL: java.lang.String authority>"},{"step":5,"from":"1093381648.<java.net.URL: java.lang.String authority>","to":"1093533048","type":"model"},{"step":6,"from":"1093381648","to":"1093381648.<java.net.URL: java.lang.String file>","type":"load","field":"<java.net.URL: java.lang.String file>"},{"step":7,"from":"1093381648.<java.net.URL: java.lang.String file>","to":"1093533048","type":"model"},{"step":8,"from":"1093381648","to":"1093381648.<java.net.URL: java.lang.String ref>","type":"load","field":"<java.net.URL: java.lang.String ref>"},{"step":9,"from":"1093381648.<java.net.URL: java.lang.String ref>","to":"1093533048","type":"model"},{"step":10,"from":"1093533048","to":"sdaReg12","type":"model"}],"parameters":[{"id":"1093381648","name":"this","klass":"java.net.URL"}],"returns":[{"id":"sdaReg12","name":"return","klass":"string"}],"colors":{"heapLocToColor":{"sdaReg8":[0],"sdaReg9":[0],"1093381648":[0],"sdaReg6":[1],"1093381648.<java.net.URL: java.net.URLStreamHandler streamHandler>":[0],"sdaReg7":[1],"sdaReg4":[0],"1093381648.<java.net.URL: java.lang.String authority>":[0],"1093533048":[1],"sdaReg11":[0],"sdaReg12":[1, 2],"sdaReg10":[0],"sdaReg3":[0],"1093279000":[0],"sdaReg2":[0],"sdaReg1":[0],"1093381648.<java.net.URL: java.lang.String file>":[0],"sdaReg0":[0],"1093381648.<java.net.URL: java.lang.String protocol>":[0],"1093381648.<java.net.URL: java.lang.String ref>":[0]},"colorToColor":{"0":[1],"1":[3],"2":[3]},"colorToLabel":{"0":"this","3":"return"}}}

Generated Model
	this->return

