Scanning method <java.net.URL: java.lang.String toString()>

All seen event types: SimpleAssignmentRecord, MethodReturnRecord, MethodCallRecord, LoadInstanceRecord, MethodStartRecord, MethodEndRecord, IfRecord, NewObjectRecord, 
Ignored event types: IfRecord, 

JSON Encoded Analysis Data (for visualization):{"heapEdges":[{"step":0,"from":"1093591776","to":"1084322328","type":"load","field":"<java.net.URL: java.net.URLStreamHandler streamHandler>"},{"step":1,"from":"1093591776","to":"1084322328","type":"load","field":"<java.net.URL: java.net.URLStreamHandler streamHandler>"},{"step":2,"from":"1093591776","to":"1093591776.<java.net.URL: java.lang.String protocol>","type":"load","field":"<java.net.URL: java.lang.String protocol>"},{"step":3,"from":"1093591776.<java.net.URL: java.lang.String protocol>","to":"1093591416","type":"model"},{"step":4,"from":"1093591776","to":"1093591776.<java.net.URL: java.lang.String authority>","type":"load","field":"<java.net.URL: java.lang.String authority>"},{"step":5,"from":"1093591776","to":"1093591776.<java.net.URL: java.lang.String file>","type":"load","field":"<java.net.URL: java.lang.String file>"},{"step":6,"from":"1093591776.<java.net.URL: java.lang.String file>","to":"1093591416","type":"model"},{"step":7,"from":"1093591776","to":"1093591776.<java.net.URL: java.lang.String ref>","type":"load","field":"<java.net.URL: java.lang.String ref>"},{"step":8,"from":"1093591416","to":"sdaReg12","type":"model"}],"parameters":[{"id":"1093591776","name":"this","klass":"java.net.URL"}],"returns":[{"id":"sdaReg12","name":"return","klass":"string"}],"colors":{"heapLocToColor":{"1093591776.<java.net.URL: java.lang.String ref>":[0],"sdaReg8":[0],"sdaReg9":[0],"1093591776.<java.net.URL: java.net.URLStreamHandler streamHandler>":[0],"1093591776.<java.net.URL: java.lang.String file>":[0],"sdaReg6":[1],"sdaReg7":[1],"sdaReg4":[0],"1093591776.<java.net.URL: java.lang.String protocol>":[0],"sdaReg11":[0],"sdaReg12":[1, 2],"1093591416":[1],"sdaReg10":[0],"1093591776.<java.net.URL: java.lang.String authority>":[0],"sdaReg3":[0],"sdaReg2":[0],"sdaReg1":[0],"sdaReg0":[0],"1093591776":[0],"1084322328":[0]},"colorToColor":{"0":[1],"1":[3],"2":[3]},"colorToLabel":{"0":"this","3":"return"}}}

Generated Model
	this->return

