Scanning method <java.nio.ByteBuffer: java.nio.ByteBuffer wrap(byte[],int,int)>

All seen event types: LoadStaticRecord, BinaryOperationRecord, SimpleAssignmentRecord, MethodReturnRecord, MethodCallRecord, MethodStartRecord, ArrayLengthRecord, MethodEndRecord, IfRecord, StoreInstanceRecord, NewObjectRecord, 
Ignored event types: IfRecord, 

JSON Encoded Analysis Data (for visualization):{"heapEdges":[{"step":0,"from":"1093230360","to":"sdaReg20","type":"create","field":"<java.nio.Buffer: int mark>"},{"step":1,"from":"1093230360","to":"sdaReg21","type":"create","field":"<java.nio.Buffer: int position>"},{"step":2,"from":"1093230360","to":"sdaReg17","type":"create","field":"<java.nio.Buffer: int _elementSizeShift>"},{"step":3,"from":"sdaReg9","to":"1093230360","type":"store","field":"<java.nio.Buffer: int limit>"},{"step":4,"from":"sdaReg9","to":"1093230360","type":"store","field":"<java.nio.Buffer: int capacity>"},{"step":5,"from":"static.<java.nio.ByteOrder: java.nio.ByteOrder BIG_ENDIAN>","to":"1084339448","type":"load","field":"<java.nio.ByteOrder: java.nio.ByteOrder BIG_ENDIAN>"},{"step":6,"from":"1084339448","to":"1093230360","type":"store","field":"<java.nio.ByteBuffer: java.nio.ByteOrder order>"},{"step":7,"from":"1093479856","to":"1093230360","type":"store","field":"<java.nio.HeapByteBuffer: byte[] backingArray>"},{"step":8,"from":"1093230360","to":"sdaReg12","type":"create","field":"<java.nio.HeapByteBuffer: int offset>"},{"step":9,"from":"sdaReg0","to":"1093230360","type":"store","field":"<java.nio.Buffer: int position>"},{"step":10,"from":"sdaReg31","to":"1093230360","type":"store","field":"<java.nio.Buffer: int limit>"}],"parameters":[{"id":"1093479856","name":"arg#0","klass":"byte[]"},{"id":"sdaReg0","name":"arg#1","klass":"int"},{"id":"sdaReg1","name":"arg#2","klass":"int"}],"returns":[{"id":"1093230360","name":"return","klass":"java.nio.ByteBuffer"}],"colors":{"heapLocToColor":{"1093230360":[3],"1093479856":[0],"sdaReg13":[3],"sdaReg14":[3],"sdaReg11":[0],"sdaReg10":[3],"sdaReg31":[1, 2],"sdaReg19":[3],"sdaReg30":[3],"static.<java.nio.ByteOrder: java.nio.ByteOrder BIG_ENDIAN>":[4],"sdaReg16":[3],"sdaReg8":[0],"sdaReg6":[0],"sdaReg7":[3],"sdaReg4":[1],"sdaReg5":[3],"sdaReg27":[3],"sdaReg29":[3],"sdaReg28":[3],"1084339448":[4],"sdaReg3":[1, 2],"sdaReg1":[2],"sdaReg0":[1],"sdaReg23":[3],"sdaReg22":[3],"sdaReg24":[3]},"colorToColor":{"0":[3],"1":[3],"2":[3],"3":[5],"4":[3]},"colorToLabel":{"0":"arg#0","1":"arg#1","2":"arg#2","4":"<java.nio.ByteOrder: java.nio.ByteOrder BIG_ENDIAN>","5":"return"}}}

Generated Model
	arg#2->return
	arg#1->return
	arg#0->return

