Scanning method <java.util.Vector: java.lang.String toString()>

All seen event types: BinaryOperationRecord, SimpleAssignmentRecord, MethodReturnRecord, MethodCallRecord, LoadInstanceRecord, LoadArrayRecord, IfRecord, NewObjectRecord, 
Ignored event types: IfRecord, 

JSON Encoded Analysis Data (for visualization):{"heapEdges":[{"step":0,"from":"1093605216","to":"1093605216.<java.util.Vector: int elementCount>","type":"load","field":"<java.util.Vector: int elementCount>"},{"step":1,"from":"1093605216","to":"1093605216.<java.util.Vector: int elementCount>","type":"load","field":"<java.util.Vector: int elementCount>"},{"step":2,"from":"1093605216","to":"1093605216.<java.util.Vector: int elementCount>","type":"load","field":"<java.util.Vector: int elementCount>"},{"step":3,"from":"1093605216","to":"1093625400","type":"load","field":"<java.util.Vector: java.lang.Object[] elementData>"},{"step":4,"from":"1093625400","to":"1093273192","type":"load","field":"arrayIdx_int:0"},{"step":5,"from":"1093605216","to":"1093625400","type":"load","field":"<java.util.Vector: java.lang.Object[] elementData>"},{"step":6,"from":"1093625400","to":"1093273192","type":"load","field":"arrayIdx_int:0"},{"step":7,"from":"1093273192","to":"1093850424","type":"model"},{"step":8,"from":"1093605216","to":"1093625400","type":"load","field":"<java.util.Vector: java.lang.Object[] elementData>"},{"step":9,"from":"1093625400","to":"1093273376","type":"load","field":"arrayIdx_int:1"},{"step":10,"from":"1093605216","to":"1093625400","type":"load","field":"<java.util.Vector: java.lang.Object[] elementData>"},{"step":11,"from":"1093625400","to":"1093273376","type":"load","field":"arrayIdx_int:1"},{"step":12,"from":"1093273376","to":"1093850424","type":"model"},{"step":13,"from":"1093605216","to":"1093625400","type":"load","field":"<java.util.Vector: java.lang.Object[] elementData>"},{"step":14,"from":"1093625400","to":"1093273560","type":"load","field":"arrayIdx_int:2"},{"step":15,"from":"1093605216","to":"1093625400","type":"load","field":"<java.util.Vector: java.lang.Object[] elementData>"},{"step":16,"from":"1093625400","to":"1093273560","type":"load","field":"arrayIdx_int:2"},{"step":17,"from":"1093273560","to":"1093850424","type":"model"},{"step":18,"from":"1093605216","to":"1093625400","type":"load","field":"<java.util.Vector: java.lang.Object[] elementData>"},{"step":19,"from":"1093625400","to":"1093273744","type":"load","field":"arrayIdx_int:3"},{"step":20,"from":"1093605216","to":"1093625400","type":"load","field":"<java.util.Vector: java.lang.Object[] elementData>"},{"step":21,"from":"1093625400","to":"1093273744","type":"load","field":"arrayIdx_int:3"},{"step":22,"from":"1093273744","to":"1093850424","type":"model"},{"step":23,"from":"1093605216","to":"1093625400","type":"load","field":"<java.util.Vector: java.lang.Object[] elementData>"},{"step":24,"from":"1093625400","to":"1093273928","type":"load","field":"arrayIdx_int:4"},{"step":25,"from":"1093605216","to":"1093625400","type":"load","field":"<java.util.Vector: java.lang.Object[] elementData>"},{"step":26,"from":"1093625400","to":"1093273928","type":"load","field":"arrayIdx_int:4"},{"step":27,"from":"1093273928","to":"1093850424","type":"model"},{"step":28,"from":"1093605216","to":"1093625400","type":"load","field":"<java.util.Vector: java.lang.Object[] elementData>"},{"step":29,"from":"1093625400","to":"1093275616","type":"load","field":"arrayIdx_int:5"},{"step":30,"from":"1093605216","to":"1093625400","type":"load","field":"<java.util.Vector: java.lang.Object[] elementData>"},{"step":31,"from":"1093625400","to":"1093275616","type":"load","field":"arrayIdx_int:5"},{"step":32,"from":"1093275616","to":"1093850424","type":"model"},{"step":33,"from":"1093605216","to":"1093625400","type":"load","field":"<java.util.Vector: java.lang.Object[] elementData>"},{"step":34,"from":"1093625400","to":"1093275800","type":"load","field":"arrayIdx_int:6"},{"step":35,"from":"1093605216","to":"1093625400","type":"load","field":"<java.util.Vector: java.lang.Object[] elementData>"},{"step":36,"from":"1093625400","to":"1093275800","type":"load","field":"arrayIdx_int:6"},{"step":37,"from":"1093275800","to":"1093850424","type":"model"},{"step":38,"from":"1093605216","to":"1093625400","type":"load","field":"<java.util.Vector: java.lang.Object[] elementData>"},{"step":39,"from":"1093625400","to":"1093275984","type":"load","field":"arrayIdx_int:7"},{"step":40,"from":"1093605216","to":"1093625400","type":"load","field":"<java.util.Vector: java.lang.Object[] elementData>"},{"step":41,"from":"1093625400","to":"1093275984","type":"load","field":"arrayIdx_int:7"},{"step":42,"from":"1093275984","to":"1093850424","type":"model"},{"step":43,"from":"1093605216","to":"1093625400","type":"load","field":"<java.util.Vector: java.lang.Object[] elementData>"},{"step":44,"from":"1093625400","to":"1093276168","type":"load","field":"arrayIdx_int:8"},{"step":45,"from":"1093605216","to":"1093625400","type":"load","field":"<java.util.Vector: java.lang.Object[] elementData>"},{"step":46,"from":"1093625400","to":"1093276168","type":"load","field":"arrayIdx_int:8"},{"step":47,"from":"1093276168","to":"1093850424","type":"model"},{"step":48,"from":"1093605216","to":"1093625400","type":"load","field":"<java.util.Vector: java.lang.Object[] elementData>"},{"step":49,"from":"1093625400","to":"1093276352","type":"load","field":"arrayIdx_int:9"},{"step":50,"from":"1093605216","to":"1093625400","type":"load","field":"<java.util.Vector: java.lang.Object[] elementData>"},{"step":51,"from":"1093625400","to":"1093276352","type":"load","field":"arrayIdx_int:9"},{"step":52,"from":"1093276352","to":"1093850424","type":"model"},{"step":53,"from":"1093605216","to":"1093625400","type":"load","field":"<java.util.Vector: java.lang.Object[] elementData>"},{"step":54,"from":"1093625400","to":"1093276536","type":"load","field":"arrayIdx_int:10"},{"step":55,"from":"1093605216","to":"1093625400","type":"load","field":"<java.util.Vector: java.lang.Object[] elementData>"},{"step":56,"from":"1093625400","to":"1093276536","type":"load","field":"arrayIdx_int:10"},{"step":57,"from":"1093276536","to":"1093850424","type":"model"},{"step":58,"from":"1093605216","to":"1093625400","type":"load","field":"<java.util.Vector: java.lang.Object[] elementData>"},{"step":59,"from":"1093625400","to":"1093276824","type":"load","field":"arrayIdx_int:11"},{"step":60,"from":"1093605216","to":"1093625400","type":"load","field":"<java.util.Vector: java.lang.Object[] elementData>"},{"step":61,"from":"1093625400","to":"1093276824","type":"load","field":"arrayIdx_int:11"},{"step":62,"from":"1093276824","to":"1093850424","type":"model"},{"step":63,"from":"1093605216","to":"1093625400","type":"load","field":"<java.util.Vector: java.lang.Object[] elementData>"},{"step":64,"from":"1093625400","to":"1093277008","type":"load","field":"arrayIdx_int:12"},{"step":65,"from":"1093605216","to":"1093625400","type":"load","field":"<java.util.Vector: java.lang.Object[] elementData>"},{"step":66,"from":"1093625400","to":"1093277008","type":"load","field":"arrayIdx_int:12"},{"step":67,"from":"1093277008","to":"1093850424","type":"model"},{"step":68,"from":"1093605216","to":"1093625400","type":"load","field":"<java.util.Vector: java.lang.Object[] elementData>"},{"step":69,"from":"1093625400","to":"1093277224","type":"load","field":"arrayIdx_int:13"},{"step":70,"from":"1093605216","to":"1093625400","type":"load","field":"<java.util.Vector: java.lang.Object[] elementData>"},{"step":71,"from":"1093625400","to":"1093277224","type":"load","field":"arrayIdx_int:13"},{"step":72,"from":"1093277224","to":"1093850424","type":"model"},{"step":73,"from":"1093605216","to":"1093625400","type":"load","field":"<java.util.Vector: java.lang.Object[] elementData>"},{"step":74,"from":"1093625400","to":"1093277440","type":"load","field":"arrayIdx_int:14"},{"step":75,"from":"1093605216","to":"1093625400","type":"load","field":"<java.util.Vector: java.lang.Object[] elementData>"},{"step":76,"from":"1093625400","to":"1093277440","type":"load","field":"arrayIdx_int:14"},{"step":77,"from":"1093277440","to":"1093850424","type":"model"},{"step":78,"from":"1093605216","to":"1093625400","type":"load","field":"<java.util.Vector: java.lang.Object[] elementData>"},{"step":79,"from":"1093625400","to":"1093277656","type":"load","field":"arrayIdx_int:15"},{"step":80,"from":"1093605216","to":"1093625400","type":"load","field":"<java.util.Vector: java.lang.Object[] elementData>"},{"step":81,"from":"1093625400","to":"1093277656","type":"load","field":"arrayIdx_int:15"},{"step":82,"from":"1093277656","to":"1093850424","type":"model"},{"step":83,"from":"1093605216","to":"1093625400","type":"load","field":"<java.util.Vector: java.lang.Object[] elementData>"},{"step":84,"from":"1093625400","to":"1093277872","type":"load","field":"arrayIdx_int:16"},{"step":85,"from":"1093605216","to":"1093625400","type":"load","field":"<java.util.Vector: java.lang.Object[] elementData>"},{"step":86,"from":"1093625400","to":"1093277872","type":"load","field":"arrayIdx_int:16"},{"step":87,"from":"1093277872","to":"1093850424","type":"model"},{"step":88,"from":"1093605216","to":"1093625400","type":"load","field":"<java.util.Vector: java.lang.Object[] elementData>"},{"step":89,"from":"1093625400","to":"1093278088","type":"load","field":"arrayIdx_int:17"},{"step":90,"from":"1093605216","to":"1093625400","type":"load","field":"<java.util.Vector: java.lang.Object[] elementData>"},{"step":91,"from":"1093625400","to":"1093278088","type":"load","field":"arrayIdx_int:17"},{"step":92,"from":"1093278088","to":"1093850424","type":"model"},{"step":93,"from":"1093605216","to":"1093625400","type":"load","field":"<java.util.Vector: java.lang.Object[] elementData>"},{"step":94,"from":"1093625400","to":"1093278304","type":"load","field":"arrayIdx_int:18"},{"step":95,"from":"1093605216","to":"1093625400","type":"load","field":"<java.util.Vector: java.lang.Object[] elementData>"},{"step":96,"from":"1093625400","to":"1093278304","type":"load","field":"arrayIdx_int:18"},{"step":97,"from":"1093278304","to":"1093850424","type":"model"},{"step":98,"from":"1093605216","to":"1093625400","type":"load","field":"<java.util.Vector: java.lang.Object[] elementData>"},{"step":99,"from":"1093625400","to":"1093278520","type":"load","field":"arrayIdx_int:19"},{"step":100,"from":"1093605216","to":"1093625400","type":"load","field":"<java.util.Vector: java.lang.Object[] elementData>"},{"step":101,"from":"1093625400","to":"1093278520","type":"load","field":"arrayIdx_int:19"},{"step":102,"from":"1093278520","to":"1093850424","type":"model"},{"step":103,"from":"1093605216","to":"1093625400","type":"load","field":"<java.util.Vector: java.lang.Object[] elementData>"},{"step":104,"from":"1093625400","to":"1093278736","type":"load","field":"arrayIdx_int:20"},{"step":105,"from":"1093605216","to":"1093625400","type":"load","field":"<java.util.Vector: java.lang.Object[] elementData>"},{"step":106,"from":"1093625400","to":"1093278736","type":"load","field":"arrayIdx_int:20"},{"step":107,"from":"1093278736","to":"1093850424","type":"model"},{"step":108,"from":"1093605216","to":"1093625400","type":"load","field":"<java.util.Vector: java.lang.Object[] elementData>"},{"step":109,"from":"1093625400","to":"1093404296","type":"load","field":"arrayIdx_int:21"},{"step":110,"from":"1093605216","to":"1093625400","type":"load","field":"<java.util.Vector: java.lang.Object[] elementData>"},{"step":111,"from":"1093625400","to":"1093404296","type":"load","field":"arrayIdx_int:21"},{"step":112,"from":"1093404296","to":"1093850424","type":"model"},{"step":113,"from":"1093605216","to":"1093625400","type":"load","field":"<java.util.Vector: java.lang.Object[] elementData>"},{"step":114,"from":"1093625400","to":"1093404512","type":"load","field":"arrayIdx_int:22"},{"step":115,"from":"1093605216","to":"1093625400","type":"load","field":"<java.util.Vector: java.lang.Object[] elementData>"},{"step":116,"from":"1093625400","to":"1093404512","type":"load","field":"arrayIdx_int:22"},{"step":117,"from":"1093404512","to":"1093850424","type":"model"},{"step":118,"from":"1093605216","to":"1093625400","type":"load","field":"<java.util.Vector: java.lang.Object[] elementData>"},{"step":119,"from":"1093625400","to":"1093404728","type":"load","field":"arrayIdx_int:23"},{"step":120,"from":"1093605216","to":"1093625400","type":"load","field":"<java.util.Vector: java.lang.Object[] elementData>"},{"step":121,"from":"1093625400","to":"1093404728","type":"load","field":"arrayIdx_int:23"},{"step":122,"from":"1093404728","to":"1093850424","type":"model"},{"step":123,"from":"1093605216","to":"1093625400","type":"load","field":"<java.util.Vector: java.lang.Object[] elementData>"},{"step":124,"from":"1093625400","to":"1093404944","type":"load","field":"arrayIdx_int:24"},{"step":125,"from":"1093605216","to":"1093625400","type":"load","field":"<java.util.Vector: java.lang.Object[] elementData>"},{"step":126,"from":"1093625400","to":"1093404944","type":"load","field":"arrayIdx_int:24"},{"step":127,"from":"1093404944","to":"1093850424","type":"model"},{"step":128,"from":"1093605216","to":"1093625400","type":"load","field":"<java.util.Vector: java.lang.Object[] elementData>"},{"step":129,"from":"1093625400","to":"1093405128","type":"load","field":"arrayIdx_int:25"},{"step":130,"from":"1093605216","to":"1093625400","type":"load","field":"<java.util.Vector: java.lang.Object[] elementData>"},{"step":131,"from":"1093625400","to":"1093405128","type":"load","field":"arrayIdx_int:25"},{"step":132,"from":"1093405128","to":"1093850424","type":"model"},{"step":133,"from":"1093605216","to":"1093625400","type":"load","field":"<java.util.Vector: java.lang.Object[] elementData>"},{"step":134,"from":"1093625400","to":"1093405344","type":"load","field":"arrayIdx_int:26"},{"step":135,"from":"1093605216","to":"1093625400","type":"load","field":"<java.util.Vector: java.lang.Object[] elementData>"},{"step":136,"from":"1093625400","to":"1093405344","type":"load","field":"arrayIdx_int:26"},{"step":137,"from":"1093405344","to":"1093850424","type":"model"},{"step":138,"from":"1093605216","to":"1093625400","type":"load","field":"<java.util.Vector: java.lang.Object[] elementData>"},{"step":139,"from":"1093625400","to":"1093405560","type":"load","field":"arrayIdx_int:27"},{"step":140,"from":"1093605216","to":"1093625400","type":"load","field":"<java.util.Vector: java.lang.Object[] elementData>"},{"step":141,"from":"1093625400","to":"1093405560","type":"load","field":"arrayIdx_int:27"},{"step":142,"from":"1093405560","to":"1093850424","type":"model"},{"step":143,"from":"1093605216","to":"1093625400","type":"load","field":"<java.util.Vector: java.lang.Object[] elementData>"},{"step":144,"from":"1093625400","to":"1093405800","type":"load","field":"arrayIdx_int:28"},{"step":145,"from":"1093605216","to":"1093625400","type":"load","field":"<java.util.Vector: java.lang.Object[] elementData>"},{"step":146,"from":"1093625400","to":"1093405800","type":"load","field":"arrayIdx_int:28"},{"step":147,"from":"1093405800","to":"1093850424","type":"model"},{"step":148,"from":"1093605216","to":"1093625400","type":"load","field":"<java.util.Vector: java.lang.Object[] elementData>"},{"step":149,"from":"1093625400","to":"1093406064","type":"load","field":"arrayIdx_int:29"},{"step":150,"from":"1093605216","to":"1093625400","type":"load","field":"<java.util.Vector: java.lang.Object[] elementData>"},{"step":151,"from":"1093625400","to":"1093406064","type":"load","field":"arrayIdx_int:29"},{"step":152,"from":"1093406064","to":"1093850424","type":"model"},{"step":153,"from":"1093605216","to":"1093625400","type":"load","field":"<java.util.Vector: java.lang.Object[] elementData>"},{"step":154,"from":"1093625400","to":"1093406328","type":"load","field":"arrayIdx_int:30"},{"step":155,"from":"1093605216","to":"1093625400","type":"load","field":"<java.util.Vector: java.lang.Object[] elementData>"},{"step":156,"from":"1093625400","to":"1093406328","type":"load","field":"arrayIdx_int:30"},{"step":157,"from":"1093406328","to":"1093850424","type":"model"},{"step":158,"from":"1093605216","to":"1093625400","type":"load","field":"<java.util.Vector: java.lang.Object[] elementData>"},{"step":159,"from":"1093625400","to":"1093406536","type":"load","field":"arrayIdx_int:31"},{"step":160,"from":"1093605216","to":"1093625400","type":"load","field":"<java.util.Vector: java.lang.Object[] elementData>"},{"step":161,"from":"1093625400","to":"1093406536","type":"load","field":"arrayIdx_int:31"},{"step":162,"from":"1093406536","to":"1093850424","type":"model"},{"step":163,"from":"1093605216","to":"1093625400","type":"load","field":"<java.util.Vector: java.lang.Object[] elementData>"},{"step":164,"from":"1093625400","to":"1093406800","type":"load","field":"arrayIdx_int:32"},{"step":165,"from":"1093605216","to":"1093625400","type":"load","field":"<java.util.Vector: java.lang.Object[] elementData>"},{"step":166,"from":"1093625400","to":"1093406800","type":"load","field":"arrayIdx_int:32"},{"step":167,"from":"1093406800","to":"1093850424","type":"model"},{"step":168,"from":"1093605216","to":"1093625400","type":"load","field":"<java.util.Vector: java.lang.Object[] elementData>"},{"step":169,"from":"1093625400","to":"1093407064","type":"load","field":"arrayIdx_int:33"},{"step":170,"from":"1093605216","to":"1093625400","type":"load","field":"<java.util.Vector: java.lang.Object[] elementData>"},{"step":171,"from":"1093625400","to":"1093407064","type":"load","field":"arrayIdx_int:33"},{"step":172,"from":"1093407064","to":"1093850424","type":"model"},{"step":173,"from":"1093605216","to":"1093625400","type":"load","field":"<java.util.Vector: java.lang.Object[] elementData>"},{"step":174,"from":"1093625400","to":"1093407328","type":"load","field":"arrayIdx_int:34"},{"step":175,"from":"1093605216","to":"1093625400","type":"load","field":"<java.util.Vector: java.lang.Object[] elementData>"},{"step":176,"from":"1093625400","to":"1093407328","type":"load","field":"arrayIdx_int:34"},{"step":177,"from":"1093407328","to":"1093850424","type":"model"},{"step":178,"from":"1093605216","to":"1093625400","type":"load","field":"<java.util.Vector: java.lang.Object[] elementData>"},{"step":179,"from":"1093625400","to":"1093407592","type":"load","field":"arrayIdx_int:35"},{"step":180,"from":"1093605216","to":"1093625400","type":"load","field":"<java.util.Vector: java.lang.Object[] elementData>"},{"step":181,"from":"1093625400","to":"1093407592","type":"load","field":"arrayIdx_int:35"},{"step":182,"from":"1093407592","to":"1093850424","type":"model"},{"step":183,"from":"1093605216","to":"1093625400","type":"load","field":"<java.util.Vector: java.lang.Object[] elementData>"},{"step":184,"from":"1093625400","to":"1093407856","type":"load","field":"arrayIdx_int:36"},{"step":185,"from":"1093605216","to":"1093625400","type":"load","field":"<java.util.Vector: java.lang.Object[] elementData>"},{"step":186,"from":"1093625400","to":"1093407856","type":"load","field":"arrayIdx_int:36"},{"step":187,"from":"1093407856","to":"1093850424","type":"model"},{"step":188,"from":"1093605216","to":"1093625400","type":"load","field":"<java.util.Vector: java.lang.Object[] elementData>"},{"step":189,"from":"1093625400","to":"1093408120","type":"load","field":"arrayIdx_int:37"},{"step":190,"from":"1093605216","to":"1093625400","type":"load","field":"<java.util.Vector: java.lang.Object[] elementData>"},{"step":191,"from":"1093625400","to":"1093408120","type":"load","field":"arrayIdx_int:37"},{"step":192,"from":"1093408120","to":"1093850424","type":"model"},{"step":193,"from":"1093605216","to":"1093625400","type":"load","field":"<java.util.Vector: java.lang.Object[] elementData>"},{"step":194,"from":"1093625400","to":"1093619632","type":"load","field":"arrayIdx_int:38"},{"step":195,"from":"1093605216","to":"1093625400","type":"load","field":"<java.util.Vector: java.lang.Object[] elementData>"},{"step":196,"from":"1093625400","to":"1093619632","type":"load","field":"arrayIdx_int:38"},{"step":197,"from":"1093619632","to":"1093850424","type":"model"},{"step":198,"from":"1093605216","to":"1093625400","type":"load","field":"<java.util.Vector: java.lang.Object[] elementData>"},{"step":199,"from":"1093625400","to":"1093619896","type":"load","field":"arrayIdx_int:39"},{"step":200,"from":"1093605216","to":"1093625400","type":"load","field":"<java.util.Vector: java.lang.Object[] elementData>"},{"step":201,"from":"1093625400","to":"1093619896","type":"load","field":"arrayIdx_int:39"},{"step":202,"from":"1093619896","to":"1093850424","type":"model"},{"step":203,"from":"1093605216","to":"1093625400","type":"load","field":"<java.util.Vector: java.lang.Object[] elementData>"},{"step":204,"from":"1093625400","to":"1093622024","type":"load","field":"arrayIdx_int:40"},{"step":205,"from":"1093605216","to":"1093625400","type":"load","field":"<java.util.Vector: java.lang.Object[] elementData>"},{"step":206,"from":"1093625400","to":"1093622024","type":"load","field":"arrayIdx_int:40"},{"step":207,"from":"1093622024","to":"1093850424","type":"model"},{"step":208,"from":"1093605216","to":"1093625400","type":"load","field":"<java.util.Vector: java.lang.Object[] elementData>"},{"step":209,"from":"1093625400","to":"1093622632","type":"load","field":"arrayIdx_int:41"},{"step":210,"from":"1093605216","to":"1093625400","type":"load","field":"<java.util.Vector: java.lang.Object[] elementData>"},{"step":211,"from":"1093625400","to":"1093622632","type":"load","field":"arrayIdx_int:41"},{"step":212,"from":"1093622632","to":"1093850424","type":"model"},{"step":213,"from":"1093605216","to":"1093625400","type":"load","field":"<java.util.Vector: java.lang.Object[] elementData>"},{"step":214,"from":"1093625400","to":"1093622840","type":"load","field":"arrayIdx_int:42"},{"step":215,"from":"1093605216","to":"1093625400","type":"load","field":"<java.util.Vector: java.lang.Object[] elementData>"},{"step":216,"from":"1093625400","to":"1093622840","type":"load","field":"arrayIdx_int:42"},{"step":217,"from":"1093622840","to":"1093850424","type":"model"},{"step":218,"from":"1093605216","to":"1093625400","type":"load","field":"<java.util.Vector: java.lang.Object[] elementData>"},{"step":219,"from":"1093625400","to":"1093623048","type":"load","field":"arrayIdx_int:43"},{"step":220,"from":"1093605216","to":"1093625400","type":"load","field":"<java.util.Vector: java.lang.Object[] elementData>"},{"step":221,"from":"1093625400","to":"1093623048","type":"load","field":"arrayIdx_int:43"},{"step":222,"from":"1093623048","to":"1093850424","type":"model"},{"step":223,"from":"1093605216","to":"1093625400","type":"load","field":"<java.util.Vector: java.lang.Object[] elementData>"},{"step":224,"from":"1093625400","to":"1093623256","type":"load","field":"arrayIdx_int:44"},{"step":225,"from":"1093605216","to":"1093625400","type":"load","field":"<java.util.Vector: java.lang.Object[] elementData>"},{"step":226,"from":"1093625400","to":"1093623256","type":"load","field":"arrayIdx_int:44"},{"step":227,"from":"1093623256","to":"1093850424","type":"model"},{"step":228,"from":"1093605216","to":"1093625400","type":"load","field":"<java.util.Vector: java.lang.Object[] elementData>"},{"step":229,"from":"1093625400","to":"1093623520","type":"load","field":"arrayIdx_int:45"},{"step":230,"from":"1093605216","to":"1093625400","type":"load","field":"<java.util.Vector: java.lang.Object[] elementData>"},{"step":231,"from":"1093625400","to":"1093623520","type":"load","field":"arrayIdx_int:45"},{"step":232,"from":"1093623520","to":"1093850424","type":"model"},{"step":233,"from":"1093605216","to":"1093625400","type":"load","field":"<java.util.Vector: java.lang.Object[] elementData>"},{"step":234,"from":"1093625400","to":"1093631544","type":"load","field":"arrayIdx_int:46"},{"step":235,"from":"1093605216","to":"1093625400","type":"load","field":"<java.util.Vector: java.lang.Object[] elementData>"},{"step":236,"from":"1093625400","to":"1093631544","type":"load","field":"arrayIdx_int:46"},{"step":237,"from":"1093631544","to":"1093850424","type":"model"},{"step":238,"from":"1093605216","to":"1093625400","type":"load","field":"<java.util.Vector: java.lang.Object[] elementData>"},{"step":239,"from":"1093625400","to":"1093631808","type":"load","field":"arrayIdx_int:47"},{"step":240,"from":"1093605216","to":"1093625400","type":"load","field":"<java.util.Vector: java.lang.Object[] elementData>"},{"step":241,"from":"1093625400","to":"1093631808","type":"load","field":"arrayIdx_int:47"},{"step":242,"from":"1093631808","to":"1093850424","type":"model"},{"step":243,"from":"1093605216","to":"1093625400","type":"load","field":"<java.util.Vector: java.lang.Object[] elementData>"},{"step":244,"from":"1093625400","to":"1093632072","type":"load","field":"arrayIdx_int:48"},{"step":245,"from":"1093605216","to":"1093625400","type":"load","field":"<java.util.Vector: java.lang.Object[] elementData>"},{"step":246,"from":"1093625400","to":"1093632072","type":"load","field":"arrayIdx_int:48"},{"step":247,"from":"1093632072","to":"1093850424","type":"model"},{"step":248,"from":"1093605216","to":"1093625400","type":"load","field":"<java.util.Vector: java.lang.Object[] elementData>"},{"step":249,"from":"1093625400","to":"1093632336","type":"load","field":"arrayIdx_int:49"},{"step":250,"from":"1093605216","to":"1093625400","type":"load","field":"<java.util.Vector: java.lang.Object[] elementData>"},{"step":251,"from":"1093625400","to":"1093632336","type":"load","field":"arrayIdx_int:49"},{"step":252,"from":"1093632336","to":"1093850424","type":"model"},{"step":253,"from":"1093605216","to":"1093625400","type":"load","field":"<java.util.Vector: java.lang.Object[] elementData>"},{"step":254,"from":"1093625400","to":"1093632600","type":"load","field":"arrayIdx_int:50"},{"step":255,"from":"1093605216","to":"1093625400","type":"load","field":"<java.util.Vector: java.lang.Object[] elementData>"},{"step":256,"from":"1093625400","to":"1093632600","type":"load","field":"arrayIdx_int:50"},{"step":257,"from":"1093632600","to":"1093850424","type":"model"},{"step":258,"from":"1093605216","to":"1093625400","type":"load","field":"<java.util.Vector: java.lang.Object[] elementData>"},{"step":259,"from":"1093625400","to":"1093632864","type":"load","field":"arrayIdx_int:51"},{"step":260,"from":"1093605216","to":"1093625400","type":"load","field":"<java.util.Vector: java.lang.Object[] elementData>"},{"step":261,"from":"1093625400","to":"1093632864","type":"load","field":"arrayIdx_int:51"},{"step":262,"from":"1093632864","to":"1093850424","type":"model"},{"step":263,"from":"1093605216","to":"1093625400","type":"load","field":"<java.util.Vector: java.lang.Object[] elementData>"},{"step":264,"from":"1093625400","to":"1093633128","type":"load","field":"arrayIdx_int:52"},{"step":265,"from":"1093605216","to":"1093625400","type":"load","field":"<java.util.Vector: java.lang.Object[] elementData>"},{"step":266,"from":"1093625400","to":"1093633128","type":"load","field":"arrayIdx_int:52"},{"step":267,"from":"1093633128","to":"1093850424","type":"model"},{"step":268,"from":"1093605216","to":"1093625400","type":"load","field":"<java.util.Vector: java.lang.Object[] elementData>"},{"step":269,"from":"1093625400","to":"1093633392","type":"load","field":"arrayIdx_int:53"},{"step":270,"from":"1093605216","to":"1093625400","type":"load","field":"<java.util.Vector: java.lang.Object[] elementData>"},{"step":271,"from":"1093625400","to":"1093633392","type":"load","field":"arrayIdx_int:53"},{"step":272,"from":"1093633392","to":"1093850424","type":"model"},{"step":273,"from":"1093605216","to":"1093625400","type":"load","field":"<java.util.Vector: java.lang.Object[] elementData>"},{"step":274,"from":"1093625400","to":"1093633656","type":"load","field":"arrayIdx_int:54"},{"step":275,"from":"1093605216","to":"1093625400","type":"load","field":"<java.util.Vector: java.lang.Object[] elementData>"},{"step":276,"from":"1093625400","to":"1093633656","type":"load","field":"arrayIdx_int:54"},{"step":277,"from":"1093633656","to":"1093850424","type":"model"},{"step":278,"from":"1093605216","to":"1093625400","type":"load","field":"<java.util.Vector: java.lang.Object[] elementData>"},{"step":279,"from":"1093625400","to":"1093633920","type":"load","field":"arrayIdx_int:55"},{"step":280,"from":"1093605216","to":"1093625400","type":"load","field":"<java.util.Vector: java.lang.Object[] elementData>"},{"step":281,"from":"1093625400","to":"1093633920","type":"load","field":"arrayIdx_int:55"},{"step":282,"from":"1093633920","to":"1093850424","type":"model"},{"step":283,"from":"1093605216","to":"1093625400","type":"load","field":"<java.util.Vector: java.lang.Object[] elementData>"},{"step":284,"from":"1093625400","to":"1093634184","type":"load","field":"arrayIdx_int:56"},{"step":285,"from":"1093605216","to":"1093625400","type":"load","field":"<java.util.Vector: java.lang.Object[] elementData>"},{"step":286,"from":"1093625400","to":"1093634184","type":"load","field":"arrayIdx_int:56"},{"step":287,"from":"1093634184","to":"1093850424","type":"model"},{"step":288,"from":"1093605216","to":"1093625400","type":"load","field":"<java.util.Vector: java.lang.Object[] elementData>"},{"step":289,"from":"1093625400","to":"1093636312","type":"load","field":"arrayIdx_int:57"},{"step":290,"from":"1093605216","to":"1093625400","type":"load","field":"<java.util.Vector: java.lang.Object[] elementData>"},{"step":291,"from":"1093625400","to":"1093636312","type":"load","field":"arrayIdx_int:57"},{"step":292,"from":"1093636312","to":"1093850424","type":"model"},{"step":293,"from":"1093605216","to":"1093625400","type":"load","field":"<java.util.Vector: java.lang.Object[] elementData>"},{"step":294,"from":"1093625400","to":"1093636576","type":"load","field":"arrayIdx_int:58"},{"step":295,"from":"1093605216","to":"1093625400","type":"load","field":"<java.util.Vector: java.lang.Object[] elementData>"},{"step":296,"from":"1093625400","to":"1093636576","type":"load","field":"arrayIdx_int:58"},{"step":297,"from":"1093636576","to":"1093850424","type":"model"},{"step":298,"from":"1093605216","to":"1093625400","type":"load","field":"<java.util.Vector: java.lang.Object[] elementData>"},{"step":299,"from":"1093625400","to":"1093636840","type":"load","field":"arrayIdx_int:59"},{"step":300,"from":"1093605216","to":"1093625400","type":"load","field":"<java.util.Vector: java.lang.Object[] elementData>"},{"step":301,"from":"1093625400","to":"1093636840","type":"load","field":"arrayIdx_int:59"},{"step":302,"from":"1093636840","to":"1093850424","type":"model"},{"step":303,"from":"1093605216","to":"1093625400","type":"load","field":"<java.util.Vector: java.lang.Object[] elementData>"},{"step":304,"from":"1093625400","to":"1093637104","type":"load","field":"arrayIdx_int:60"},{"step":305,"from":"1093605216","to":"1093625400","type":"load","field":"<java.util.Vector: java.lang.Object[] elementData>"},{"step":306,"from":"1093625400","to":"1093637104","type":"load","field":"arrayIdx_int:60"},{"step":307,"from":"1093637104","to":"1093850424","type":"model"},{"step":308,"from":"1093605216","to":"1093625400","type":"load","field":"<java.util.Vector: java.lang.Object[] elementData>"},{"step":309,"from":"1093625400","to":"1093637368","type":"load","field":"arrayIdx_int:61"},{"step":310,"from":"1093605216","to":"1093625400","type":"load","field":"<java.util.Vector: java.lang.Object[] elementData>"},{"step":311,"from":"1093625400","to":"1093637368","type":"load","field":"arrayIdx_int:61"},{"step":312,"from":"1093637368","to":"1093850424","type":"model"},{"step":313,"from":"1093605216","to":"1093625400","type":"load","field":"<java.util.Vector: java.lang.Object[] elementData>"},{"step":314,"from":"1093625400","to":"1093637632","type":"load","field":"arrayIdx_int:62"},{"step":315,"from":"1093605216","to":"1093625400","type":"load","field":"<java.util.Vector: java.lang.Object[] elementData>"},{"step":316,"from":"1093625400","to":"1093637632","type":"load","field":"arrayIdx_int:62"},{"step":317,"from":"1093637632","to":"1093850424","type":"model"},{"step":318,"from":"1093605216","to":"1093625400","type":"load","field":"<java.util.Vector: java.lang.Object[] elementData>"},{"step":319,"from":"1093625400","to":"1093649256","type":"load","field":"arrayIdx_int:63"},{"step":320,"from":"1093605216","to":"1093625400","type":"load","field":"<java.util.Vector: java.lang.Object[] elementData>"},{"step":321,"from":"1093625400","to":"1093649256","type":"load","field":"arrayIdx_int:63"},{"step":322,"from":"1093649256","to":"1093850424","type":"model"},{"step":323,"from":"1093605216","to":"1093625400","type":"load","field":"<java.util.Vector: java.lang.Object[] elementData>"},{"step":324,"from":"1093625400","to":"1093649520","type":"load","field":"arrayIdx_int:64"},{"step":325,"from":"1093605216","to":"1093625400","type":"load","field":"<java.util.Vector: java.lang.Object[] elementData>"},{"step":326,"from":"1093625400","to":"1093649520","type":"load","field":"arrayIdx_int:64"},{"step":327,"from":"1093649520","to":"1093850424","type":"model"},{"step":328,"from":"1093605216","to":"1093625400","type":"load","field":"<java.util.Vector: java.lang.Object[] elementData>"},{"step":329,"from":"1093625400","to":"1093649784","type":"load","field":"arrayIdx_int:65"},{"step":330,"from":"1093605216","to":"1093625400","type":"load","field":"<java.util.Vector: java.lang.Object[] elementData>"},{"step":331,"from":"1093625400","to":"1093649784","type":"load","field":"arrayIdx_int:65"},{"step":332,"from":"1093649784","to":"1093850424","type":"model"},{"step":333,"from":"1093605216","to":"1093625400","type":"load","field":"<java.util.Vector: java.lang.Object[] elementData>"},{"step":334,"from":"1093625400","to":"1093650048","type":"load","field":"arrayIdx_int:66"},{"step":335,"from":"1093605216","to":"1093625400","type":"load","field":"<java.util.Vector: java.lang.Object[] elementData>"},{"step":336,"from":"1093625400","to":"1093650048","type":"load","field":"arrayIdx_int:66"},{"step":337,"from":"1093650048","to":"1093850424","type":"model"},{"step":338,"from":"1093605216","to":"1093625400","type":"load","field":"<java.util.Vector: java.lang.Object[] elementData>"},{"step":339,"from":"1093625400","to":"1093650312","type":"load","field":"arrayIdx_int:67"},{"step":340,"from":"1093605216","to":"1093625400","type":"load","field":"<java.util.Vector: java.lang.Object[] elementData>"},{"step":341,"from":"1093625400","to":"1093650312","type":"load","field":"arrayIdx_int:67"},{"step":342,"from":"1093650312","to":"1093850424","type":"model"},{"step":343,"from":"1093605216","to":"1093625400","type":"load","field":"<java.util.Vector: java.lang.Object[] elementData>"},{"step":344,"from":"1093625400","to":"1093650576","type":"load","field":"arrayIdx_int:68"},{"step":345,"from":"1093605216","to":"1093625400","type":"load","field":"<java.util.Vector: java.lang.Object[] elementData>"},{"step":346,"from":"1093625400","to":"1093650576","type":"load","field":"arrayIdx_int:68"},{"step":347,"from":"1093650576","to":"1093850424","type":"model"},{"step":348,"from":"1093605216","to":"1093625400","type":"load","field":"<java.util.Vector: java.lang.Object[] elementData>"},{"step":349,"from":"1093625400","to":"1093650840","type":"load","field":"arrayIdx_int:69"},{"step":350,"from":"1093605216","to":"1093625400","type":"load","field":"<java.util.Vector: java.lang.Object[] elementData>"},{"step":351,"from":"1093625400","to":"1093650840","type":"load","field":"arrayIdx_int:69"},{"step":352,"from":"1093650840","to":"1093850424","type":"model"},{"step":353,"from":"1093605216","to":"1093625400","type":"load","field":"<java.util.Vector: java.lang.Object[] elementData>"},{"step":354,"from":"1093625400","to":"1093651104","type":"load","field":"arrayIdx_int:70"},{"step":355,"from":"1093605216","to":"1093625400","type":"load","field":"<java.util.Vector: java.lang.Object[] elementData>"},{"step":356,"from":"1093625400","to":"1093651104","type":"load","field":"arrayIdx_int:70"},{"step":357,"from":"1093651104","to":"1093850424","type":"model"},{"step":358,"from":"1093605216","to":"1093625400","type":"load","field":"<java.util.Vector: java.lang.Object[] elementData>"},{"step":359,"from":"1093625400","to":"1093651368","type":"load","field":"arrayIdx_int:71"},{"step":360,"from":"1093605216","to":"1093625400","type":"load","field":"<java.util.Vector: java.lang.Object[] elementData>"},{"step":361,"from":"1093625400","to":"1093651368","type":"load","field":"arrayIdx_int:71"},{"step":362,"from":"1093651368","to":"1093850424","type":"model"},{"step":363,"from":"1093605216","to":"1093625400","type":"load","field":"<java.util.Vector: java.lang.Object[] elementData>"},{"step":364,"from":"1093625400","to":"1093651632","type":"load","field":"arrayIdx_int:72"},{"step":365,"from":"1093605216","to":"1093625400","type":"load","field":"<java.util.Vector: java.lang.Object[] elementData>"},{"step":366,"from":"1093625400","to":"1093651632","type":"load","field":"arrayIdx_int:72"},{"step":367,"from":"1093651632","to":"1093850424","type":"model"},{"step":368,"from":"1093605216","to":"1093625400","type":"load","field":"<java.util.Vector: java.lang.Object[] elementData>"},{"step":369,"from":"1093625400","to":"1093651896","type":"load","field":"arrayIdx_int:73"},{"step":370,"from":"1093605216","to":"1093625400","type":"load","field":"<java.util.Vector: java.lang.Object[] elementData>"},{"step":371,"from":"1093625400","to":"1093651896","type":"load","field":"arrayIdx_int:73"},{"step":372,"from":"1093651896","to":"1093850424","type":"model"},{"step":373,"from":"1093605216","to":"1093625400","type":"load","field":"<java.util.Vector: java.lang.Object[] elementData>"},{"step":374,"from":"1093625400","to":"1093652160","type":"load","field":"arrayIdx_int:74"},{"step":375,"from":"1093605216","to":"1093625400","type":"load","field":"<java.util.Vector: java.lang.Object[] elementData>"},{"step":376,"from":"1093625400","to":"1093652160","type":"load","field":"arrayIdx_int:74"},{"step":377,"from":"1093652160","to":"1093850424","type":"model"},{"step":378,"from":"1093605216","to":"1093625400","type":"load","field":"<java.util.Vector: java.lang.Object[] elementData>"},{"step":379,"from":"1093625400","to":"1093652424","type":"load","field":"arrayIdx_int:75"},{"step":380,"from":"1093605216","to":"1093625400","type":"load","field":"<java.util.Vector: java.lang.Object[] elementData>"},{"step":381,"from":"1093625400","to":"1093652424","type":"load","field":"arrayIdx_int:75"},{"step":382,"from":"1093652424","to":"1093850424","type":"model"},{"step":383,"from":"1093605216","to":"1093625400","type":"load","field":"<java.util.Vector: java.lang.Object[] elementData>"},{"step":384,"from":"1093625400","to":"1093654552","type":"load","field":"arrayIdx_int:76"},{"step":385,"from":"1093605216","to":"1093625400","type":"load","field":"<java.util.Vector: java.lang.Object[] elementData>"},{"step":386,"from":"1093625400","to":"1093654552","type":"load","field":"arrayIdx_int:76"},{"step":387,"from":"1093654552","to":"1093850424","type":"model"},{"step":388,"from":"1093605216","to":"1093625400","type":"load","field":"<java.util.Vector: java.lang.Object[] elementData>"},{"step":389,"from":"1093625400","to":"1093654816","type":"load","field":"arrayIdx_int:77"},{"step":390,"from":"1093605216","to":"1093625400","type":"load","field":"<java.util.Vector: java.lang.Object[] elementData>"},{"step":391,"from":"1093625400","to":"1093654816","type":"load","field":"arrayIdx_int:77"},{"step":392,"from":"1093654816","to":"1093850424","type":"model"},{"step":393,"from":"1093605216","to":"1093625400","type":"load","field":"<java.util.Vector: java.lang.Object[] elementData>"},{"step":394,"from":"1093625400","to":"1093655080","type":"load","field":"arrayIdx_int:78"},{"step":395,"from":"1093605216","to":"1093625400","type":"load","field":"<java.util.Vector: java.lang.Object[] elementData>"},{"step":396,"from":"1093625400","to":"1093655080","type":"load","field":"arrayIdx_int:78"},{"step":397,"from":"1093655080","to":"1093850424","type":"model"},{"step":398,"from":"1093605216","to":"1093625400","type":"load","field":"<java.util.Vector: java.lang.Object[] elementData>"},{"step":399,"from":"1093625400","to":"1093625040","type":"load","field":"arrayIdx_int:79"},{"step":400,"from":"1093605216","to":"1093625400","type":"load","field":"<java.util.Vector: java.lang.Object[] elementData>"},{"step":401,"from":"1093625400","to":"1093625040","type":"load","field":"arrayIdx_int:79"},{"step":402,"from":"1093625040","to":"1093850424","type":"model"},{"step":403,"from":"1093605216","to":"1093625400","type":"load","field":"<java.util.Vector: java.lang.Object[] elementData>"},{"step":404,"from":"1093625400","to":"1093625304","type":"load","field":"arrayIdx_int:80"},{"step":405,"from":"1093605216","to":"1093625400","type":"load","field":"<java.util.Vector: java.lang.Object[] elementData>"},{"step":406,"from":"1093625400","to":"1093625304","type":"load","field":"arrayIdx_int:80"},{"step":407,"from":"1093625304","to":"1093850424","type":"model"},{"step":408,"from":"1093605216","to":"1093625400","type":"load","field":"<java.util.Vector: java.lang.Object[] elementData>"},{"step":409,"from":"1093625400","to":"1093626232","type":"load","field":"arrayIdx_int:81"},{"step":410,"from":"1093605216","to":"1093625400","type":"load","field":"<java.util.Vector: java.lang.Object[] elementData>"},{"step":411,"from":"1093625400","to":"1093626232","type":"load","field":"arrayIdx_int:81"},{"step":412,"from":"1093626232","to":"1093850424","type":"model"},{"step":413,"from":"1093605216","to":"1093625400","type":"load","field":"<java.util.Vector: java.lang.Object[] elementData>"},{"step":414,"from":"1093625400","to":"1093626496","type":"load","field":"arrayIdx_int:82"},{"step":415,"from":"1093605216","to":"1093625400","type":"load","field":"<java.util.Vector: java.lang.Object[] elementData>"},{"step":416,"from":"1093625400","to":"1093626496","type":"load","field":"arrayIdx_int:82"},{"step":417,"from":"1093626496","to":"1093850424","type":"model"},{"step":418,"from":"1093605216","to":"1093625400","type":"load","field":"<java.util.Vector: java.lang.Object[] elementData>"},{"step":419,"from":"1093625400","to":"1093626760","type":"load","field":"arrayIdx_int:83"},{"step":420,"from":"1093605216","to":"1093625400","type":"load","field":"<java.util.Vector: java.lang.Object[] elementData>"},{"step":421,"from":"1093625400","to":"1093626760","type":"load","field":"arrayIdx_int:83"},{"step":422,"from":"1093626760","to":"1093850424","type":"model"},{"step":423,"from":"1093605216","to":"1093625400","type":"load","field":"<java.util.Vector: java.lang.Object[] elementData>"},{"step":424,"from":"1093625400","to":"1093627024","type":"load","field":"arrayIdx_int:84"},{"step":425,"from":"1093605216","to":"1093625400","type":"load","field":"<java.util.Vector: java.lang.Object[] elementData>"},{"step":426,"from":"1093625400","to":"1093627024","type":"load","field":"arrayIdx_int:84"},{"step":427,"from":"1093627024","to":"1093850424","type":"model"},{"step":428,"from":"1093605216","to":"1093625400","type":"load","field":"<java.util.Vector: java.lang.Object[] elementData>"},{"step":429,"from":"1093625400","to":"1093627288","type":"load","field":"arrayIdx_int:85"},{"step":430,"from":"1093605216","to":"1093625400","type":"load","field":"<java.util.Vector: java.lang.Object[] elementData>"},{"step":431,"from":"1093625400","to":"1093627288","type":"load","field":"arrayIdx_int:85"},{"step":432,"from":"1093627288","to":"1093850424","type":"model"},{"step":433,"from":"1093605216","to":"1093625400","type":"load","field":"<java.util.Vector: java.lang.Object[] elementData>"},{"step":434,"from":"1093625400","to":"1093627552","type":"load","field":"arrayIdx_int:86"},{"step":435,"from":"1093605216","to":"1093625400","type":"load","field":"<java.util.Vector: java.lang.Object[] elementData>"},{"step":436,"from":"1093625400","to":"1093627552","type":"load","field":"arrayIdx_int:86"},{"step":437,"from":"1093627552","to":"1093850424","type":"model"},{"step":438,"from":"1093605216","to":"1093625400","type":"load","field":"<java.util.Vector: java.lang.Object[] elementData>"},{"step":439,"from":"1093625400","to":"1093627816","type":"load","field":"arrayIdx_int:87"},{"step":440,"from":"1093605216","to":"1093625400","type":"load","field":"<java.util.Vector: java.lang.Object[] elementData>"},{"step":441,"from":"1093625400","to":"1093627816","type":"load","field":"arrayIdx_int:87"},{"step":442,"from":"1093627816","to":"1093850424","type":"model"},{"step":443,"from":"1093605216","to":"1093625400","type":"load","field":"<java.util.Vector: java.lang.Object[] elementData>"},{"step":444,"from":"1093625400","to":"1093628080","type":"load","field":"arrayIdx_int:88"},{"step":445,"from":"1093605216","to":"1093625400","type":"load","field":"<java.util.Vector: java.lang.Object[] elementData>"},{"step":446,"from":"1093625400","to":"1093628080","type":"load","field":"arrayIdx_int:88"},{"step":447,"from":"1093628080","to":"1093850424","type":"model"},{"step":448,"from":"1093605216","to":"1093625400","type":"load","field":"<java.util.Vector: java.lang.Object[] elementData>"},{"step":449,"from":"1093625400","to":"1093628344","type":"load","field":"arrayIdx_int:89"},{"step":450,"from":"1093605216","to":"1093625400","type":"load","field":"<java.util.Vector: java.lang.Object[] elementData>"},{"step":451,"from":"1093625400","to":"1093628344","type":"load","field":"arrayIdx_int:89"},{"step":452,"from":"1093628344","to":"1093850424","type":"model"},{"step":453,"from":"1093605216","to":"1093625400","type":"load","field":"<java.util.Vector: java.lang.Object[] elementData>"},{"step":454,"from":"1093625400","to":"1093628608","type":"load","field":"arrayIdx_int:90"},{"step":455,"from":"1093605216","to":"1093625400","type":"load","field":"<java.util.Vector: java.lang.Object[] elementData>"},{"step":456,"from":"1093625400","to":"1093628608","type":"load","field":"arrayIdx_int:90"},{"step":457,"from":"1093628608","to":"1093850424","type":"model"},{"step":458,"from":"1093605216","to":"1093625400","type":"load","field":"<java.util.Vector: java.lang.Object[] elementData>"},{"step":459,"from":"1093625400","to":"1093628872","type":"load","field":"arrayIdx_int:91"},{"step":460,"from":"1093605216","to":"1093625400","type":"load","field":"<java.util.Vector: java.lang.Object[] elementData>"},{"step":461,"from":"1093625400","to":"1093628872","type":"load","field":"arrayIdx_int:91"},{"step":462,"from":"1093628872","to":"1093850424","type":"model"},{"step":463,"from":"1093605216","to":"1093625400","type":"load","field":"<java.util.Vector: java.lang.Object[] elementData>"},{"step":464,"from":"1093625400","to":"1093629136","type":"load","field":"arrayIdx_int:92"},{"step":465,"from":"1093605216","to":"1093625400","type":"load","field":"<java.util.Vector: java.lang.Object[] elementData>"},{"step":466,"from":"1093625400","to":"1093629136","type":"load","field":"arrayIdx_int:92"},{"step":467,"from":"1093629136","to":"1093850424","type":"model"},{"step":468,"from":"1093605216","to":"1093625400","type":"load","field":"<java.util.Vector: java.lang.Object[] elementData>"},{"step":469,"from":"1093625400","to":"1093629400","type":"load","field":"arrayIdx_int:93"},{"step":470,"from":"1093605216","to":"1093625400","type":"load","field":"<java.util.Vector: java.lang.Object[] elementData>"},{"step":471,"from":"1093625400","to":"1093629400","type":"load","field":"arrayIdx_int:93"},{"step":472,"from":"1093629400","to":"1093850424","type":"model"},{"step":473,"from":"1093605216","to":"1093625400","type":"load","field":"<java.util.Vector: java.lang.Object[] elementData>"},{"step":474,"from":"1093625400","to":"1093629664","type":"load","field":"arrayIdx_int:94"},{"step":475,"from":"1093605216","to":"1093625400","type":"load","field":"<java.util.Vector: java.lang.Object[] elementData>"},{"step":476,"from":"1093625400","to":"1093629664","type":"load","field":"arrayIdx_int:94"},{"step":477,"from":"1093629664","to":"1093850424","type":"model"},{"step":478,"from":"1093605216","to":"1093625400","type":"load","field":"<java.util.Vector: java.lang.Object[] elementData>"},{"step":479,"from":"1093625400","to":"1093629928","type":"load","field":"arrayIdx_int:95"},{"step":480,"from":"1093605216","to":"1093625400","type":"load","field":"<java.util.Vector: java.lang.Object[] elementData>"},{"step":481,"from":"1093625400","to":"1093629928","type":"load","field":"arrayIdx_int:95"},{"step":482,"from":"1093629928","to":"1093850424","type":"model"},{"step":483,"from":"1093605216","to":"1093625400","type":"load","field":"<java.util.Vector: java.lang.Object[] elementData>"},{"step":484,"from":"1093625400","to":"1093570120","type":"load","field":"arrayIdx_int:96"},{"step":485,"from":"1093605216","to":"1093625400","type":"load","field":"<java.util.Vector: java.lang.Object[] elementData>"},{"step":486,"from":"1093625400","to":"1093570120","type":"load","field":"arrayIdx_int:96"},{"step":487,"from":"1093570120","to":"1093850424","type":"model"},{"step":488,"from":"1093605216","to":"1093625400","type":"load","field":"<java.util.Vector: java.lang.Object[] elementData>"},{"step":489,"from":"1093625400","to":"1093570384","type":"load","field":"arrayIdx_int:97"},{"step":490,"from":"1093605216","to":"1093625400","type":"load","field":"<java.util.Vector: java.lang.Object[] elementData>"},{"step":491,"from":"1093625400","to":"1093570384","type":"load","field":"arrayIdx_int:97"},{"step":492,"from":"1093570384","to":"1093850424","type":"model"},{"step":493,"from":"1093605216","to":"1093625400","type":"load","field":"<java.util.Vector: java.lang.Object[] elementData>"},{"step":494,"from":"1093625400","to":"1093570648","type":"load","field":"arrayIdx_int:98"},{"step":495,"from":"1093605216","to":"1093625400","type":"load","field":"<java.util.Vector: java.lang.Object[] elementData>"},{"step":496,"from":"1093625400","to":"1093570648","type":"load","field":"arrayIdx_int:98"},{"step":497,"from":"1093570648","to":"1093850424","type":"model"},{"step":498,"from":"1093605216","to":"1093625400","type":"load","field":"<java.util.Vector: java.lang.Object[] elementData>"},{"step":499,"from":"1093625400","to":"1093570912","type":"load","field":"arrayIdx_int:99"},{"step":500,"from":"1093605216","to":"1093625400","type":"load","field":"<java.util.Vector: java.lang.Object[] elementData>"},{"step":501,"from":"1093625400","to":"1093570912","type":"load","field":"arrayIdx_int:99"},{"step":502,"from":"1093570912","to":"1093850424","type":"model"},{"step":503,"from":"1093850424","to":"sdaReg5","type":"model"}],"parameters":[{"id":"1093605216","name":"this","klass":"java.util.Vector"}],"returns":[{"id":"sdaReg5","name":"return","klass":"string"}],"colors":{"heapLocToColor":{"1093627024":[0],"1093277440":[0],"1093654816":[0],"1093625304":[0],"1093651896":[0],"1093636840":[0],"1093627816":[0],"1093637368":[0],"1093649520":[0],"1093637632":[0],"1093625400.arrayIdx_int:19":[0],"1093655080":[0],"1093625400.arrayIdx_int:16":[0],"1093625400.arrayIdx_int:15":[0],"1093625400.arrayIdx_int:18":[0],"1093625400.arrayIdx_int:17":[0],"1093623520":[0],"1093625400.arrayIdx_int:11":[0],"1093625400.arrayIdx_int:12":[0],"1093625400.arrayIdx_int:13":[0],"1093625400.arrayIdx_int:14":[0],"1093625400.arrayIdx_int:10":[0],"1093278304":[0],"1093850424":[1],"1093633920":[0],"1093649256":[0],"1093637104":[0],"1093570384":[0],"1093629664":[0],"1093406800":[0],"1093627288":[0],"1093405800":[0],"1093625400.arrayIdx_int:1":[0],"1093625040":[0],"1093625400.arrayIdx_int:0":[0],"1093625400.arrayIdx_int:3":[0],"1093625400.arrayIdx_int:2":[0],"1093625400.arrayIdx_int:5":[0],"1093625400.arrayIdx_int:4":[0],"1093625400.arrayIdx_int:7":[0],"1093605216":[0],"1093625400.arrayIdx_int:6":[0],"1093625400.arrayIdx_int:9":[0],"1093625400.arrayIdx_int:8":[0],"1093623048":[0],"1093273928":[0],"1093625400":[0],"1093634184":[0],"1093631544":[0],"1093632864":[0],"1093622632":[0],"1093650312":[0],"1093650048":[0],"1093277872":[0],"1093276352":[0],"1093622024":[0],"1093275616":[0],"1093276168":[0],"1093405344":[0],"1093404728":[0],"1093632336":[0],"1093619896":[0],"1093650840":[0],"1093626496":[0],"1093629400":[0],"1093277224":[0],"1093632072":[0],"1093628608":[0],"sdaReg5":[1, 2],"1093652160":[0],"1093627552":[0],"1093277008":[0],"1093407856":[0],"sdaReg3":[1],"sdaReg2":[1],"sdaReg1":[0],"1093631808":[0],"sdaReg0":[0],"1093625400.arrayIdx_int:80":[0],"1093625400.arrayIdx_int:81":[0],"1093625400.arrayIdx_int:82":[0],"1093625400.arrayIdx_int:83":[0],"1093407592":[0],"1093570648":[0],"1093625400.arrayIdx_int:88":[0],"1093625400.arrayIdx_int:89":[0],"1093625400.arrayIdx_int:84":[0],"1093625400.arrayIdx_int:85":[0],"1093625400.arrayIdx_int:86":[0],"1093625400.arrayIdx_int:87":[0],"1093406536":[0],"1093406064":[0],"1093277656":[0],"1093628080":[0],"1093636576":[0],"1093629136":[0],"1093625400.arrayIdx_int:93":[0],"1093625400.arrayIdx_int:94":[0],"1093625400.arrayIdx_int:91":[0],"1093625400.arrayIdx_int:92":[0],"1093605216.<java.util.Vector: java.lang.Object[] elementData>":[0],"1093625400.arrayIdx_int:90":[0],"1093625400.arrayIdx_int:99":[0],"1093625400.arrayIdx_int:97":[0],"1093625400.arrayIdx_int:98":[0],"1093625400.arrayIdx_int:95":[0],"1093625400.arrayIdx_int:96":[0],"1093406328":[0],"1093619632":[0],"1093633392":[0],"1093273376":[0],"1093625400.arrayIdx_int:60":[0],"1093625400.arrayIdx_int:61":[0],"1093273192":[0],"1093625400.arrayIdx_int:62":[0],"1093625400.arrayIdx_int:63":[0],"1093275800":[0],"1093625400.arrayIdx_int:64":[0],"1093625400.arrayIdx_int:65":[0],"1093625400.arrayIdx_int:66":[0],"1093625400.arrayIdx_int:67":[0],"1093625400.arrayIdx_int:68":[0],"1093625400.arrayIdx_int:69":[0],"1093405560":[0],"1093623256":[0],"1093651104":[0],"1093649784":[0],"1093407328":[0],"1093625400.arrayIdx_int:71":[0],"1093625400.arrayIdx_int:72":[0],"1093626760":[0],"1093625400.arrayIdx_int:70":[0],"1093625400.arrayIdx_int:75":[0],"1093625400.arrayIdx_int:76":[0],"1093625400.arrayIdx_int:73":[0],"1093625400.arrayIdx_int:74":[0],"1093625400.arrayIdx_int:79":[0],"1093632600":[0],"1093625400.arrayIdx_int:77":[0],"1093628344":[0],"1093625400.arrayIdx_int:78":[0],"1093278520":[0],"1093605216.<java.util.Vector: int elementCount>":[0],"1093626232":[0],"1093273560":[0],"1093625400.arrayIdx_int:45":[0],"1093625400.arrayIdx_int:44":[0],"1093625400.arrayIdx_int:47":[0],"1093625400.arrayIdx_int:46":[0],"1093625400.arrayIdx_int:41":[0],"1093625400.arrayIdx_int:40":[0],"1093625400.arrayIdx_int:43":[0],"1093625400.arrayIdx_int:42":[0],"1093651368":[0],"1093404296":[0],"1093625400.arrayIdx_int:48":[0],"1093654552":[0],"1093625400.arrayIdx_int:49":[0],"1093625400.arrayIdx_int:58":[0],"1093625400.arrayIdx_int:57":[0],"1093625400.arrayIdx_int:56":[0],"1093625400.arrayIdx_int:55":[0],"1093625400.arrayIdx_int:54":[0],"1093625400.arrayIdx_int:53":[0],"1093625400.arrayIdx_int:52":[0],"1093276536":[0],"1093625400.arrayIdx_int:51":[0],"1093625400.arrayIdx_int:50":[0],"1093633656":[0],"1093278736":[0],"1093408120":[0],"1093622840":[0],"1093625400.arrayIdx_int:59":[0],"1093636312":[0],"1093625400.arrayIdx_int:21":[0],"1093625400.arrayIdx_int:20":[0],"1093625400.arrayIdx_int:23":[0],"1093625400.arrayIdx_int:22":[0],"1093625400.arrayIdx_int:25":[0],"1093625400.arrayIdx_int:24":[0],"1093628872":[0],"1093278088":[0],"1093570912":[0],"1093625400.arrayIdx_int:26":[0],"1093633128":[0],"1093625400.arrayIdx_int:27":[0],"1093275984":[0],"1093625400.arrayIdx_int:28":[0],"1093625400.arrayIdx_int:29":[0],"1093629928":[0],"1093625400.arrayIdx_int:32":[0],"1093273744":[0],"1093625400.arrayIdx_int:31":[0],"1093650576":[0],"1093625400.arrayIdx_int:30":[0],"1093625400.arrayIdx_int:36":[0],"1093625400.arrayIdx_int:35":[0],"1093625400.arrayIdx_int:34":[0],"1093625400.arrayIdx_int:33":[0],"1093407064":[0],"1093570120":[0],"1093404512":[0],"1093651632":[0],"1093404944":[0],"1093625400.arrayIdx_int:39":[0],"1093405128":[0],"1093625400.arrayIdx_int:37":[0],"1093652424":[0],"1093625400.arrayIdx_int:38":[0],"1093276824":[0]},"colorToColor":{"0":[1],"1":[3],"2":[3]},"colorToLabel":{"0":"this","3":"return"}}}

Generated Model
	this->return

