Scanning method <java.util.HashMap: void ensureCapacity(int)>

All seen event types: BinaryOperationRecord, SimpleAssignmentRecord, MethodReturnRecord, MethodCallRecord, ArrayLengthRecord, LoadInstanceRecord, MethodStartRecord, MethodEndRecord, IfRecord, 
Ignored event types: IfRecord, 

JSON Encoded Analysis Data (for visualization):{"heapEdges":[{"step":0,"from":"1093545064","to":"1093660384","type":"load","field":"<java.util.HashMap: java.util.HashMap$HashMapEntry[] table>"}],"parameters":[{"id":"1093545064","name":"this","klass":"java.util.HashMap"},{"id":"sdaReg0","name":"arg#1","klass":"int"}],"returns":[{"id":null,"name":"return","klass":null}],"colors":{"heapLocToColor":{"sdaReg8":[1],"sdaReg9":[1],"sdaReg6":[1],"sdaReg7":[1],"sdaReg4":[1],"1093545064":[0],"sdaReg5":[1],"sdaReg13":[1],"sdaReg14":[1],"sdaReg11":[1],"sdaReg12":[1],"sdaReg10":[1],"sdaReg3":[1],"1093660384":[0],"sdaReg2":[1],"sdaReg1":[1],"sdaReg0":[1],"sdaReg15":[1],"sdaReg16":[1]},"colorToColor":{},"colorToLabel":{"0":"this","1":"arg#1","2":"return"}}}

Generated Model

