Scanning method <java.io.CharArrayWriter: int size()>

All seen event types: SimpleAssignmentRecord, ExitMonitorRecord, EnterMonitorRecord, LoadInstanceRecord, 
Ignored event types: ExitMonitorRecord, EnterMonitorRecord, 

JSON Encoded Analysis Data (for visualization):{"heapEdges":[{"step":0,"from":"1093652768","to":"1093652792","type":"load","field":"<java.io.Writer: java.lang.Object lock>"},{"step":1,"from":"1093652768","to":"1093652768.<java.io.CharArrayWriter: int count>","type":"load","field":"<java.io.CharArrayWriter: int count>"}],"parameters":[{"id":"1093652768","name":"this","klass":"java.io.CharArrayWriter"}],"returns":[{"id":"1093652768.<java.io.CharArrayWriter: int count>","name":"return","klass":"int"}],"colors":{"heapLocToColor":{"1093652792":[0],"1093652768":[0],"1093652768.<java.io.CharArrayWriter: int count>":[0]},"colorToColor":{"0":[1]},"colorToLabel":{"0":"this","1":"return"}}}

Generated Model
	this->return

