Scanning method <android.location.Location: boolean hasSpeed()>

All seen event types: LoadInstanceRecord, 
Ignored event types: 

JSON Encoded Analysis Data (for visualization):{"heapEdges":[{"step":0,"from":"1093945680","to":"1093945680.<android.location.Location: boolean mHasSpeed>","type":"load","field":"<android.location.Location: boolean mHasSpeed>"}],"parameters":[{"id":"1093945680","name":"this","klass":"android.location.Location"}],"returns":[{"id":"1093945680.<android.location.Location: boolean mHasSpeed>","name":"return","klass":"boolean"}],"colors":{"heapLocToColor":{"1093945680.<android.location.Location: boolean mHasSpeed>":[0],"1093945680":[0]},"colorToColor":{"0":[1]},"colorToLabel":{"0":"this","1":"return"}}}

Generated Model
	this->return

