Scanning method <java.util.Formatter$FormatToken: boolean isDefault()>

All seen event types: SimpleAssignmentRecord, LoadInstanceRecord, IfRecord, 
Ignored event types: IfRecord, 

JSON Encoded Analysis Data (for visualization):{"heapEdges":[{"step":0,"from":"1093419552","to":"1093419552.<java.util.Formatter$FormatToken: boolean flagComma>","type":"load","field":"<java.util.Formatter$FormatToken: boolean flagComma>"},{"step":1,"from":"1093419552","to":"1093419552.<java.util.Formatter$FormatToken: boolean flagMinus>","type":"load","field":"<java.util.Formatter$FormatToken: boolean flagMinus>"},{"step":2,"from":"1093419552","to":"1093419552.<java.util.Formatter$FormatToken: boolean flagParenthesis>","type":"load","field":"<java.util.Formatter$FormatToken: boolean flagParenthesis>"},{"step":3,"from":"1093419552","to":"1093419552.<java.util.Formatter$FormatToken: boolean flagPlus>","type":"load","field":"<java.util.Formatter$FormatToken: boolean flagPlus>"},{"step":4,"from":"1093419552","to":"1093419552.<java.util.Formatter$FormatToken: boolean flagSharp>","type":"load","field":"<java.util.Formatter$FormatToken: boolean flagSharp>"},{"step":5,"from":"1093419552","to":"1093419552.<java.util.Formatter$FormatToken: boolean flagSpace>","type":"load","field":"<java.util.Formatter$FormatToken: boolean flagSpace>"},{"step":6,"from":"1093419552","to":"1093419552.<java.util.Formatter$FormatToken: boolean flagZero>","type":"load","field":"<java.util.Formatter$FormatToken: boolean flagZero>"},{"step":7,"from":"1093419552","to":"1093419552.<java.util.Formatter$FormatToken: int width>","type":"load","field":"<java.util.Formatter$FormatToken: int width>"},{"step":8,"from":"1093419552","to":"1093419552.<java.util.Formatter$FormatToken: int precision>","type":"load","field":"<java.util.Formatter$FormatToken: int precision>"}],"parameters":[{"id":"1093419552","name":"this","klass":"java.util.Formatter$FormatToken"}],"returns":[{"id":"sdaReg0","name":"return","klass":"boolean"}],"colors":{"heapLocToColor":{"1093419552.<java.util.Formatter$FormatToken: boolean flagPlus>":[0],"1093419552.<java.util.Formatter$FormatToken: boolean flagParenthesis>":[0],"1093419552.<java.util.Formatter$FormatToken: int precision>":[0],"1093419552.<java.util.Formatter$FormatToken: int width>":[0],"1093419552.<java.util.Formatter$FormatToken: boolean flagSharp>":[0],"1093419552.<java.util.Formatter$FormatToken: boolean flagSpace>":[0],"1093419552.<java.util.Formatter$FormatToken: boolean flagComma>":[0],"1093419552":[0],"1093419552.<java.util.Formatter$FormatToken: boolean flagZero>":[0],"1093419552.<java.util.Formatter$FormatToken: boolean flagMinus>":[0]},"colorToColor":{},"colorToLabel":{"0":"this","1":"return"}}}

Generated Model

