Scanning method <java.util.Locale: java.lang.String toString()>

All seen event types: SimpleAssignmentRecord, LoadInstanceRecord, IfRecord, 
Ignored event types: IfRecord, 

JSON Encoded Analysis Data (for visualization):{"heapEdges":[{"step":0,"from":"1093252968","to":"1093252968.<java.util.Locale: java.lang.String cachedToStringResult>","type":"load","field":"<java.util.Locale: java.lang.String cachedToStringResult>"}],"parameters":[{"id":"1093252968","name":"this","klass":"java.util.Locale"}],"returns":[{"id":"sdaReg0","name":"return","klass":"string"}],"colors":{"heapLocToColor":{"1093252968":[0],"sdaReg0":[0],"1093252968.<java.util.Locale: java.lang.String cachedToStringResult>":[0]},"colorToColor":{"0":[1]},"colorToLabel":{"0":"this","1":"return"}}}

Generated Model
	this->return

