Scanning method <java.util.Locale: java.lang.String toString()>

All seen event types: SimpleAssignmentRecord, MethodReturnRecord, MethodCallRecord, MethodStartRecord, LoadInstanceRecord, MethodEndRecord, IfRecord, StoreInstanceRecord, NewObjectRecord, 
Ignored event types: IfRecord, 

JSON Encoded Analysis Data (for visualization):{"heapEdges":[{"step":0,"from":"1093267832","to":"1093267832.<java.util.Locale: java.lang.String cachedToStringResult>","type":"load","field":"<java.util.Locale: java.lang.String cachedToStringResult>"},{"step":1,"from":"1093267832","to":"1093267832.<java.util.Locale: java.lang.String languageCode>","type":"load","field":"<java.util.Locale: java.lang.String languageCode>"},{"step":2,"from":"1093267832","to":"1093267832.<java.util.Locale: java.lang.String languageCode>","type":"load","field":"<java.util.Locale: java.lang.String languageCode>"},{"step":3,"from":"1093267832.<java.util.Locale: java.lang.String languageCode>","to":"1093346968","type":"model"},{"step":4,"from":"1093267832","to":"1093267832.<java.util.Locale: java.lang.String countryCode>","type":"load","field":"<java.util.Locale: java.lang.String countryCode>"},{"step":5,"from":"1093267832","to":"1093267832.<java.util.Locale: java.lang.String countryCode>","type":"load","field":"<java.util.Locale: java.lang.String countryCode>"},{"step":6,"from":"1093267832.<java.util.Locale: java.lang.String countryCode>","to":"1093346968","type":"model"},{"step":7,"from":"1093267832","to":"1093267832.<java.util.Locale: java.lang.String variantCode>","type":"load","field":"<java.util.Locale: java.lang.String variantCode>"},{"step":8,"from":"1093267832","to":"1093267832.<java.util.Locale: java.lang.String variantCode>","type":"load","field":"<java.util.Locale: java.lang.String variantCode>"},{"step":9,"from":"1093267832.<java.util.Locale: java.lang.String variantCode>","to":"1093346968","type":"model"},{"step":10,"from":"1093346968","to":"sdaReg6","type":"model"},{"step":11,"from":"sdaReg6","to":"1093267832","type":"store","field":"<java.util.Locale: java.lang.String cachedToStringResult>"}],"parameters":[{"id":"1093267832","name":"this","klass":"java.util.Locale"}],"returns":[{"id":"sdaReg7","name":"return","klass":"string"}],"colors":{"heapLocToColor":{"1093267832.<java.util.Locale: java.lang.String variantCode>":[0],"1093267832.<java.util.Locale: java.lang.String cachedToStringResult>":[0],"1093346968":[2],"1093267832.<java.util.Locale: java.lang.String countryCode>":[0],"sdaReg6":[2, 5],"sdaReg7":[2, 5],"sdaReg4":[3],"sdaReg5":[4],"1093267832":[0],"1093267832.<java.util.Locale: java.lang.String languageCode>":[0],"sdaReg3":[2],"sdaReg2":[2],"sdaReg1":[1],"sdaReg0":[0]},"colorToColor":{"0":[2],"2":[0, 6],"5":[0, 6]},"colorToLabel":{"0":"this","6":"return"}}}

Generated Model
	this->return

