Scanning method <android.os.Bundle: byte getByte(java.lang.String)>

All seen event types: StoreArrayRecord, SimpleAssignmentRecord, ExitMonitorRecord, MethodStartRecord, LoadInstanceRecord, IfRecord, NewObjectRecord, StoreInstanceRecord, NewArrayRecord, LoadStaticRecord, BinaryOperationRecord, MethodCallRecord, MethodReturnRecord, SwitchRecord, EnterMonitorRecord, CastRecord, ArrayLengthRecord, LoadArrayRecord, MethodEndRecord, 
Ignored event types: ExitMonitorRecord, SwitchRecord, EnterMonitorRecord, IfRecord, 

JSON Encoded Analysis Data (for visualization):{"heapEdges":[{"step":0,"from":"1093511080","to":"1093467872","type":"load","field":"<android.os.Bundle: android.os.Parcel mParcelledData>"},{"step":1,"from":"1093511080","to":"1093467872","type":"load","field":"<android.os.Bundle: android.os.Parcel mParcelledData>"},{"step":2,"from":"1093467872","to":"sdaReg2","type":"model"},{"step":3,"from":"static.<java.util.HashMap: java.util.Map$Entry[] EMPTY_TABLE>","to":"1083997920","type":"load","field":"<java.util.HashMap: java.util.Map$Entry[] EMPTY_TABLE>"},{"step":4,"from":"1083997920","to":"1093796400","type":"store","field":"<java.util.HashMap: java.util.HashMap$HashMapEntry[] table>"},{"step":5,"from":"1093796400","to":"sdaReg9","type":"create","field":"<java.util.HashMap: int threshold>"},{"step":6,"from":"1093511080","to":"1093796400","type":"create","field":"<android.os.Bundle: java.util.Map mMap>"},{"step":7,"from":"1093511080","to":"1093467872","type":"load","field":"<android.os.Bundle: android.os.Parcel mParcelledData>"},{"step":8,"from":"1093467872","to":"sdaReg16","type":"model"},{"step":9,"from":"1093467872","to":"sdaReg17","type":"model"},{"step":10,"from":"1093467872","to":"sdaReg21","type":"model"},{"step":11,"from":"1093467872","to":"sdaReg23","type":"model"},{"step":12,"from":"sdaReg25","to":"1085840752","type":"model"},{"step":13,"from":"1093796400","to":"1093796400.<java.util.HashMap: int modCount>","type":"load","field":"<java.util.HashMap: int modCount>"},{"step":14,"from":"sdaReg43","to":"1093796400","type":"store","field":"<java.util.HashMap: int modCount>"},{"step":15,"from":"1093796400","to":"1093796400.<java.util.HashMap: int size>","type":"load","field":"<java.util.HashMap: int size>"},{"step":16,"from":"sdaReg44","to":"1093796400","type":"store","field":"<java.util.HashMap: int size>"},{"step":17,"from":"1093796400","to":"1093803840","type":"create","field":"<java.util.HashMap: java.util.HashMap$HashMapEntry[] table>"},{"step":18,"from":"sdaReg52","to":"1093796400","type":"store","field":"<java.util.HashMap: int threshold>"},{"step":19,"from":"1093926896","to":"1093803880","type":"store","field":"<java.util.HashMap$HashMapEntry: java.lang.Object key>"},{"step":20,"from":"1093803880","to":"1085840752","type":"create","field":"<java.util.HashMap$HashMapEntry: java.lang.Object value>"},{"step":21,"from":"sdaReg39","to":"1093803880","type":"store","field":"<java.util.HashMap$HashMapEntry: int hash>"},{"step":22,"from":"1093803840","to":"1093803880","type":"create","field":"arrayIdx_int:2"},{"step":23,"from":"1093511080","to":"1093467872","type":"load","field":"<android.os.Bundle: android.os.Parcel mParcelledData>"},{"step":24,"from":"1093467872","to":"1093467872.<android.os.Parcel: int mOwnObject>","type":"load","field":"<android.os.Parcel: int mOwnObject>"},{"step":25,"from":"static.<android.os.Parcel: android.os.Parcel[] sOwnedPool>","to":"1084044960","type":"load","field":"<android.os.Parcel: android.os.Parcel[] sOwnedPool>"},{"step":26,"from":"1093467872","to":"1084044960","type":"store","field":"arrayIdx_int:0"},{"step":27,"from":"1093511080","to":"sdaReg71","type":"create","field":"<android.os.Bundle: android.os.Parcel mParcelledData>"},{"step":28,"from":"1093511080","to":"sdaReg0","type":"model"},{"step":29,"from":"1093511080","to":"1085840752","type":"model"},{"step":30,"from":"sdaReg0","to":"1093511080","type":"model"},{"step":31,"from":"sdaReg0","to":"1085840752","type":"model"},{"step":32,"from":"1085840752","to":"sdaReg73","type":"model"}],"parameters":[{"id":"1093511080","name":"this","klass":"android.os.Bundle"},{"id":"sdaReg0","name":"arg#1","klass":"string"}],"returns":[{"id":"sdaReg73","name":"return","klass":"byte"}],"colors":{"heapLocToColor":{"sdaReg60":[9],"sdaReg61":[12],"1084044960":[13],"sdaReg68":[13],"1093467872.<android.os.Parcel: int mOwnObject>":[0],"1093796400":[3],"sdaReg69":[13],"sdaReg66":[12],"sdaReg67":[0],"sdaReg65":[12],"sdaReg63":[9],"sdaReg72":[0, 9],"1093796400.<java.util.HashMap: int size>":[3],"sdaReg14":[0],"sdaReg11":[0],"1085840752":[0, 9],"sdaReg12":[3],"sdaReg10":[3],"sdaReg58":[3],"sdaReg19":[0],"1083997920":[4],"sdaReg55":[11],"sdaReg17":[0, 6],"sdaReg53":[11],"sdaReg16":[0, 5],"1093796400.<java.util.HashMap: int modCount>":[3],"sdaReg73":[0, 9, 14],"sdaReg48":[3],"sdaReg45":[3],"sdaReg44":[3],"sdaReg43":[3],"1093511080":[0],"sdaReg42":[10],"1093803880":[12],"static.<android.os.Parcel: android.os.Parcel[] sOwnedPool>":[13],"1093511080.<android.os.Bundle: android.os.Parcel mParcelledData>":[0],"sdaReg39":[10],"sdaReg38":[10],"sdaReg37":[10],"1093803840":[11],"sdaReg32":[10],"sdaReg31":[10],"static.<java.util.HashMap: java.util.Map$Entry[] EMPTY_TABLE>":[4],"sdaReg30":[9],"sdaReg36":[10],"sdaReg35":[10],"sdaReg34":[10],"sdaReg33":[10],"sdaReg8":[4],"sdaReg6":[3],"sdaReg7":[4],"sdaReg4":[3],"1093467872":[0],"sdaReg5":[3],"sdaReg27":[9],"sdaReg26":[9],"sdaReg28":[3],"sdaReg3":[3],"sdaReg2":[0, 2],"sdaReg21":[0, 7],"sdaReg1":[0],"sdaReg0":[0, 1],"sdaReg23":[0, 8],"sdaReg22":[0],"sdaReg25":[0, 8],"sdaReg24":[0, 8]},"colorToColor":{"0":[0, 9, 13, 15],"1":[0, 9],"3":[0, 3],"4":[3],"8":[9],"9":[12, 15],"10":[12],"11":[3],"12":[11],"14":[15]},"colorToLabel":{"0":"this","1":"arg#1","4":"<java.util.HashMap: java.util.Map$Entry[] EMPTY_TABLE>","13":"<android.os.Parcel: android.os.Parcel[] sOwnedPool>","15":"return"}}}

Generated Model
	this->return
	this-><android.os.Parcel: android.os.Parcel[] sOwnedPool>
	arg#1->this
	arg#1->return
	arg#1-><android.os.Parcel: android.os.Parcel[] sOwnedPool>

