Scanning method <java.util.ArrayList: int indexOf(java.lang.Object)>

All seen event types: BinaryOperationRecord, SimpleAssignmentRecord, LoadInstanceRecord, LoadArrayRecord, IfRecord, 
Ignored event types: IfRecord, 

JSON Encoded Analysis Data (for visualization):{"heapEdges":[{"step":0,"from":"1093400200","to":"1093653480","type":"load","field":"<java.util.ArrayList: java.lang.Object[] array>"},{"step":1,"from":"1093400200","to":"1093400200.<java.util.ArrayList: int size>","type":"load","field":"<java.util.ArrayList: int size>"},{"step":2,"from":"1093653480","to":"1093673568","type":"load","field":"arrayIdx_int:0"},{"step":3,"from":"1093653480","to":"1093296560","type":"load","field":"arrayIdx_int:1"},{"step":4,"from":"1093653480","to":"1093584544","type":"load","field":"arrayIdx_int:2"},{"step":5,"from":"1093653480","to":"1093323960","type":"load","field":"arrayIdx_int:3"},{"step":6,"from":"1093653480","to":"1093325088","type":"load","field":"arrayIdx_int:4"},{"step":7,"from":"1093653480","to":"1093325648","type":"load","field":"arrayIdx_int:5"},{"step":8,"from":"1093653480","to":"1093326208","type":"load","field":"arrayIdx_int:6"},{"step":9,"from":"1093653480","to":"1093326760","type":"load","field":"arrayIdx_int:7"},{"step":10,"from":"1093653480","to":"1093327312","type":"load","field":"arrayIdx_int:8"},{"step":11,"from":"1093653480","to":"1093447960","type":"load","field":"arrayIdx_int:9"},{"step":12,"from":"1093653480","to":"1093340832","type":"load","field":"arrayIdx_int:10"},{"step":13,"from":"1093653480","to":"1093347360","type":"load","field":"arrayIdx_int:11"},{"step":14,"from":"1093653480","to":"1093356680","type":"load","field":"arrayIdx_int:12"},{"step":15,"from":"1093653480","to":"1093358784","type":"load","field":"arrayIdx_int:13"},{"step":16,"from":"1093653480","to":"1093359312","type":"load","field":"arrayIdx_int:14"},{"step":17,"from":"1093653480","to":"1093361464","type":"load","field":"arrayIdx_int:15"},{"step":18,"from":"1093653480","to":"1093362544","type":"load","field":"arrayIdx_int:16"},{"step":19,"from":"1093653480","to":"1093475880","type":"load","field":"arrayIdx_int:17"},{"step":20,"from":"1093653480","to":"1093346400","type":"load","field":"arrayIdx_int:18"},{"step":21,"from":"1093653480","to":"1093352448","type":"load","field":"arrayIdx_int:19"},{"step":22,"from":"1093653480","to":"1093357720","type":"load","field":"arrayIdx_int:20"},{"step":23,"from":"1093653480","to":"1093464344","type":"load","field":"arrayIdx_int:21"},{"step":24,"from":"1093653480","to":"1093468328","type":"load","field":"arrayIdx_int:22"},{"step":25,"from":"1093653480","to":"1093486240","type":"load","field":"arrayIdx_int:23"},{"step":26,"from":"1093653480","to":"1093491600","type":"load","field":"arrayIdx_int:24"}],"parameters":[{"id":"1093400200","name":"this","klass":"java.util.ArrayList"},{"id":"0","name":"arg#1","klass":"java.lang.Object"}],"returns":[{"id":"sdaReg0","name":"return","klass":"int"}],"colors":{"heapLocToColor":{"1093491600":[0],"1093325648":[0],"1093352448":[0],"1093653480":[0],"1093486240":[0],"1093325088":[0],"1093347360":[0],"1093584544":[0],"1093356680":[0],"1093361464":[0],"1093468328":[0],"1093400200.<java.util.ArrayList: int size>":[0],"1093357720":[0],"1093326208":[0],"1093673568":[0],"1093447960":[0],"1093359312":[0],"1093296560":[0],"1093326760":[0],"1093362544":[0],"1093464344":[0],"1093358784":[0],"1093323960":[0],"1093400200":[0],"0":[1],"1093340832":[0],"1093346400":[0],"1093475880":[0],"1093327312":[0]},"colorToColor":{},"colorToLabel":{"0":"this","1":"arg#1","2":"return"}}}

Generated Model

