Scanning method <java.net.URI: java.lang.String toString()>

All seen event types: SimpleAssignmentRecord, MethodReturnRecord, MethodCallRecord, LoadInstanceRecord, IfRecord, StoreInstanceRecord, NewObjectRecord, 
Ignored event types: IfRecord, 

JSON Encoded Analysis Data (for visualization):{"heapEdges":[{"step":0,"from":"1093550712","to":"1093550712.<java.net.URI: java.lang.String string>","type":"load","field":"<java.net.URI: java.lang.String string>"},{"step":1,"from":"1093550712","to":"1093550712.<java.net.URI: java.lang.String scheme>","type":"load","field":"<java.net.URI: java.lang.String scheme>"},{"step":2,"from":"1093550712","to":"1093550712.<java.net.URI: java.lang.String scheme>","type":"load","field":"<java.net.URI: java.lang.String scheme>"},{"step":3,"from":"1093550712.<java.net.URI: java.lang.String scheme>","to":"1093518728","type":"model"},{"step":4,"from":"1093550712","to":"1093550712.<java.net.URI: boolean opaque>","type":"load","field":"<java.net.URI: boolean opaque>"},{"step":5,"from":"1093550712","to":"1093550712.<java.net.URI: java.lang.String authority>","type":"load","field":"<java.net.URI: java.lang.String authority>"},{"step":6,"from":"1093550712","to":"1093550712.<java.net.URI: java.lang.String authority>","type":"load","field":"<java.net.URI: java.lang.String authority>"},{"step":7,"from":"1093550712.<java.net.URI: java.lang.String authority>","to":"1093518728","type":"model"},{"step":8,"from":"1093550712","to":"1093550712.<java.net.URI: java.lang.String path>","type":"load","field":"<java.net.URI: java.lang.String path>"},{"step":9,"from":"1093550712","to":"1093550712.<java.net.URI: java.lang.String path>","type":"load","field":"<java.net.URI: java.lang.String path>"},{"step":10,"from":"1093550712.<java.net.URI: java.lang.String path>","to":"1093518728","type":"model"},{"step":11,"from":"1093550712","to":"1093550712.<java.net.URI: java.lang.String query>","type":"load","field":"<java.net.URI: java.lang.String query>"},{"step":12,"from":"1093550712","to":"1093550712.<java.net.URI: java.lang.String query>","type":"load","field":"<java.net.URI: java.lang.String query>"},{"step":13,"from":"1093550712.<java.net.URI: java.lang.String query>","to":"1093518728","type":"model"},{"step":14,"from":"1093550712","to":"1093550712.<java.net.URI: java.lang.String fragment>","type":"load","field":"<java.net.URI: java.lang.String fragment>"},{"step":15,"from":"1093518728","to":"sdaReg2","type":"model"},{"step":16,"from":"sdaReg2","to":"1093550712","type":"store","field":"<java.net.URI: java.lang.String string>"}],"parameters":[{"id":"1093550712","name":"this","klass":"java.net.URI"}],"returns":[{"id":null,"name":"return","klass":"string"}],"colors":{"heapLocToColor":{"1093550712.<java.net.URI: java.lang.String path>":[0],"1093518728":[1],"1093550712.<java.net.URI: java.lang.String fragment>":[0],"1093550712.<java.net.URI: java.lang.String query>":[0],"1093550712":[0],"1093550712.<java.net.URI: java.lang.String string>":[0],"sdaReg2":[1, 2],"sdaReg1":[1],"sdaReg0":[1],"1093550712.<java.net.URI: java.lang.String authority>":[0],"1093550712.<java.net.URI: java.lang.String scheme>":[0],"1093550712.<java.net.URI: boolean opaque>":[0]},"colorToColor":{"0":[1],"1":[0],"2":[0]},"colorToLabel":{"0":"this","3":"return"}}}

Generated Model

