Scanning method <java.net.ResponseCache: void <clinit>()>

All seen event types: StoreStaticRecord, 
Ignored event types: 

JSON Encoded Analysis Data (for visualization):{"heapEdges":[{"step":0,"from":"static.<java.net.ResponseCache: java.net.ResponseCache defaultResponseCache>","to":"sdaReg0","type":"create","field":"<java.net.ResponseCache: java.net.ResponseCache defaultResponseCache>"}],"parameters":[],"returns":[{"id":null,"name":"return","klass":null}],"colors":{"heapLocToColor":{"static.<java.net.ResponseCache: java.net.ResponseCache defaultResponseCache>":[0]},"colorToColor":{},"colorToLabel":{"0":"<java.net.ResponseCache: java.net.ResponseCache defaultResponseCache>","1":"return"}}}

Generated Model

