Scanning method <android.location.Address: java.lang.String getSubAdminArea()>

All seen event types: LoadInstanceRecord, 
Ignored event types: 

JSON Encoded Analysis Data (for visualization):{"heapEdges":[{"step":0,"from":"1093847536","to":"1093847536.<android.location.Address: java.lang.String mSubAdminArea>","type":"load","field":"<android.location.Address: java.lang.String mSubAdminArea>"}],"parameters":[{"id":"1093847536","name":"this","klass":"android.location.Address"}],"returns":[{"id":"1093847536.<android.location.Address: java.lang.String mSubAdminArea>","name":"return","klass":"string"}],"colors":{"heapLocToColor":{"1093847536.<android.location.Address: java.lang.String mSubAdminArea>":[0],"1093847536":[0]},"colorToColor":{"0":[1]},"colorToLabel":{"0":"this","1":"return"}}}

Generated Model
	this->return

