Scanning method <java.net.URL: void <init>(java.lang.String,java.lang.String,int,java.lang.String,java.net.URLStreamHandler)>

All seen event types: StoreArrayRecord, SimpleAssignmentRecord, MethodStartRecord, LoadInstanceRecord, IfRecord, StoreInstanceRecord, NewObjectRecord, LoadStaticRecord, BinaryOperationRecord, MethodCallRecord, MethodReturnRecord, CastRecord, ArrayLengthRecord, LoadArrayRecord, MethodEndRecord, 
Ignored event types: IfRecord, 

JSON Encoded Analysis Data (for visualization):{"heapEdges":[{"step":0,"from":"1093649312","to":"sdaReg5","type":"create","field":"<java.net.URL: int port>"},{"step":1,"from":"sdaReg1","to":"sdaReg6","type":"model"},{"step":2,"from":"sdaReg0","to":"1093649312","type":"store","field":"<java.net.URL: java.lang.String protocol>"},{"step":3,"from":"sdaReg1","to":"1093649312","type":"store","field":"<java.net.URL: java.lang.String host>"},{"step":4,"from":"sdaReg2","to":"1093649312","type":"store","field":"<java.net.URL: int port>"},{"step":5,"from":"sdaReg1","to":"sdaReg7","type":"model"},{"step":6,"from":"sdaReg3","to":"sdaReg8","type":"model"},{"step":7,"from":"sdaReg3","to":"sdaReg9","type":"model"},{"step":8,"from":"sdaReg3","to":"1093650320","type":"model"},{"step":9,"from":"sdaReg3","to":"1093650320","type":"model"},{"step":10,"from":"1093650320","to":"sdaReg13","type":"model"},{"step":11,"from":"sdaReg13","to":"1093649312","type":"store","field":"<java.net.URL: java.lang.String file>"},{"step":12,"from":"sdaReg18","to":"1093649312","type":"store","field":"<java.net.URL: java.lang.String authority>"},{"step":13,"from":"1093649312","to":"sdaReg21","type":"create","field":"<java.net.URL: java.lang.String query>"},{"step":14,"from":"sdaReg22","to":"1093649312","type":"store","field":"<java.net.URL: java.lang.String path>"},{"step":15,"from":"static.<java.net.URL: java.util.Hashtable streamHandlers>","to":"1084315112","type":"load","field":"<java.net.URL: java.util.Hashtable streamHandlers>"},{"step":16,"from":"1084315112","to":"1084321912","type":"load","field":"<java.util.Hashtable: java.util.Hashtable$HashtableEntry[] table>"},{"step":17,"from":"1093468632","to":"1093294632","type":"model"},{"step":18,"from":"1093649312","to":"1093651808","type":"create","field":"<java.net.URL: java.net.URLStreamHandler streamHandler>"},{"step":19,"from":"static.<java.net.URL: java.util.Hashtable streamHandlers>","to":"1084315112","type":"load","field":"<java.net.URL: java.util.Hashtable streamHandlers>"},{"step":20,"from":"1084315112","to":"1084321912","type":"load","field":"<java.util.Hashtable: java.util.Hashtable$HashtableEntry[] table>"},{"step":21,"from":"1084315112","to":"1084315112.<java.util.Hashtable: int modCount>","type":"load","field":"<java.util.Hashtable: int modCount>"},{"step":22,"from":"sdaReg67","to":"1084315112","type":"store","field":"<java.util.Hashtable: int modCount>"},{"step":23,"from":"1084315112","to":"1084315112.<java.util.Hashtable: int size>","type":"load","field":"<java.util.Hashtable: int size>"},{"step":24,"from":"sdaReg68","to":"1084315112","type":"store","field":"<java.util.Hashtable: int size>"},{"step":25,"from":"1084315112","to":"1084315112.<java.util.Hashtable: int threshold>","type":"load","field":"<java.util.Hashtable: int threshold>"},{"step":26,"from":"1084321368","to":"1093651888","type":"store","field":"<java.util.Hashtable$HashtableEntry: java.lang.Object key>"},{"step":27,"from":"1093651808","to":"1093651888","type":"store","field":"<java.util.Hashtable$HashtableEntry: java.lang.Object value>"},{"step":28,"from":"sdaReg62","to":"1093651888","type":"store","field":"<java.util.Hashtable$HashtableEntry: int hash>"},{"step":29,"from":"1084321912","to":"1093651888","type":"create","field":"arrayIdx_int:1"}],"parameters":[{"id":"1093649312","name":"this","klass":"java.net.URL"},{"id":"sdaReg0","name":"arg#1","klass":"string"},{"id":"sdaReg1","name":"arg#2","klass":"string"},{"id":"sdaReg2","name":"arg#3","klass":"int"},{"id":"sdaReg3","name":"arg#4","klass":"string"},{"id":"0","name":"arg#5","klass":"java.net.URLStreamHandler"}],"returns":[{"id":"1093649312","name":"return","klass":"java.net.URL"}],"colors":{"heapLocToColor":{"sdaReg60":[25],"1084315112.<java.util.Hashtable: int modCount>":[15],"sdaReg61":[25],"1084315112.<java.util.Hashtable: int threshold>":[15],"sdaReg68":[15],"sdaReg69":[26],"sdaReg67":[15],"sdaReg65":[25],"sdaReg62":[25],"1093651808":[24],"sdaReg72":[5],"sdaReg13":[10, 11],"sdaReg71":[24],"sdaReg14":[12],"sdaReg11":[10],"sdaReg12":[10],"sdaReg10":[10],"sdaReg59":[25],"sdaReg58":[25],"sdaReg57":[25],"sdaReg56":[25],"sdaReg19":[14],"sdaReg55":[25],"sdaReg54":[25],"sdaReg17":[13],"sdaReg53":[24],"sdaReg15":[0],"sdaReg51":[15],"sdaReg50":[24],"1093651888":[26],"1084315112.<java.util.Hashtable: int size>":[15],"sdaReg73":[26],"sdaReg74":[26],"1084321912":[15],"0":[5],"sdaReg49":[24],"sdaReg48":[24],"sdaReg45":[23],"sdaReg44":[22],"sdaReg47":[24],"1093650320":[10],"sdaReg46":[24],"sdaReg41":[19],"sdaReg40":[18],"1084315112":[15],"sdaReg43":[21],"sdaReg42":[19, 20],"static.<java.net.URL: java.util.Hashtable streamHandlers>":[15],"1093294632":[19, 20],"sdaReg39":[5],"1084315112.<java.util.Hashtable: java.util.Hashtable$HashtableEntry[] table>":[15],"sdaReg38":[5],"sdaReg37":[16],"sdaReg32":[16],"sdaReg31":[16],"sdaReg30":[16],"1093649312":[0],"sdaReg34":[16],"sdaReg33":[16],"sdaReg8":[4, 8],"sdaReg9":[4, 9],"sdaReg6":[2, 6],"sdaReg7":[2, 7],"sdaReg4":[0],"1093468632":[19],"sdaReg27":[16],"sdaReg26":[16],"sdaReg29":[16],"sdaReg28":[16],"sdaReg3":[4],"sdaReg2":[3],"sdaReg1":[2],"sdaReg20":[14],"sdaReg0":[1],"sdaReg23":[0],"static.<java.net.URL: java.net.URLStreamHandlerFactory streamHandlerFactory>":[17],"sdaReg24":[15]},"colorToColor":{"0":[27],"1":[0],"2":[0],"3":[0],"4":[10],"25":[26],"24":[0, 26],"10":[0],"26":[15],"11":[0],"15":[15]},"colorToLabel":{"0":"this","1":"arg#1","2":"arg#2","3":"arg#3","4":"arg#4","5":"arg#5","15":"<java.net.URL: java.util.Hashtable streamHandlers>","17":"<java.net.URL: java.net.URLStreamHandlerFactory streamHandlerFactory>","27":"return"}}}

Generated Model
	this->return
	arg#4->this
	arg#4->return
	arg#3->this
	arg#3->return
	arg#2->this
	arg#2->return
	arg#1->this
	arg#1->return

