Scanning method <java.util.TreeMap: java.util.TreeMap$Node find(java.lang.Object,java.util.TreeMap$Relation)>

All seen event types: SimpleAssignmentRecord, LoadInstanceRecord, MethodStartRecord, IfRecord, NewObjectRecord, StoreInstanceRecord, LoadStaticRecord, BinaryOperationRecord, MethodCallRecord, MethodReturnRecord, SwitchRecord, CastRecord, LoadArrayRecord, MethodEndRecord, 
Ignored event types: SwitchRecord, IfRecord, 

JSON Encoded Analysis Data (for visualization):{"heapEdges":[{"step":0,"from":"1093233072","to":"1093447784","type":"load","field":"<java.util.TreeMap: java.util.TreeMap$Node root>"},{"step":1,"from":"1093233072","to":"1083970648","type":"load","field":"<java.util.TreeMap: java.util.Comparator comparator>"},{"step":2,"from":"static.<java.util.TreeMap: java.util.Comparator NATURAL_ORDER>","to":"1083970648","type":"load","field":"<java.util.TreeMap: java.util.Comparator NATURAL_ORDER>"},{"step":3,"from":"1093233072","to":"1093447784","type":"load","field":"<java.util.TreeMap: java.util.TreeMap$Node root>"},{"step":4,"from":"1093447784","to":"1093229088","type":"load","field":"<java.util.TreeMap$Node: java.lang.Object key>"},{"step":5,"from":"1093594080","to":"1093229088","type":"model"},{"step":6,"from":"1093594080","to":"sdaReg2","type":"model"},{"step":7,"from":"1093229088","to":"1093594080","type":"model"},{"step":8,"from":"1093229088","to":"sdaReg2","type":"model"},{"step":9,"from":"1093447784","to":"1094178200","type":"load","field":"<java.util.TreeMap$Node: java.util.TreeMap$Node right>"},{"step":10,"from":"1094178200","to":"1093750272","type":"load","field":"<java.util.TreeMap$Node: java.lang.Object key>"},{"step":11,"from":"1093594080","to":"1093750272","type":"model"},{"step":12,"from":"1093594080","to":"sdaReg5","type":"model"},{"step":13,"from":"1093750272","to":"1093594080","type":"model"},{"step":14,"from":"1093750272","to":"sdaReg5","type":"model"},{"step":15,"from":"1094178200","to":"1093533024","type":"load","field":"<java.util.TreeMap$Node: java.util.TreeMap$Node right>"},{"step":16,"from":"1093533024","to":"1093342360","type":"load","field":"<java.util.TreeMap$Node: java.lang.Object key>"},{"step":17,"from":"1093594080","to":"1093342360","type":"model"},{"step":18,"from":"1093594080","to":"sdaReg6","type":"model"},{"step":19,"from":"1093342360","to":"1093594080","type":"model"},{"step":20,"from":"1093342360","to":"sdaReg6","type":"model"},{"step":21,"from":"1093533024","to":"1094090032","type":"load","field":"<java.util.TreeMap$Node: java.util.TreeMap$Node right>"},{"step":22,"from":"1094090032","to":"1093474640","type":"load","field":"<java.util.TreeMap$Node: java.lang.Object key>"},{"step":23,"from":"1093594080","to":"1093474640","type":"model"},{"step":24,"from":"1093594080","to":"sdaReg7","type":"model"},{"step":25,"from":"1093474640","to":"1093594080","type":"model"},{"step":26,"from":"1093474640","to":"sdaReg7","type":"model"},{"step":27,"from":"1094090032","to":"1093684784","type":"load","field":"<java.util.TreeMap$Node: java.util.TreeMap$Node right>"},{"step":28,"from":"1093684784","to":"1093571344","type":"load","field":"<java.util.TreeMap$Node: java.lang.Object key>"},{"step":29,"from":"1093594080","to":"1093571344","type":"model"},{"step":30,"from":"1093594080","to":"sdaReg8","type":"model"},{"step":31,"from":"1093571344","to":"1093594080","type":"model"},{"step":32,"from":"1093571344","to":"sdaReg8","type":"model"},{"step":33,"from":"static.<java.util.TreeMap$2: int[] $SwitchMap$java$util$TreeMap$Relation>","to":"1085752200","type":"load","field":"<java.util.TreeMap$2: int[] $SwitchMap$java$util$TreeMap$Relation>"},{"step":34,"from":"1085707192","to":"sdaReg9","type":"model"},{"step":35,"from":"1085752200","to":"1085752200.arrayIdx_int:3","type":"load","field":"arrayIdx_int:3"},{"step":36,"from":"1093684784","to":"1093544664","type":"store","field":"<java.util.TreeMap$Node: java.util.TreeMap$Node parent>"},{"step":37,"from":"1093594080","to":"1093544664","type":"store","field":"<java.util.TreeMap$Node: java.lang.Object key>"},{"step":38,"from":"1093544664","to":"sdaReg14","type":"create","field":"<java.util.TreeMap$Node: int height>"},{"step":39,"from":"1093684784","to":"1093544664","type":"create","field":"<java.util.TreeMap$Node: java.util.TreeMap$Node right>"},{"step":40,"from":"1093233072","to":"1093233072.<java.util.TreeMap: int size>","type":"load","field":"<java.util.TreeMap: int size>"},{"step":41,"from":"sdaReg17","to":"1093233072","type":"store","field":"<java.util.TreeMap: int size>"},{"step":42,"from":"1093233072","to":"1093233072.<java.util.TreeMap: int modCount>","type":"load","field":"<java.util.TreeMap: int modCount>"},{"step":43,"from":"sdaReg18","to":"1093233072","type":"store","field":"<java.util.TreeMap: int modCount>"},{"step":44,"from":"static.<java.util.TreeMap: boolean $assertionsDisabled>","to":"static.<java.util.TreeMap: boolean $assertionsDisabled>","type":"load","field":"<java.util.TreeMap: boolean $assertionsDisabled>"},{"step":45,"from":"sdaReg24","to":"sdaReg25","type":"model"},{"step":46,"from":"sdaReg24","to":"sdaReg27","type":"model"},{"step":47,"from":"sdaReg25","to":"sdaReg24","type":"model"},{"step":48,"from":"sdaReg25","to":"sdaReg27","type":"model"},{"step":49,"from":"sdaReg28","to":"1093684784","type":"store","field":"<java.util.TreeMap$Node: int height>"},{"step":50,"from":"1093684784","to":"1094090032","type":"load","field":"<java.util.TreeMap$Node: java.util.TreeMap$Node parent>"},{"step":51,"from":"1094090032","to":"1094089992","type":"load","field":"<java.util.TreeMap$Node: java.util.TreeMap$Node left>"},{"step":52,"from":"1094090032","to":"1093684784","type":"load","field":"<java.util.TreeMap$Node: java.util.TreeMap$Node right>"},{"step":53,"from":"1094089992","to":"1094089992.<java.util.TreeMap$Node: int height>","type":"load","field":"<java.util.TreeMap$Node: int height>"},{"step":54,"from":"static.<java.util.TreeMap: boolean $assertionsDisabled>","to":"static.<java.util.TreeMap: boolean $assertionsDisabled>","type":"load","field":"<java.util.TreeMap: boolean $assertionsDisabled>"},{"step":55,"from":"sdaReg24","to":"sdaReg25","type":"model"},{"step":56,"from":"sdaReg24","to":"sdaReg29","type":"model"},{"step":57,"from":"sdaReg25","to":"sdaReg24","type":"model"},{"step":58,"from":"sdaReg25","to":"sdaReg29","type":"model"},{"step":59,"from":"sdaReg28","to":"1094090032","type":"store","field":"<java.util.TreeMap$Node: int height>"},{"step":60,"from":"1094090032","to":"1093533024","type":"load","field":"<java.util.TreeMap$Node: java.util.TreeMap$Node parent>"},{"step":61,"from":"1093533024","to":"1093532944","type":"load","field":"<java.util.TreeMap$Node: java.util.TreeMap$Node left>"},{"step":62,"from":"1093533024","to":"1094090032","type":"load","field":"<java.util.TreeMap$Node: java.util.TreeMap$Node right>"},{"step":63,"from":"1093532944","to":"1093532944.<java.util.TreeMap$Node: int height>","type":"load","field":"<java.util.TreeMap$Node: int height>"},{"step":64,"from":"static.<java.util.TreeMap: boolean $assertionsDisabled>","to":"static.<java.util.TreeMap: boolean $assertionsDisabled>","type":"load","field":"<java.util.TreeMap: boolean $assertionsDisabled>"},{"step":65,"from":"sdaReg24","to":"sdaReg25","type":"model"},{"step":66,"from":"sdaReg24","to":"sdaReg30","type":"model"},{"step":67,"from":"sdaReg25","to":"sdaReg24","type":"model"},{"step":68,"from":"sdaReg25","to":"sdaReg30","type":"model"},{"step":69,"from":"sdaReg28","to":"1093533024","type":"store","field":"<java.util.TreeMap$Node: int height>"},{"step":70,"from":"1093533024","to":"1094178200","type":"load","field":"<java.util.TreeMap$Node: java.util.TreeMap$Node parent>"},{"step":71,"from":"1094178200","to":"1095218224","type":"load","field":"<java.util.TreeMap$Node: java.util.TreeMap$Node left>"},{"step":72,"from":"1094178200","to":"1093533024","type":"load","field":"<java.util.TreeMap$Node: java.util.TreeMap$Node right>"},{"step":73,"from":"1095218224","to":"1095218224.<java.util.TreeMap$Node: int height>","type":"load","field":"<java.util.TreeMap$Node: int height>"},{"step":74,"from":"1093533024","to":"1093532944","type":"load","field":"<java.util.TreeMap$Node: java.util.TreeMap$Node left>"},{"step":75,"from":"1093533024","to":"1094090032","type":"load","field":"<java.util.TreeMap$Node: java.util.TreeMap$Node right>"},{"step":76,"from":"1093532944","to":"1093532944.<java.util.TreeMap$Node: int height>","type":"load","field":"<java.util.TreeMap$Node: int height>"},{"step":77,"from":"1094178200","to":"1095218224","type":"load","field":"<java.util.TreeMap$Node: java.util.TreeMap$Node left>"},{"step":78,"from":"1094178200","to":"1093533024","type":"load","field":"<java.util.TreeMap$Node: java.util.TreeMap$Node right>"},{"step":79,"from":"1093533024","to":"1093532944","type":"load","field":"<java.util.TreeMap$Node: java.util.TreeMap$Node left>"},{"step":80,"from":"1093533024","to":"1094090032","type":"load","field":"<java.util.TreeMap$Node: java.util.TreeMap$Node right>"},{"step":81,"from":"1093532944","to":"1094178200","type":"store","field":"<java.util.TreeMap$Node: java.util.TreeMap$Node right>"},{"step":82,"from":"1094178200","to":"1093532944","type":"store","field":"<java.util.TreeMap$Node: java.util.TreeMap$Node parent>"},{"step":83,"from":"1094178200","to":"1093447784","type":"load","field":"<java.util.TreeMap$Node: java.util.TreeMap$Node parent>"},{"step":84,"from":"1094178200","to":"sdaReg39","type":"create","field":"<java.util.TreeMap$Node: java.util.TreeMap$Node parent>"},{"step":85,"from":"1093447784","to":"1093533024","type":"store","field":"<java.util.TreeMap$Node: java.util.TreeMap$Node parent>"},{"step":86,"from":"1093447784","to":"1094753864","type":"load","field":"<java.util.TreeMap$Node: java.util.TreeMap$Node left>"},{"step":87,"from":"static.<java.util.TreeMap: boolean $assertionsDisabled>","to":"static.<java.util.TreeMap: boolean $assertionsDisabled>","type":"load","field":"<java.util.TreeMap: boolean $assertionsDisabled>"},{"step":88,"from":"1093533024","to":"1093447784","type":"store","field":"<java.util.TreeMap$Node: java.util.TreeMap$Node right>"},{"step":89,"from":"1094178200","to":"1093533024","type":"store","field":"<java.util.TreeMap$Node: java.util.TreeMap$Node left>"},{"step":90,"from":"1093533024","to":"1094178200","type":"store","field":"<java.util.TreeMap$Node: java.util.TreeMap$Node parent>"},{"step":91,"from":"1095218224","to":"1095218224.<java.util.TreeMap$Node: int height>","type":"load","field":"<java.util.TreeMap$Node: int height>"},{"step":92,"from":"1093532944","to":"1093532944.<java.util.TreeMap$Node: int height>","type":"load","field":"<java.util.TreeMap$Node: int height>"},{"step":93,"from":"1095218224.<java.util.TreeMap$Node: int height>","to":"1093532944.<java.util.TreeMap$Node: int height>","type":"model"},{"step":94,"from":"1095218224.<java.util.TreeMap$Node: int height>","to":"sdaReg40","type":"model"},{"step":95,"from":"1093532944.<java.util.TreeMap$Node: int height>","to":"1095218224.<java.util.TreeMap$Node: int height>","type":"model"},{"step":96,"from":"1093532944.<java.util.TreeMap$Node: int height>","to":"sdaReg40","type":"model"},{"step":97,"from":"sdaReg41","to":"1094178200","type":"store","field":"<java.util.TreeMap$Node: int height>"},{"step":98,"from":"sdaReg43","to":"1093533024","type":"store","field":"<java.util.TreeMap$Node: int height>"}],"parameters":[{"id":"1093233072","name":"this","klass":"java.util.TreeMap"},{"id":"1093594080","name":"arg#1","klass":"java.lang.Object"},{"id":"1085707192","name":"arg#2","klass":"java.util.TreeMap$Relation"}],"returns":[{"id":"1093544664","name":"return","klass":"java.util.TreeMap$Node"}],"colors":{"heapLocToColor":{"1093571344":[0, 1],"sdaReg13":[11],"1093233072.<java.util.TreeMap: int size>":[0],"sdaReg11":[0],"sdaReg12":[1],"1093532944":[0],"sdaReg10":[11],"1085707192":[2],"sdaReg19":[0],"sdaReg17":[0],"1094178200.<java.util.TreeMap$Node: java.util.TreeMap$Node parent>":[0],"sdaReg18":[0],"sdaReg15":[11],"1094089992":[0],"sdaReg16":[11],"1094090032":[0],"1094090032.<java.util.TreeMap$Node: java.util.TreeMap$Node right>":[0],"1094178200":[0],"1085752200":[9],"1093544664":[11],"1093233072":[0],"static.<java.util.TreeMap$2: int[] $SwitchMap$java$util$TreeMap$Relation>":[9],"1095218224.<java.util.TreeMap$Node: int height>":[0],"1093532944.<java.util.TreeMap$Node: int height>":[0],"1095218224":[0],"static.<java.util.TreeMap: boolean $assertionsDisabled>":[12],"1094753864":[0],"sdaReg41":[16],"sdaReg40":[16],"sdaReg43":[17],"sdaReg42":[17],"1083970648":[0, 3],"1093342360":[0, 1],"1093233072.<java.util.TreeMap: java.util.TreeMap$Node root>":[0],"1094178200.<java.util.TreeMap$Node: java.util.TreeMap$Node left>":[0],"1094090032.<java.util.TreeMap$Node: java.util.TreeMap$Node parent>":[0],"static.<java.util.TreeMap: java.util.Comparator NATURAL_ORDER>":[0, 3],"1093684784.<java.util.TreeMap$Node: java.util.TreeMap$Node parent>":[0],"1093447784":[0],"1085752200.arrayIdx_int:3":[9],"sdaReg38":[0],"sdaReg37":[0],"sdaReg32":[0],"1093750272":[0, 1],"1093474640":[0, 1],"1094089992.<java.util.TreeMap$Node: int height>":[0],"sdaReg30":[15],"sdaReg36":[0],"sdaReg35":[0],"sdaReg34":[0],"sdaReg33":[0],"sdaReg8":[1, 8],"sdaReg9":[2, 10],"sdaReg6":[1, 6],"sdaReg7":[1, 7],"sdaReg5":[1, 5],"1094178200.<java.util.TreeMap$Node: java.util.TreeMap$Node right>":[0],"1093233072.<java.util.TreeMap: int modCount>":[0],"sdaReg27":[13],"1093229088":[0, 1],"sdaReg26":[0],"1093533024.<java.util.TreeMap$Node: java.util.TreeMap$Node left>":[0],"sdaReg29":[14],"1093594080":[1],"1093533024.<java.util.TreeMap$Node: java.util.TreeMap$Node right>":[0],"sdaReg28":[13, 14, 15],"1093533024.<java.util.TreeMap$Node: java.util.TreeMap$Node parent>":[0],"sdaReg3":[1, 4, 5, 6, 7, 8],"sdaReg2":[1, 4],"1093684784":[0],"1093533024":[0],"sdaReg20":[0],"sdaReg22":[0],"sdaReg24":[0]},"colorToColor":{"17":[0],"0":[0, 16, 1, 4, 5, 6, 7, 8, 11, 14, 15],"16":[0],"1":[1, 4, 5, 6, 7, 8, 11],"11":[0, 18],"13":[0],"14":[0],"15":[0]},"colorToLabel":{"0":"this","1":"arg#1","2":"arg#2","3":"<java.util.TreeMap: java.util.Comparator NATURAL_ORDER>","9":"<java.util.TreeMap$2: int[] $SwitchMap$java$util$TreeMap$Relation>","12":"<java.util.TreeMap: boolean $assertionsDisabled>","18":"return"}}}

Generated Model
	this->return
	this->arg#1
	arg#1->this
	arg#1->return

