Scanning method <java.util.TreeMap: java.util.TreeMap$Node find(java.lang.Object,java.util.TreeMap$Relation)>

All seen event types: SimpleAssignmentRecord, LoadInstanceRecord, MethodStartRecord, IfRecord, NewObjectRecord, StoreInstanceRecord, LoadStaticRecord, BinaryOperationRecord, MethodCallRecord, MethodReturnRecord, SwitchRecord, CastRecord, LoadArrayRecord, MethodEndRecord, 
Ignored event types: SwitchRecord, IfRecord, 

JSON Encoded Analysis Data (for visualization):{"heapEdges":[{"step":0,"from":"1093233072","to":"1096265440","type":"load","field":"<java.util.TreeMap: java.util.TreeMap$Node root>"},{"step":1,"from":"1093233072","to":"1083970648","type":"load","field":"<java.util.TreeMap: java.util.Comparator comparator>"},{"step":2,"from":"static.<java.util.TreeMap: java.util.Comparator NATURAL_ORDER>","to":"1083970648","type":"load","field":"<java.util.TreeMap: java.util.Comparator NATURAL_ORDER>"},{"step":3,"from":"1093233072","to":"1096265440","type":"load","field":"<java.util.TreeMap: java.util.TreeMap$Node root>"},{"step":4,"from":"1096265440","to":"1093351976","type":"load","field":"<java.util.TreeMap$Node: java.lang.Object key>"},{"step":5,"from":"1093524480","to":"1093351976","type":"model"},{"step":6,"from":"1093524480","to":"sdaReg2","type":"model"},{"step":7,"from":"1093351976","to":"1093524480","type":"model"},{"step":8,"from":"1093351976","to":"sdaReg2","type":"model"},{"step":9,"from":"1096265440","to":"1094845544","type":"load","field":"<java.util.TreeMap$Node: java.util.TreeMap$Node right>"},{"step":10,"from":"1094845544","to":"1093349608","type":"load","field":"<java.util.TreeMap$Node: java.lang.Object key>"},{"step":11,"from":"1093524480","to":"1093349608","type":"model"},{"step":12,"from":"1093524480","to":"sdaReg5","type":"model"},{"step":13,"from":"1093349608","to":"1093524480","type":"model"},{"step":14,"from":"1093349608","to":"sdaReg5","type":"model"},{"step":15,"from":"1094845544","to":"1094259416","type":"load","field":"<java.util.TreeMap$Node: java.util.TreeMap$Node right>"},{"step":16,"from":"1094259416","to":"1093427368","type":"load","field":"<java.util.TreeMap$Node: java.lang.Object key>"},{"step":17,"from":"1093524480","to":"1093427368","type":"model"},{"step":18,"from":"1093524480","to":"sdaReg6","type":"model"},{"step":19,"from":"1093427368","to":"1093524480","type":"model"},{"step":20,"from":"1093427368","to":"sdaReg6","type":"model"},{"step":21,"from":"1094259416","to":"1094410912","type":"load","field":"<java.util.TreeMap$Node: java.util.TreeMap$Node right>"},{"step":22,"from":"1094410912","to":"1093370496","type":"load","field":"<java.util.TreeMap$Node: java.lang.Object key>"},{"step":23,"from":"1093524480","to":"1093370496","type":"model"},{"step":24,"from":"1093524480","to":"sdaReg7","type":"model"},{"step":25,"from":"1093370496","to":"1093524480","type":"model"},{"step":26,"from":"1093370496","to":"sdaReg7","type":"model"},{"step":27,"from":"1094410912","to":"1093232440","type":"load","field":"<java.util.TreeMap$Node: java.util.TreeMap$Node right>"},{"step":28,"from":"1093232440","to":"1093400864","type":"load","field":"<java.util.TreeMap$Node: java.lang.Object key>"},{"step":29,"from":"1093524480","to":"1093400864","type":"model"},{"step":30,"from":"1093524480","to":"sdaReg8","type":"model"},{"step":31,"from":"1093400864","to":"1093524480","type":"model"},{"step":32,"from":"1093400864","to":"sdaReg8","type":"model"},{"step":33,"from":"1093232440","to":"1095979048","type":"load","field":"<java.util.TreeMap$Node: java.util.TreeMap$Node right>"},{"step":34,"from":"1095979048","to":"1093492424","type":"load","field":"<java.util.TreeMap$Node: java.lang.Object key>"},{"step":35,"from":"1093524480","to":"1093492424","type":"model"},{"step":36,"from":"1093524480","to":"sdaReg9","type":"model"},{"step":37,"from":"1093492424","to":"1093524480","type":"model"},{"step":38,"from":"1093492424","to":"sdaReg9","type":"model"},{"step":39,"from":"1095979048","to":"1096093784","type":"load","field":"<java.util.TreeMap$Node: java.util.TreeMap$Node right>"},{"step":40,"from":"1096093784","to":"1093499016","type":"load","field":"<java.util.TreeMap$Node: java.lang.Object key>"},{"step":41,"from":"1093524480","to":"1093499016","type":"model"},{"step":42,"from":"1093524480","to":"sdaReg10","type":"model"},{"step":43,"from":"1093499016","to":"1093524480","type":"model"},{"step":44,"from":"1093499016","to":"sdaReg10","type":"model"},{"step":45,"from":"static.<java.util.TreeMap$2: int[] $SwitchMap$java$util$TreeMap$Relation>","to":"1085752200","type":"load","field":"<java.util.TreeMap$2: int[] $SwitchMap$java$util$TreeMap$Relation>"},{"step":46,"from":"1085707192","to":"sdaReg11","type":"model"},{"step":47,"from":"1085752200","to":"1085752200.arrayIdx_int:3","type":"load","field":"arrayIdx_int:3"},{"step":48,"from":"1096093784","to":"1096093824","type":"store","field":"<java.util.TreeMap$Node: java.util.TreeMap$Node parent>"},{"step":49,"from":"1093524480","to":"1096093824","type":"store","field":"<java.util.TreeMap$Node: java.lang.Object key>"},{"step":50,"from":"1096093824","to":"sdaReg16","type":"create","field":"<java.util.TreeMap$Node: int height>"},{"step":51,"from":"1096093784","to":"1096093824","type":"create","field":"<java.util.TreeMap$Node: java.util.TreeMap$Node right>"},{"step":52,"from":"1093233072","to":"1093233072.<java.util.TreeMap: int size>","type":"load","field":"<java.util.TreeMap: int size>"},{"step":53,"from":"sdaReg19","to":"1093233072","type":"store","field":"<java.util.TreeMap: int size>"},{"step":54,"from":"1093233072","to":"1093233072.<java.util.TreeMap: int modCount>","type":"load","field":"<java.util.TreeMap: int modCount>"},{"step":55,"from":"sdaReg20","to":"1093233072","type":"store","field":"<java.util.TreeMap: int modCount>"},{"step":56,"from":"static.<java.util.TreeMap: boolean $assertionsDisabled>","to":"static.<java.util.TreeMap: boolean $assertionsDisabled>","type":"load","field":"<java.util.TreeMap: boolean $assertionsDisabled>"},{"step":57,"from":"sdaReg26","to":"sdaReg27","type":"model"},{"step":58,"from":"sdaReg26","to":"sdaReg29","type":"model"},{"step":59,"from":"sdaReg27","to":"sdaReg26","type":"model"},{"step":60,"from":"sdaReg27","to":"sdaReg29","type":"model"},{"step":61,"from":"sdaReg30","to":"1096093784","type":"store","field":"<java.util.TreeMap$Node: int height>"},{"step":62,"from":"1096093784","to":"1095979048","type":"load","field":"<java.util.TreeMap$Node: java.util.TreeMap$Node parent>"},{"step":63,"from":"1095979048","to":"1093788712","type":"load","field":"<java.util.TreeMap$Node: java.util.TreeMap$Node left>"},{"step":64,"from":"1095979048","to":"1096093784","type":"load","field":"<java.util.TreeMap$Node: java.util.TreeMap$Node right>"},{"step":65,"from":"1093788712","to":"1093788712.<java.util.TreeMap$Node: int height>","type":"load","field":"<java.util.TreeMap$Node: int height>"},{"step":66,"from":"static.<java.util.TreeMap: boolean $assertionsDisabled>","to":"static.<java.util.TreeMap: boolean $assertionsDisabled>","type":"load","field":"<java.util.TreeMap: boolean $assertionsDisabled>"},{"step":67,"from":"sdaReg26","to":"sdaReg27","type":"model"},{"step":68,"from":"sdaReg26","to":"sdaReg31","type":"model"},{"step":69,"from":"sdaReg27","to":"sdaReg26","type":"model"},{"step":70,"from":"sdaReg27","to":"sdaReg31","type":"model"},{"step":71,"from":"sdaReg30","to":"1095979048","type":"store","field":"<java.util.TreeMap$Node: int height>"},{"step":72,"from":"1095979048","to":"1093232440","type":"load","field":"<java.util.TreeMap$Node: java.util.TreeMap$Node parent>"},{"step":73,"from":"1093232440","to":"1093232360","type":"load","field":"<java.util.TreeMap$Node: java.util.TreeMap$Node left>"},{"step":74,"from":"1093232440","to":"1095979048","type":"load","field":"<java.util.TreeMap$Node: java.util.TreeMap$Node right>"},{"step":75,"from":"1093232360","to":"1093232360.<java.util.TreeMap$Node: int height>","type":"load","field":"<java.util.TreeMap$Node: int height>"},{"step":76,"from":"static.<java.util.TreeMap: boolean $assertionsDisabled>","to":"static.<java.util.TreeMap: boolean $assertionsDisabled>","type":"load","field":"<java.util.TreeMap: boolean $assertionsDisabled>"},{"step":77,"from":"sdaReg26","to":"sdaReg27","type":"model"},{"step":78,"from":"sdaReg26","to":"sdaReg32","type":"model"},{"step":79,"from":"sdaReg27","to":"sdaReg26","type":"model"},{"step":80,"from":"sdaReg27","to":"sdaReg32","type":"model"},{"step":81,"from":"sdaReg30","to":"1093232440","type":"store","field":"<java.util.TreeMap$Node: int height>"},{"step":82,"from":"1093232440","to":"1094410912","type":"load","field":"<java.util.TreeMap$Node: java.util.TreeMap$Node parent>"},{"step":83,"from":"1094410912","to":"1094410752","type":"load","field":"<java.util.TreeMap$Node: java.util.TreeMap$Node left>"},{"step":84,"from":"1094410912","to":"1093232440","type":"load","field":"<java.util.TreeMap$Node: java.util.TreeMap$Node right>"},{"step":85,"from":"1094410752","to":"1094410752.<java.util.TreeMap$Node: int height>","type":"load","field":"<java.util.TreeMap$Node: int height>"},{"step":86,"from":"static.<java.util.TreeMap: boolean $assertionsDisabled>","to":"static.<java.util.TreeMap: boolean $assertionsDisabled>","type":"load","field":"<java.util.TreeMap: boolean $assertionsDisabled>"},{"step":87,"from":"sdaReg26","to":"sdaReg27","type":"model"},{"step":88,"from":"sdaReg26","to":"sdaReg33","type":"model"},{"step":89,"from":"sdaReg27","to":"sdaReg26","type":"model"},{"step":90,"from":"sdaReg27","to":"sdaReg33","type":"model"},{"step":91,"from":"sdaReg30","to":"1094410912","type":"store","field":"<java.util.TreeMap$Node: int height>"},{"step":92,"from":"1094410912","to":"1094259416","type":"load","field":"<java.util.TreeMap$Node: java.util.TreeMap$Node parent>"},{"step":93,"from":"1094259416","to":"1096549800","type":"load","field":"<java.util.TreeMap$Node: java.util.TreeMap$Node left>"},{"step":94,"from":"1094259416","to":"1094410912","type":"load","field":"<java.util.TreeMap$Node: java.util.TreeMap$Node right>"},{"step":95,"from":"1096549800","to":"1096549800.<java.util.TreeMap$Node: int height>","type":"load","field":"<java.util.TreeMap$Node: int height>"},{"step":96,"from":"static.<java.util.TreeMap: boolean $assertionsDisabled>","to":"static.<java.util.TreeMap: boolean $assertionsDisabled>","type":"load","field":"<java.util.TreeMap: boolean $assertionsDisabled>"},{"step":97,"from":"sdaReg26","to":"sdaReg27","type":"model"},{"step":98,"from":"sdaReg26","to":"sdaReg34","type":"model"},{"step":99,"from":"sdaReg27","to":"sdaReg26","type":"model"},{"step":100,"from":"sdaReg27","to":"sdaReg34","type":"model"},{"step":101,"from":"sdaReg30","to":"1094259416","type":"store","field":"<java.util.TreeMap$Node: int height>"},{"step":102,"from":"1094259416","to":"1094845544","type":"load","field":"<java.util.TreeMap$Node: java.util.TreeMap$Node parent>"},{"step":103,"from":"1094845544","to":"1093944824","type":"load","field":"<java.util.TreeMap$Node: java.util.TreeMap$Node left>"},{"step":104,"from":"1094845544","to":"1094259416","type":"load","field":"<java.util.TreeMap$Node: java.util.TreeMap$Node right>"},{"step":105,"from":"1093944824","to":"1093944824.<java.util.TreeMap$Node: int height>","type":"load","field":"<java.util.TreeMap$Node: int height>"},{"step":106,"from":"1094259416","to":"1096549800","type":"load","field":"<java.util.TreeMap$Node: java.util.TreeMap$Node left>"},{"step":107,"from":"1094259416","to":"1094410912","type":"load","field":"<java.util.TreeMap$Node: java.util.TreeMap$Node right>"},{"step":108,"from":"1096549800","to":"1096549800.<java.util.TreeMap$Node: int height>","type":"load","field":"<java.util.TreeMap$Node: int height>"},{"step":109,"from":"1094845544","to":"1093944824","type":"load","field":"<java.util.TreeMap$Node: java.util.TreeMap$Node left>"},{"step":110,"from":"1094845544","to":"1094259416","type":"load","field":"<java.util.TreeMap$Node: java.util.TreeMap$Node right>"},{"step":111,"from":"1094259416","to":"1096549800","type":"load","field":"<java.util.TreeMap$Node: java.util.TreeMap$Node left>"},{"step":112,"from":"1094259416","to":"1094410912","type":"load","field":"<java.util.TreeMap$Node: java.util.TreeMap$Node right>"},{"step":113,"from":"1096549800","to":"1094845544","type":"store","field":"<java.util.TreeMap$Node: java.util.TreeMap$Node right>"},{"step":114,"from":"1094845544","to":"1096549800","type":"store","field":"<java.util.TreeMap$Node: java.util.TreeMap$Node parent>"},{"step":115,"from":"1094845544","to":"1096265440","type":"load","field":"<java.util.TreeMap$Node: java.util.TreeMap$Node parent>"},{"step":116,"from":"1094845544","to":"sdaReg43","type":"create","field":"<java.util.TreeMap$Node: java.util.TreeMap$Node parent>"},{"step":117,"from":"1096265440","to":"1094259416","type":"store","field":"<java.util.TreeMap$Node: java.util.TreeMap$Node parent>"},{"step":118,"from":"1096265440","to":"1093533024","type":"load","field":"<java.util.TreeMap$Node: java.util.TreeMap$Node left>"},{"step":119,"from":"static.<java.util.TreeMap: boolean $assertionsDisabled>","to":"static.<java.util.TreeMap: boolean $assertionsDisabled>","type":"load","field":"<java.util.TreeMap: boolean $assertionsDisabled>"},{"step":120,"from":"1094259416","to":"1096265440","type":"store","field":"<java.util.TreeMap$Node: java.util.TreeMap$Node right>"},{"step":121,"from":"1094845544","to":"1094259416","type":"store","field":"<java.util.TreeMap$Node: java.util.TreeMap$Node left>"},{"step":122,"from":"1094259416","to":"1094845544","type":"store","field":"<java.util.TreeMap$Node: java.util.TreeMap$Node parent>"},{"step":123,"from":"1093944824","to":"1093944824.<java.util.TreeMap$Node: int height>","type":"load","field":"<java.util.TreeMap$Node: int height>"},{"step":124,"from":"1096549800","to":"1096549800.<java.util.TreeMap$Node: int height>","type":"load","field":"<java.util.TreeMap$Node: int height>"},{"step":125,"from":"1093944824.<java.util.TreeMap$Node: int height>","to":"1096549800.<java.util.TreeMap$Node: int height>","type":"model"},{"step":126,"from":"1093944824.<java.util.TreeMap$Node: int height>","to":"sdaReg44","type":"model"},{"step":127,"from":"1096549800.<java.util.TreeMap$Node: int height>","to":"1093944824.<java.util.TreeMap$Node: int height>","type":"model"},{"step":128,"from":"1096549800.<java.util.TreeMap$Node: int height>","to":"sdaReg44","type":"model"},{"step":129,"from":"sdaReg45","to":"1094845544","type":"store","field":"<java.util.TreeMap$Node: int height>"},{"step":130,"from":"sdaReg47","to":"1094259416","type":"store","field":"<java.util.TreeMap$Node: int height>"}],"parameters":[{"id":"1093233072","name":"this","klass":"java.util.TreeMap"},{"id":"1093524480","name":"arg#1","klass":"java.lang.Object"},{"id":"1085707192","name":"arg#2","klass":"java.util.TreeMap$Relation"}],"returns":[{"id":"1096093824","name":"return","klass":"java.util.TreeMap$Node"}],"colors":{"heapLocToColor":{"1093499016":[0, 1],"1094410912":[0],"1093349608":[0, 1],"1093232360.<java.util.TreeMap$Node: int height>":[0],"1095979048.<java.util.TreeMap$Node: java.util.TreeMap$Node right>":[0],"1094845544":[0],"sdaReg13":[0],"1093233072.<java.util.TreeMap: int size>":[0],"sdaReg14":[1],"sdaReg11":[2, 12],"sdaReg12":[13],"sdaReg10":[1, 10],"1093232360":[0],"1093400864":[0, 1],"1085707192":[2],"1094259416":[0],"sdaReg19":[0],"sdaReg17":[13],"1096549800.<java.util.TreeMap$Node: int height>":[0],"sdaReg18":[13],"sdaReg15":[13],"1093232440.<java.util.TreeMap$Node: java.util.TreeMap$Node parent>":[0],"1085752200":[11],"1093788712.<java.util.TreeMap$Node: int height>":[0],"1093233072":[0],"1093944824.<java.util.TreeMap$Node: int height>":[0],"static.<java.util.TreeMap$2: int[] $SwitchMap$java$util$TreeMap$Relation>":[11],"1095979048.<java.util.TreeMap$Node: java.util.TreeMap$Node parent>":[0],"1096093784":[0],"1093427368":[0, 1],"1096093784.<java.util.TreeMap$Node: java.util.TreeMap$Node parent>":[0],"static.<java.util.TreeMap: boolean $assertionsDisabled>":[14],"sdaReg45":[20],"sdaReg44":[20],"sdaReg47":[21],"sdaReg46":[21],"sdaReg41":[0],"sdaReg40":[0],"sdaReg42":[0],"1083970648":[0, 3],"1093351976":[0, 1],"1096093824":[13],"1093233072.<java.util.TreeMap: java.util.TreeMap$Node root>":[0],"1096549800":[0],"static.<java.util.TreeMap: java.util.Comparator NATURAL_ORDER>":[0, 3],"1093232440":[0],"1085752200.arrayIdx_int:3":[11],"sdaReg39":[0],"sdaReg38":[0],"1093232440.<java.util.TreeMap$Node: java.util.TreeMap$Node right>":[0],"sdaReg37":[0],"1094410752":[0],"1093524480":[1],"1094845544.<java.util.TreeMap$Node: java.util.TreeMap$Node right>":[0],"sdaReg32":[17],"1094845544.<java.util.TreeMap$Node: java.util.TreeMap$Node parent>":[0],"1094259416.<java.util.TreeMap$Node: java.util.TreeMap$Node right>":[0],"sdaReg31":[16],"sdaReg30":[17, 16, 19, 18, 15],"1095979048":[0],"sdaReg36":[0],"sdaReg34":[19],"1093788712":[0],"sdaReg33":[18],"1094410752.<java.util.TreeMap$Node: int height>":[0],"1093492424":[0, 1],"sdaReg8":[1, 8],"1096265440":[0],"1094259416.<java.util.TreeMap$Node: java.util.TreeMap$Node parent>":[0],"sdaReg9":[1, 9],"sdaReg6":[1, 6],"sdaReg7":[1, 7],"1094845544.<java.util.TreeMap$Node: java.util.TreeMap$Node left>":[0],"1094410912.<java.util.TreeMap$Node: java.util.TreeMap$Node parent>":[0],"sdaReg5":[1, 5],"1094410912.<java.util.TreeMap$Node: java.util.TreeMap$Node right>":[0],"1093233072.<java.util.TreeMap: int modCount>":[0],"sdaReg26":[0],"sdaReg29":[15],"sdaReg28":[0],"1094259416.<java.util.TreeMap$Node: java.util.TreeMap$Node left>":[0],"1093370496":[0, 1],"1093944824":[0],"sdaReg3":[1, 4, 5, 6, 7, 8, 9, 10],"sdaReg2":[1, 4],"sdaReg21":[0],"1093533024":[0],"sdaReg20":[0],"sdaReg22":[0],"sdaReg24":[0]},"colorToColor":{"17":[0],"0":[0, 1, 4, 5, 6, 7, 8, 9, 10, 13, 17, 16, 19, 18, 20],"16":[0],"1":[1, 4, 5, 6, 7, 8, 9, 10, 13],"19":[0],"18":[0],"21":[0],"20":[0],"13":[0, 22],"15":[0]},"colorToLabel":{"0":"this","1":"arg#1","2":"arg#2","3":"<java.util.TreeMap: java.util.Comparator NATURAL_ORDER>","11":"<java.util.TreeMap$2: int[] $SwitchMap$java$util$TreeMap$Relation>","14":"<java.util.TreeMap: boolean $assertionsDisabled>","22":"return"}}}

Generated Model
	this->return
	this->arg#1
	arg#1->this
	arg#1->return

