Scanning method <java.util.TreeMap: java.util.TreeMap$Node find(java.lang.Object,java.util.TreeMap$Relation)>

All seen event types: SimpleAssignmentRecord, LoadInstanceRecord, MethodStartRecord, IfRecord, NewObjectRecord, StoreInstanceRecord, LoadStaticRecord, BinaryOperationRecord, MethodCallRecord, MethodReturnRecord, SwitchRecord, CastRecord, LoadArrayRecord, MethodEndRecord, 
Ignored event types: SwitchRecord, IfRecord, 

JSON Encoded Analysis Data (for visualization):{"heapEdges":[{"step":0,"from":"1093233072","to":"1096265440","type":"load","field":"<java.util.TreeMap: java.util.TreeMap$Node root>"},{"step":1,"from":"1093233072","to":"1083970648","type":"load","field":"<java.util.TreeMap: java.util.Comparator comparator>"},{"step":2,"from":"static.<java.util.TreeMap: java.util.Comparator NATURAL_ORDER>","to":"1083970648","type":"load","field":"<java.util.TreeMap: java.util.Comparator NATURAL_ORDER>"},{"step":3,"from":"1093233072","to":"1096265440","type":"load","field":"<java.util.TreeMap: java.util.TreeMap$Node root>"},{"step":4,"from":"1096265440","to":"1093351976","type":"load","field":"<java.util.TreeMap$Node: java.lang.Object key>"},{"step":5,"from":"1093325376","to":"1093351976","type":"model"},{"step":6,"from":"1093325376","to":"sdaReg2","type":"model"},{"step":7,"from":"1093351976","to":"1093325376","type":"model"},{"step":8,"from":"1093351976","to":"sdaReg2","type":"model"},{"step":9,"from":"1096265440","to":"1094259416","type":"load","field":"<java.util.TreeMap$Node: java.util.TreeMap$Node right>"},{"step":10,"from":"1094259416","to":"1093427368","type":"load","field":"<java.util.TreeMap$Node: java.lang.Object key>"},{"step":11,"from":"1093325376","to":"1093427368","type":"model"},{"step":12,"from":"1093325376","to":"sdaReg5","type":"model"},{"step":13,"from":"1093427368","to":"1093325376","type":"model"},{"step":14,"from":"1093427368","to":"sdaReg5","type":"model"},{"step":15,"from":"1094259416","to":"1096093824","type":"load","field":"<java.util.TreeMap$Node: java.util.TreeMap$Node right>"},{"step":16,"from":"1096093824","to":"1093524480","type":"load","field":"<java.util.TreeMap$Node: java.lang.Object key>"},{"step":17,"from":"1093325376","to":"1093524480","type":"model"},{"step":18,"from":"1093325376","to":"sdaReg6","type":"model"},{"step":19,"from":"1093524480","to":"1093325376","type":"model"},{"step":20,"from":"1093524480","to":"sdaReg6","type":"model"},{"step":21,"from":"1096093824","to":"1097169872","type":"load","field":"<java.util.TreeMap$Node: java.util.TreeMap$Node right>"},{"step":22,"from":"1097169872","to":"1093573104","type":"load","field":"<java.util.TreeMap$Node: java.lang.Object key>"},{"step":23,"from":"1093325376","to":"1093573104","type":"model"},{"step":24,"from":"1093325376","to":"sdaReg7","type":"model"},{"step":25,"from":"1093573104","to":"1093325376","type":"model"},{"step":26,"from":"1093573104","to":"sdaReg7","type":"model"},{"step":27,"from":"1097169872","to":"1093229472","type":"load","field":"<java.util.TreeMap$Node: java.util.TreeMap$Node right>"},{"step":28,"from":"1093229472","to":"1093284704","type":"load","field":"<java.util.TreeMap$Node: java.lang.Object key>"},{"step":29,"from":"1093325376","to":"1093284704","type":"model"},{"step":30,"from":"1093325376","to":"sdaReg8","type":"model"},{"step":31,"from":"1093284704","to":"1093325376","type":"model"},{"step":32,"from":"1093284704","to":"sdaReg8","type":"model"},{"step":33,"from":"1093229472","to":"1095117736","type":"load","field":"<java.util.TreeMap$Node: java.util.TreeMap$Node right>"},{"step":34,"from":"1095117736","to":"1093290848","type":"load","field":"<java.util.TreeMap$Node: java.lang.Object key>"},{"step":35,"from":"1093325376","to":"1093290848","type":"model"},{"step":36,"from":"1093325376","to":"sdaReg9","type":"model"},{"step":37,"from":"1093290848","to":"1093325376","type":"model"},{"step":38,"from":"1093290848","to":"sdaReg9","type":"model"},{"step":39,"from":"1095117736","to":"1097993720","type":"load","field":"<java.util.TreeMap$Node: java.util.TreeMap$Node right>"},{"step":40,"from":"1097993720","to":"1093293032","type":"load","field":"<java.util.TreeMap$Node: java.lang.Object key>"},{"step":41,"from":"1093325376","to":"1093293032","type":"model"},{"step":42,"from":"1093325376","to":"sdaReg10","type":"model"},{"step":43,"from":"1093293032","to":"1093325376","type":"model"},{"step":44,"from":"1093293032","to":"sdaReg10","type":"model"},{"step":45,"from":"static.<java.util.TreeMap$2: int[] $SwitchMap$java$util$TreeMap$Relation>","to":"1085752200","type":"load","field":"<java.util.TreeMap$2: int[] $SwitchMap$java$util$TreeMap$Relation>"},{"step":46,"from":"1085707192","to":"sdaReg11","type":"model"},{"step":47,"from":"1085752200","to":"1085752200.arrayIdx_int:3","type":"load","field":"arrayIdx_int:3"},{"step":48,"from":"1097993720","to":"1093917224","type":"store","field":"<java.util.TreeMap$Node: java.util.TreeMap$Node parent>"},{"step":49,"from":"1093325376","to":"1093917224","type":"store","field":"<java.util.TreeMap$Node: java.lang.Object key>"},{"step":50,"from":"1093917224","to":"sdaReg16","type":"create","field":"<java.util.TreeMap$Node: int height>"},{"step":51,"from":"1097993720","to":"1093917224","type":"create","field":"<java.util.TreeMap$Node: java.util.TreeMap$Node right>"},{"step":52,"from":"1093233072","to":"1093233072.<java.util.TreeMap: int size>","type":"load","field":"<java.util.TreeMap: int size>"},{"step":53,"from":"sdaReg19","to":"1093233072","type":"store","field":"<java.util.TreeMap: int size>"},{"step":54,"from":"1093233072","to":"1093233072.<java.util.TreeMap: int modCount>","type":"load","field":"<java.util.TreeMap: int modCount>"},{"step":55,"from":"sdaReg20","to":"1093233072","type":"store","field":"<java.util.TreeMap: int modCount>"},{"step":56,"from":"static.<java.util.TreeMap: boolean $assertionsDisabled>","to":"static.<java.util.TreeMap: boolean $assertionsDisabled>","type":"load","field":"<java.util.TreeMap: boolean $assertionsDisabled>"},{"step":57,"from":"sdaReg26","to":"sdaReg27","type":"model"},{"step":58,"from":"sdaReg26","to":"sdaReg29","type":"model"},{"step":59,"from":"sdaReg27","to":"sdaReg26","type":"model"},{"step":60,"from":"sdaReg27","to":"sdaReg29","type":"model"},{"step":61,"from":"sdaReg30","to":"1097993720","type":"store","field":"<java.util.TreeMap$Node: int height>"},{"step":62,"from":"1097993720","to":"1095117736","type":"load","field":"<java.util.TreeMap$Node: java.util.TreeMap$Node parent>"},{"step":63,"from":"1095117736","to":"1097993720","type":"load","field":"<java.util.TreeMap$Node: java.util.TreeMap$Node right>"},{"step":64,"from":"1095117736","to":"1097993720","type":"load","field":"<java.util.TreeMap$Node: java.util.TreeMap$Node right>"},{"step":65,"from":"1095117736","to":"1093229472","type":"load","field":"<java.util.TreeMap$Node: java.util.TreeMap$Node parent>"},{"step":66,"from":"1095117736","to":"sdaReg40","type":"create","field":"<java.util.TreeMap$Node: java.util.TreeMap$Node parent>"},{"step":67,"from":"1093229472","to":"1097993720","type":"store","field":"<java.util.TreeMap$Node: java.util.TreeMap$Node parent>"},{"step":68,"from":"1093229472","to":"1097679488","type":"load","field":"<java.util.TreeMap$Node: java.util.TreeMap$Node left>"},{"step":69,"from":"static.<java.util.TreeMap: boolean $assertionsDisabled>","to":"static.<java.util.TreeMap: boolean $assertionsDisabled>","type":"load","field":"<java.util.TreeMap: boolean $assertionsDisabled>"},{"step":70,"from":"1097993720","to":"1093229472","type":"store","field":"<java.util.TreeMap$Node: java.util.TreeMap$Node right>"},{"step":71,"from":"1095117736","to":"1097993720","type":"store","field":"<java.util.TreeMap$Node: java.util.TreeMap$Node left>"},{"step":72,"from":"1097993720","to":"1095117736","type":"store","field":"<java.util.TreeMap$Node: java.util.TreeMap$Node parent>"},{"step":73,"from":"sdaReg41","to":"sdaReg42","type":"model"},{"step":74,"from":"sdaReg41","to":"sdaReg43","type":"model"},{"step":75,"from":"sdaReg42","to":"sdaReg41","type":"model"},{"step":76,"from":"sdaReg42","to":"sdaReg43","type":"model"},{"step":77,"from":"sdaReg44","to":"1095117736","type":"store","field":"<java.util.TreeMap$Node: int height>"},{"step":78,"from":"sdaReg46","to":"1097993720","type":"store","field":"<java.util.TreeMap$Node: int height>"}],"parameters":[{"id":"1093233072","name":"this","klass":"java.util.TreeMap"},{"id":"1093325376","name":"arg#1","klass":"java.lang.Object"},{"id":"1085707192","name":"arg#2","klass":"java.util.TreeMap$Relation"}],"returns":[{"id":"1093917224","name":"return","klass":"java.util.TreeMap$Node"}],"colors":{"heapLocToColor":{"1093284704":[0, 1],"sdaReg13":[0],"1093233072.<java.util.TreeMap: int size>":[0],"sdaReg14":[1],"sdaReg11":[2, 12],"sdaReg12":[13],"sdaReg10":[1, 10],"1085707192":[2],"1097169872":[0],"1094259416":[0],"sdaReg19":[0],"sdaReg17":[13],"sdaReg18":[13],"sdaReg15":[13],"1093325376":[1],"1085752200":[11],"1093233072":[0],"static.<java.util.TreeMap$2: int[] $SwitchMap$java$util$TreeMap$Relation>":[11],"1097679488":[0],"1097993720.<java.util.TreeMap$Node: java.util.TreeMap$Node parent>":[0],"1093427368":[0, 1],"1095117736.<java.util.TreeMap$Node: java.util.TreeMap$Node right>":[0],"static.<java.util.TreeMap: boolean $assertionsDisabled>":[14],"sdaReg45":[17],"sdaReg44":[16],"1095117736.<java.util.TreeMap$Node: java.util.TreeMap$Node parent>":[0],"1093229472":[0],"sdaReg46":[17],"sdaReg43":[16],"1083970648":[0, 3],"1093351976":[0, 1],"1096093824":[0],"1093233072.<java.util.TreeMap: java.util.TreeMap$Node root>":[0],"static.<java.util.TreeMap: java.util.Comparator NATURAL_ORDER>":[0, 3],"1085752200.arrayIdx_int:3":[11],"sdaReg39":[0],"sdaReg38":[0],"sdaReg37":[0],"1093524480":[0, 1],"sdaReg30":[15],"sdaReg36":[0],"sdaReg35":[0],"1093290848":[0, 1],"sdaReg8":[1, 8],"1096265440":[0],"sdaReg9":[1, 9],"sdaReg6":[1, 6],"sdaReg7":[1, 7],"1097993720":[0],"sdaReg5":[1, 5],"1095117736":[0],"1093233072.<java.util.TreeMap: int modCount>":[0],"1093573104":[0, 1],"sdaReg29":[15],"sdaReg3":[1, 4, 5, 6, 7, 8, 9, 10],"sdaReg2":[1, 4],"sdaReg21":[0],"1093917224":[13],"sdaReg20":[0],"1093293032":[0, 1],"sdaReg22":[0],"sdaReg24":[0]},"colorToColor":{"17":[0],"0":[0, 1, 4, 5, 6, 7, 8, 9, 10, 13],"16":[0],"1":[1, 4, 5, 6, 7, 8, 9, 10, 13],"13":[0, 18],"15":[0]},"colorToLabel":{"0":"this","1":"arg#1","2":"arg#2","3":"<java.util.TreeMap: java.util.Comparator NATURAL_ORDER>","11":"<java.util.TreeMap$2: int[] $SwitchMap$java$util$TreeMap$Relation>","14":"<java.util.TreeMap: boolean $assertionsDisabled>","18":"return"}}}

Generated Model
	this->return
	this->arg#1
	arg#1->this
	arg#1->return

