Scanning method <android.os.Bundle: char getChar(java.lang.String)>

All seen event types: MethodReturnRecord, MethodCallRecord, LoadInstanceRecord, MethodStartRecord, MethodEndRecord, IfRecord, 
Ignored event types: IfRecord, 

JSON Encoded Analysis Data (for visualization):{"heapEdges":[{"step":0,"from":"1093513480","to":"sdaReg0","type":"model"},{"step":1,"from":"1093513480","to":"sdaReg2","type":"model"},{"step":2,"from":"sdaReg0","to":"1093513480","type":"model"},{"step":3,"from":"sdaReg0","to":"sdaReg2","type":"model"}],"parameters":[{"id":"1093513480","name":"this","klass":"android.os.Bundle"},{"id":"sdaReg0","name":"arg#1","klass":"string"}],"returns":[{"id":"sdaReg2","name":"return","klass":"char"}],"colors":{"heapLocToColor":{"1093513480":[0],"sdaReg2":[0, 2],"sdaReg1":[0],"sdaReg0":[0, 1]},"colorToColor":{"0":[0, 2, 3],"1":[0, 2],"2":[3]},"colorToLabel":{"0":"this","1":"arg#1","3":"return"}}}

Generated Model
	this->return
	arg#1->this
	arg#1->return

