Scanning method <java.util.ArrayList: java.lang.Object[] toArray()>

All seen event types: NewArrayRecord, MethodReturnRecord, MethodCallRecord, LoadInstanceRecord, 
Ignored event types: 

JSON Encoded Analysis Data (for visualization):{"heapEdges":[{"step":0,"from":"1093425664","to":"1093425664.<java.util.ArrayList: int size>","type":"load","field":"<java.util.ArrayList: int size>"},{"step":1,"from":"1093425664","to":"1093510592","type":"load","field":"<java.util.ArrayList: java.lang.Object[] array>"},{"step":2,"from":"1093510592","to":"1093512928","type":"model"}],"parameters":[{"id":"1093425664","name":"this","klass":"java.util.ArrayList"}],"returns":[{"id":"1093512928","name":"return","klass":"java.lang.Object[]"}],"colors":{"heapLocToColor":{"1093425664.<java.util.ArrayList: int size>":[0],"1093510592":[0],"1093512928":[1],"1093425664":[0]},"colorToColor":{"0":[1],"1":[2]},"colorToLabel":{"0":"this","2":"return"}}}

Generated Model
	this->return

