Scanning method <java.util.ArrayList: java.lang.Object[] toArray()>

All seen event types: NewArrayRecord, MethodReturnRecord, MethodCallRecord, LoadInstanceRecord, 
Ignored event types: 

JSON Encoded Analysis Data (for visualization):{"heapEdges":[{"step":0,"from":"1093293696","to":"1093293696.<java.util.ArrayList: int size>","type":"load","field":"<java.util.ArrayList: int size>"},{"step":1,"from":"1093293696","to":"1093449176","type":"load","field":"<java.util.ArrayList: java.lang.Object[] array>"},{"step":2,"from":"1093449176","to":"1093522184","type":"model"}],"parameters":[{"id":"1093293696","name":"this","klass":"java.util.ArrayList"}],"returns":[{"id":"1093522184","name":"return","klass":"java.lang.Object[]"}],"colors":{"heapLocToColor":{"1093449176":[0],"1093522184":[1],"1093293696.<java.util.ArrayList: int size>":[0],"1093293696":[0]},"colorToColor":{"0":[1],"1":[2]},"colorToLabel":{"0":"this","2":"return"}}}

Generated Model
	this->return

