Scanning method <java.util.ArrayList: java.lang.Object[] toArray()>

All seen event types: NewArrayRecord, MethodReturnRecord, MethodCallRecord, LoadInstanceRecord, 
Ignored event types: 

JSON Encoded Analysis Data (for visualization):{"heapEdges":[{"step":0,"from":"1093691216","to":"1093691216.<java.util.ArrayList: int size>","type":"load","field":"<java.util.ArrayList: int size>"},{"step":1,"from":"1093691216","to":"1093544424","type":"load","field":"<java.util.ArrayList: java.lang.Object[] array>"},{"step":2,"from":"1093544424","to":"1093563016","type":"model"}],"parameters":[{"id":"1093691216","name":"this","klass":"java.util.ArrayList"}],"returns":[{"id":"1093563016","name":"return","klass":"java.lang.Object[]"}],"colors":{"heapLocToColor":{"1093691216":[0],"1093544424":[0],"1093691216.<java.util.ArrayList: int size>":[0],"1093563016":[1]},"colorToColor":{"0":[1],"1":[2]},"colorToLabel":{"0":"this","2":"return"}}}

Generated Model
	this->return

