Scanning method <java.util.Formatter$FormatSpecifierParser: int peek()>

All seen event types: MethodReturnRecord, MethodCallRecord, LoadInstanceRecord, IfRecord, 
Ignored event types: IfRecord, 

JSON Encoded Analysis Data (for visualization):{"heapEdges":[{"step":0,"from":"1093500536","to":"1093500536.<java.util.Formatter$FormatSpecifierParser: int i>","type":"load","field":"<java.util.Formatter$FormatSpecifierParser: int i>"},{"step":1,"from":"1093500536","to":"1093500536.<java.util.Formatter$FormatSpecifierParser: int length>","type":"load","field":"<java.util.Formatter$FormatSpecifierParser: int length>"},{"step":2,"from":"1093500536","to":"1093500536.<java.util.Formatter$FormatSpecifierParser: java.lang.String format>","type":"load","field":"<java.util.Formatter$FormatSpecifierParser: java.lang.String format>"},{"step":3,"from":"1093500536","to":"1093500536.<java.util.Formatter$FormatSpecifierParser: int i>","type":"load","field":"<java.util.Formatter$FormatSpecifierParser: int i>"},{"step":4,"from":"1093500536.<java.util.Formatter$FormatSpecifierParser: java.lang.String format>","to":"sdaReg0","type":"model"}],"parameters":[{"id":"1093500536","name":"this","klass":"java.util.Formatter$FormatSpecifierParser"}],"returns":[{"id":"sdaReg0","name":"return","klass":"int"}],"colors":{"heapLocToColor":{"1093500536.<java.util.Formatter$FormatSpecifierParser: int i>":[0],"1093500536":[0],"1093500536.<java.util.Formatter$FormatSpecifierParser: int length>":[0],"1093500536.<java.util.Formatter$FormatSpecifierParser: java.lang.String format>":[0],"sdaReg0":[0, 1]},"colorToColor":{"0":[2],"1":[2]},"colorToLabel":{"0":"this","2":"return"}}}

Generated Model
	this->return

