Scanning method <java.io.DataInputStream: void readFully(byte[])>

All seen event types: MethodReturnRecord, MethodCallRecord, LoadInstanceRecord, MethodStartRecord, ArrayLengthRecord, MethodEndRecord, 
Ignored event types: 

JSON Encoded Analysis Data (for visualization):{"heapEdges":[{"step":0,"from":"1093672808","to":"1093672944","type":"load","field":"<java.io.FilterInputStream: java.io.InputStream in>"},{"step":1,"from":"1093672944","to":"1093673600","type":"model"}],"parameters":[{"id":"1093672808","name":"this","klass":"java.io.DataInputStream"},{"id":"1093673600","name":"arg#1","klass":"byte[]"}],"returns":[{"id":null,"name":"return","klass":null}],"colors":{"heapLocToColor":{"1093673600":[1],"sdaReg2":[1],"sdaReg1":[0],"1093672944":[0],"1093672808":[0]},"colorToColor":{"0":[1]},"colorToLabel":{"0":"this","1":"arg#1","2":"return"}}}

Generated Model
	this->arg#1

