Scanning method <java.util.HashSet: void <init>()>

All seen event types: LoadStaticRecord, MethodReturnRecord, MethodCallRecord, CastRecord, MethodStartRecord, MethodEndRecord, StoreInstanceRecord, NewObjectRecord, 
Ignored event types: 

JSON Encoded Analysis Data (for visualization):{"heapEdges":[{"step":0,"from":"static.<java.util.HashMap: java.util.Map$Entry[] EMPTY_TABLE>","to":"1083997920","type":"load","field":"<java.util.HashMap: java.util.Map$Entry[] EMPTY_TABLE>"},{"step":1,"from":"1083997920","to":"1093528312","type":"store","field":"<java.util.HashMap: java.util.HashMap$HashMapEntry[] table>"},{"step":2,"from":"1093528312","to":"sdaReg6","type":"create","field":"<java.util.HashMap: int threshold>"},{"step":3,"from":"1093530760","to":"1093528312","type":"create","field":"<java.util.HashSet: java.util.HashMap backingMap>"}],"parameters":[{"id":"1093530760","name":"this","klass":"java.util.HashSet"}],"returns":[{"id":"1093530760","name":"return","klass":"java.util.HashSet"}],"colors":{"heapLocToColor":{"sdaReg8":[0],"1093530760":[0],"sdaReg9":[1],"sdaReg7":[1],"sdaReg4":[2],"sdaReg5":[2],"sdaReg13":[0],"sdaReg14":[0],"sdaReg11":[0],"sdaReg12":[0],"sdaReg10":[0],"1093528312":[1],"sdaReg3":[1],"sdaReg2":[1],"sdaReg1":[1],"static.<java.util.HashMap: java.util.Map$Entry[] EMPTY_TABLE>":[2],"1083997920":[2],"sdaReg0":[1],"sdaReg15":[0]},"colorToColor":{"0":[3],"1":[0],"2":[1]},"colorToLabel":{"0":"this","2":"<java.util.HashMap: java.util.Map$Entry[] EMPTY_TABLE>","3":"return"}}}

Generated Model
	this->return

