Scanning method <java.nio.CharBuffer: java.nio.CharBuffer put(java.lang.String,int,int)>

All seen event types: BinaryOperationRecord, StoreArrayRecord, SimpleAssignmentRecord, MethodReturnRecord, MethodCallRecord, LoadInstanceRecord, MethodStartRecord, MethodEndRecord, IfRecord, StoreInstanceRecord, 
Ignored event types: IfRecord, 

JSON Encoded Analysis Data (for visualization):{"heapEdges":[{"step":0,"from":"1093668944","to":"1093668944.<java.nio.Buffer: int limit>","type":"load","field":"<java.nio.Buffer: int limit>"},{"step":1,"from":"1093668944","to":"1093668944.<java.nio.Buffer: int position>","type":"load","field":"<java.nio.Buffer: int position>"},{"step":2,"from":"sdaReg0","to":"sdaReg8","type":"model"},{"step":3,"from":"1093668944","to":"1093668944.<java.nio.Buffer: int position>","type":"load","field":"<java.nio.Buffer: int position>"},{"step":4,"from":"1093668944","to":"1093668944.<java.nio.Buffer: int limit>","type":"load","field":"<java.nio.Buffer: int limit>"},{"step":5,"from":"1093668944","to":"1093668992","type":"load","field":"<java.nio.CharArrayBuffer: char[] backingArray>"},{"step":6,"from":"1093668944","to":"1093668944.<java.nio.CharArrayBuffer: int offset>","type":"load","field":"<java.nio.CharArrayBuffer: int offset>"},{"step":7,"from":"1093668944","to":"1093668944.<java.nio.Buffer: int position>","type":"load","field":"<java.nio.Buffer: int position>"},{"step":8,"from":"sdaReg10","to":"1093668944","type":"store","field":"<java.nio.Buffer: int position>"},{"step":9,"from":"sdaReg8","to":"1093668992","type":"store","field":"arrayIdx_int:0"},{"step":10,"from":"sdaReg0","to":"sdaReg12","type":"model"},{"step":11,"from":"1093668944","to":"1093668944.<java.nio.Buffer: int limit>","type":"load","field":"<java.nio.Buffer: int limit>"},{"step":12,"from":"1093668944","to":"1093668992","type":"load","field":"<java.nio.CharArrayBuffer: char[] backingArray>"},{"step":13,"from":"1093668944","to":"1093668944.<java.nio.CharArrayBuffer: int offset>","type":"load","field":"<java.nio.CharArrayBuffer: int offset>"},{"step":14,"from":"sdaReg14","to":"1093668944","type":"store","field":"<java.nio.Buffer: int position>"},{"step":15,"from":"sdaReg12","to":"1093668992","type":"store","field":"arrayIdx_int:1"},{"step":16,"from":"sdaReg0","to":"sdaReg16","type":"model"},{"step":17,"from":"1093668944","to":"1093668944.<java.nio.Buffer: int limit>","type":"load","field":"<java.nio.Buffer: int limit>"},{"step":18,"from":"1093668944","to":"1093668992","type":"load","field":"<java.nio.CharArrayBuffer: char[] backingArray>"},{"step":19,"from":"1093668944","to":"1093668944.<java.nio.CharArrayBuffer: int offset>","type":"load","field":"<java.nio.CharArrayBuffer: int offset>"},{"step":20,"from":"sdaReg18","to":"1093668944","type":"store","field":"<java.nio.Buffer: int position>"},{"step":21,"from":"sdaReg16","to":"1093668992","type":"store","field":"arrayIdx_int:2"},{"step":22,"from":"sdaReg0","to":"sdaReg20","type":"model"},{"step":23,"from":"1093668944","to":"1093668944.<java.nio.Buffer: int limit>","type":"load","field":"<java.nio.Buffer: int limit>"},{"step":24,"from":"1093668944","to":"1093668992","type":"load","field":"<java.nio.CharArrayBuffer: char[] backingArray>"},{"step":25,"from":"1093668944","to":"1093668944.<java.nio.CharArrayBuffer: int offset>","type":"load","field":"<java.nio.CharArrayBuffer: int offset>"},{"step":26,"from":"sdaReg22","to":"1093668944","type":"store","field":"<java.nio.Buffer: int position>"},{"step":27,"from":"sdaReg20","to":"1093668992","type":"store","field":"arrayIdx_int:3"},{"step":28,"from":"sdaReg0","to":"sdaReg24","type":"model"},{"step":29,"from":"1093668944","to":"1093668944.<java.nio.Buffer: int limit>","type":"load","field":"<java.nio.Buffer: int limit>"},{"step":30,"from":"1093668944","to":"1093668992","type":"load","field":"<java.nio.CharArrayBuffer: char[] backingArray>"},{"step":31,"from":"1093668944","to":"1093668944.<java.nio.CharArrayBuffer: int offset>","type":"load","field":"<java.nio.CharArrayBuffer: int offset>"},{"step":32,"from":"sdaReg26","to":"1093668944","type":"store","field":"<java.nio.Buffer: int position>"},{"step":33,"from":"sdaReg24","to":"1093668992","type":"store","field":"arrayIdx_int:4"},{"step":34,"from":"sdaReg0","to":"sdaReg28","type":"model"},{"step":35,"from":"1093668944","to":"1093668944.<java.nio.Buffer: int limit>","type":"load","field":"<java.nio.Buffer: int limit>"},{"step":36,"from":"1093668944","to":"1093668992","type":"load","field":"<java.nio.CharArrayBuffer: char[] backingArray>"},{"step":37,"from":"1093668944","to":"1093668944.<java.nio.CharArrayBuffer: int offset>","type":"load","field":"<java.nio.CharArrayBuffer: int offset>"},{"step":38,"from":"sdaReg30","to":"1093668944","type":"store","field":"<java.nio.Buffer: int position>"},{"step":39,"from":"sdaReg28","to":"1093668992","type":"store","field":"arrayIdx_int:5"},{"step":40,"from":"sdaReg0","to":"sdaReg32","type":"model"},{"step":41,"from":"1093668944","to":"1093668944.<java.nio.Buffer: int limit>","type":"load","field":"<java.nio.Buffer: int limit>"},{"step":42,"from":"1093668944","to":"1093668992","type":"load","field":"<java.nio.CharArrayBuffer: char[] backingArray>"},{"step":43,"from":"1093668944","to":"1093668944.<java.nio.CharArrayBuffer: int offset>","type":"load","field":"<java.nio.CharArrayBuffer: int offset>"},{"step":44,"from":"sdaReg34","to":"1093668944","type":"store","field":"<java.nio.Buffer: int position>"},{"step":45,"from":"sdaReg32","to":"1093668992","type":"store","field":"arrayIdx_int:6"},{"step":46,"from":"sdaReg0","to":"sdaReg36","type":"model"},{"step":47,"from":"1093668944","to":"1093668944.<java.nio.Buffer: int limit>","type":"load","field":"<java.nio.Buffer: int limit>"},{"step":48,"from":"1093668944","to":"1093668992","type":"load","field":"<java.nio.CharArrayBuffer: char[] backingArray>"},{"step":49,"from":"1093668944","to":"1093668944.<java.nio.CharArrayBuffer: int offset>","type":"load","field":"<java.nio.CharArrayBuffer: int offset>"},{"step":50,"from":"sdaReg38","to":"1093668944","type":"store","field":"<java.nio.Buffer: int position>"},{"step":51,"from":"sdaReg36","to":"1093668992","type":"store","field":"arrayIdx_int:7"},{"step":52,"from":"sdaReg0","to":"sdaReg40","type":"model"},{"step":53,"from":"1093668944","to":"1093668944.<java.nio.Buffer: int limit>","type":"load","field":"<java.nio.Buffer: int limit>"},{"step":54,"from":"1093668944","to":"1093668992","type":"load","field":"<java.nio.CharArrayBuffer: char[] backingArray>"},{"step":55,"from":"1093668944","to":"1093668944.<java.nio.CharArrayBuffer: int offset>","type":"load","field":"<java.nio.CharArrayBuffer: int offset>"},{"step":56,"from":"sdaReg42","to":"1093668944","type":"store","field":"<java.nio.Buffer: int position>"},{"step":57,"from":"sdaReg40","to":"1093668992","type":"store","field":"arrayIdx_int:8"},{"step":58,"from":"sdaReg0","to":"sdaReg44","type":"model"},{"step":59,"from":"1093668944","to":"1093668944.<java.nio.Buffer: int limit>","type":"load","field":"<java.nio.Buffer: int limit>"},{"step":60,"from":"1093668944","to":"1093668992","type":"load","field":"<java.nio.CharArrayBuffer: char[] backingArray>"},{"step":61,"from":"1093668944","to":"1093668944.<java.nio.CharArrayBuffer: int offset>","type":"load","field":"<java.nio.CharArrayBuffer: int offset>"},{"step":62,"from":"sdaReg46","to":"1093668944","type":"store","field":"<java.nio.Buffer: int position>"},{"step":63,"from":"sdaReg44","to":"1093668992","type":"store","field":"arrayIdx_int:9"}],"parameters":[{"id":"1093668944","name":"this","klass":"java.nio.CharBuffer"},{"id":"sdaReg0","name":"arg#1","klass":"string"},{"id":"sdaReg1","name":"arg#2","klass":"int"},{"id":"sdaReg2","name":"arg#3","klass":"int"}],"returns":[{"id":"1093668944","name":"return","klass":"java.nio.CharBuffer"}],"colors":{"heapLocToColor":{"1093668944.<java.nio.CharArrayBuffer: int offset>":[0],"sdaReg13":[0],"sdaReg39":[0],"1093668944":[0],"sdaReg11":[0],"sdaReg37":[0],"sdaReg12":[1, 6],"sdaReg10":[0],"sdaReg32":[1, 11],"sdaReg31":[0],"sdaReg19":[0],"sdaReg36":[1, 12],"1093668944.<java.nio.Buffer: int position>":[0],"sdaReg17":[0],"sdaReg35":[0],"sdaReg15":[0],"sdaReg33":[0],"sdaReg16":[1, 7],"sdaReg8":[1, 5],"sdaReg9":[0],"sdaReg6":[0],"sdaReg7":[2],"sdaReg4":[2, 3],"1093668992":[0],"sdaReg5":[0],"1093668944.<java.nio.Buffer: int limit>":[0],"sdaReg27":[0],"sdaReg29":[0],"1093668944.<java.nio.CharArrayBuffer: char[] backingArray>":[0],"sdaReg28":[1, 10],"sdaReg45":[0],"sdaReg3":[4],"sdaReg44":[1, 14],"sdaReg2":[3],"sdaReg47":[0],"sdaReg21":[0],"sdaReg1":[2],"sdaReg0":[1],"sdaReg20":[1, 8],"sdaReg41":[0],"sdaReg23":[0],"sdaReg40":[1, 13],"sdaReg43":[0],"sdaReg25":[0],"sdaReg24":[1, 9]},"colorToColor":{"0":[0, 15],"1":[0],"5":[0],"6":[0],"7":[0],"8":[0],"9":[0],"10":[0],"11":[0],"12":[0],"13":[0],"14":[0]},"colorToLabel":{"0":"this","1":"arg#1","2":"arg#2","3":"arg#3","15":"return"}}}

Generated Model
	this->return
	arg#1->this
	arg#1->return

