Scanning method <android.os.Bundle: void <init>(int)>

All seen event types: NewArrayRecord, BinaryOperationRecord, MethodReturnRecord, MethodCallRecord, CastRecord, MethodStartRecord, IfRecord, MethodEndRecord, NewObjectRecord, StoreInstanceRecord, 
Ignored event types: IfRecord, 

JSON Encoded Analysis Data (for visualization):{"heapEdges":[{"step":0,"from":"1093648800","to":"sdaReg2","type":"create","field":"<android.os.Bundle: java.util.Map mMap>"},{"step":1,"from":"1093648800","to":"sdaReg3","type":"create","field":"<android.os.Bundle: android.os.Parcel mParcelledData>"},{"step":2,"from":"1093648800","to":"sdaReg4","type":"create","field":"<android.os.Bundle: boolean mHasFds>"},{"step":3,"from":"1093648800","to":"sdaReg5","type":"create","field":"<android.os.Bundle: boolean mFdsKnown>"},{"step":4,"from":"1093648800","to":"sdaReg6","type":"create","field":"<android.os.Bundle: boolean mAllowFds>"},{"step":5,"from":"1093656968","to":"1093658888","type":"create","field":"<java.util.HashMap: java.util.HashMap$HashMapEntry[] table>"},{"step":6,"from":"sdaReg27","to":"1093656968","type":"store","field":"<java.util.HashMap: int threshold>"},{"step":7,"from":"1093648800","to":"1093656968","type":"create","field":"<android.os.Bundle: java.util.Map mMap>"},{"step":8,"from":"1093648800","to":"1084342632","type":"model"},{"step":9,"from":"1084342632","to":"1083999984","type":"model"},{"step":10,"from":"1093648800","to":"1083999984","type":"create","field":"<android.os.Bundle: java.lang.ClassLoader mClassLoader>"}],"parameters":[{"id":"1093648800","name":"this","klass":"android.os.Bundle"},{"id":"sdaReg0","name":"arg#1","klass":"int"}],"returns":[{"id":"1093648800","name":"return","klass":"android.os.Bundle"}],"colors":{"heapLocToColor":{"sdaReg13":[1],"sdaReg14":[1],"sdaReg11":[1],"sdaReg12":[1],"sdaReg10":[2],"1083999984":[0, 4, 5],"sdaReg30":[0, 4, 5],"sdaReg19":[1],"sdaReg17":[1],"sdaReg18":[1],"sdaReg15":[1],"sdaReg16":[1],"sdaReg8":[2],"sdaReg9":[2],"sdaReg7":[2],"1093648800":[0],"sdaReg27":[1],"sdaReg26":[1],"sdaReg29":[0, 4],"sdaReg28":[2],"1084342632":[0, 4],"1093656968":[2],"sdaReg1":[0],"sdaReg21":[1],"sdaReg0":[1],"sdaReg20":[1],"sdaReg23":[2],"sdaReg22":[1],"1093658888":[3],"sdaReg25":[1]},"colorToColor":{"0":[0, 6],"1":[2],"2":[0],"3":[2],"4":[0],"5":[0]},"colorToLabel":{"0":"this","1":"arg#1","6":"return"}}}

Generated Model
	this->return
	arg#1->this
	arg#1->return

