Scanning method <java.util.LinkedList: boolean add(java.lang.Object)>

All seen event types: BinaryOperationRecord, SimpleAssignmentRecord, MethodReturnRecord, MethodCallRecord, LoadInstanceRecord, MethodStartRecord, MethodEndRecord, StoreInstanceRecord, NewObjectRecord, 
Ignored event types: 

JSON Encoded Analysis Data (for visualization):{"heapEdges":[{"step":0,"from":"1093444416","to":"1093445656","type":"load","field":"<java.util.LinkedList: java.util.LinkedList$Link voidLink>"},{"step":1,"from":"1093445656","to":"1093647528","type":"load","field":"<java.util.LinkedList$Link: java.util.LinkedList$Link previous>"},{"step":2,"from":"1093444416","to":"1093445656","type":"load","field":"<java.util.LinkedList: java.util.LinkedList$Link voidLink>"},{"step":3,"from":"1093647528","to":"1093768320","type":"store","field":"<java.util.LinkedList$Link: java.util.LinkedList$Link previous>"},{"step":4,"from":"1093445656","to":"1093768320","type":"store","field":"<java.util.LinkedList$Link: java.util.LinkedList$Link next>"},{"step":5,"from":"1093444416","to":"1093445656","type":"load","field":"<java.util.LinkedList: java.util.LinkedList$Link voidLink>"},{"step":6,"from":"1093445656","to":"1093768320","type":"create","field":"<java.util.LinkedList$Link: java.util.LinkedList$Link previous>"},{"step":7,"from":"1093768320","to":"1093647528","type":"store","field":"<java.util.LinkedList$Link: java.util.LinkedList$Link next>"},{"step":8,"from":"1093444416","to":"1093444416.<java.util.LinkedList: int size>","type":"load","field":"<java.util.LinkedList: int size>"},{"step":9,"from":"sdaReg9","to":"1093444416","type":"store","field":"<java.util.LinkedList: int size>"},{"step":10,"from":"1093444416","to":"1093444416.<java.util.AbstractList: int modCount>","type":"load","field":"<java.util.AbstractList: int modCount>"},{"step":11,"from":"sdaReg10","to":"1093444416","type":"store","field":"<java.util.AbstractList: int modCount>"}],"parameters":[{"id":"1093444416","name":"this","klass":"java.util.LinkedList"},{"id":"0","name":"arg#1","klass":"java.lang.Object"}],"returns":[{"id":"sdaReg11","name":"return","klass":"boolean"}],"colors":{"heapLocToColor":{"sdaReg8":[2],"sdaReg9":[0],"1093444416.<java.util.LinkedList: java.util.LinkedList$Link voidLink>":[0],"sdaReg6":[2],"1093444416.<java.util.AbstractList: int modCount>":[0],"sdaReg7":[2],"1093444416":[0],"sdaReg4":[0],"sdaReg5":[0],"1093768320":[2],"0":[1],"sdaReg10":[0],"1093444416.<java.util.LinkedList: int size>":[0],"1093647528":[0],"sdaReg3":[1],"sdaReg2":[2],"sdaReg1":[1],"1093445656":[0],"sdaReg0":[0]},"colorToColor":{"0":[0, 2],"2":[0]},"colorToLabel":{"0":"this","1":"arg#1","3":"return"}}}

Generated Model

