Scanning method <android.os.Message: android.os.Message obtain(android.os.Handler,int)>

All seen event types: SimpleAssignmentRecord, ExitMonitorRecord, MethodStartRecord, LoadInstanceRecord, IfRecord, StoreInstanceRecord, LoadStaticRecord, BinaryOperationRecord, StoreStaticRecord, MethodCallRecord, MethodReturnRecord, EnterMonitorRecord, MethodEndRecord, 
Ignored event types: ExitMonitorRecord, EnterMonitorRecord, IfRecord, 

JSON Encoded Analysis Data (for visualization):{"heapEdges":[{"step":0,"from":"static.<android.os.Message: java.lang.Object sPoolSync>","to":"1085010160","type":"load","field":"<android.os.Message: java.lang.Object sPoolSync>"},{"step":1,"from":"static.<android.os.Message: android.os.Message sPool>","to":"1093457936","type":"load","field":"<android.os.Message: android.os.Message sPool>"},{"step":2,"from":"static.<android.os.Message: android.os.Message sPool>","to":"1093457936","type":"load","field":"<android.os.Message: android.os.Message sPool>"},{"step":3,"from":"1093457936","to":"sdaReg2","type":"create","field":"<android.os.Message: android.os.Message next>"},{"step":4,"from":"static.<android.os.Message: int sPoolSize>","to":"static.<android.os.Message: int sPoolSize>","type":"load","field":"<android.os.Message: int sPoolSize>"},{"step":5,"from":"sdaReg3","to":"static.<android.os.Message: int sPoolSize>","type":"store","field":"<android.os.Message: int sPoolSize>"},{"step":6,"from":"1093556944","to":"1093457936","type":"store","field":"<android.os.Message: android.os.Handler target>"},{"step":7,"from":"sdaReg0","to":"1093457936","type":"store","field":"<android.os.Message: int what>"}],"parameters":[{"id":"1093556944","name":"arg#0","klass":"android.os.Handler"},{"id":"sdaReg0","name":"arg#1","klass":"int"}],"returns":[{"id":"1093457936","name":"return","klass":"android.os.Message"}],"colors":{"heapLocToColor":{"1093457936":[3],"1085010160":[2],"sdaReg4":[3],"1093556944":[0],"sdaReg3":[4],"static.<android.os.Message: java.lang.Object sPoolSync>":[2],"sdaReg1":[2],"static.<android.os.Message: int sPoolSize>":[4],"static.<android.os.Message: android.os.Message sPool>":[3],"sdaReg0":[1]},"colorToColor":{"0":[3],"1":[3],"3":[5],"4":[4]},"colorToLabel":{"0":"arg#0","1":"arg#1","2":"<android.os.Message: java.lang.Object sPoolSync>","3":"<android.os.Message: android.os.Message sPool>","4":"<android.os.Message: int sPoolSize>","5":"return"}}}

Generated Model
	arg#1->return
	arg#1-><android.os.Message: android.os.Message sPool>
	arg#0->return
	arg#0-><android.os.Message: android.os.Message sPool>

