Scanning method <java.io.ObjectInputStream: java.io.ObjectStreamClass readClassDesc()>

All seen event types: StoreArrayRecord, SimpleAssignmentRecord, MethodStartRecord, LoadInstanceRecord, IfRecord, StoreInstanceRecord, NewArrayRecord, BinaryOperationRecord, MethodCallRecord, MethodReturnRecord, SwitchRecord, CastRecord, ArrayLengthRecord, LoadArrayRecord, MethodEndRecord, 
Ignored event types: SwitchRecord, IfRecord, 

JSON Encoded Analysis Data (for visualization):{"heapEdges":[{"step":0,"from":"1093282712","to":"1093282712.<java.io.ObjectInputStream: boolean hasPushbackTC>","type":"load","field":"<java.io.ObjectInputStream: boolean hasPushbackTC>"},{"step":1,"from":"1093282712","to":"1093296224","type":"load","field":"<java.io.ObjectInputStream: java.io.DataInputStream input>"},{"step":2,"from":"1093296224","to":"1093608136","type":"load","field":"<java.io.FilterInputStream: java.io.InputStream in>"},{"step":3,"from":"1093608136","to":"1093608136.<java.io.ByteArrayInputStream: int pos>","type":"load","field":"<java.io.ByteArrayInputStream: int pos>"},{"step":4,"from":"1093608136","to":"1093608136.<java.io.ByteArrayInputStream: int count>","type":"load","field":"<java.io.ByteArrayInputStream: int count>"},{"step":5,"from":"1093608136","to":"1093608168","type":"load","field":"<java.io.ByteArrayInputStream: byte[] buf>"},{"step":6,"from":"1093608136","to":"1093608136.<java.io.ByteArrayInputStream: int pos>","type":"load","field":"<java.io.ByteArrayInputStream: int pos>"},{"step":7,"from":"sdaReg3","to":"1093608136","type":"store","field":"<java.io.ByteArrayInputStream: int pos>"},{"step":8,"from":"1093608168","to":"1093608168.arrayIdx_int:5","type":"load","field":"arrayIdx_int:5"},{"step":9,"from":"sdaReg5","to":"1093282712","type":"store","field":"<java.io.ObjectInputStream: byte pushbackTC>"},{"step":10,"from":"1093282712","to":"1093296224","type":"load","field":"<java.io.ObjectInputStream: java.io.DataInputStream input>"},{"step":11,"from":"1093296224","to":"1093282712","type":"store","field":"<java.io.ObjectInputStream: java.io.InputStream primitiveData>"},{"step":12,"from":"1093282712","to":"1093282712.<java.io.ObjectInputStream: int descriptorHandle>","type":"load","field":"<java.io.ObjectInputStream: int descriptorHandle>"},{"step":13,"from":"1093282712","to":"1093282712.<java.io.ObjectInputStream: int nextHandle>","type":"load","field":"<java.io.ObjectInputStream: int nextHandle>"},{"step":14,"from":"sdaReg10","to":"1093282712","type":"store","field":"<java.io.ObjectInputStream: int nextHandle>"},{"step":15,"from":"1093282712.<java.io.ObjectInputStream: int nextHandle>","to":"1093282712","type":"store","field":"<java.io.ObjectInputStream: int descriptorHandle>"},{"step":16,"from":"1093282712","to":"1093441400","type":"model"},{"step":17,"from":"1093282712","to":"1093296336","type":"load","field":"<java.io.ObjectInputStream: java.util.ArrayList objectsRead>"},{"step":18,"from":"1093296336","to":"1093296336.<java.util.ArrayList: int size>","type":"load","field":"<java.util.ArrayList: int size>"},{"step":19,"from":"1093282712","to":"1093296336","type":"load","field":"<java.io.ObjectInputStream: java.util.ArrayList objectsRead>"},{"step":20,"from":"1093296336","to":"1083994088","type":"load","field":"<java.util.ArrayList: java.lang.Object[] array>"},{"step":21,"from":"1093296336","to":"1093296336.<java.util.ArrayList: int size>","type":"load","field":"<java.util.ArrayList: int size>"},{"step":22,"from":"1083994088","to":"1093655992","type":"model"},{"step":23,"from":"1093296336","to":"1093655992","type":"create","field":"<java.util.ArrayList: java.lang.Object[] array>"},{"step":24,"from":"1093655992","to":"1093441400","type":"create","field":"arrayIdx_int:0"},{"step":25,"from":"sdaReg22","to":"1093296336","type":"store","field":"<java.util.ArrayList: int size>"},{"step":26,"from":"1093296336","to":"1093296336.<java.util.AbstractList: int modCount>","type":"load","field":"<java.util.AbstractList: int modCount>"},{"step":27,"from":"sdaReg23","to":"1093296336","type":"store","field":"<java.util.AbstractList: int modCount>"},{"step":28,"from":"1093282712.<java.io.ObjectInputStream: int descriptorHandle>","to":"1093282712","type":"store","field":"<java.io.ObjectInputStream: int descriptorHandle>"},{"step":29,"from":"1093282712","to":"1093296136","type":"load","field":"<java.io.ObjectInputStream: java.io.InputStream emptyStream>"},{"step":30,"from":"1093296136","to":"1093282712","type":"store","field":"<java.io.ObjectInputStream: java.io.InputStream primitiveData>"},{"step":31,"from":"1093441400","to":"1093607832","type":"model"},{"step":32,"from":"1093441400","to":"1093607832","type":"model"},{"step":33,"from":"1093607832","to":"1093441400","type":"model"},{"step":34,"from":"1093441400","to":"1093607832","type":"model"},{"step":35,"from":"1093607832","to":"1093441400","type":"model"},{"step":36,"from":"1093441400","to":"sdaReg33","type":"model"},{"step":37,"from":"1093441400","to":"sdaReg34","type":"model"},{"step":38,"from":"1093441400","to":"sdaReg36","type":"model"},{"step":39,"from":"sdaReg36","to":"sdaReg37","type":"model"},{"step":40,"from":"sdaReg36","to":"sdaReg40","type":"model"},{"step":41,"from":"sdaReg36","to":"sdaReg41","type":"model"},{"step":42,"from":"sdaReg40","to":"sdaReg36","type":"model"},{"step":43,"from":"sdaReg40","to":"sdaReg41","type":"model"},{"step":44,"from":"1093441400","to":"sdaReg42","type":"model"},{"step":45,"from":"sdaReg42","to":"sdaReg43","type":"model"},{"step":46,"from":"sdaReg42","to":"sdaReg46","type":"model"},{"step":47,"from":"sdaReg42","to":"sdaReg47","type":"model"},{"step":48,"from":"sdaReg46","to":"sdaReg42","type":"model"},{"step":49,"from":"sdaReg46","to":"sdaReg47","type":"model"},{"step":50,"from":"1093441400","to":"1093444120","type":"model"},{"step":51,"from":"1093441400","to":"1093607832","type":"model"},{"step":52,"from":"1093441400","to":"1093607832","type":"model"},{"step":53,"from":"1093607832","to":"1093277064","type":"model"},{"step":54,"from":"1093282712","to":"1093296136","type":"load","field":"<java.io.ObjectInputStream: java.io.InputStream emptyStream>"},{"step":55,"from":"1093296136","to":"1093282712","type":"store","field":"<java.io.ObjectInputStream: java.io.InputStream primitiveData>"},{"step":56,"from":"1093282712","to":"1093282712.<java.io.ObjectInputStream: boolean mustResolve>","type":"load","field":"<java.io.ObjectInputStream: boolean mustResolve>"},{"step":57,"from":"1093282712","to":"sdaReg60","type":"create","field":"<java.io.ObjectInputStream: boolean mustResolve>"},{"step":58,"from":"1093282712","to":"1093282712.<java.io.ObjectInputStream: boolean hasPushbackTC>","type":"load","field":"<java.io.ObjectInputStream: boolean hasPushbackTC>"},{"step":59,"from":"1093282712","to":"1093296224","type":"load","field":"<java.io.ObjectInputStream: java.io.DataInputStream input>"},{"step":60,"from":"1093296224","to":"1093608136","type":"load","field":"<java.io.FilterInputStream: java.io.InputStream in>"},{"step":61,"from":"1093608136","to":"1093608136.<java.io.ByteArrayInputStream: int count>","type":"load","field":"<java.io.ByteArrayInputStream: int count>"},{"step":62,"from":"1093608136","to":"1093608168","type":"load","field":"<java.io.ByteArrayInputStream: byte[] buf>"},{"step":63,"from":"sdaReg64","to":"1093608136","type":"store","field":"<java.io.ByteArrayInputStream: int pos>"},{"step":64,"from":"1093608168","to":"1093608168.arrayIdx_int:6","type":"load","field":"arrayIdx_int:6"},{"step":65,"from":"sdaReg66","to":"1093282712","type":"store","field":"<java.io.ObjectInputStream: byte pushbackTC>"},{"step":66,"from":"1093282712.<java.io.ObjectInputStream: boolean mustResolve>","to":"1093282712","type":"store","field":"<java.io.ObjectInputStream: boolean mustResolve>"},{"step":67,"from":"1093282712","to":"1093282712.<java.io.ObjectInputStream: boolean hasPushbackTC>","type":"load","field":"<java.io.ObjectInputStream: boolean hasPushbackTC>"},{"step":68,"from":"1093282712","to":"1093296224","type":"load","field":"<java.io.ObjectInputStream: java.io.DataInputStream input>"},{"step":69,"from":"1093296224","to":"1093608136","type":"load","field":"<java.io.FilterInputStream: java.io.InputStream in>"},{"step":70,"from":"1093608136","to":"1093608136.<java.io.ByteArrayInputStream: int count>","type":"load","field":"<java.io.ByteArrayInputStream: int count>"},{"step":71,"from":"1093608136","to":"1093608168","type":"load","field":"<java.io.ByteArrayInputStream: byte[] buf>"},{"step":72,"from":"sdaReg72","to":"1093608136","type":"store","field":"<java.io.ByteArrayInputStream: int pos>"},{"step":73,"from":"1093608168","to":"1093608168.arrayIdx_int:7","type":"load","field":"arrayIdx_int:7"},{"step":74,"from":"sdaReg74","to":"1093282712","type":"store","field":"<java.io.ObjectInputStream: byte pushbackTC>"}],"parameters":[{"id":"1093282712","name":"this","klass":"java.io.ObjectInputStream"}],"returns":[{"id":"1093441400","name":"return","klass":"java.io.ObjectStreamClass"}],"colors":{"heapLocToColor":{"sdaReg61":[0],"1093296336":[0],"sdaReg68":[0],"sdaReg69":[0],"sdaReg66":[0],"sdaReg65":[0],"sdaReg62":[0],"sdaReg63":[0],"1093282712.<java.io.ObjectInputStream: java.io.InputStream emptyStream>":[0],"sdaReg13":[0, 1],"sdaReg71":[0],"sdaReg70":[0],"sdaReg11":[0, 1],"sdaReg12":[0],"sdaReg10":[0],"sdaReg59":[0],"1093608136.<java.io.ByteArrayInputStream: byte[] buf>":[0],"1093296224.<java.io.FilterInputStream: java.io.InputStream in>":[0],"sdaReg56":[0, 1, 15],"sdaReg55":[0, 1, 16, 3],"1093282712.<java.io.ObjectInputStream: boolean hasPushbackTC>":[0],"1093607832":[0, 1, 3],"sdaReg54":[0, 16, 1, 3],"sdaReg17":[0],"sdaReg53":[0, 1, 3],"1093441400":[0, 1],"sdaReg18":[0, 1],"sdaReg52":[0, 1, 3],"sdaReg51":[0, 1, 15],"sdaReg16":[0],"sdaReg50":[0, 1, 15],"1093282712.<java.io.ObjectInputStream: java.io.DataInputStream input>":[0],"1093296136":[0],"sdaReg77":[0, 1],"sdaReg79":[17],"1093296336.<java.util.AbstractList: int modCount>":[0],"sdaReg73":[0],"sdaReg74":[0],"1093608136.<java.io.ByteArrayInputStream: int count>":[0],"sdaReg80":[0, 1],"1093608136.<java.io.ByteArrayInputStream: int pos>":[0],"1083994088":[0],"sdaReg49":[0, 1, 15],"sdaReg48":[14],"1093277064":[0, 1, 16, 3],"1093608136":[0],"sdaReg45":[12],"sdaReg44":[12],"1093655992":[2],"sdaReg47":[0, 1, 10, 13],"sdaReg46":[0, 1, 10, 11],"sdaReg41":[0, 1, 6, 9],"sdaReg40":[0, 1, 6, 7],"sdaReg43":[0, 1, 10, 11],"sdaReg42":[0, 1, 10],"1093282712":[0],"1093282712.<java.io.ObjectInputStream: boolean mustResolve>":[0],"1093282712.<java.io.ObjectInputStream: int nextHandle>":[0],"1093282712.<java.io.ObjectInputStream: int descriptorHandle>":[0],"sdaReg39":[8],"1093608168":[0],"sdaReg38":[8],"sdaReg37":[0, 1, 6, 7],"1093296224":[0],"1093282712.<java.io.ObjectInputStream: java.util.ArrayList objectsRead>":[0],"sdaReg32":[0, 1],"sdaReg31":[0, 1, 3],"sdaReg30":[0, 1],"sdaReg36":[0, 1, 6],"sdaReg35":[0, 1, 4, 5],"sdaReg34":[0, 1, 5],"sdaReg33":[0, 1, 4],"1093608168.arrayIdx_int:7":[0],"1093608168.arrayIdx_int:6":[0],"sdaReg9":[0],"1093444120":[0, 1, 15],"sdaReg7":[0],"sdaReg4":[0],"sdaReg5":[0],"1093296336.<java.util.ArrayList: int size>":[0],"sdaReg27":[0, 1, 3],"sdaReg26":[0, 1],"sdaReg29":[0],"sdaReg28":[0, 1, 3],"sdaReg3":[0],"sdaReg2":[0],"sdaReg1":[0],"sdaReg21":[0],"sdaReg0":[0],"sdaReg23":[0],"sdaReg22":[0],"sdaReg25":[0],"1093608168.arrayIdx_int:5":[0]},"colorToColor":{"0":[0, 1, 2, 18, 6, 9, 10, 13],"1":[0, 1, 2, 18, 6, 9, 10, 13],"2":[0],"3":[0, 1],"6":[0, 1, 6, 9],"7":[0, 1, 6, 9],"10":[0, 1, 10, 13],"11":[0, 1, 10, 13]},"colorToLabel":{"0":"this","18":"return"}}}

Generated Model
	this->return

