Scanning method <java.io.ObjectInputStream: java.io.ObjectStreamClass readClassDesc()>

All seen event types: StoreArrayRecord, SimpleAssignmentRecord, MethodStartRecord, LoadInstanceRecord, IfRecord, StoreInstanceRecord, NewObjectRecord, NewArrayRecord, LoadStaticRecord, BinaryOperationRecord, MethodCallRecord, MethodReturnRecord, SwitchRecord, ArrayLengthRecord, CastRecord, LoadArrayRecord, MethodEndRecord, 
Ignored event types: SwitchRecord, IfRecord, 

JSON Encoded Analysis Data (for visualization):{"heapEdges":[{"step":0,"from":"1093240224","to":"1093240224.<java.io.ObjectInputStream: boolean hasPushbackTC>","type":"load","field":"<java.io.ObjectInputStream: boolean hasPushbackTC>"},{"step":1,"from":"1093240224","to":"1093292592","type":"load","field":"<java.io.ObjectInputStream: java.io.DataInputStream input>"},{"step":2,"from":"1093292592","to":"1093296112","type":"load","field":"<java.io.FilterInputStream: java.io.InputStream in>"},{"step":3,"from":"1093296112","to":"1093296112.<java.io.ByteArrayInputStream: int pos>","type":"load","field":"<java.io.ByteArrayInputStream: int pos>"},{"step":4,"from":"1093296112","to":"1093296112.<java.io.ByteArrayInputStream: int count>","type":"load","field":"<java.io.ByteArrayInputStream: int count>"},{"step":5,"from":"1093296112","to":"1093281776","type":"load","field":"<java.io.ByteArrayInputStream: byte[] buf>"},{"step":6,"from":"1093296112","to":"1093296112.<java.io.ByteArrayInputStream: int pos>","type":"load","field":"<java.io.ByteArrayInputStream: int pos>"},{"step":7,"from":"sdaReg3","to":"1093296112","type":"store","field":"<java.io.ByteArrayInputStream: int pos>"},{"step":8,"from":"1093281776","to":"1093281776.arrayIdx_int:5","type":"load","field":"arrayIdx_int:5"},{"step":9,"from":"sdaReg5","to":"1093240224","type":"store","field":"<java.io.ObjectInputStream: byte pushbackTC>"},{"step":10,"from":"1093240224","to":"1093292592","type":"load","field":"<java.io.ObjectInputStream: java.io.DataInputStream input>"},{"step":11,"from":"1093292592","to":"1093240224","type":"store","field":"<java.io.ObjectInputStream: java.io.InputStream primitiveData>"},{"step":12,"from":"1093240224","to":"1093240224.<java.io.ObjectInputStream: int descriptorHandle>","type":"load","field":"<java.io.ObjectInputStream: int descriptorHandle>"},{"step":13,"from":"1093240224","to":"1093240224.<java.io.ObjectInputStream: int nextHandle>","type":"load","field":"<java.io.ObjectInputStream: int nextHandle>"},{"step":14,"from":"sdaReg10","to":"1093240224","type":"store","field":"<java.io.ObjectInputStream: int nextHandle>"},{"step":15,"from":"1093240224.<java.io.ObjectInputStream: int nextHandle>","to":"1093240224","type":"store","field":"<java.io.ObjectInputStream: int descriptorHandle>"},{"step":16,"from":"1093240224","to":"1093292592","type":"load","field":"<java.io.ObjectInputStream: java.io.DataInputStream input>"},{"step":17,"from":"1093292592","to":"1093296112","type":"load","field":"<java.io.FilterInputStream: java.io.InputStream in>"},{"step":18,"from":"1093292592","to":"1093388880","type":"load","field":"<java.io.DataInputStream: byte[] scratch>"},{"step":19,"from":"1093296112","to":"1093388880","type":"model"},{"step":20,"from":"1093292592","to":"1093388880","type":"load","field":"<java.io.DataInputStream: byte[] scratch>"},{"step":21,"from":"static.<java.nio.ByteOrder: java.nio.ByteOrder BIG_ENDIAN>","to":"1084339448","type":"load","field":"<java.nio.ByteOrder: java.nio.ByteOrder BIG_ENDIAN>"},{"step":22,"from":"1093388880","to":"sdaReg17","type":"model"},{"step":23,"from":"1093292592","to":"1093296112","type":"load","field":"<java.io.FilterInputStream: java.io.InputStream in>"},{"step":24,"from":"1093296112","to":"1093447576","type":"model"},{"step":25,"from":"1093447576","to":"1093447576.arrayIdx_int:0","type":"load","field":"arrayIdx_int:0"},{"step":26,"from":"sdaReg31","to":"1093447656","type":"store","field":"arrayIdx_int:0"},{"step":27,"from":"1093447576","to":"1093447576.arrayIdx_int:1","type":"load","field":"arrayIdx_int:1"},{"step":28,"from":"sdaReg31","to":"1093447656","type":"store","field":"arrayIdx_int:1"},{"step":29,"from":"1093447576","to":"1093447576.arrayIdx_int:2","type":"load","field":"arrayIdx_int:2"},{"step":30,"from":"sdaReg31","to":"1093447656","type":"store","field":"arrayIdx_int:2"},{"step":31,"from":"1093447576","to":"1093447576.arrayIdx_int:3","type":"load","field":"arrayIdx_int:3"},{"step":32,"from":"sdaReg31","to":"1093447656","type":"store","field":"arrayIdx_int:3"},{"step":33,"from":"1093447576","to":"1093447576.arrayIdx_int:4","type":"load","field":"arrayIdx_int:4"},{"step":34,"from":"sdaReg31","to":"1093447656","type":"store","field":"arrayIdx_int:4"},{"step":35,"from":"1093447576","to":"1093447576.arrayIdx_int:5","type":"load","field":"arrayIdx_int:5"},{"step":36,"from":"sdaReg31","to":"1093447656","type":"store","field":"arrayIdx_int:5"},{"step":37,"from":"1093447576","to":"1093447576.arrayIdx_int:6","type":"load","field":"arrayIdx_int:6"},{"step":38,"from":"sdaReg31","to":"1093447656","type":"store","field":"arrayIdx_int:6"},{"step":39,"from":"1093447576","to":"1093447576.arrayIdx_int:7","type":"load","field":"arrayIdx_int:7"},{"step":40,"from":"sdaReg31","to":"1093447656","type":"store","field":"arrayIdx_int:7"},{"step":41,"from":"1093447576","to":"1093447576.arrayIdx_int:8","type":"load","field":"arrayIdx_int:8"},{"step":42,"from":"sdaReg31","to":"1093447656","type":"store","field":"arrayIdx_int:8"},{"step":43,"from":"1093447576","to":"1093447576.arrayIdx_int:9","type":"load","field":"arrayIdx_int:9"},{"step":44,"from":"sdaReg31","to":"1093447656","type":"store","field":"arrayIdx_int:9"},{"step":45,"from":"1093447576","to":"1093447576.arrayIdx_int:10","type":"load","field":"arrayIdx_int:10"},{"step":46,"from":"sdaReg31","to":"1093447656","type":"store","field":"arrayIdx_int:10"},{"step":47,"from":"1093447576","to":"1093447576.arrayIdx_int:11","type":"load","field":"arrayIdx_int:11"},{"step":48,"from":"sdaReg31","to":"1093447656","type":"store","field":"arrayIdx_int:11"},{"step":49,"from":"1093447576","to":"1093447576.arrayIdx_int:12","type":"load","field":"arrayIdx_int:12"},{"step":50,"from":"sdaReg31","to":"1093447656","type":"store","field":"arrayIdx_int:12"},{"step":51,"from":"1093447576","to":"1093447576.arrayIdx_int:13","type":"load","field":"arrayIdx_int:13"},{"step":52,"from":"sdaReg31","to":"1093447656","type":"store","field":"arrayIdx_int:13"},{"step":53,"from":"1093447576","to":"1093447576.arrayIdx_int:14","type":"load","field":"arrayIdx_int:14"},{"step":54,"from":"sdaReg31","to":"1093447656","type":"store","field":"arrayIdx_int:14"},{"step":55,"from":"1093447576","to":"1093447576.arrayIdx_int:15","type":"load","field":"arrayIdx_int:15"},{"step":56,"from":"sdaReg31","to":"1093447656","type":"store","field":"arrayIdx_int:15"},{"step":57,"from":"1093447576","to":"1093447576.arrayIdx_int:16","type":"load","field":"arrayIdx_int:16"},{"step":58,"from":"sdaReg31","to":"1093447656","type":"store","field":"arrayIdx_int:16"},{"step":59,"from":"1093447576","to":"1093447576.arrayIdx_int:17","type":"load","field":"arrayIdx_int:17"},{"step":60,"from":"sdaReg31","to":"1093447656","type":"store","field":"arrayIdx_int:17"},{"step":61,"from":"1093447576","to":"1093447576.arrayIdx_int:18","type":"load","field":"arrayIdx_int:18"},{"step":62,"from":"sdaReg31","to":"1093447656","type":"store","field":"arrayIdx_int:18"},{"step":63,"from":"1093447576","to":"1093447576.arrayIdx_int:19","type":"load","field":"arrayIdx_int:19"},{"step":64,"from":"sdaReg31","to":"1093447656","type":"store","field":"arrayIdx_int:19"},{"step":65,"from":"1093447576","to":"1093447576.arrayIdx_int:20","type":"load","field":"arrayIdx_int:20"},{"step":66,"from":"sdaReg31","to":"1093447656","type":"store","field":"arrayIdx_int:20"},{"step":67,"from":"1093447576","to":"1093447576.arrayIdx_int:21","type":"load","field":"arrayIdx_int:21"},{"step":68,"from":"sdaReg31","to":"1093447656","type":"store","field":"arrayIdx_int:21"},{"step":69,"from":"1093447576","to":"1093447576.arrayIdx_int:22","type":"load","field":"arrayIdx_int:22"},{"step":70,"from":"sdaReg31","to":"1093447656","type":"store","field":"arrayIdx_int:22"},{"step":71,"from":"1093447576","to":"1093447576.arrayIdx_int:23","type":"load","field":"arrayIdx_int:23"},{"step":72,"from":"sdaReg31","to":"1093447656","type":"store","field":"arrayIdx_int:23"},{"step":73,"from":"1093447576","to":"1093447576.arrayIdx_int:24","type":"load","field":"arrayIdx_int:24"},{"step":74,"from":"sdaReg31","to":"1093447656","type":"store","field":"arrayIdx_int:24"},{"step":75,"from":"1093447576","to":"1093447576.arrayIdx_int:25","type":"load","field":"arrayIdx_int:25"},{"step":76,"from":"sdaReg31","to":"1093447656","type":"store","field":"arrayIdx_int:25"},{"step":77,"from":"1093447576","to":"1093447576.arrayIdx_int:26","type":"load","field":"arrayIdx_int:26"},{"step":78,"from":"sdaReg31","to":"1093447656","type":"store","field":"arrayIdx_int:26"},{"step":79,"from":"1093447576","to":"1093447576.arrayIdx_int:27","type":"load","field":"arrayIdx_int:27"},{"step":80,"from":"sdaReg31","to":"1093447656","type":"store","field":"arrayIdx_int:27"},{"step":81,"from":"1093447576","to":"1093447576.arrayIdx_int:28","type":"load","field":"arrayIdx_int:28"},{"step":82,"from":"sdaReg31","to":"1093447656","type":"store","field":"arrayIdx_int:28"},{"step":83,"from":"1093447576","to":"1093447576.arrayIdx_int:29","type":"load","field":"arrayIdx_int:29"},{"step":84,"from":"sdaReg31","to":"1093447656","type":"store","field":"arrayIdx_int:29"},{"step":85,"from":"1093447576","to":"1093447576.arrayIdx_int:30","type":"load","field":"arrayIdx_int:30"},{"step":86,"from":"sdaReg31","to":"1093447656","type":"store","field":"arrayIdx_int:30"},{"step":87,"from":"1093447576","to":"1093447576.arrayIdx_int:31","type":"load","field":"arrayIdx_int:31"},{"step":88,"from":"sdaReg31","to":"1093447656","type":"store","field":"arrayIdx_int:31"},{"step":89,"from":"1093447576","to":"1093447576.arrayIdx_int:32","type":"load","field":"arrayIdx_int:32"},{"step":90,"from":"sdaReg31","to":"1093447656","type":"store","field":"arrayIdx_int:32"},{"step":91,"from":"1093447576","to":"1093447576.arrayIdx_int:33","type":"load","field":"arrayIdx_int:33"},{"step":92,"from":"sdaReg31","to":"1093447656","type":"store","field":"arrayIdx_int:33"},{"step":93,"from":"1093447576","to":"1093447576.arrayIdx_int:34","type":"load","field":"arrayIdx_int:34"},{"step":94,"from":"sdaReg31","to":"1093447656","type":"store","field":"arrayIdx_int:34"},{"step":95,"from":"1093447576","to":"1093447576.arrayIdx_int:35","type":"load","field":"arrayIdx_int:35"},{"step":96,"from":"sdaReg31","to":"1093447656","type":"store","field":"arrayIdx_int:35"},{"step":97,"from":"1093447576","to":"1093447576.arrayIdx_int:36","type":"load","field":"arrayIdx_int:36"},{"step":98,"from":"sdaReg31","to":"1093447656","type":"store","field":"arrayIdx_int:36"},{"step":99,"from":"1093447576","to":"1093447576.arrayIdx_int:37","type":"load","field":"arrayIdx_int:37"},{"step":100,"from":"sdaReg31","to":"1093447656","type":"store","field":"arrayIdx_int:37"},{"step":101,"from":"1093447576","to":"1093447576.arrayIdx_int:38","type":"load","field":"arrayIdx_int:38"},{"step":102,"from":"sdaReg31","to":"1093447656","type":"store","field":"arrayIdx_int:38"},{"step":103,"from":"1093447576","to":"1093447576.arrayIdx_int:39","type":"load","field":"arrayIdx_int:39"},{"step":104,"from":"sdaReg31","to":"1093447656","type":"store","field":"arrayIdx_int:39"},{"step":105,"from":"1093447576","to":"1093447576.arrayIdx_int:40","type":"load","field":"arrayIdx_int:40"},{"step":106,"from":"sdaReg31","to":"1093447656","type":"store","field":"arrayIdx_int:40"},{"step":107,"from":"1093447576","to":"1093447576.arrayIdx_int:41","type":"load","field":"arrayIdx_int:41"},{"step":108,"from":"sdaReg31","to":"1093447656","type":"store","field":"arrayIdx_int:41"},{"step":109,"from":"1093447576","to":"1093447576.arrayIdx_int:42","type":"load","field":"arrayIdx_int:42"},{"step":110,"from":"sdaReg31","to":"1093447656","type":"store","field":"arrayIdx_int:42"},{"step":111,"from":"1093447576","to":"1093447576.arrayIdx_int:43","type":"load","field":"arrayIdx_int:43"},{"step":112,"from":"sdaReg31","to":"1093447656","type":"store","field":"arrayIdx_int:43"},{"step":113,"from":"1093447576","to":"1093447576.arrayIdx_int:44","type":"load","field":"arrayIdx_int:44"},{"step":114,"from":"sdaReg31","to":"1093447656","type":"store","field":"arrayIdx_int:44"},{"step":115,"from":"1093447576","to":"1093447576.arrayIdx_int:45","type":"load","field":"arrayIdx_int:45"},{"step":116,"from":"sdaReg31","to":"1093447656","type":"store","field":"arrayIdx_int:45"},{"step":117,"from":"1093447576","to":"1093447576.arrayIdx_int:46","type":"load","field":"arrayIdx_int:46"},{"step":118,"from":"sdaReg31","to":"1093447656","type":"store","field":"arrayIdx_int:46"},{"step":119,"from":"1093447576","to":"1093447576.arrayIdx_int:47","type":"load","field":"arrayIdx_int:47"},{"step":120,"from":"sdaReg31","to":"1093447656","type":"store","field":"arrayIdx_int:47"},{"step":121,"from":"1093447576","to":"1093447576.arrayIdx_int:48","type":"load","field":"arrayIdx_int:48"},{"step":122,"from":"sdaReg31","to":"1093447656","type":"store","field":"arrayIdx_int:48"},{"step":123,"from":"1093447576","to":"1093447576.arrayIdx_int:49","type":"load","field":"arrayIdx_int:49"},{"step":124,"from":"sdaReg31","to":"1093447656","type":"store","field":"arrayIdx_int:49"},{"step":125,"from":"1093447576","to":"1093447576.arrayIdx_int:50","type":"load","field":"arrayIdx_int:50"},{"step":126,"from":"sdaReg31","to":"1093447656","type":"store","field":"arrayIdx_int:50"},{"step":127,"from":"1093447576","to":"1093447576.arrayIdx_int:51","type":"load","field":"arrayIdx_int:51"},{"step":128,"from":"sdaReg31","to":"1093447656","type":"store","field":"arrayIdx_int:51"},{"step":129,"from":"1093447576","to":"1093447576.arrayIdx_int:52","type":"load","field":"arrayIdx_int:52"},{"step":130,"from":"sdaReg31","to":"1093447656","type":"store","field":"arrayIdx_int:52"},{"step":131,"from":"1093447576","to":"1093447576.arrayIdx_int:53","type":"load","field":"arrayIdx_int:53"},{"step":132,"from":"sdaReg31","to":"1093447656","type":"store","field":"arrayIdx_int:53"},{"step":133,"from":"1093447576","to":"1093447576.arrayIdx_int:54","type":"load","field":"arrayIdx_int:54"},{"step":134,"from":"sdaReg31","to":"1093447656","type":"store","field":"arrayIdx_int:54"},{"step":135,"from":"1093447576","to":"1093447576.arrayIdx_int:55","type":"load","field":"arrayIdx_int:55"},{"step":136,"from":"sdaReg31","to":"1093447656","type":"store","field":"arrayIdx_int:55"},{"step":137,"from":"1093447576","to":"1093447576.arrayIdx_int:56","type":"load","field":"arrayIdx_int:56"},{"step":138,"from":"sdaReg31","to":"1093447656","type":"store","field":"arrayIdx_int:56"},{"step":139,"from":"1093447576","to":"1093447576.arrayIdx_int:57","type":"load","field":"arrayIdx_int:57"},{"step":140,"from":"sdaReg31","to":"1093447656","type":"store","field":"arrayIdx_int:57"},{"step":141,"from":"1093447576","to":"1093447576.arrayIdx_int:58","type":"load","field":"arrayIdx_int:58"},{"step":142,"from":"sdaReg31","to":"1093447656","type":"store","field":"arrayIdx_int:58"},{"step":143,"from":"1093447656","to":"sdaReg32","type":"model"},{"step":144,"from":"1093684944","to":"sdaReg32","type":"model"},{"step":145,"from":"sdaReg32","to":"1093684944","type":"model"},{"step":146,"from":"1093240224","to":"1093292592","type":"load","field":"<java.io.ObjectInputStream: java.io.DataInputStream input>"},{"step":147,"from":"1093292592","to":"1093296112","type":"load","field":"<java.io.FilterInputStream: java.io.InputStream in>"},{"step":148,"from":"1093292592","to":"1093388880","type":"load","field":"<java.io.DataInputStream: byte[] scratch>"},{"step":149,"from":"1093296112","to":"1093388880","type":"model"},{"step":150,"from":"1093292592","to":"1093388880","type":"load","field":"<java.io.DataInputStream: byte[] scratch>"},{"step":151,"from":"static.<java.nio.ByteOrder: java.nio.ByteOrder BIG_ENDIAN>","to":"1084339448","type":"load","field":"<java.nio.ByteOrder: java.nio.ByteOrder BIG_ENDIAN>"},{"step":152,"from":"1093388880","to":"sdaReg35","type":"model"},{"step":153,"from":"1093684944","to":"sdaReg35","type":"model"},{"step":154,"from":"sdaReg35","to":"1093684944","type":"model"},{"step":155,"from":"1093240224","to":"1093292592","type":"load","field":"<java.io.ObjectInputStream: java.io.DataInputStream input>"},{"step":156,"from":"1093292592","to":"1093296112","type":"load","field":"<java.io.FilterInputStream: java.io.InputStream in>"},{"step":157,"from":"1093296112","to":"1093296112.<java.io.ByteArrayInputStream: int count>","type":"load","field":"<java.io.ByteArrayInputStream: int count>"},{"step":158,"from":"1093296112","to":"1093281776","type":"load","field":"<java.io.ByteArrayInputStream: byte[] buf>"},{"step":159,"from":"sdaReg38","to":"1093296112","type":"store","field":"<java.io.ByteArrayInputStream: int pos>"},{"step":160,"from":"1093281776","to":"1093281776.arrayIdx_int:75","type":"load","field":"arrayIdx_int:75"},{"step":161,"from":"1093684944","to":"sdaReg40","type":"model"},{"step":162,"from":"sdaReg40","to":"1093684944","type":"model"},{"step":163,"from":"1093240224","to":"1093603784","type":"load","field":"<java.io.ObjectInputStream: java.util.ArrayList objectsRead>"},{"step":164,"from":"1093603784","to":"1093603784.<java.util.ArrayList: int size>","type":"load","field":"<java.util.ArrayList: int size>"},{"step":165,"from":"1093240224","to":"1093603784","type":"load","field":"<java.io.ObjectInputStream: java.util.ArrayList objectsRead>"},{"step":166,"from":"1093603784","to":"1083994088","type":"load","field":"<java.util.ArrayList: java.lang.Object[] array>"},{"step":167,"from":"1093603784","to":"1093603784.<java.util.ArrayList: int size>","type":"load","field":"<java.util.ArrayList: int size>"},{"step":168,"from":"1083994088","to":"1093315184","type":"model"},{"step":169,"from":"1093603784","to":"1093315184","type":"create","field":"<java.util.ArrayList: java.lang.Object[] array>"},{"step":170,"from":"1093315184","to":"1093684944","type":"create","field":"arrayIdx_int:0"},{"step":171,"from":"sdaReg52","to":"1093603784","type":"store","field":"<java.util.ArrayList: int size>"},{"step":172,"from":"1093603784","to":"1093603784.<java.util.AbstractList: int modCount>","type":"load","field":"<java.util.AbstractList: int modCount>"},{"step":173,"from":"sdaReg53","to":"1093603784","type":"store","field":"<java.util.AbstractList: int modCount>"},{"step":174,"from":"1093240224","to":"1093292592","type":"load","field":"<java.io.ObjectInputStream: java.io.DataInputStream input>"},{"step":175,"from":"1093292592","to":"1093296112","type":"load","field":"<java.io.FilterInputStream: java.io.InputStream in>"},{"step":176,"from":"1093292592","to":"1093388880","type":"load","field":"<java.io.DataInputStream: byte[] scratch>"},{"step":177,"from":"1093296112","to":"1093388880","type":"model"},{"step":178,"from":"1093292592","to":"1093388880","type":"load","field":"<java.io.DataInputStream: byte[] scratch>"},{"step":179,"from":"static.<java.nio.ByteOrder: java.nio.ByteOrder BIG_ENDIAN>","to":"1084339448","type":"load","field":"<java.nio.ByteOrder: java.nio.ByteOrder BIG_ENDIAN>"},{"step":180,"from":"1093388880","to":"sdaReg58","type":"model"},{"step":181,"from":"1093684944","to":"1093420056","type":"model"},{"step":182,"from":"1093420056","to":"1093684944","type":"model"},{"step":183,"from":"1093240224","to":"1093292592","type":"load","field":"<java.io.ObjectInputStream: java.io.DataInputStream input>"},{"step":184,"from":"1093292592","to":"1093296112","type":"load","field":"<java.io.FilterInputStream: java.io.InputStream in>"},{"step":185,"from":"1093296112","to":"1093296112.<java.io.ByteArrayInputStream: int count>","type":"load","field":"<java.io.ByteArrayInputStream: int count>"},{"step":186,"from":"1093296112","to":"1093281776","type":"load","field":"<java.io.ByteArrayInputStream: byte[] buf>"},{"step":187,"from":"sdaReg62","to":"1093296112","type":"store","field":"<java.io.ByteArrayInputStream: int pos>"},{"step":188,"from":"1093281776","to":"1093281776.arrayIdx_int:78","type":"load","field":"arrayIdx_int:78"},{"step":189,"from":"1093240224","to":"1093292592","type":"load","field":"<java.io.ObjectInputStream: java.io.DataInputStream input>"},{"step":190,"from":"1093292592","to":"1093296112","type":"load","field":"<java.io.FilterInputStream: java.io.InputStream in>"},{"step":191,"from":"1093292592","to":"1093388880","type":"load","field":"<java.io.DataInputStream: byte[] scratch>"},{"step":192,"from":"1093296112","to":"1093388880","type":"model"},{"step":193,"from":"1093292592","to":"1093388880","type":"load","field":"<java.io.DataInputStream: byte[] scratch>"},{"step":194,"from":"static.<java.nio.ByteOrder: java.nio.ByteOrder BIG_ENDIAN>","to":"1084339448","type":"load","field":"<java.nio.ByteOrder: java.nio.ByteOrder BIG_ENDIAN>"},{"step":195,"from":"1093388880","to":"sdaReg69","type":"model"},{"step":196,"from":"1093292592","to":"1093296112","type":"load","field":"<java.io.FilterInputStream: java.io.InputStream in>"},{"step":197,"from":"1093296112","to":"1093546416","type":"model"},{"step":198,"from":"1093546416","to":"1093546416.arrayIdx_int:0","type":"load","field":"arrayIdx_int:0"},{"step":199,"from":"sdaReg83","to":"1093546440","type":"store","field":"arrayIdx_int:0"},{"step":200,"from":"1093546440","to":"sdaReg84","type":"model"},{"step":201,"from":"sdaReg65","to":"sdaReg85","type":"model"},{"step":202,"from":"sdaReg65","to":"sdaReg86","type":"model"},{"step":203,"from":"sdaReg86","to":"sdaReg87","type":"model"},{"step":204,"from":"sdaReg86","to":"sdaReg89","type":"model"},{"step":205,"from":"sdaReg87","to":"sdaReg86","type":"model"},{"step":206,"from":"sdaReg87","to":"sdaReg89","type":"model"},{"step":207,"from":"sdaReg84","to":"1093508504","type":"store","field":"<java.io.ObjectStreamField: java.lang.String name>"},{"step":208,"from":"sdaReg86","to":"sdaReg92","type":"model"},{"step":209,"from":"sdaReg92","to":"sdaReg93","type":"model"},{"step":210,"from":"sdaReg93","to":"1093508504","type":"store","field":"<java.io.ObjectStreamField: java.lang.String typeString>"},{"step":211,"from":"static.<java.lang.Integer: java.lang.Class TYPE>","to":"1083909616","type":"load","field":"<java.lang.Integer: java.lang.Class TYPE>"},{"step":212,"from":"1083909616","to":"1093508504","type":"store","field":"<java.io.ObjectStreamField: java.lang.Object type>"},{"step":213,"from":"1093508504","to":"sdaReg97","type":"create","field":"<java.io.ObjectStreamField: boolean isDeserialized>"},{"step":214,"from":"1093420056","to":"1093508504","type":"create","field":"arrayIdx_int:0"},{"step":215,"from":"1093240224","to":"1093603784","type":"load","field":"<java.io.ObjectInputStream: java.util.ArrayList objectsRead>"},{"step":216,"from":"1093240224","to":"1093603784","type":"load","field":"<java.io.ObjectInputStream: java.util.ArrayList objectsRead>"},{"step":217,"from":"1093684944","to":"1093315184","type":"store","field":"arrayIdx_int:0"},{"step":218,"from":"1093240224.<java.io.ObjectInputStream: int descriptorHandle>","to":"1093240224","type":"store","field":"<java.io.ObjectInputStream: int descriptorHandle>"},{"step":219,"from":"1093240224","to":"1093388792","type":"load","field":"<java.io.ObjectInputStream: java.io.InputStream emptyStream>"},{"step":220,"from":"1093388792","to":"1093240224","type":"store","field":"<java.io.ObjectInputStream: java.io.InputStream primitiveData>"},{"step":221,"from":"1093240224","to":"1093684944","type":"model"},{"step":222,"from":"1093240224","to":"1093510072","type":"model"},{"step":223,"from":"1093684944","to":"1093240224","type":"model"},{"step":224,"from":"1093684944","to":"1093510072","type":"model"},{"step":225,"from":"1093684944","to":"1093510072","type":"model"},{"step":226,"from":"1093510072","to":"1093684944","type":"model"},{"step":227,"from":"1093684944","to":"1093510072","type":"model"},{"step":228,"from":"1093510072","to":"1093283736","type":"model"},{"step":229,"from":"1093684944","to":"sdaReg115","type":"model"},{"step":230,"from":"1093283736","to":"sdaReg116","type":"model"},{"step":231,"from":"1093684944","to":"sdaReg118","type":"model"},{"step":232,"from":"sdaReg118","to":"sdaReg119","type":"model"},{"step":233,"from":"sdaReg118","to":"sdaReg122","type":"model"},{"step":234,"from":"sdaReg118","to":"sdaReg123","type":"model"},{"step":235,"from":"sdaReg122","to":"sdaReg118","type":"model"},{"step":236,"from":"sdaReg122","to":"sdaReg123","type":"model"},{"step":237,"from":"1093283736","to":"sdaReg124","type":"model"},{"step":238,"from":"sdaReg124","to":"sdaReg125","type":"model"},{"step":239,"from":"sdaReg124","to":"sdaReg128","type":"model"},{"step":240,"from":"sdaReg124","to":"sdaReg129","type":"model"},{"step":241,"from":"sdaReg128","to":"sdaReg124","type":"model"},{"step":242,"from":"sdaReg128","to":"sdaReg129","type":"model"},{"step":243,"from":"1093684944","to":"1093283736","type":"model"},{"step":244,"from":"1093283736","to":"1093684944","type":"model"},{"step":245,"from":"1093684944","to":"1093420056","type":"model"},{"step":246,"from":"1093684944","to":"1093510072","type":"model"},{"step":247,"from":"1093684944","to":"1093510072","type":"model"},{"step":248,"from":"1093510072","to":"1093281096","type":"model"},{"step":249,"from":"static.<java.lang.Integer: java.lang.Class TYPE>","to":"1083909616","type":"load","field":"<java.lang.Integer: java.lang.Class TYPE>"},{"step":250,"from":"1083909616","to":"1093508504","type":"store","field":"<java.io.ObjectStreamField: java.lang.Object type>"},{"step":251,"from":"1093240224","to":"1093388792","type":"load","field":"<java.io.ObjectInputStream: java.io.InputStream emptyStream>"},{"step":252,"from":"1093388792","to":"1093240224","type":"store","field":"<java.io.ObjectInputStream: java.io.InputStream primitiveData>"},{"step":253,"from":"1093240224","to":"1093240224.<java.io.ObjectInputStream: boolean mustResolve>","type":"load","field":"<java.io.ObjectInputStream: boolean mustResolve>"},{"step":254,"from":"1093240224","to":"sdaReg148","type":"create","field":"<java.io.ObjectInputStream: boolean mustResolve>"},{"step":255,"from":"1093240224","to":"1093240224.<java.io.ObjectInputStream: boolean hasPushbackTC>","type":"load","field":"<java.io.ObjectInputStream: boolean hasPushbackTC>"},{"step":256,"from":"1093240224","to":"1093292592","type":"load","field":"<java.io.ObjectInputStream: java.io.DataInputStream input>"},{"step":257,"from":"1093292592","to":"1093296112","type":"load","field":"<java.io.FilterInputStream: java.io.InputStream in>"},{"step":258,"from":"1093296112","to":"1093296112.<java.io.ByteArrayInputStream: int count>","type":"load","field":"<java.io.ByteArrayInputStream: int count>"},{"step":259,"from":"1093296112","to":"1093281776","type":"load","field":"<java.io.ByteArrayInputStream: byte[] buf>"},{"step":260,"from":"sdaReg152","to":"1093296112","type":"store","field":"<java.io.ByteArrayInputStream: int pos>"},{"step":261,"from":"1093281776","to":"1093281776.arrayIdx_int:82","type":"load","field":"arrayIdx_int:82"},{"step":262,"from":"sdaReg154","to":"1093240224","type":"store","field":"<java.io.ObjectInputStream: byte pushbackTC>"},{"step":263,"from":"1093240224.<java.io.ObjectInputStream: boolean mustResolve>","to":"1093240224","type":"store","field":"<java.io.ObjectInputStream: boolean mustResolve>"},{"step":264,"from":"1093240224","to":"1093240224.<java.io.ObjectInputStream: boolean hasPushbackTC>","type":"load","field":"<java.io.ObjectInputStream: boolean hasPushbackTC>"},{"step":265,"from":"1093240224","to":"1093292592","type":"load","field":"<java.io.ObjectInputStream: java.io.DataInputStream input>"},{"step":266,"from":"1093292592","to":"1093296112","type":"load","field":"<java.io.FilterInputStream: java.io.InputStream in>"},{"step":267,"from":"1093296112","to":"1093296112.<java.io.ByteArrayInputStream: int count>","type":"load","field":"<java.io.ByteArrayInputStream: int count>"},{"step":268,"from":"1093296112","to":"1093281776","type":"load","field":"<java.io.ByteArrayInputStream: byte[] buf>"},{"step":269,"from":"sdaReg160","to":"1093296112","type":"store","field":"<java.io.ByteArrayInputStream: int pos>"},{"step":270,"from":"1093281776","to":"1093281776.arrayIdx_int:83","type":"load","field":"arrayIdx_int:83"},{"step":271,"from":"sdaReg162","to":"1093240224","type":"store","field":"<java.io.ObjectInputStream: byte pushbackTC>"}],"parameters":[{"id":"1093240224","name":"this","klass":"java.io.ObjectInputStream"}],"returns":[{"id":"1093684944","name":"return","klass":"java.io.ObjectStreamClass"}],"colors":{"heapLocToColor":{"sdaReg13":[1],"sdaReg14":[0],"sdaReg11":[0],"sdaReg12":[1],"sdaReg10":[0],"1093388880":[0],"sdaReg19":[0],"sdaReg17":[3],"sdaReg18":[3],"sdaReg15":[0],"sdaReg16":[0],"1093315184":[9],"1093447576":[4],"1093388792":[0],"1093240224.<java.io.ObjectInputStream: boolean hasPushbackTC>":[0],"1093296112.<java.io.ByteArrayInputStream: byte[] buf>":[0],"1093240224.<java.io.ObjectInputStream: java.io.DataInputStream input>":[0],"1093240224.<java.io.ObjectInputStream: java.util.ArrayList objectsRead>":[0],"1093296112":[0],"1093546440":[14],"1093240224.<java.io.ObjectInputStream: java.io.InputStream emptyStream>":[0],"sdaReg60":[0],"sdaReg61":[0],"1093684944":[0, 1],"1093296112.<java.io.ByteArrayInputStream: int count>":[0],"sdaReg58":[10],"sdaReg57":[0],"1093281776":[0],"sdaReg56":[1],"sdaReg55":[0],"1093283736":[0, 1, 26],"sdaReg53":[0],"sdaReg52":[0],"sdaReg51":[0],"1093603784":[0],"sdaReg48":[1],"sdaReg47":[0],"sdaReg46":[0],"sdaReg41":[0],"sdaReg40":[0, 1],"sdaReg42":[1],"1093281096":[0, 1, 38, 25],"1093546416.arrayIdx_int:0":[13],"1093546416":[13],"sdaReg39":[0],"sdaReg37":[0],"sdaReg32":[1, 6],"sdaReg31":[4],"sdaReg36":[0],"sdaReg35":[1, 8],"sdaReg34":[0],"sdaReg33":[7],"sdaReg9":[0],"sdaReg7":[0],"sdaReg4":[0],"sdaReg5":[0],"sdaReg3":[0],"sdaReg2":[0],"sdaReg1":[0],"sdaReg21":[0],"sdaReg0":[0],"sdaReg20":[0],"sdaReg22":[4],"sdaReg25":[5],"sdaReg24":[4],"sdaReg125":[34, 33, 26],"1093447576.arrayIdx_int:15":[4],"sdaReg126":[35],"1093447576.arrayIdx_int:16":[4],"sdaReg127":[35],"1093447576.arrayIdx_int:13":[4],"sdaReg128":[34, 33, 26],"1093447576.arrayIdx_int:14":[4],"sdaReg129":[33, 36, 26],"1093447576.arrayIdx_int:19":[4],"1093447576.arrayIdx_int:17":[4],"1093447576.arrayIdx_int:18":[4],"1093420056":[0, 1, 11],"sdaReg68":[0],"1093510072":[0, 1, 25],"sdaReg69":[12],"sdaReg66":[0],"sdaReg67":[0],"sdaReg64":[0],"sdaReg65":[0],"sdaReg63":[0],"sdaReg72":[0],"sdaReg71":[0],"sdaReg70":[12],"sdaReg120":[31],"1093447576.arrayIdx_int:12":[4],"sdaReg122":[0, 1, 29, 30],"1093447576.arrayIdx_int:11":[4],"sdaReg121":[31],"1093447576.arrayIdx_int:10":[4],"sdaReg124":[33, 26],"sdaReg123":[0, 1, 32, 29],"1093447576.arrayIdx_int:24":[4],"sdaReg116":[26, 28],"1093447576.arrayIdx_int:25":[4],"sdaReg117":[0, 1, 27, 26, 28],"1093447576.arrayIdx_int:26":[4],"sdaReg114":[26],"1093447576.arrayIdx_int:27":[4],"sdaReg115":[0, 1, 27],"1093447576.arrayIdx_int:28":[4],"1093447576.arrayIdx_int:29":[4],"sdaReg118":[0, 1, 29],"sdaReg119":[0, 1, 29, 30],"sdaReg77":[14],"sdaReg73":[0],"sdaReg74":[13],"sdaReg76":[13],"sdaReg83":[13],"1083994088":[0],"1093447576.arrayIdx_int:21":[4],"sdaReg113":[0, 1, 25],"1093447576.arrayIdx_int:20":[4],"sdaReg112":[0, 1],"1093447576.arrayIdx_int:23":[4],"sdaReg111":[0],"1093447576.arrayIdx_int:22":[4],"sdaReg110":[0, 25],"sdaReg108":[0],"1093447576.arrayIdx_int:39":[4],"sdaReg109":[1],"1093447576.arrayIdx_int:37":[4],"sdaReg103":[1],"1093447576.arrayIdx_int:38":[4],"1093447576.arrayIdx_int:35":[4],"1093447576.arrayIdx_int:36":[4],"sdaReg106":[0],"sdaReg86":[17],"sdaReg87":[17],"sdaReg84":[15],"sdaReg85":[16],"sdaReg88":[18],"sdaReg89":[17, 19],"sdaReg90":[20],"1093296112.<java.io.ByteArrayInputStream: int pos>":[0],"1083909616":[24],"sdaReg94":[20],"sdaReg93":[17, 21, 22],"sdaReg92":[17, 21],"sdaReg91":[20],"1093447576.arrayIdx_int:34":[4],"1093447576.arrayIdx_int:33":[4],"1093447576.arrayIdx_int:32":[4],"sdaReg102":[0],"1093447576.arrayIdx_int:31":[4],"1093292592.<java.io.DataInputStream: byte[] scratch>":[0],"1093603784.<java.util.ArrayList: int size>":[0],"sdaReg101":[1],"1093447576.arrayIdx_int:30":[4],"1093292592":[0],"1093447576.arrayIdx_int:46":[4],"1093447576.arrayIdx_int:47":[4],"1093447576.arrayIdx_int:48":[4],"1093447576.arrayIdx_int:49":[4],"sdaReg95":[23],"sdaReg98":[20],"sdaReg99":[20],"1093447656":[5],"1084339448":[2],"1093447576.arrayIdx_int:43":[4],"1093447576.arrayIdx_int:42":[4],"1093447576.arrayIdx_int:45":[4],"1093447576.arrayIdx_int:44":[4],"1093447576.arrayIdx_int:41":[4],"1093508504":[20],"1093447576.arrayIdx_int:40":[4],"1093240224":[0],"1093447576.arrayIdx_int:9":[4],"1093292592.<java.io.FilterInputStream: java.io.InputStream in>":[0],"1093447576.arrayIdx_int:8":[4],"1093447576.arrayIdx_int:7":[4],"1093447576.arrayIdx_int:6":[4],"1093447576.arrayIdx_int:5":[4],"1093447576.arrayIdx_int:4":[4],"1093447576.arrayIdx_int:3":[4],"1093447576.arrayIdx_int:58":[4],"1093447576.arrayIdx_int:2":[4],"1093447576.arrayIdx_int:57":[4],"1093447576.arrayIdx_int:1":[4],"1093447576.arrayIdx_int:0":[4],"sdaReg161":[0],"1093447576.arrayIdx_int:51":[4],"sdaReg162":[0],"1093447576.arrayIdx_int:52":[4],"1093447576.arrayIdx_int:50":[4],"sdaReg165":[0, 1],"1093240224.<java.io.ObjectInputStream: int descriptorHandle>":[0],"1093447576.arrayIdx_int:55":[4],"1093447576.arrayIdx_int:56":[4],"sdaReg167":[41],"1093447576.arrayIdx_int:53":[4],"sdaReg168":[0, 1],"1093447576.arrayIdx_int:54":[4],"static.<java.nio.ByteOrder: java.nio.ByteOrder BIG_ENDIAN>":[2],"1093281776.arrayIdx_int:5":[0],"1093603784.<java.util.AbstractList: int modCount>":[0],"sdaReg159":[0],"sdaReg158":[0],"sdaReg153":[0],"sdaReg150":[0],"sdaReg151":[0],"sdaReg156":[0],"sdaReg157":[0],"sdaReg154":[0],"1093240224.<java.io.ObjectInputStream: int nextHandle>":[0],"sdaReg147":[0],"sdaReg149":[0],"sdaReg143":[39],"sdaReg144":[20],"sdaReg145":[40],"1093281776.arrayIdx_int:78":[0],"1093281776.arrayIdx_int:75":[0],"sdaReg141":[20],"sdaReg142":[0, 1, 38, 25],"1093240224.<java.io.ObjectInputStream: boolean mustResolve>":[0],"sdaReg138":[0, 1, 11],"sdaReg137":[0, 1, 38, 25],"sdaReg136":[0, 1, 38, 25],"sdaReg134":[0, 1, 25],"sdaReg135":[0, 1, 25],"sdaReg132":[0, 1, 11],"sdaReg133":[0, 1, 11],"sdaReg130":[37],"sdaReg131":[0, 1, 11],"static.<java.lang.Integer: java.lang.Class TYPE>":[24],"1093281776.arrayIdx_int:82":[0],"1093281776.arrayIdx_int:83":[0]},"colorToColor":{"34":[33, 36, 26],"0":[0, 1, 32, 3, 4, 42, 8, 9, 10, 12, 13, 17, 16, 25, 26, 29],"1":[0, 1, 32, 42, 25, 9, 26, 29],"33":[33, 36, 26],"4":[5],"5":[6],"6":[1],"8":[1],"9":[0],"11":[1],"13":[14],"14":[15],"15":[20],"17":[17, 19, 20],"21":[20],"20":[1, 11],"22":[20],"25":[0, 1, 26],"24":[20],"26":[0, 1, 33, 36, 26],"29":[0, 1, 32, 29],"30":[0, 1, 32, 29]},"colorToLabel":{"0":"this","2":"<java.nio.ByteOrder: java.nio.ByteOrder BIG_ENDIAN>","24":"<java.lang.Integer: java.lang.Class TYPE>","42":"return"}}}

Generated Model
	this->return

