Scanning method <java.io.ObjectInputStream: void close()>

All seen event types: MethodReturnRecord, MethodCallRecord, MethodStartRecord, LoadInstanceRecord, MethodEndRecord, IfRecord, StoreInstanceRecord, 
Ignored event types: IfRecord, 

JSON Encoded Analysis Data (for visualization):{"heapEdges":[{"step":0,"from":"1094171944","to":"1094155288","type":"load","field":"<java.io.ObjectInputStream: java.io.DataInputStream input>"},{"step":1,"from":"1094155288","to":"1094155488","type":"load","field":"<java.io.FilterInputStream: java.io.InputStream in>"},{"step":2,"from":"1094155488","to":"sdaReg2","type":"create","field":"<java.io.BufferedInputStream: byte[] buf>"},{"step":3,"from":"1094155488","to":"1094155456","type":"load","field":"<java.io.FilterInputStream: java.io.InputStream in>"},{"step":4,"from":"1094155488","to":"sdaReg3","type":"create","field":"<java.io.FilterInputStream: java.io.InputStream in>"}],"parameters":[{"id":"1094171944","name":"this","klass":"java.io.ObjectInputStream"}],"returns":[{"id":null,"name":"return","klass":null}],"colors":{"heapLocToColor":{"1094171944":[0],"1094155488":[0],"1094155288":[0],"sdaReg4":[0],"1094155456":[0],"sdaReg1":[0],"sdaReg0":[0]},"colorToColor":{},"colorToLabel":{"0":"this","1":"return"}}}

Generated Model

