Scanning method <java.util.TreeMap$Node: java.util.TreeMap$Node first()>

All seen event types: SimpleAssignmentRecord, LoadInstanceRecord, IfRecord, 
Ignored event types: IfRecord, 

JSON Encoded Analysis Data (for visualization):{"heapEdges":[{"step":0,"from":"1094410832","to":"1094410792","type":"load","field":"<java.util.TreeMap$Node: java.util.TreeMap$Node left>"}],"parameters":[{"id":"1094410832","name":"this","klass":"java.util.TreeMap$Node"}],"returns":[{"id":"1094410792","name":"return","klass":"java.util.TreeMap$Node"}],"colors":{"heapLocToColor":{"1094410832":[0],"1094410792":[0]},"colorToColor":{"0":[1]},"colorToLabel":{"0":"this","1":"return"}}}

Generated Model
	this->return

