Scanning method <java.io.ByteArrayInputStream: long skip(long)>

All seen event types: BinaryOperationRecord, CastRecord, LoadInstanceRecord, IfRecord, StoreInstanceRecord, 
Ignored event types: IfRecord, 

JSON Encoded Analysis Data (for visualization):{"heapEdges":[{"step":0,"from":"1093631272","to":"1093631272.<java.io.ByteArrayInputStream: int pos>","type":"load","field":"<java.io.ByteArrayInputStream: int pos>"},{"step":1,"from":"1093631272","to":"1093631272.<java.io.ByteArrayInputStream: int count>","type":"load","field":"<java.io.ByteArrayInputStream: int count>"},{"step":2,"from":"1093631272","to":"1093631272.<java.io.ByteArrayInputStream: int pos>","type":"load","field":"<java.io.ByteArrayInputStream: int pos>"},{"step":3,"from":"1093631272","to":"1093631272.<java.io.ByteArrayInputStream: int pos>","type":"load","field":"<java.io.ByteArrayInputStream: int pos>"},{"step":4,"from":"sdaReg7","to":"1093631272","type":"store","field":"<java.io.ByteArrayInputStream: int pos>"}],"parameters":[{"id":"1093631272","name":"this","klass":"java.io.ByteArrayInputStream"},{"id":"sdaReg0","name":"arg#1","klass":"long"}],"returns":[{"id":"sdaReg9","name":"return","klass":"long"}],"colors":{"heapLocToColor":{"sdaReg8":[0],"sdaReg9":[0],"sdaReg6":[0, 1],"sdaReg7":[0, 1],"sdaReg4":[0, 1],"sdaReg5":[0],"1093631272.<java.io.ByteArrayInputStream: int count>":[0],"1093631272":[0],"sdaReg3":[0],"sdaReg2":[0],"sdaReg1":[1],"sdaReg0":[1],"1093631272.<java.io.ByteArrayInputStream: int pos>":[0]},"colorToColor":{"0":[0, 2],"1":[0]},"colorToLabel":{"0":"this","1":"arg#1","2":"return"}}}

Generated Model
	this->return
	arg#1->this
	arg#1->return

