Scanning method <java.util.Vector$1: boolean hasMoreElements()>

All seen event types: SimpleAssignmentRecord, LoadInstanceRecord, IfRecord, 
Ignored event types: IfRecord, 

JSON Encoded Analysis Data (for visualization):{"heapEdges":[{"step":0,"from":"1094394416","to":"1094394416.<java.util.Vector$1: int pos>","type":"load","field":"<java.util.Vector$1: int pos>"},{"step":1,"from":"1094394416","to":"1094285128","type":"load","field":"<java.util.Vector$1: java.util.Vector this$0>"},{"step":2,"from":"1094285128","to":"1094285128.<java.util.Vector: int elementCount>","type":"load","field":"<java.util.Vector: int elementCount>"}],"parameters":[{"id":"1094394416","name":"this","klass":"java.util.Vector$1"}],"returns":[{"id":"sdaReg0","name":"return","klass":"boolean"}],"colors":{"heapLocToColor":{"1094394416":[0],"1094394416.<java.util.Vector$1: int pos>":[0],"1094285128":[0],"1094285128.<java.util.Vector: int elementCount>":[0]},"colorToColor":{},"colorToLabel":{"0":"this","1":"return"}}}

Generated Model

