Scanning method <android.os.Bundle: java.lang.String[] getStringArray(java.lang.String)>

All seen event types: StoreArrayRecord, SimpleAssignmentRecord, ExitMonitorRecord, MethodStartRecord, LoadInstanceRecord, IfRecord, NewObjectRecord, StoreInstanceRecord, LoadStaticRecord, NewArrayRecord, BinaryOperationRecord, MethodCallRecord, MethodReturnRecord, SwitchRecord, EnterMonitorRecord, ArrayLengthRecord, CastRecord, LoadArrayRecord, MethodEndRecord, 
Ignored event types: ExitMonitorRecord, SwitchRecord, EnterMonitorRecord, IfRecord, 

JSON Encoded Analysis Data (for visualization):{"heapEdges":[{"step":0,"from":"1093577440","to":"1093449816","type":"load","field":"<android.os.Bundle: android.os.Parcel mParcelledData>"},{"step":1,"from":"1093577440","to":"1093449816","type":"load","field":"<android.os.Bundle: android.os.Parcel mParcelledData>"},{"step":2,"from":"1093449816","to":"sdaReg2","type":"model"},{"step":3,"from":"static.<java.util.HashMap: java.util.Map$Entry[] EMPTY_TABLE>","to":"1083997920","type":"load","field":"<java.util.HashMap: java.util.Map$Entry[] EMPTY_TABLE>"},{"step":4,"from":"1083997920","to":"1093928928","type":"store","field":"<java.util.HashMap: java.util.HashMap$HashMapEntry[] table>"},{"step":5,"from":"1093928928","to":"sdaReg9","type":"create","field":"<java.util.HashMap: int threshold>"},{"step":6,"from":"1093577440","to":"1093928928","type":"create","field":"<android.os.Bundle: java.util.Map mMap>"},{"step":7,"from":"1093577440","to":"1093449816","type":"load","field":"<android.os.Bundle: android.os.Parcel mParcelledData>"},{"step":8,"from":"1093449816","to":"sdaReg16","type":"model"},{"step":9,"from":"1093449816","to":"sdaReg17","type":"model"},{"step":10,"from":"1093449816","to":"sdaReg21","type":"model"},{"step":11,"from":"1093449816","to":"sdaReg24","type":"model"},{"step":12,"from":"1093449816","to":"sdaReg26","type":"model"},{"step":13,"from":"sdaReg26","to":"1093769744","type":"store","field":"arrayIdx_int:0"},{"step":14,"from":"1093449816","to":"sdaReg27","type":"model"},{"step":15,"from":"sdaReg27","to":"1093769744","type":"store","field":"arrayIdx_int:1"},{"step":16,"from":"1093449816","to":"sdaReg28","type":"model"},{"step":17,"from":"sdaReg28","to":"1093769744","type":"store","field":"arrayIdx_int:2"},{"step":18,"from":"1093928928","to":"1093928928.<java.util.HashMap: int modCount>","type":"load","field":"<java.util.HashMap: int modCount>"},{"step":19,"from":"sdaReg46","to":"1093928928","type":"store","field":"<java.util.HashMap: int modCount>"},{"step":20,"from":"1093928928","to":"1093928928.<java.util.HashMap: int size>","type":"load","field":"<java.util.HashMap: int size>"},{"step":21,"from":"sdaReg47","to":"1093928928","type":"store","field":"<java.util.HashMap: int size>"},{"step":22,"from":"1093928928","to":"1093742256","type":"create","field":"<java.util.HashMap: java.util.HashMap$HashMapEntry[] table>"},{"step":23,"from":"sdaReg55","to":"1093928928","type":"store","field":"<java.util.HashMap: int threshold>"},{"step":24,"from":"1093647584","to":"1093743992","type":"store","field":"<java.util.HashMap$HashMapEntry: java.lang.Object key>"},{"step":25,"from":"1093743992","to":"1093769744","type":"create","field":"<java.util.HashMap$HashMapEntry: java.lang.Object value>"},{"step":26,"from":"sdaReg42","to":"1093743992","type":"store","field":"<java.util.HashMap$HashMapEntry: int hash>"},{"step":27,"from":"1093742256","to":"1093743992","type":"create","field":"arrayIdx_int:2"},{"step":28,"from":"1093577440","to":"1093449816","type":"load","field":"<android.os.Bundle: android.os.Parcel mParcelledData>"},{"step":29,"from":"1093449816","to":"1093449816.<android.os.Parcel: int mOwnObject>","type":"load","field":"<android.os.Parcel: int mOwnObject>"},{"step":30,"from":"static.<android.os.Parcel: android.os.Parcel[] sOwnedPool>","to":"1084044960","type":"load","field":"<android.os.Parcel: android.os.Parcel[] sOwnedPool>"},{"step":31,"from":"1093449816","to":"1084044960","type":"store","field":"arrayIdx_int:0"},{"step":32,"from":"1093577440","to":"sdaReg74","type":"create","field":"<android.os.Bundle: android.os.Parcel mParcelledData>"}],"parameters":[{"id":"1093577440","name":"this","klass":"android.os.Bundle"},{"id":"sdaReg0","name":"arg#1","klass":"string"}],"returns":[{"id":"1093769744","name":"return","klass":"java.lang.String[]"}],"colors":{"heapLocToColor":{"sdaReg61":[3],"1093577440":[0],"1093449816":[0],"1084044960":[16],"sdaReg68":[15],"sdaReg69":[15],"sdaReg66":[9],"sdaReg64":[15],"sdaReg63":[9],"sdaReg72":[16],"sdaReg71":[16],"sdaReg14":[0],"sdaReg70":[0],"sdaReg11":[0],"sdaReg12":[3],"sdaReg10":[3],"sdaReg58":[14],"sdaReg56":[14],"sdaReg19":[0],"1083997920":[4],"sdaReg17":[0, 6],"sdaReg16":[0, 5],"sdaReg51":[3],"1093743992":[15],"1093577440.<android.os.Bundle: android.os.Parcel mParcelledData>":[0],"sdaReg77":[17],"sdaReg78":[17],"sdaReg79":[17],"sdaReg75":[3],"sdaReg76":[17],"sdaReg81":[17],"sdaReg80":[17],"1093769744":[9],"sdaReg83":[17],"sdaReg82":[17],"sdaReg48":[3],"1093449816.<android.os.Parcel: int mOwnObject>":[0],"sdaReg45":[13],"sdaReg47":[3],"sdaReg46":[3],"sdaReg41":[13],"sdaReg40":[13],"sdaReg42":[13],"static.<android.os.Parcel: android.os.Parcel[] sOwnedPool>":[16],"sdaReg87":[17],"sdaReg84":[17],"sdaReg88":[18],"sdaReg89":[9],"sdaReg90":[9],"sdaReg39":[13],"sdaReg38":[13],"sdaReg37":[13],"sdaReg91":[9],"sdaReg31":[3],"static.<java.util.HashMap: java.util.Map$Entry[] EMPTY_TABLE>":[4],"sdaReg30":[9],"sdaReg36":[13],"sdaReg35":[13],"sdaReg34":[13],"sdaReg33":[9],"1093742256":[14],"sdaReg8":[4],"sdaReg6":[3],"sdaReg7":[4],"sdaReg4":[3],"sdaReg5":[3],"1093928928":[3],"sdaReg27":[0, 11],"sdaReg26":[0, 10],"sdaReg29":[9],"sdaReg28":[0, 12],"sdaReg3":[3],"1093928928.<java.util.HashMap: int size>":[3],"sdaReg2":[0, 2],"sdaReg21":[0, 7],"sdaReg1":[0],"sdaReg0":[1],"sdaReg22":[0],"sdaReg24":[0, 8],"1093928928.<java.util.HashMap: int modCount>":[3]},"colorToColor":{"0":[16, 9],"3":[0, 3],"4":[3],"9":[19, 15],"10":[9],"11":[9],"12":[9],"13":[15],"14":[3],"15":[14]},"colorToLabel":{"0":"this","1":"arg#1","4":"<java.util.HashMap: java.util.Map$Entry[] EMPTY_TABLE>","16":"<android.os.Parcel: android.os.Parcel[] sOwnedPool>","19":"return"}}}

Generated Model
	this->return
	this-><android.os.Parcel: android.os.Parcel[] sOwnedPool>

