Scanning method <java.util.TreeMap$MapIterator: boolean hasNext()>

All seen event types: SimpleAssignmentRecord, LoadInstanceRecord, IfRecord, 
Ignored event types: IfRecord, 

JSON Encoded Analysis Data (for visualization):{"heapEdges":[],"parameters":[{"id":"1093292648","name":"this","klass":"java.util.TreeMap$MapIterator"}],"returns":[{"id":"sdaReg0","name":"return","klass":"boolean"}],"colors":{"heapLocToColor":{"1093292648":[0]},"colorToColor":{},"colorToLabel":{"0":"this","1":"return"}}}

Generated Model

