Scanning method <java.util.TreeMap: void rebalance(java.util.TreeMap$Node,boolean)>

All seen event types: LoadStaticRecord, BinaryOperationRecord, SimpleAssignmentRecord, MethodReturnRecord, MethodCallRecord, MethodStartRecord, LoadInstanceRecord, MethodEndRecord, IfRecord, StoreInstanceRecord, 
Ignored event types: IfRecord, 

JSON Encoded Analysis Data (for visualization):{"heapEdges":[{"step":0,"from":"1093684784","to":"1093544664","type":"load","field":"<java.util.TreeMap$Node: java.util.TreeMap$Node right>"},{"step":1,"from":"1093544664","to":"1093544664.<java.util.TreeMap$Node: int height>","type":"load","field":"<java.util.TreeMap$Node: int height>"},{"step":2,"from":"static.<java.util.TreeMap: boolean $assertionsDisabled>","to":"static.<java.util.TreeMap: boolean $assertionsDisabled>","type":"load","field":"<java.util.TreeMap: boolean $assertionsDisabled>"},{"step":3,"from":"sdaReg3","to":"sdaReg4","type":"model"},{"step":4,"from":"sdaReg3","to":"sdaReg6","type":"model"},{"step":5,"from":"sdaReg4","to":"sdaReg3","type":"model"},{"step":6,"from":"sdaReg4","to":"sdaReg6","type":"model"},{"step":7,"from":"sdaReg7","to":"1093684784","type":"store","field":"<java.util.TreeMap$Node: int height>"},{"step":8,"from":"1093684784","to":"1094090032","type":"load","field":"<java.util.TreeMap$Node: java.util.TreeMap$Node parent>"},{"step":9,"from":"1094090032","to":"1094089992","type":"load","field":"<java.util.TreeMap$Node: java.util.TreeMap$Node left>"},{"step":10,"from":"1094090032","to":"1093684784","type":"load","field":"<java.util.TreeMap$Node: java.util.TreeMap$Node right>"},{"step":11,"from":"1094089992","to":"1094089992.<java.util.TreeMap$Node: int height>","type":"load","field":"<java.util.TreeMap$Node: int height>"},{"step":12,"from":"static.<java.util.TreeMap: boolean $assertionsDisabled>","to":"static.<java.util.TreeMap: boolean $assertionsDisabled>","type":"load","field":"<java.util.TreeMap: boolean $assertionsDisabled>"},{"step":13,"from":"sdaReg3","to":"sdaReg4","type":"model"},{"step":14,"from":"sdaReg3","to":"sdaReg8","type":"model"},{"step":15,"from":"sdaReg4","to":"sdaReg3","type":"model"},{"step":16,"from":"sdaReg4","to":"sdaReg8","type":"model"},{"step":17,"from":"sdaReg7","to":"1094090032","type":"store","field":"<java.util.TreeMap$Node: int height>"},{"step":18,"from":"1094090032","to":"1093533024","type":"load","field":"<java.util.TreeMap$Node: java.util.TreeMap$Node parent>"},{"step":19,"from":"1093533024","to":"1093532944","type":"load","field":"<java.util.TreeMap$Node: java.util.TreeMap$Node left>"},{"step":20,"from":"1093533024","to":"1094090032","type":"load","field":"<java.util.TreeMap$Node: java.util.TreeMap$Node right>"},{"step":21,"from":"1093532944","to":"1093532944.<java.util.TreeMap$Node: int height>","type":"load","field":"<java.util.TreeMap$Node: int height>"},{"step":22,"from":"static.<java.util.TreeMap: boolean $assertionsDisabled>","to":"static.<java.util.TreeMap: boolean $assertionsDisabled>","type":"load","field":"<java.util.TreeMap: boolean $assertionsDisabled>"},{"step":23,"from":"sdaReg3","to":"sdaReg4","type":"model"},{"step":24,"from":"sdaReg3","to":"sdaReg9","type":"model"},{"step":25,"from":"sdaReg4","to":"sdaReg3","type":"model"},{"step":26,"from":"sdaReg4","to":"sdaReg9","type":"model"},{"step":27,"from":"sdaReg7","to":"1093533024","type":"store","field":"<java.util.TreeMap$Node: int height>"},{"step":28,"from":"1093533024","to":"1094178200","type":"load","field":"<java.util.TreeMap$Node: java.util.TreeMap$Node parent>"},{"step":29,"from":"1094178200","to":"1095218224","type":"load","field":"<java.util.TreeMap$Node: java.util.TreeMap$Node left>"},{"step":30,"from":"1094178200","to":"1093533024","type":"load","field":"<java.util.TreeMap$Node: java.util.TreeMap$Node right>"},{"step":31,"from":"1095218224","to":"1095218224.<java.util.TreeMap$Node: int height>","type":"load","field":"<java.util.TreeMap$Node: int height>"},{"step":32,"from":"1093533024","to":"1093532944","type":"load","field":"<java.util.TreeMap$Node: java.util.TreeMap$Node left>"},{"step":33,"from":"1093533024","to":"1094090032","type":"load","field":"<java.util.TreeMap$Node: java.util.TreeMap$Node right>"},{"step":34,"from":"1093532944","to":"1093532944.<java.util.TreeMap$Node: int height>","type":"load","field":"<java.util.TreeMap$Node: int height>"},{"step":35,"from":"1094178200","to":"1095218224","type":"load","field":"<java.util.TreeMap$Node: java.util.TreeMap$Node left>"},{"step":36,"from":"1094178200","to":"1093533024","type":"load","field":"<java.util.TreeMap$Node: java.util.TreeMap$Node right>"},{"step":37,"from":"1093533024","to":"1093532944","type":"load","field":"<java.util.TreeMap$Node: java.util.TreeMap$Node left>"},{"step":38,"from":"1093533024","to":"1094090032","type":"load","field":"<java.util.TreeMap$Node: java.util.TreeMap$Node right>"},{"step":39,"from":"1093532944","to":"1094178200","type":"store","field":"<java.util.TreeMap$Node: java.util.TreeMap$Node right>"},{"step":40,"from":"1094178200","to":"1093532944","type":"store","field":"<java.util.TreeMap$Node: java.util.TreeMap$Node parent>"},{"step":41,"from":"1094178200","to":"1093447784","type":"load","field":"<java.util.TreeMap$Node: java.util.TreeMap$Node parent>"},{"step":42,"from":"1094178200","to":"sdaReg18","type":"create","field":"<java.util.TreeMap$Node: java.util.TreeMap$Node parent>"},{"step":43,"from":"1093447784","to":"1093533024","type":"store","field":"<java.util.TreeMap$Node: java.util.TreeMap$Node parent>"},{"step":44,"from":"1093447784","to":"1094753864","type":"load","field":"<java.util.TreeMap$Node: java.util.TreeMap$Node left>"},{"step":45,"from":"static.<java.util.TreeMap: boolean $assertionsDisabled>","to":"static.<java.util.TreeMap: boolean $assertionsDisabled>","type":"load","field":"<java.util.TreeMap: boolean $assertionsDisabled>"},{"step":46,"from":"1093533024","to":"1093447784","type":"store","field":"<java.util.TreeMap$Node: java.util.TreeMap$Node right>"},{"step":47,"from":"1094178200","to":"1093533024","type":"store","field":"<java.util.TreeMap$Node: java.util.TreeMap$Node left>"},{"step":48,"from":"1093533024","to":"1094178200","type":"store","field":"<java.util.TreeMap$Node: java.util.TreeMap$Node parent>"},{"step":49,"from":"1095218224","to":"1095218224.<java.util.TreeMap$Node: int height>","type":"load","field":"<java.util.TreeMap$Node: int height>"},{"step":50,"from":"1093532944","to":"1093532944.<java.util.TreeMap$Node: int height>","type":"load","field":"<java.util.TreeMap$Node: int height>"},{"step":51,"from":"1095218224.<java.util.TreeMap$Node: int height>","to":"1093532944.<java.util.TreeMap$Node: int height>","type":"model"},{"step":52,"from":"1095218224.<java.util.TreeMap$Node: int height>","to":"sdaReg19","type":"model"},{"step":53,"from":"1093532944.<java.util.TreeMap$Node: int height>","to":"1095218224.<java.util.TreeMap$Node: int height>","type":"model"},{"step":54,"from":"1093532944.<java.util.TreeMap$Node: int height>","to":"sdaReg19","type":"model"},{"step":55,"from":"sdaReg20","to":"1094178200","type":"store","field":"<java.util.TreeMap$Node: int height>"},{"step":56,"from":"sdaReg22","to":"1093533024","type":"store","field":"<java.util.TreeMap$Node: int height>"}],"parameters":[{"id":"1093233072","name":"this","klass":"java.util.TreeMap"},{"id":"1093684784","name":"arg#1","klass":"java.util.TreeMap$Node"},{"id":"sdaReg0","name":"arg#2","klass":"boolean"}],"returns":[{"id":null,"name":"return","klass":null}],"colors":{"heapLocToColor":{"1094178200.<java.util.TreeMap$Node: java.util.TreeMap$Node left>":[1],"1093447784":[1],"sdaReg13":[0],"sdaReg14":[1],"sdaReg11":[1],"sdaReg12":[1],"1093532944":[1],"1094089992.<java.util.TreeMap$Node: int height>":[1],"sdaReg19":[7],"sdaReg17":[1],"sdaReg15":[0],"1094089992":[1],"sdaReg16":[1],"1094090032.<java.util.TreeMap$Node: java.util.TreeMap$Node right>":[1],"1094090032":[1],"sdaReg8":[5],"1094178200":[1],"sdaReg9":[6],"sdaReg6":[4],"sdaReg7":[4, 5, 6],"sdaReg4":[1],"sdaReg5":[1],"1093544664":[1],"1093233072":[0],"1094178200.<java.util.TreeMap$Node: java.util.TreeMap$Node right>":[1],"1093533024.<java.util.TreeMap$Node: java.util.TreeMap$Node left>":[1],"1093533024.<java.util.TreeMap$Node: java.util.TreeMap$Node right>":[1],"1095218224.<java.util.TreeMap$Node: int height>":[1],"1093532944.<java.util.TreeMap$Node: int height>":[1],"1095218224":[1],"static.<java.util.TreeMap: boolean $assertionsDisabled>":[3],"sdaReg3":[1],"sdaReg21":[8],"1094753864":[1],"1093684784":[1],"sdaReg20":[7],"sdaReg0":[2],"1093533024":[1],"1093544664.<java.util.TreeMap$Node: int height>":[1],"sdaReg22":[8]},"colorToColor":{"1":[1, 4, 5, 6, 7],"4":[1],"5":[1],"6":[1],"7":[1],"8":[1]},"colorToLabel":{"0":"this","1":"arg#1","2":"arg#2","3":"<java.util.TreeMap: boolean $assertionsDisabled>","9":"return"}}}

Generated Model

