Scanning method <java.util.TreeMap: void rebalance(java.util.TreeMap$Node,boolean)>

All seen event types: LoadStaticRecord, BinaryOperationRecord, SimpleAssignmentRecord, MethodReturnRecord, MethodCallRecord, LoadInstanceRecord, IfRecord, StoreInstanceRecord, 
Ignored event types: IfRecord, 

JSON Encoded Analysis Data (for visualization):{"heapEdges":[{"step":0,"from":"1096288112","to":"1096265440","type":"load","field":"<java.util.TreeMap$Node: java.util.TreeMap$Node right>"},{"step":1,"from":"1096265440","to":"1096265440.<java.util.TreeMap$Node: int height>","type":"load","field":"<java.util.TreeMap$Node: int height>"},{"step":2,"from":"static.<java.util.TreeMap: boolean $assertionsDisabled>","to":"static.<java.util.TreeMap: boolean $assertionsDisabled>","type":"load","field":"<java.util.TreeMap: boolean $assertionsDisabled>"},{"step":3,"from":"sdaReg3","to":"sdaReg4","type":"model"},{"step":4,"from":"sdaReg3","to":"sdaReg6","type":"model"},{"step":5,"from":"sdaReg4","to":"sdaReg3","type":"model"},{"step":6,"from":"sdaReg4","to":"sdaReg6","type":"model"},{"step":7,"from":"sdaReg7","to":"1096288112","type":"store","field":"<java.util.TreeMap$Node: int height>"},{"step":8,"from":"1096288112","to":"1096599536","type":"load","field":"<java.util.TreeMap$Node: java.util.TreeMap$Node parent>"},{"step":9,"from":"1096599536","to":"1096599912","type":"load","field":"<java.util.TreeMap$Node: java.util.TreeMap$Node left>"},{"step":10,"from":"1096599536","to":"1096288112","type":"load","field":"<java.util.TreeMap$Node: java.util.TreeMap$Node right>"},{"step":11,"from":"1096599912","to":"1096599912.<java.util.TreeMap$Node: int height>","type":"load","field":"<java.util.TreeMap$Node: int height>"},{"step":12,"from":"static.<java.util.TreeMap: boolean $assertionsDisabled>","to":"static.<java.util.TreeMap: boolean $assertionsDisabled>","type":"load","field":"<java.util.TreeMap: boolean $assertionsDisabled>"},{"step":13,"from":"sdaReg3","to":"sdaReg4","type":"model"},{"step":14,"from":"sdaReg3","to":"sdaReg8","type":"model"},{"step":15,"from":"sdaReg4","to":"sdaReg3","type":"model"},{"step":16,"from":"sdaReg4","to":"sdaReg8","type":"model"},{"step":17,"from":"sdaReg7","to":"1096599536","type":"store","field":"<java.util.TreeMap$Node: int height>"},{"step":18,"from":"1096599536","to":"1097092104","type":"load","field":"<java.util.TreeMap$Node: java.util.TreeMap$Node parent>"},{"step":19,"from":"1097092104","to":"1095477992","type":"load","field":"<java.util.TreeMap$Node: java.util.TreeMap$Node left>"},{"step":20,"from":"1097092104","to":"1096599536","type":"load","field":"<java.util.TreeMap$Node: java.util.TreeMap$Node right>"},{"step":21,"from":"1095477992","to":"1095477992.<java.util.TreeMap$Node: int height>","type":"load","field":"<java.util.TreeMap$Node: int height>"},{"step":22,"from":"static.<java.util.TreeMap: boolean $assertionsDisabled>","to":"static.<java.util.TreeMap: boolean $assertionsDisabled>","type":"load","field":"<java.util.TreeMap: boolean $assertionsDisabled>"},{"step":23,"from":"sdaReg3","to":"sdaReg4","type":"model"},{"step":24,"from":"sdaReg3","to":"sdaReg9","type":"model"},{"step":25,"from":"sdaReg4","to":"sdaReg3","type":"model"},{"step":26,"from":"sdaReg4","to":"sdaReg9","type":"model"},{"step":27,"from":"sdaReg7","to":"1097092104","type":"store","field":"<java.util.TreeMap$Node: int height>"},{"step":28,"from":"1097092104","to":"1095563624","type":"load","field":"<java.util.TreeMap$Node: java.util.TreeMap$Node parent>"},{"step":29,"from":"1095563624","to":"1093544664","type":"load","field":"<java.util.TreeMap$Node: java.util.TreeMap$Node left>"},{"step":30,"from":"1095563624","to":"1097092104","type":"load","field":"<java.util.TreeMap$Node: java.util.TreeMap$Node right>"},{"step":31,"from":"1093544664","to":"1093544664.<java.util.TreeMap$Node: int height>","type":"load","field":"<java.util.TreeMap$Node: int height>"},{"step":32,"from":"static.<java.util.TreeMap: boolean $assertionsDisabled>","to":"static.<java.util.TreeMap: boolean $assertionsDisabled>","type":"load","field":"<java.util.TreeMap: boolean $assertionsDisabled>"},{"step":33,"from":"sdaReg3","to":"sdaReg4","type":"model"},{"step":34,"from":"sdaReg3","to":"sdaReg10","type":"model"},{"step":35,"from":"sdaReg4","to":"sdaReg3","type":"model"},{"step":36,"from":"sdaReg4","to":"sdaReg10","type":"model"},{"step":37,"from":"sdaReg7","to":"1095563624","type":"store","field":"<java.util.TreeMap$Node: int height>"},{"step":38,"from":"1095563624","to":"1093533024","type":"load","field":"<java.util.TreeMap$Node: java.util.TreeMap$Node parent>"},{"step":39,"from":"1093533024","to":"1093447784","type":"load","field":"<java.util.TreeMap$Node: java.util.TreeMap$Node left>"},{"step":40,"from":"1093533024","to":"1095563624","type":"load","field":"<java.util.TreeMap$Node: java.util.TreeMap$Node right>"},{"step":41,"from":"1093447784","to":"1093447784.<java.util.TreeMap$Node: int height>","type":"load","field":"<java.util.TreeMap$Node: int height>"},{"step":42,"from":"static.<java.util.TreeMap: boolean $assertionsDisabled>","to":"static.<java.util.TreeMap: boolean $assertionsDisabled>","type":"load","field":"<java.util.TreeMap: boolean $assertionsDisabled>"},{"step":43,"from":"sdaReg3","to":"sdaReg4","type":"model"},{"step":44,"from":"sdaReg3","to":"sdaReg11","type":"model"},{"step":45,"from":"sdaReg4","to":"sdaReg3","type":"model"},{"step":46,"from":"sdaReg4","to":"sdaReg11","type":"model"},{"step":47,"from":"sdaReg7","to":"1093533024","type":"store","field":"<java.util.TreeMap$Node: int height>"}],"parameters":[{"id":"1093233072","name":"this","klass":"java.util.TreeMap"},{"id":"1096288112","name":"arg#1","klass":"java.util.TreeMap$Node"},{"id":"sdaReg0","name":"arg#2","klass":"boolean"}],"returns":[{"id":null,"name":"return","klass":null}],"colors":{"heapLocToColor":{"1096265440.<java.util.TreeMap$Node: int height>":[1],"1093447784":[1],"1095563624.<java.util.TreeMap$Node: java.util.TreeMap$Node right>":[1],"sdaReg11":[8],"1096288112":[1],"sdaReg10":[7],"1095563624":[1],"1096599912.<java.util.TreeMap$Node: int height>":[1],"1096599536":[1],"1096599912":[1],"1097092104.<java.util.TreeMap$Node: java.util.TreeMap$Node right>":[1],"1096265440":[1],"sdaReg8":[5],"sdaReg9":[6],"sdaReg6":[4],"sdaReg7":[4, 5, 6, 7, 8],"sdaReg4":[1],"sdaReg5":[1],"1093447784.<java.util.TreeMap$Node: int height>":[1],"1093544664":[1],"1093233072":[0],"1097092104":[1],"1093533024.<java.util.TreeMap$Node: java.util.TreeMap$Node right>":[1],"static.<java.util.TreeMap: boolean $assertionsDisabled>":[3],"sdaReg3":[1],"1093533024":[1],"1096599536.<java.util.TreeMap$Node: java.util.TreeMap$Node right>":[1],"sdaReg0":[2],"1095477992":[1],"1093544664.<java.util.TreeMap$Node: int height>":[1],"1095477992.<java.util.TreeMap$Node: int height>":[1]},"colorToColor":{"1":[1, 4, 5, 6, 7, 8],"4":[1],"5":[1],"6":[1],"7":[1],"8":[1]},"colorToLabel":{"0":"this","1":"arg#1","2":"arg#2","3":"<java.util.TreeMap: boolean $assertionsDisabled>","9":"return"}}}

Generated Model

