Scanning method <java.util.TreeMap: void rebalance(java.util.TreeMap$Node,boolean)>

All seen event types: LoadStaticRecord, BinaryOperationRecord, SimpleAssignmentRecord, MethodReturnRecord, MethodCallRecord, MethodStartRecord, LoadInstanceRecord, MethodEndRecord, IfRecord, StoreInstanceRecord, 
Ignored event types: IfRecord, 

JSON Encoded Analysis Data (for visualization):{"heapEdges":[{"step":0,"from":"1096366064","to":"1097169792","type":"load","field":"<java.util.TreeMap$Node: java.util.TreeMap$Node right>"},{"step":1,"from":"1097169792","to":"1097169792.<java.util.TreeMap$Node: int height>","type":"load","field":"<java.util.TreeMap$Node: int height>"},{"step":2,"from":"static.<java.util.TreeMap: boolean $assertionsDisabled>","to":"static.<java.util.TreeMap: boolean $assertionsDisabled>","type":"load","field":"<java.util.TreeMap: boolean $assertionsDisabled>"},{"step":3,"from":"sdaReg3","to":"sdaReg4","type":"model"},{"step":4,"from":"sdaReg3","to":"sdaReg6","type":"model"},{"step":5,"from":"sdaReg4","to":"sdaReg3","type":"model"},{"step":6,"from":"sdaReg4","to":"sdaReg6","type":"model"},{"step":7,"from":"sdaReg7","to":"1096366064","type":"store","field":"<java.util.TreeMap$Node: int height>"},{"step":8,"from":"1096366064","to":"1096093824","type":"load","field":"<java.util.TreeMap$Node: java.util.TreeMap$Node parent>"},{"step":9,"from":"1096093824","to":"1096093784","type":"load","field":"<java.util.TreeMap$Node: java.util.TreeMap$Node left>"},{"step":10,"from":"1096093824","to":"1096366064","type":"load","field":"<java.util.TreeMap$Node: java.util.TreeMap$Node right>"},{"step":11,"from":"1096093784","to":"1096093784.<java.util.TreeMap$Node: int height>","type":"load","field":"<java.util.TreeMap$Node: int height>"},{"step":12,"from":"static.<java.util.TreeMap: boolean $assertionsDisabled>","to":"static.<java.util.TreeMap: boolean $assertionsDisabled>","type":"load","field":"<java.util.TreeMap: boolean $assertionsDisabled>"},{"step":13,"from":"sdaReg3","to":"sdaReg4","type":"model"},{"step":14,"from":"sdaReg3","to":"sdaReg8","type":"model"},{"step":15,"from":"sdaReg4","to":"sdaReg3","type":"model"},{"step":16,"from":"sdaReg4","to":"sdaReg8","type":"model"},{"step":17,"from":"sdaReg7","to":"1096093824","type":"store","field":"<java.util.TreeMap$Node: int height>"},{"step":18,"from":"1096093824","to":"1095979048","type":"load","field":"<java.util.TreeMap$Node: java.util.TreeMap$Node parent>"},{"step":19,"from":"1095979048","to":"1093788712","type":"load","field":"<java.util.TreeMap$Node: java.util.TreeMap$Node left>"},{"step":20,"from":"1095979048","to":"1096093824","type":"load","field":"<java.util.TreeMap$Node: java.util.TreeMap$Node right>"},{"step":21,"from":"1093788712","to":"1093788712.<java.util.TreeMap$Node: int height>","type":"load","field":"<java.util.TreeMap$Node: int height>"},{"step":22,"from":"1096093824","to":"1096093784","type":"load","field":"<java.util.TreeMap$Node: java.util.TreeMap$Node left>"},{"step":23,"from":"1096093824","to":"1096366064","type":"load","field":"<java.util.TreeMap$Node: java.util.TreeMap$Node right>"},{"step":24,"from":"1096093784","to":"1096093784.<java.util.TreeMap$Node: int height>","type":"load","field":"<java.util.TreeMap$Node: int height>"},{"step":25,"from":"1095979048","to":"1093788712","type":"load","field":"<java.util.TreeMap$Node: java.util.TreeMap$Node left>"},{"step":26,"from":"1095979048","to":"1096093824","type":"load","field":"<java.util.TreeMap$Node: java.util.TreeMap$Node right>"},{"step":27,"from":"1096093824","to":"1096093784","type":"load","field":"<java.util.TreeMap$Node: java.util.TreeMap$Node left>"},{"step":28,"from":"1096093824","to":"1096366064","type":"load","field":"<java.util.TreeMap$Node: java.util.TreeMap$Node right>"},{"step":29,"from":"1096093784","to":"1095979048","type":"store","field":"<java.util.TreeMap$Node: java.util.TreeMap$Node right>"},{"step":30,"from":"1095979048","to":"1096093784","type":"store","field":"<java.util.TreeMap$Node: java.util.TreeMap$Node parent>"},{"step":31,"from":"1095979048","to":"1093232440","type":"load","field":"<java.util.TreeMap$Node: java.util.TreeMap$Node parent>"},{"step":32,"from":"1095979048","to":"sdaReg17","type":"create","field":"<java.util.TreeMap$Node: java.util.TreeMap$Node parent>"},{"step":33,"from":"1093232440","to":"1096093824","type":"store","field":"<java.util.TreeMap$Node: java.util.TreeMap$Node parent>"},{"step":34,"from":"1093232440","to":"1093232360","type":"load","field":"<java.util.TreeMap$Node: java.util.TreeMap$Node left>"},{"step":35,"from":"static.<java.util.TreeMap: boolean $assertionsDisabled>","to":"static.<java.util.TreeMap: boolean $assertionsDisabled>","type":"load","field":"<java.util.TreeMap: boolean $assertionsDisabled>"},{"step":36,"from":"1096093824","to":"1093232440","type":"store","field":"<java.util.TreeMap$Node: java.util.TreeMap$Node right>"},{"step":37,"from":"1095979048","to":"1096093824","type":"store","field":"<java.util.TreeMap$Node: java.util.TreeMap$Node left>"},{"step":38,"from":"1096093824","to":"1095979048","type":"store","field":"<java.util.TreeMap$Node: java.util.TreeMap$Node parent>"},{"step":39,"from":"1093788712","to":"1093788712.<java.util.TreeMap$Node: int height>","type":"load","field":"<java.util.TreeMap$Node: int height>"},{"step":40,"from":"1096093784","to":"1096093784.<java.util.TreeMap$Node: int height>","type":"load","field":"<java.util.TreeMap$Node: int height>"},{"step":41,"from":"1093788712.<java.util.TreeMap$Node: int height>","to":"1096093784.<java.util.TreeMap$Node: int height>","type":"model"},{"step":42,"from":"1093788712.<java.util.TreeMap$Node: int height>","to":"sdaReg18","type":"model"},{"step":43,"from":"1096093784.<java.util.TreeMap$Node: int height>","to":"1093788712.<java.util.TreeMap$Node: int height>","type":"model"},{"step":44,"from":"1096093784.<java.util.TreeMap$Node: int height>","to":"sdaReg18","type":"model"},{"step":45,"from":"sdaReg19","to":"1095979048","type":"store","field":"<java.util.TreeMap$Node: int height>"},{"step":46,"from":"sdaReg21","to":"1096093824","type":"store","field":"<java.util.TreeMap$Node: int height>"}],"parameters":[{"id":"1093233072","name":"this","klass":"java.util.TreeMap"},{"id":"1096366064","name":"arg#1","klass":"java.util.TreeMap$Node"},{"id":"sdaReg0","name":"arg#2","klass":"boolean"}],"returns":[{"id":null,"name":"return","klass":null}],"colors":{"heapLocToColor":{"1096093824.<java.util.TreeMap$Node: java.util.TreeMap$Node right>":[1],"1096093824":[1],"1096093824.<java.util.TreeMap$Node: java.util.TreeMap$Node left>":[1],"1093232440":[1],"1095979048.<java.util.TreeMap$Node: java.util.TreeMap$Node right>":[1],"1095979048.<java.util.TreeMap$Node: java.util.TreeMap$Node left>":[1],"1096093784.<java.util.TreeMap$Node: int height>":[1],"sdaReg13":[1],"sdaReg14":[0],"sdaReg11":[1],"sdaReg12":[0],"sdaReg10":[1],"1093232360":[1],"1097169792.<java.util.TreeMap$Node: int height>":[1],"sdaReg19":[6],"1095979048":[1],"sdaReg18":[6],"sdaReg15":[1],"1096366064":[1],"1093788712":[1],"sdaReg16":[1],"sdaReg8":[5],"sdaReg6":[4],"sdaReg7":[4, 5],"sdaReg4":[1],"sdaReg5":[1],"1097169792":[1],"1093233072":[0],"1093788712.<java.util.TreeMap$Node: int height>":[1],"1096093784":[1],"static.<java.util.TreeMap: boolean $assertionsDisabled>":[3],"sdaReg3":[1],"sdaReg21":[7],"sdaReg20":[7],"sdaReg0":[2]},"colorToColor":{"1":[1, 4, 5, 6],"4":[1],"5":[1],"6":[1],"7":[1]},"colorToLabel":{"0":"this","1":"arg#1","2":"arg#2","3":"<java.util.TreeMap: boolean $assertionsDisabled>","8":"return"}}}

Generated Model

