Scanning method <java.nio.CharBuffer: java.nio.CharBuffer append(java.lang.CharSequence,int,int)>

All seen event types: BinaryOperationRecord, StoreArrayRecord, SimpleAssignmentRecord, MethodReturnRecord, MethodCallRecord, LoadInstanceRecord, MethodStartRecord, MethodEndRecord, IfRecord, StoreInstanceRecord, 
Ignored event types: IfRecord, 

JSON Encoded Analysis Data (for visualization):{"heapEdges":[{"step":0,"from":"1093467520","to":"1093467616","type":"model"},{"step":1,"from":"1093467616","to":"sdaReg4","type":"model"},{"step":2,"from":"1093467432","to":"1093467432.<java.nio.Buffer: int limit>","type":"load","field":"<java.nio.Buffer: int limit>"},{"step":3,"from":"1093467432","to":"1093467432.<java.nio.Buffer: int position>","type":"load","field":"<java.nio.Buffer: int position>"},{"step":4,"from":"sdaReg4","to":"sdaReg14","type":"model"},{"step":5,"from":"1093467432","to":"1093467432.<java.nio.Buffer: int position>","type":"load","field":"<java.nio.Buffer: int position>"},{"step":6,"from":"1093467432","to":"1093467432.<java.nio.Buffer: int limit>","type":"load","field":"<java.nio.Buffer: int limit>"},{"step":7,"from":"1093467432","to":"1093467480","type":"load","field":"<java.nio.CharArrayBuffer: char[] backingArray>"},{"step":8,"from":"1093467432","to":"1093467432.<java.nio.CharArrayBuffer: int offset>","type":"load","field":"<java.nio.CharArrayBuffer: int offset>"},{"step":9,"from":"1093467432","to":"1093467432.<java.nio.Buffer: int position>","type":"load","field":"<java.nio.Buffer: int position>"},{"step":10,"from":"sdaReg16","to":"1093467432","type":"store","field":"<java.nio.Buffer: int position>"},{"step":11,"from":"sdaReg14","to":"1093467480","type":"store","field":"arrayIdx_int:1"},{"step":12,"from":"sdaReg4","to":"sdaReg18","type":"model"},{"step":13,"from":"1093467432","to":"1093467432.<java.nio.Buffer: int limit>","type":"load","field":"<java.nio.Buffer: int limit>"},{"step":14,"from":"1093467432","to":"1093467480","type":"load","field":"<java.nio.CharArrayBuffer: char[] backingArray>"},{"step":15,"from":"1093467432","to":"1093467432.<java.nio.CharArrayBuffer: int offset>","type":"load","field":"<java.nio.CharArrayBuffer: int offset>"},{"step":16,"from":"sdaReg20","to":"1093467432","type":"store","field":"<java.nio.Buffer: int position>"},{"step":17,"from":"sdaReg18","to":"1093467480","type":"store","field":"arrayIdx_int:2"}],"parameters":[{"id":"1093467432","name":"this","klass":"java.nio.CharBuffer"},{"id":"1093467520","name":"arg#1","klass":"java.lang.CharSequence"},{"id":"sdaReg0","name":"arg#2","klass":"int"},{"id":"sdaReg1","name":"arg#3","klass":"int"}],"returns":[{"id":"1093467432","name":"return","klass":"java.nio.CharBuffer"}],"colors":{"heapLocToColor":{"1093467432.<java.nio.Buffer: int position>":[0],"1093467432.<java.nio.Buffer: int limit>":[0],"sdaReg14":[1, 4, 6, 9],"1093467480":[0],"sdaReg11":[0],"1093467616":[1, 4],"sdaReg12":[0],"sdaReg10":[7],"1093467432.<java.nio.CharArrayBuffer: int offset>":[0],"sdaReg19":[0],"sdaReg17":[0],"sdaReg18":[1, 4, 6, 10],"sdaReg15":[0],"sdaReg16":[0],"sdaReg9":[8],"sdaReg6":[7],"sdaReg7":[0],"sdaReg4":[1, 4, 6],"sdaReg5":[0],"1093467520":[1],"sdaReg3":[5],"1093467432.<java.nio.CharArrayBuffer: char[] backingArray>":[0],"sdaReg2":[1, 4],"1093467432":[0],"sdaReg21":[0],"sdaReg1":[3],"sdaReg0":[2],"sdaReg23":[0],"sdaReg22":[0]},"colorToColor":{"0":[0, 11],"1":[0],"4":[0],"6":[0],"9":[0],"10":[0]},"colorToLabel":{"0":"this","1":"arg#1","2":"arg#2","3":"arg#3","11":"return"}}}

Generated Model
	this->return
	arg#1->this
	arg#1->return

