Scanning method <java.net.InetSocketAddress: java.net.InetSocketAddress createUnresolved(java.lang.String,int)>

All seen event types: SimpleAssignmentRecord, MethodReturnRecord, MethodCallRecord, MethodStartRecord, IfRecord, MethodEndRecord, StoreInstanceRecord, NewObjectRecord, 
Ignored event types: IfRecord, 

JSON Encoded Analysis Data (for visualization):{"heapEdges":[{"step":0,"from":"sdaReg0","to":"1093653880","type":"store","field":"<java.net.InetSocketAddress: java.lang.String hostname>"},{"step":1,"from":"sdaReg1","to":"1093653880","type":"store","field":"<java.net.InetSocketAddress: int port>"}],"parameters":[{"id":"sdaReg0","name":"arg#0","klass":"string"},{"id":"sdaReg1","name":"arg#1","klass":"int"}],"returns":[{"id":"1093653880","name":"return","klass":"java.net.InetSocketAddress"}],"colors":{"heapLocToColor":{"sdaReg8":[2],"sdaReg6":[2],"sdaReg4":[2],"sdaReg5":[2],"sdaReg2":[2],"1093653880":[2],"sdaReg1":[1],"sdaReg0":[0]},"colorToColor":{"0":[2],"1":[2],"2":[3]},"colorToLabel":{"0":"arg#0","1":"arg#1","3":"return"}}}

Generated Model
	arg#1->return
	arg#0->return

