Scanning method <java.util.TreeMap$KeySet$1: void <init>(java.util.TreeMap$KeySet,java.util.TreeMap$Node)>

All seen event types: MethodReturnRecord, MethodCallRecord, MethodStartRecord, LoadInstanceRecord, MethodEndRecord, StoreInstanceRecord, 
Ignored event types: 

JSON Encoded Analysis Data (for visualization):{"heapEdges":[{"step":0,"from":"1093657248","to":"1093657264","type":"store","field":"<java.util.TreeMap$KeySet$1: java.util.TreeMap$KeySet this$1>"},{"step":1,"from":"1093657248","to":"1093585480","type":"load","field":"<java.util.TreeMap$KeySet: java.util.TreeMap this$0>"},{"step":2,"from":"1093585480","to":"1093657264","type":"store","field":"<java.util.TreeMap$MapIterator: java.util.TreeMap this$0>"},{"step":3,"from":"1093585480","to":"1093585480.<java.util.TreeMap: int modCount>","type":"load","field":"<java.util.TreeMap: int modCount>"},{"step":4,"from":"1093585480.<java.util.TreeMap: int modCount>","to":"1093657264","type":"store","field":"<java.util.TreeMap$MapIterator: int expectedModCount>"}],"parameters":[{"id":"1093657264","name":"this","klass":"java.util.TreeMap$KeySet$1"},{"id":"1093657248","name":"arg#1","klass":"java.util.TreeMap$KeySet"},{"id":"0","name":"arg#2","klass":"java.util.TreeMap$Node"}],"returns":[{"id":"1093657264","name":"return","klass":"java.util.TreeMap$KeySet$1"}],"colors":{"heapLocToColor":{"0":[2],"sdaReg4":[0],"1093585480":[1],"sdaReg3":[0],"sdaReg2":[2],"1093657264":[0],"1093585480.<java.util.TreeMap: int modCount>":[1],"sdaReg1":[1],"sdaReg0":[0],"1093657248":[1]},"colorToColor":{"0":[3],"1":[0]},"colorToLabel":{"0":"this","1":"arg#1","2":"arg#2","3":"return"}}}

Generated Model
	this->return
	arg#1->this
	arg#1->return

