Scanning method <java.util.TreeMap$KeySet$1: void <init>(java.util.TreeMap$KeySet,java.util.TreeMap$Node)>

All seen event types: MethodReturnRecord, MethodCallRecord, MethodStartRecord, LoadInstanceRecord, MethodEndRecord, StoreInstanceRecord, 
Ignored event types: 

JSON Encoded Analysis Data (for visualization):{"heapEdges":[{"step":0,"from":"1093653888","to":"1093653904","type":"store","field":"<java.util.TreeMap$KeySet$1: java.util.TreeMap$KeySet this$1>"},{"step":1,"from":"1093653888","to":"1093582104","type":"load","field":"<java.util.TreeMap$KeySet: java.util.TreeMap this$0>"},{"step":2,"from":"1093582104","to":"1093653904","type":"store","field":"<java.util.TreeMap$MapIterator: java.util.TreeMap this$0>"},{"step":3,"from":"1093582104","to":"1093582104.<java.util.TreeMap: int modCount>","type":"load","field":"<java.util.TreeMap: int modCount>"},{"step":4,"from":"1093582104.<java.util.TreeMap: int modCount>","to":"1093653904","type":"store","field":"<java.util.TreeMap$MapIterator: int expectedModCount>"}],"parameters":[{"id":"1093653904","name":"this","klass":"java.util.TreeMap$KeySet$1"},{"id":"1093653888","name":"arg#1","klass":"java.util.TreeMap$KeySet"},{"id":"0","name":"arg#2","klass":"java.util.TreeMap$Node"}],"returns":[{"id":"1093653904","name":"return","klass":"java.util.TreeMap$KeySet$1"}],"colors":{"heapLocToColor":{"1093653888":[1],"0":[2],"sdaReg4":[0],"1093582104.<java.util.TreeMap: int modCount>":[1],"sdaReg3":[0],"sdaReg2":[2],"sdaReg1":[1],"sdaReg0":[0],"1093582104":[1],"1093653904":[0]},"colorToColor":{"0":[3],"1":[0]},"colorToLabel":{"0":"this","1":"arg#1","2":"arg#2","3":"return"}}}

Generated Model
	this->return
	arg#1->this
	arg#1->return

