Scanning method <android.text.Html: void withinHtml(java.lang.StringBuilder,android.text.Spanned)>

All seen event types: StoreArrayRecord, SimpleAssignmentRecord, MethodStartRecord, LoadInstanceRecord, IfRecord, InstanceOfRecord, LoadStaticRecord, BinaryOperationRecord, MethodCallRecord, MethodReturnRecord, CastRecord, ArrayLengthRecord, LoadArrayRecord, MethodEndRecord, 
Ignored event types: IfRecord, 

JSON Encoded Analysis Data (for visualization):{"heapEdges":[{"step":0,"from":"1094316440","to":"1094316440.<android.text.SpannableStringInternal: java.lang.String mText>","type":"load","field":"<android.text.SpannableStringInternal: java.lang.String mText>"},{"step":1,"from":"1094316440","to":"1094316440.<android.text.SpannableStringInternal: java.lang.String mText>","type":"load","field":"<android.text.SpannableStringInternal: java.lang.String mText>"},{"step":2,"from":"1094316440","to":"1094316440.<android.text.SpannableStringInternal: int mSpanCount>","type":"load","field":"<android.text.SpannableStringInternal: int mSpanCount>"},{"step":3,"from":"1094316440","to":"1093908552","type":"load","field":"<android.text.SpannableStringInternal: java.lang.Object[] mSpans>"},{"step":4,"from":"1094316440","to":"1093914152","type":"load","field":"<android.text.SpannableStringInternal: int[] mSpanData>"},{"step":5,"from":"1093914152","to":"1093914152.arrayIdx_int:0","type":"load","field":"arrayIdx_int:0"},{"step":6,"from":"1093914152","to":"1093914152.arrayIdx_int:1","type":"load","field":"arrayIdx_int:1"},{"step":7,"from":"1093908552","to":"1093577648","type":"load","field":"arrayIdx_int:0"},{"step":8,"from":"1093908552","to":"1093577648","type":"load","field":"arrayIdx_int:0"},{"step":9,"from":"1094316440","to":"1094316440.<android.text.SpannableStringInternal: int mSpanCount>","type":"load","field":"<android.text.SpannableStringInternal: int mSpanCount>"},{"step":10,"from":"1094316440","to":"1093908552","type":"load","field":"<android.text.SpannableStringInternal: java.lang.Object[] mSpans>"},{"step":11,"from":"1094316440","to":"1093914152","type":"load","field":"<android.text.SpannableStringInternal: int[] mSpanData>"},{"step":12,"from":"1093908552","to":"1093577648","type":"load","field":"arrayIdx_int:0"},{"step":13,"from":"1084659448","to":"sdaReg26","type":"model"},{"step":14,"from":"static.<com.android.internal.util.ArrayUtils: java.lang.Object[] sCache>","to":"1084375760","type":"load","field":"<com.android.internal.util.ArrayUtils: java.lang.Object[] sCache>"},{"step":15,"from":"1084375760","to":"1085268040","type":"load","field":"arrayIdx_int:42"},{"step":16,"from":"1085268040","to":"1084833288","type":"model"},{"step":17,"from":"1084833288","to":"1084659448","type":"model"},{"step":18,"from":"1094316440","to":"1094316440.<android.text.SpannableStringInternal: int mSpanCount>","type":"load","field":"<android.text.SpannableStringInternal: int mSpanCount>"},{"step":19,"from":"1094316440","to":"1093908552","type":"load","field":"<android.text.SpannableStringInternal: java.lang.Object[] mSpans>"},{"step":20,"from":"1094316440","to":"1093914152","type":"load","field":"<android.text.SpannableStringInternal: int[] mSpanData>"},{"step":21,"from":"1093914152","to":"1093914152.arrayIdx_int:0","type":"load","field":"arrayIdx_int:0"},{"step":22,"from":"1093914152","to":"1093914152.arrayIdx_int:1","type":"load","field":"arrayIdx_int:1"},{"step":23,"from":"1093908552","to":"1093577648","type":"load","field":"arrayIdx_int:0"},{"step":24,"from":"1093908552","to":"1093577648","type":"load","field":"arrayIdx_int:0"},{"step":25,"from":"1094316440","to":"1094316440.<android.text.SpannableStringInternal: int mSpanCount>","type":"load","field":"<android.text.SpannableStringInternal: int mSpanCount>"},{"step":26,"from":"1094316440","to":"1093908552","type":"load","field":"<android.text.SpannableStringInternal: java.lang.Object[] mSpans>"},{"step":27,"from":"1094316440","to":"1093914152","type":"load","field":"<android.text.SpannableStringInternal: int[] mSpanData>"},{"step":28,"from":"1093908552","to":"1093577648","type":"load","field":"arrayIdx_int:0"},{"step":29,"from":"1084853880","to":"sdaReg67","type":"model"},{"step":30,"from":"static.<com.android.internal.util.ArrayUtils: java.lang.Object[] sCache>","to":"1084375760","type":"load","field":"<com.android.internal.util.ArrayUtils: java.lang.Object[] sCache>"},{"step":31,"from":"1084375760","to":"1093997824","type":"load","field":"arrayIdx_int:37"},{"step":32,"from":"1093997824","to":"1093576184","type":"model"},{"step":33,"from":"1093576184","to":"1084853880","type":"model"},{"step":34,"from":"1094316440","to":"1094316440.<android.text.SpannableStringInternal: int mSpanCount>","type":"load","field":"<android.text.SpannableStringInternal: int mSpanCount>"},{"step":35,"from":"1094316440","to":"1093908552","type":"load","field":"<android.text.SpannableStringInternal: java.lang.Object[] mSpans>"},{"step":36,"from":"1094316440","to":"1093914152","type":"load","field":"<android.text.SpannableStringInternal: int[] mSpanData>"},{"step":37,"from":"1093914152","to":"1093914152.arrayIdx_int:0","type":"load","field":"arrayIdx_int:0"},{"step":38,"from":"1093914152","to":"1093914152.arrayIdx_int:1","type":"load","field":"arrayIdx_int:1"},{"step":39,"from":"1093908552","to":"1093577648","type":"load","field":"arrayIdx_int:0"},{"step":40,"from":"1094316440","to":"1094316440.<android.text.SpannableStringInternal: int mSpanCount>","type":"load","field":"<android.text.SpannableStringInternal: int mSpanCount>"},{"step":41,"from":"1094316440","to":"1093908552","type":"load","field":"<android.text.SpannableStringInternal: java.lang.Object[] mSpans>"},{"step":42,"from":"1094316440","to":"1093914152","type":"load","field":"<android.text.SpannableStringInternal: int[] mSpanData>"},{"step":43,"from":"1093908552","to":"1093577648","type":"load","field":"arrayIdx_int:0"},{"step":44,"from":"1093914152","to":"1093914152.arrayIdx_int:0","type":"load","field":"arrayIdx_int:0"},{"step":45,"from":"1093914152","to":"1093914152.arrayIdx_int:1","type":"load","field":"arrayIdx_int:1"},{"step":46,"from":"1084661656","to":"sdaReg119","type":"model"},{"step":47,"from":"static.<com.android.internal.util.ArrayUtils: java.lang.Object[] sCache>","to":"1084375760","type":"load","field":"<com.android.internal.util.ArrayUtils: java.lang.Object[] sCache>"},{"step":48,"from":"1084375760","to":"1093550768","type":"load","field":"arrayIdx_int:26"},{"step":49,"from":"1093550768","to":"1085374624","type":"model"},{"step":50,"from":"1085374624","to":"1084661656","type":"model"},{"step":51,"from":"1094316440","to":"1094316440.<android.text.SpannableStringInternal: java.lang.String mText>","type":"load","field":"<android.text.SpannableStringInternal: java.lang.String mText>"},{"step":52,"from":"1094316440.<android.text.SpannableStringInternal: java.lang.String mText>","to":"sdaReg138","type":"model"},{"step":53,"from":"sdaReg138","to":"1094156456","type":"model"},{"step":54,"from":"1094316440","to":"1094316440.<android.text.SpannableStringInternal: java.lang.String mText>","type":"load","field":"<android.text.SpannableStringInternal: java.lang.String mText>"},{"step":55,"from":"1094316440.<android.text.SpannableStringInternal: java.lang.String mText>","to":"sdaReg140","type":"model"},{"step":56,"from":"sdaReg140","to":"1094156456","type":"model"},{"step":57,"from":"1094316440","to":"1094316440.<android.text.SpannableStringInternal: java.lang.String mText>","type":"load","field":"<android.text.SpannableStringInternal: java.lang.String mText>"},{"step":58,"from":"1094316440.<android.text.SpannableStringInternal: java.lang.String mText>","to":"sdaReg142","type":"model"},{"step":59,"from":"sdaReg142","to":"1094156456","type":"model"},{"step":60,"from":"1094316440","to":"1094316440.<android.text.SpannableStringInternal: java.lang.String mText>","type":"load","field":"<android.text.SpannableStringInternal: java.lang.String mText>"},{"step":61,"from":"1094316440.<android.text.SpannableStringInternal: java.lang.String mText>","to":"sdaReg144","type":"model"},{"step":62,"from":"sdaReg144","to":"1094156456","type":"model"},{"step":63,"from":"1094316440","to":"1094316440.<android.text.SpannableStringInternal: java.lang.String mText>","type":"load","field":"<android.text.SpannableStringInternal: java.lang.String mText>"},{"step":64,"from":"1094316440.<android.text.SpannableStringInternal: java.lang.String mText>","to":"sdaReg146","type":"model"},{"step":65,"from":"sdaReg146","to":"1094156456","type":"model"},{"step":66,"from":"1094316440","to":"1094316440.<android.text.SpannableStringInternal: java.lang.String mText>","type":"load","field":"<android.text.SpannableStringInternal: java.lang.String mText>"},{"step":67,"from":"1094316440.<android.text.SpannableStringInternal: java.lang.String mText>","to":"sdaReg148","type":"model"},{"step":68,"from":"1094316440","to":"1094316440.<android.text.SpannableStringInternal: int mSpanCount>","type":"load","field":"<android.text.SpannableStringInternal: int mSpanCount>"},{"step":69,"from":"1094316440","to":"1093908552","type":"load","field":"<android.text.SpannableStringInternal: java.lang.Object[] mSpans>"},{"step":70,"from":"1094316440","to":"1093914152","type":"load","field":"<android.text.SpannableStringInternal: int[] mSpanData>"},{"step":71,"from":"1093914152","to":"1093914152.arrayIdx_int:0","type":"load","field":"arrayIdx_int:0"},{"step":72,"from":"1093914152","to":"1093914152.arrayIdx_int:1","type":"load","field":"arrayIdx_int:1"},{"step":73,"from":"1093908552","to":"1093577648","type":"load","field":"arrayIdx_int:0"},{"step":74,"from":"1094316440","to":"1094316440.<android.text.SpannableStringInternal: int mSpanCount>","type":"load","field":"<android.text.SpannableStringInternal: int mSpanCount>"},{"step":75,"from":"1094316440","to":"1093908552","type":"load","field":"<android.text.SpannableStringInternal: java.lang.Object[] mSpans>"},{"step":76,"from":"1094316440","to":"1093914152","type":"load","field":"<android.text.SpannableStringInternal: int[] mSpanData>"},{"step":77,"from":"1093908552","to":"1093577648","type":"load","field":"arrayIdx_int:0"},{"step":78,"from":"1093914152","to":"1093914152.arrayIdx_int:0","type":"load","field":"arrayIdx_int:0"},{"step":79,"from":"1093914152","to":"1093914152.arrayIdx_int:1","type":"load","field":"arrayIdx_int:1"},{"step":80,"from":"1093908552","to":"1093577648","type":"load","field":"arrayIdx_int:0"},{"step":81,"from":"1093577648","to":"1093816096","type":"store","field":"arrayIdx_int:0"},{"step":82,"from":"1093577648","to":"1093577648.<android.text.style.TypefaceSpan: java.lang.String mFamily>","type":"load","field":"<android.text.style.TypefaceSpan: java.lang.String mFamily>"},{"step":83,"from":"1094316440","to":"1094316440.<android.text.SpannableStringInternal: java.lang.String mText>","type":"load","field":"<android.text.SpannableStringInternal: java.lang.String mText>"},{"step":84,"from":"1094316440.<android.text.SpannableStringInternal: java.lang.String mText>","to":"sdaReg200","type":"model"},{"step":85,"from":"sdaReg200","to":"1094156456","type":"model"},{"step":86,"from":"1094316440","to":"1094316440.<android.text.SpannableStringInternal: java.lang.String mText>","type":"load","field":"<android.text.SpannableStringInternal: java.lang.String mText>"},{"step":87,"from":"1094316440.<android.text.SpannableStringInternal: java.lang.String mText>","to":"sdaReg202","type":"model"},{"step":88,"from":"sdaReg202","to":"1094156456","type":"model"},{"step":89,"from":"1094316440","to":"1094316440.<android.text.SpannableStringInternal: java.lang.String mText>","type":"load","field":"<android.text.SpannableStringInternal: java.lang.String mText>"},{"step":90,"from":"1094316440.<android.text.SpannableStringInternal: java.lang.String mText>","to":"sdaReg204","type":"model"},{"step":91,"from":"sdaReg204","to":"1094156456","type":"model"},{"step":92,"from":"1094316440","to":"1094316440.<android.text.SpannableStringInternal: java.lang.String mText>","type":"load","field":"<android.text.SpannableStringInternal: java.lang.String mText>"},{"step":93,"from":"1094316440.<android.text.SpannableStringInternal: java.lang.String mText>","to":"sdaReg206","type":"model"},{"step":94,"from":"sdaReg206","to":"1094156456","type":"model"},{"step":95,"from":"1094316440","to":"1094316440.<android.text.SpannableStringInternal: java.lang.String mText>","type":"load","field":"<android.text.SpannableStringInternal: java.lang.String mText>"},{"step":96,"from":"1094316440.<android.text.SpannableStringInternal: java.lang.String mText>","to":"sdaReg208","type":"model"},{"step":97,"from":"sdaReg208","to":"1094156456","type":"model"},{"step":98,"from":"1094316440","to":"1094316440.<android.text.SpannableStringInternal: java.lang.String mText>","type":"load","field":"<android.text.SpannableStringInternal: java.lang.String mText>"},{"step":99,"from":"1094316440.<android.text.SpannableStringInternal: java.lang.String mText>","to":"sdaReg210","type":"model"},{"step":100,"from":"sdaReg210","to":"1094156456","type":"model"},{"step":101,"from":"1094316440","to":"1094316440.<android.text.SpannableStringInternal: java.lang.String mText>","type":"load","field":"<android.text.SpannableStringInternal: java.lang.String mText>"},{"step":102,"from":"1094316440.<android.text.SpannableStringInternal: java.lang.String mText>","to":"sdaReg212","type":"model"},{"step":103,"from":"sdaReg212","to":"1094156456","type":"model"},{"step":104,"from":"1094316440","to":"1094316440.<android.text.SpannableStringInternal: java.lang.String mText>","type":"load","field":"<android.text.SpannableStringInternal: java.lang.String mText>"},{"step":105,"from":"1094316440.<android.text.SpannableStringInternal: java.lang.String mText>","to":"sdaReg214","type":"model"},{"step":106,"from":"sdaReg214","to":"1094156456","type":"model"},{"step":107,"from":"1094316440","to":"1094316440.<android.text.SpannableStringInternal: java.lang.String mText>","type":"load","field":"<android.text.SpannableStringInternal: java.lang.String mText>"},{"step":108,"from":"1094316440.<android.text.SpannableStringInternal: java.lang.String mText>","to":"sdaReg216","type":"model"},{"step":109,"from":"sdaReg216","to":"1094156456","type":"model"},{"step":110,"from":"1093577648","to":"1093577648.<android.text.style.TypefaceSpan: java.lang.String mFamily>","type":"load","field":"<android.text.style.TypefaceSpan: java.lang.String mFamily>"},{"step":111,"from":"1094316440","to":"1094316440.<android.text.SpannableStringInternal: int mSpanCount>","type":"load","field":"<android.text.SpannableStringInternal: int mSpanCount>"},{"step":112,"from":"1094316440","to":"1093908552","type":"load","field":"<android.text.SpannableStringInternal: java.lang.Object[] mSpans>"},{"step":113,"from":"1094316440","to":"1093914152","type":"load","field":"<android.text.SpannableStringInternal: int[] mSpanData>"},{"step":114,"from":"1093914152","to":"1093914152.arrayIdx_int:0","type":"load","field":"arrayIdx_int:0"},{"step":115,"from":"1093914152","to":"1093914152.arrayIdx_int:1","type":"load","field":"arrayIdx_int:1"},{"step":116,"from":"1094316440","to":"1094316440.<android.text.SpannableStringInternal: int mSpanCount>","type":"load","field":"<android.text.SpannableStringInternal: int mSpanCount>"},{"step":117,"from":"1094316440","to":"1093908552","type":"load","field":"<android.text.SpannableStringInternal: java.lang.Object[] mSpans>"},{"step":118,"from":"1094316440","to":"1093914152","type":"load","field":"<android.text.SpannableStringInternal: int[] mSpanData>"},{"step":119,"from":"1093908552","to":"1093577648","type":"load","field":"arrayIdx_int:0"},{"step":120,"from":"1093914152","to":"1093914152.arrayIdx_int:0","type":"load","field":"arrayIdx_int:0"},{"step":121,"from":"1093914152","to":"1093914152.arrayIdx_int:1","type":"load","field":"arrayIdx_int:1"},{"step":122,"from":"1084661656","to":"sdaReg253","type":"model"},{"step":123,"from":"static.<com.android.internal.util.ArrayUtils: java.lang.Object[] sCache>","to":"1084375760","type":"load","field":"<com.android.internal.util.ArrayUtils: java.lang.Object[] sCache>"},{"step":124,"from":"1084375760","to":"1093550768","type":"load","field":"arrayIdx_int:26"},{"step":125,"from":"1093550768","to":"1085374624","type":"model"},{"step":126,"from":"1085374624","to":"1084661656","type":"model"},{"step":127,"from":"1094316440","to":"1094316440.<android.text.SpannableStringInternal: java.lang.String mText>","type":"load","field":"<android.text.SpannableStringInternal: java.lang.String mText>"},{"step":128,"from":"1094316440.<android.text.SpannableStringInternal: java.lang.String mText>","to":"sdaReg270","type":"model"},{"step":129,"from":"1094316440","to":"1094316440.<android.text.SpannableStringInternal: java.lang.String mText>","type":"load","field":"<android.text.SpannableStringInternal: java.lang.String mText>"},{"step":130,"from":"1094316440.<android.text.SpannableStringInternal: java.lang.String mText>","to":"sdaReg274","type":"model"},{"step":131,"from":"1094316440","to":"1094316440.<android.text.SpannableStringInternal: java.lang.String mText>","type":"load","field":"<android.text.SpannableStringInternal: java.lang.String mText>"},{"step":132,"from":"1094316440.<android.text.SpannableStringInternal: java.lang.String mText>","to":"sdaReg276","type":"model"},{"step":133,"from":"sdaReg276","to":"1094156456","type":"model"},{"step":134,"from":"1094316440","to":"1094316440.<android.text.SpannableStringInternal: java.lang.String mText>","type":"load","field":"<android.text.SpannableStringInternal: java.lang.String mText>"},{"step":135,"from":"1094316440.<android.text.SpannableStringInternal: java.lang.String mText>","to":"sdaReg278","type":"model"},{"step":136,"from":"sdaReg278","to":"1094156456","type":"model"},{"step":137,"from":"1094316440","to":"1094316440.<android.text.SpannableStringInternal: java.lang.String mText>","type":"load","field":"<android.text.SpannableStringInternal: java.lang.String mText>"},{"step":138,"from":"1094316440.<android.text.SpannableStringInternal: java.lang.String mText>","to":"sdaReg280","type":"model"},{"step":139,"from":"sdaReg280","to":"1094156456","type":"model"},{"step":140,"from":"1094316440","to":"1094316440.<android.text.SpannableStringInternal: java.lang.String mText>","type":"load","field":"<android.text.SpannableStringInternal: java.lang.String mText>"},{"step":141,"from":"1094316440.<android.text.SpannableStringInternal: java.lang.String mText>","to":"sdaReg282","type":"model"},{"step":142,"from":"sdaReg282","to":"1094156456","type":"model"},{"step":143,"from":"1094316440","to":"1094316440.<android.text.SpannableStringInternal: java.lang.String mText>","type":"load","field":"<android.text.SpannableStringInternal: java.lang.String mText>"},{"step":144,"from":"1094316440.<android.text.SpannableStringInternal: java.lang.String mText>","to":"sdaReg284","type":"model"},{"step":145,"from":"sdaReg284","to":"1094156456","type":"model"},{"step":146,"from":"sdaReg287","to":"1094156456","type":"model"},{"step":147,"from":"1094316440","to":"1094316440.<android.text.SpannableStringInternal: java.lang.String mText>","type":"load","field":"<android.text.SpannableStringInternal: java.lang.String mText>"}],"parameters":[{"id":"1094156456","name":"arg#0","klass":"java.lang.StringBuilder"},{"id":"1094316440","name":"arg#1","klass":"android.text.Spanned"}],"returns":[{"id":null,"name":"return","klass":null}],"colors":{"heapLocToColor":{"sdaReg293":[52],"1093550768":[8],"1084853880":[16, 8, 15],"sdaReg199":[1],"sdaReg198":[17, 1, 2],"sdaReg292":[1],"sdaReg197":[1],"sdaReg196":[0],"sdaReg14":[4],"sdaReg18":[1],"sdaReg15":[5],"sdaReg16":[1],"1093997824":[8],"1085268040":[8],"1093908552.arrayIdx_int:0":[1],"1094156456":[0],"sdaReg170":[30],"sdaReg175":[31],"sdaReg177":[31],"sdaReg176":[31],"sdaReg179":[31],"sdaReg178":[31],"1094316440":[1],"sdaReg180":[31],"sdaReg186":[32],"sdaReg185":[1],"1094316440.<android.text.SpannableStringInternal: int[] mSpanData>":[1],"1084375760.arrayIdx_int:26":[8],"sdaReg59":[1],"sdaReg57":[1],"sdaReg56":[12],"sdaReg55":[11],"1093577648":[1],"1084661656":[21, 22, 8],"1084833288":[8, 9],"sdaReg48":[1],"1084659448":[8, 9, 10],"sdaReg45":[2],"sdaReg44":[1],"sdaReg46":[1],"sdaReg43":[0],"1094316440.<android.text.SpannableStringInternal: java.lang.Object[] mSpans>":[1],"1093914152":[1],"sdaReg200":[1, 33],"sdaReg201":[1],"sdaReg205":[1],"sdaReg204":[1, 35],"sdaReg38":[8],"sdaReg203":[1],"sdaReg37":[8],"sdaReg202":[34, 1],"sdaReg209":[1],"sdaReg208":[1, 37],"sdaReg207":[1],"sdaReg206":[1, 36],"sdaReg31":[8, 9, 10],"sdaReg30":[8, 9],"sdaReg36":[8],"sdaReg35":[8],"sdaReg34":[8],"sdaReg7":[1],"sdaReg4":[3],"sdaReg5":[1],"sdaReg27":[7],"sdaReg26":[7],"sdaReg29":[7],"sdaReg28":[7],"sdaReg3":[1],"sdaReg2":[2],"sdaReg1":[2],"sdaReg0":[1],"sdaReg24":[6],"sdaReg127":[8],"sdaReg128":[8],"sdaReg129":[8],"sdaReg68":[14],"1093908552":[1],"sdaReg228":[42],"sdaReg69":[14],"sdaReg67":[14],"sdaReg65":[13],"sdaReg227":[1],"sdaReg72":[16, 8, 15],"sdaReg71":[8, 15],"sdaReg70":[14],"1094316440.<android.text.SpannableStringInternal: int mSpanCount>":[1],"sdaReg120":[20],"sdaReg122":[20],"sdaReg121":[20],"sdaReg124":[21, 22, 8],"sdaReg123":[21, 8],"sdaReg119":[20],"sdaReg77":[8],"sdaReg78":[8],"sdaReg79":[8],"sdaReg215":[1],"sdaReg216":[1, 41],"sdaReg75":[8],"sdaReg213":[1],"sdaReg76":[8],"sdaReg214":[1, 40],"sdaReg212":[1, 39],"sdaReg80":[8],"sdaReg211":[1],"sdaReg83":[0],"sdaReg210":[1, 38],"sdaReg113":[19],"1093914152.arrayIdx_int:0":[1],"1093914152.arrayIdx_int:1":[1],"sdaReg107":[1],"sdaReg104":[18],"sdaReg105":[1],"sdaReg86":[17, 2],"static.<com.android.internal.util.ArrayUtils: java.lang.Object[] sCache>":[8],"sdaReg247":[43],"sdaReg84":[1],"sdaReg85":[17, 2],"sdaReg89":[17, 1, 2],"sdaReg241":[1],"sdaReg240":[21, 22, 8],"sdaReg94":[17, 1, 2],"sdaReg93":[1],"sdaReg242":[21, 22, 8],"sdaReg92":[0],"sdaReg95":[1],"1094316440.<android.text.SpannableStringInternal: java.lang.String mText>":[1],"sdaReg97":[1],"sdaReg239":[1],"sdaReg230":[1],"sdaReg233":[21, 22, 8],"sdaReg232":[1],"sdaReg231":[21, 22, 8],"sdaReg269":[1],"sdaReg268":[17, 1, 2],"sdaReg161":[29],"sdaReg162":[1],"sdaReg163":[21, 22, 8],"sdaReg164":[1],"sdaReg165":[21, 22, 8],"sdaReg264":[8],"1093816096":[31],"sdaReg266":[0],"sdaReg267":[1],"sdaReg260":[8],"sdaReg261":[8],"sdaReg262":[8],"sdaReg263":[8],"sdaReg259":[8],"sdaReg258":[21, 22, 8],"sdaReg257":[21, 8],"sdaReg152":[1],"sdaReg153":[21, 22, 8],"sdaReg154":[1],"sdaReg155":[21, 22, 8],"sdaReg255":[44],"sdaReg256":[44],"sdaReg253":[44],"sdaReg254":[44],"sdaReg252":[21, 22, 8],"1093576184":[8, 15],"sdaReg148":[1, 28],"1085374624":[21, 8],"sdaReg147":[1],"sdaReg143":[1],"sdaReg144":[1, 26],"sdaReg145":[1],"1084375760":[8],"sdaReg146":[1, 27],"sdaReg140":[1, 24],"sdaReg141":[1],"sdaReg280":[1, 49],"sdaReg142":[1, 25],"sdaReg281":[1],"sdaReg282":[1, 50],"sdaReg283":[1],"sdaReg284":[51, 1],"sdaReg289":[8],"sdaReg279":[1],"sdaReg139":[1],"sdaReg138":[1, 23],"1093577648.<android.text.style.TypefaceSpan: java.lang.String mFamily>":[1],"sdaReg137":[1],"sdaReg134":[0],"sdaReg135":[1],"sdaReg130":[8],"sdaReg131":[8, 31],"sdaReg270":[1, 45],"sdaReg273":[1],"sdaReg274":[1, 46],"sdaReg271":[17, 1, 2],"sdaReg272":[17, 1, 2],"sdaReg277":[1],"sdaReg278":[1, 48],"sdaReg275":[1],"sdaReg276":[1, 47]},"colorToColor":{"34":[0],"1":[0, 31],"35":[0],"33":[0],"38":[0],"39":[0],"36":[0],"37":[0],"8":[44],"40":[0],"41":[0],"47":[0],"51":[0],"50":[0],"49":[0],"48":[0],"21":[44],"23":[0],"22":[44],"25":[0],"24":[0],"27":[0],"26":[0]},"colorToLabel":{"0":"arg#0","1":"arg#1","8":"<com.android.internal.util.ArrayUtils: java.lang.Object[] sCache>","53":"return"}}}

Generated Model
	arg#1->arg#0

