Scanning method <android.text.Html: void withinHtml(java.lang.StringBuilder,android.text.Spanned)>

All seen event types: StoreArrayRecord, SimpleAssignmentRecord, MethodStartRecord, LoadInstanceRecord, IfRecord, LoadStaticRecord, BinaryOperationRecord, MethodCallRecord, MethodReturnRecord, CastRecord, ArrayLengthRecord, LoadArrayRecord, MethodEndRecord, 
Ignored event types: IfRecord, 

JSON Encoded Analysis Data (for visualization):{"heapEdges":[{"step":0,"from":"1093964760","to":"1093964760.<android.text.SpannableStringInternal: java.lang.String mText>","type":"load","field":"<android.text.SpannableStringInternal: java.lang.String mText>"},{"step":1,"from":"1093964760","to":"1093964760.<android.text.SpannableStringInternal: java.lang.String mText>","type":"load","field":"<android.text.SpannableStringInternal: java.lang.String mText>"},{"step":2,"from":"1093964760","to":"1093964760.<android.text.SpannableStringInternal: int mSpanCount>","type":"load","field":"<android.text.SpannableStringInternal: int mSpanCount>"},{"step":3,"from":"1093964760","to":"1094001848","type":"load","field":"<android.text.SpannableStringInternal: java.lang.Object[] mSpans>"},{"step":4,"from":"1093964760","to":"1094001872","type":"load","field":"<android.text.SpannableStringInternal: int[] mSpanData>"},{"step":5,"from":"1093964760","to":"1093964760.<android.text.SpannableStringInternal: int mSpanCount>","type":"load","field":"<android.text.SpannableStringInternal: int mSpanCount>"},{"step":6,"from":"1093964760","to":"1094001848","type":"load","field":"<android.text.SpannableStringInternal: java.lang.Object[] mSpans>"},{"step":7,"from":"1093964760","to":"1094001872","type":"load","field":"<android.text.SpannableStringInternal: int[] mSpanData>"},{"step":8,"from":"1084659448","to":"sdaReg19","type":"model"},{"step":9,"from":"static.<com.android.internal.util.ArrayUtils: java.lang.Object[] sCache>","to":"1084375760","type":"load","field":"<com.android.internal.util.ArrayUtils: java.lang.Object[] sCache>"},{"step":10,"from":"1084375760","to":"1085268040","type":"load","field":"arrayIdx_int:42"},{"step":11,"from":"1085268040","to":"1084833288","type":"model"},{"step":12,"from":"1084833288","to":"1084659448","type":"model"},{"step":13,"from":"1093964760","to":"1093964760.<android.text.SpannableStringInternal: int mSpanCount>","type":"load","field":"<android.text.SpannableStringInternal: int mSpanCount>"},{"step":14,"from":"1093964760","to":"1094001848","type":"load","field":"<android.text.SpannableStringInternal: java.lang.Object[] mSpans>"},{"step":15,"from":"1093964760","to":"1094001872","type":"load","field":"<android.text.SpannableStringInternal: int[] mSpanData>"},{"step":16,"from":"1093964760","to":"1093964760.<android.text.SpannableStringInternal: int mSpanCount>","type":"load","field":"<android.text.SpannableStringInternal: int mSpanCount>"},{"step":17,"from":"1093964760","to":"1094001848","type":"load","field":"<android.text.SpannableStringInternal: java.lang.Object[] mSpans>"},{"step":18,"from":"1093964760","to":"1094001872","type":"load","field":"<android.text.SpannableStringInternal: int[] mSpanData>"},{"step":19,"from":"1084853880","to":"sdaReg53","type":"model"},{"step":20,"from":"static.<com.android.internal.util.ArrayUtils: java.lang.Object[] sCache>","to":"1084375760","type":"load","field":"<com.android.internal.util.ArrayUtils: java.lang.Object[] sCache>"},{"step":21,"from":"static.<com.android.internal.util.ArrayUtils: java.lang.Object[] sCache>","to":"1084375760","type":"load","field":"<com.android.internal.util.ArrayUtils: java.lang.Object[] sCache>"},{"step":22,"from":"1084375760","to":"1093867000","type":"create","field":"arrayIdx_int:37"},{"step":23,"from":"1093964760","to":"1093964760.<android.text.SpannableStringInternal: int mSpanCount>","type":"load","field":"<android.text.SpannableStringInternal: int mSpanCount>"},{"step":24,"from":"1093964760","to":"1094001848","type":"load","field":"<android.text.SpannableStringInternal: java.lang.Object[] mSpans>"},{"step":25,"from":"1093964760","to":"1094001872","type":"load","field":"<android.text.SpannableStringInternal: int[] mSpanData>"},{"step":26,"from":"1093964760","to":"1093964760.<android.text.SpannableStringInternal: int mSpanCount>","type":"load","field":"<android.text.SpannableStringInternal: int mSpanCount>"},{"step":27,"from":"1093964760","to":"1094001848","type":"load","field":"<android.text.SpannableStringInternal: java.lang.Object[] mSpans>"},{"step":28,"from":"1093964760","to":"1094001872","type":"load","field":"<android.text.SpannableStringInternal: int[] mSpanData>"},{"step":29,"from":"1084661656","to":"sdaReg94","type":"model"},{"step":30,"from":"static.<com.android.internal.util.ArrayUtils: java.lang.Object[] sCache>","to":"1084375760","type":"load","field":"<com.android.internal.util.ArrayUtils: java.lang.Object[] sCache>"},{"step":31,"from":"static.<com.android.internal.util.ArrayUtils: java.lang.Object[] sCache>","to":"1084375760","type":"load","field":"<com.android.internal.util.ArrayUtils: java.lang.Object[] sCache>"},{"step":32,"from":"1084375760","to":"1093978752","type":"create","field":"arrayIdx_int:26"},{"step":33,"from":"1093964760","to":"1093964760.<android.text.SpannableStringInternal: java.lang.String mText>","type":"load","field":"<android.text.SpannableStringInternal: java.lang.String mText>"},{"step":34,"from":"1093964760.<android.text.SpannableStringInternal: java.lang.String mText>","to":"sdaReg112","type":"model"},{"step":35,"from":"sdaReg112","to":"1093783016","type":"model"},{"step":36,"from":"1093964760","to":"1093964760.<android.text.SpannableStringInternal: java.lang.String mText>","type":"load","field":"<android.text.SpannableStringInternal: java.lang.String mText>"},{"step":37,"from":"1093964760.<android.text.SpannableStringInternal: java.lang.String mText>","to":"sdaReg114","type":"model"},{"step":38,"from":"sdaReg114","to":"1093783016","type":"model"},{"step":39,"from":"1093964760","to":"1093964760.<android.text.SpannableStringInternal: java.lang.String mText>","type":"load","field":"<android.text.SpannableStringInternal: java.lang.String mText>"},{"step":40,"from":"1093964760.<android.text.SpannableStringInternal: java.lang.String mText>","to":"sdaReg116","type":"model"},{"step":41,"from":"sdaReg116","to":"1093783016","type":"model"},{"step":42,"from":"1093964760","to":"1093964760.<android.text.SpannableStringInternal: java.lang.String mText>","type":"load","field":"<android.text.SpannableStringInternal: java.lang.String mText>"},{"step":43,"from":"1093964760.<android.text.SpannableStringInternal: java.lang.String mText>","to":"sdaReg118","type":"model"},{"step":44,"from":"sdaReg118","to":"1093783016","type":"model"},{"step":45,"from":"1093964760","to":"1093964760.<android.text.SpannableStringInternal: java.lang.String mText>","type":"load","field":"<android.text.SpannableStringInternal: java.lang.String mText>"},{"step":46,"from":"1093964760.<android.text.SpannableStringInternal: java.lang.String mText>","to":"sdaReg120","type":"model"},{"step":47,"from":"sdaReg120","to":"1093783016","type":"model"},{"step":48,"from":"1093964760","to":"1093964760.<android.text.SpannableStringInternal: java.lang.String mText>","type":"load","field":"<android.text.SpannableStringInternal: java.lang.String mText>"},{"step":49,"from":"1093964760.<android.text.SpannableStringInternal: java.lang.String mText>","to":"sdaReg122","type":"model"},{"step":50,"from":"1093964760","to":"1093964760.<android.text.SpannableStringInternal: java.lang.String mText>","type":"load","field":"<android.text.SpannableStringInternal: java.lang.String mText>"},{"step":51,"from":"1093964760.<android.text.SpannableStringInternal: java.lang.String mText>","to":"sdaReg126","type":"model"},{"step":52,"from":"1093964760","to":"1093964760.<android.text.SpannableStringInternal: java.lang.String mText>","type":"load","field":"<android.text.SpannableStringInternal: java.lang.String mText>"},{"step":53,"from":"1093964760.<android.text.SpannableStringInternal: java.lang.String mText>","to":"sdaReg128","type":"model"},{"step":54,"from":"1093964760","to":"1093964760.<android.text.SpannableStringInternal: java.lang.String mText>","type":"load","field":"<android.text.SpannableStringInternal: java.lang.String mText>"},{"step":55,"from":"1093964760.<android.text.SpannableStringInternal: java.lang.String mText>","to":"sdaReg130","type":"model"},{"step":56,"from":"1093964760","to":"1093964760.<android.text.SpannableStringInternal: java.lang.String mText>","type":"load","field":"<android.text.SpannableStringInternal: java.lang.String mText>"},{"step":57,"from":"1093964760.<android.text.SpannableStringInternal: java.lang.String mText>","to":"sdaReg132","type":"model"},{"step":58,"from":"1093964760","to":"1093964760.<android.text.SpannableStringInternal: java.lang.String mText>","type":"load","field":"<android.text.SpannableStringInternal: java.lang.String mText>"},{"step":59,"from":"1093964760.<android.text.SpannableStringInternal: java.lang.String mText>","to":"sdaReg134","type":"model"},{"step":60,"from":"1093964760","to":"1093964760.<android.text.SpannableStringInternal: java.lang.String mText>","type":"load","field":"<android.text.SpannableStringInternal: java.lang.String mText>"},{"step":61,"from":"1093964760.<android.text.SpannableStringInternal: java.lang.String mText>","to":"sdaReg136","type":"model"},{"step":62,"from":"1093964760","to":"1093964760.<android.text.SpannableStringInternal: java.lang.String mText>","type":"load","field":"<android.text.SpannableStringInternal: java.lang.String mText>"},{"step":63,"from":"1093964760.<android.text.SpannableStringInternal: java.lang.String mText>","to":"sdaReg138","type":"model"},{"step":64,"from":"sdaReg138","to":"1093783016","type":"model"},{"step":65,"from":"1093964760","to":"1093964760.<android.text.SpannableStringInternal: java.lang.String mText>","type":"load","field":"<android.text.SpannableStringInternal: java.lang.String mText>"},{"step":66,"from":"1093964760.<android.text.SpannableStringInternal: java.lang.String mText>","to":"sdaReg140","type":"model"},{"step":67,"from":"sdaReg140","to":"1093783016","type":"model"},{"step":68,"from":"1093964760","to":"1093964760.<android.text.SpannableStringInternal: java.lang.String mText>","type":"load","field":"<android.text.SpannableStringInternal: java.lang.String mText>"},{"step":69,"from":"1093964760.<android.text.SpannableStringInternal: java.lang.String mText>","to":"sdaReg142","type":"model"},{"step":70,"from":"sdaReg142","to":"1093783016","type":"model"},{"step":71,"from":"1093964760","to":"1093964760.<android.text.SpannableStringInternal: java.lang.String mText>","type":"load","field":"<android.text.SpannableStringInternal: java.lang.String mText>"},{"step":72,"from":"1093964760.<android.text.SpannableStringInternal: java.lang.String mText>","to":"sdaReg144","type":"model"},{"step":73,"from":"sdaReg144","to":"1093783016","type":"model"},{"step":74,"from":"1093964760","to":"1093964760.<android.text.SpannableStringInternal: java.lang.String mText>","type":"load","field":"<android.text.SpannableStringInternal: java.lang.String mText>"},{"step":75,"from":"1093964760.<android.text.SpannableStringInternal: java.lang.String mText>","to":"sdaReg146","type":"model"},{"step":76,"from":"sdaReg146","to":"1093783016","type":"model"},{"step":77,"from":"sdaReg150","to":"1093783016","type":"model"},{"step":78,"from":"1093964760","to":"1093964760.<android.text.SpannableStringInternal: java.lang.String mText>","type":"load","field":"<android.text.SpannableStringInternal: java.lang.String mText>"}],"parameters":[{"id":"1093783016","name":"arg#0","klass":"java.lang.StringBuilder"},{"id":"1093964760","name":"arg#1","klass":"android.text.Spanned"}],"returns":[{"id":null,"name":"return","klass":null}],"colors":{"heapLocToColor":{"sdaReg125":[1],"sdaReg126":[1, 19],"sdaReg127":[1],"sdaReg128":[1, 20],"sdaReg129":[1],"sdaReg68":[0],"sdaReg69":[1],"sdaReg64":[9],"sdaReg65":[9],"sdaReg62":[9],"sdaReg63":[9],"sdaReg71":[2, 10],"sdaReg70":[2, 10],"sdaReg12":[1],"sdaReg10":[1],"sdaReg19":[4],"sdaReg120":[17, 1],"sdaReg122":[1, 18],"sdaReg121":[1],"sdaReg116":[1, 15],"sdaReg117":[1],"sdaReg114":[1, 14],"sdaReg115":[1],"1093978752":[12],"sdaReg118":[1, 16],"sdaReg119":[1],"sdaReg77":[0],"sdaReg78":[1],"sdaReg79":[2, 10],"sdaReg74":[2, 10],"sdaReg80":[1],"1085268040":[5],"sdaReg82":[1],"sdaReg113":[1],"sdaReg112":[1, 13],"sdaReg111":[1],"sdaReg108":[0],"sdaReg109":[1],"sdaReg103":[12],"sdaReg104":[12],"sdaReg105":[12],"static.<com.android.internal.util.ArrayUtils: java.lang.Object[] sCache>":[5],"sdaReg87":[1],"sdaReg85":[1],"1094001872":[1],"sdaReg94":[11],"sdaReg100":[12],"sdaReg102":[12],"sdaReg101":[12],"1093783016":[0],"sdaReg95":[11],"sdaReg96":[11],"sdaReg97":[11],"sdaReg98":[12],"sdaReg99":[12],"1093964760.<android.text.SpannableStringInternal: int mSpanCount>":[1],"sdaReg60":[9],"sdaReg61":[9],"1094001848":[1],"1093964760.<android.text.SpannableStringInternal: java.lang.Object[] mSpans>":[1],"1093964760.<android.text.SpannableStringInternal: int[] mSpanData>":[1],"sdaReg59":[9],"sdaReg58":[9],"sdaReg57":[9],"sdaReg56":[8],"1093867000":[9],"sdaReg55":[8],"sdaReg54":[8],"sdaReg53":[8],"1084833288":[5, 6],"sdaReg152":[9],"sdaReg156":[30],"sdaReg155":[1],"1093964760":[1],"1084659448":[5, 6, 7],"sdaReg44":[1],"sdaReg46":[1],"sdaReg41":[1],"sdaReg143":[1],"sdaReg144":[1, 28],"sdaReg39":[1],"sdaReg38":[2],"sdaReg145":[1],"sdaReg146":[1, 29],"sdaReg37":[1],"1084375760":[5],"sdaReg140":[1, 26],"sdaReg141":[1],"sdaReg142":[1, 27],"sdaReg31":[5],"sdaReg30":[5],"sdaReg36":[0],"sdaReg7":[1],"sdaReg4":[3],"sdaReg5":[1],"1093964760.<android.text.SpannableStringInternal: java.lang.String mText>":[1],"sdaReg139":[1],"sdaReg138":[1, 25],"sdaReg137":[1],"sdaReg136":[1, 24],"sdaReg134":[1, 23],"sdaReg27":[5],"sdaReg135":[1],"sdaReg29":[5],"sdaReg132":[1, 22],"sdaReg133":[1],"sdaReg28":[5],"sdaReg130":[1, 21],"sdaReg131":[1],"sdaReg3":[1],"sdaReg2":[2],"sdaReg1":[2],"sdaReg21":[4],"sdaReg0":[1],"sdaReg20":[4],"sdaReg23":[5, 6],"sdaReg22":[4],"sdaReg24":[5, 6, 7]},"colorToColor":{"1":[0],"9":[5],"12":[5],"13":[0],"14":[0],"15":[0],"17":[0],"16":[0],"25":[0],"27":[0],"26":[0],"29":[0],"28":[0]},"colorToLabel":{"0":"arg#0","1":"arg#1","5":"<com.android.internal.util.ArrayUtils: java.lang.Object[] sCache>","31":"return"}}}

Generated Model
	arg#1->arg#0

