Scanning method <java.io.FileOutputStream: void <init>(java.lang.String,boolean)>

All seen event types: LoadStaticRecord, BinaryOperationRecord, MethodReturnRecord, MethodCallRecord, LoadInstanceRecord, MethodStartRecord, MethodEndRecord, IfRecord, StoreInstanceRecord, NewObjectRecord, 
Ignored event types: IfRecord, 

JSON Encoded Analysis Data (for visualization):{"heapEdges":[{"step":0,"from":"1093667848","to":"sdaReg0","type":"model"},{"step":1,"from":"sdaReg0","to":"1093667848","type":"model"},{"step":2,"from":"sdaReg0","to":"1093667848","type":"model"},{"step":3,"from":"1093667536","to":"1083966016","type":"create","field":"<java.io.FileOutputStream: dalvik.system.CloseGuard guard>"},{"step":4,"from":"static.<libcore.io.OsConstants: int O_WRONLY>","to":"static.<libcore.io.OsConstants: int O_WRONLY>","type":"load","field":"<libcore.io.OsConstants: int O_WRONLY>"},{"step":5,"from":"static.<libcore.io.OsConstants: int O_CREAT>","to":"static.<libcore.io.OsConstants: int O_CREAT>","type":"load","field":"<libcore.io.OsConstants: int O_CREAT>"},{"step":6,"from":"static.<libcore.io.OsConstants: int O_TRUNC>","to":"static.<libcore.io.OsConstants: int O_TRUNC>","type":"load","field":"<libcore.io.OsConstants: int O_TRUNC>"},{"step":7,"from":"sdaReg8","to":"1093667536","type":"store","field":"<java.io.FileOutputStream: int mode>"},{"step":8,"from":"1093667848","to":"sdaReg9","type":"model"},{"step":9,"from":"sdaReg9","to":"1093668152","type":"model"},{"step":10,"from":"1093667536","to":"1093668152","type":"create","field":"<java.io.FileOutputStream: java.io.FileDescriptor fd>"},{"step":11,"from":"1093667536","to":"sdaReg11","type":"create","field":"<java.io.FileOutputStream: boolean shouldClose>"}],"parameters":[{"id":"1093667536","name":"this","klass":"java.io.FileOutputStream"},{"id":"sdaReg0","name":"arg#1","klass":"string"},{"id":"sdaReg1","name":"arg#2","klass":"boolean"}],"returns":[{"id":"1093667536","name":"return","klass":"java.io.FileOutputStream"}],"colors":{"heapLocToColor":{"sdaReg8":[5, 6, 7],"sdaReg9":[3, 8],"sdaReg6":[4],"static.<libcore.io.OsConstants: int O_WRONLY>":[5],"sdaReg7":[5, 6],"sdaReg4":[3],"sdaReg5":[0],"1093667536":[0],"1093668152":[9],"sdaReg12":[0],"sdaReg10":[9],"sdaReg3":[0],"sdaReg2":[3],"sdaReg1":[2],"1093667848":[3],"sdaReg0":[1, 3],"static.<libcore.io.OsConstants: int O_TRUNC>":[7],"1083966016":[4],"static.<libcore.io.OsConstants: int O_CREAT>":[6]},"colorToColor":{"0":[10],"1":[3],"3":[3, 9],"4":[0],"5":[0],"6":[0],"7":[0],"8":[9],"9":[0]},"colorToLabel":{"0":"this","1":"arg#1","2":"arg#2","5":"<libcore.io.OsConstants: int O_WRONLY>","6":"<libcore.io.OsConstants: int O_CREAT>","7":"<libcore.io.OsConstants: int O_TRUNC>","10":"return"}}}

Generated Model
	this->return
	arg#1->this
	arg#1->return

