Scanning method <java.util.HashMap: java.util.HashMap$HashMapEntry[] doubleCapacity()>

All seen event types: StoreArrayRecord, SimpleAssignmentRecord, LoadInstanceRecord, MethodStartRecord, IfRecord, StoreInstanceRecord, NewArrayRecord, BinaryOperationRecord, MethodCallRecord, MethodReturnRecord, ArrayLengthRecord, CastRecord, LoadArrayRecord, MethodEndRecord, 
Ignored event types: IfRecord, 

JSON Encoded Analysis Data (for visualization):{"heapEdges":[{"step":0,"from":"1093250184","to":"1093544472","type":"load","field":"<java.util.HashMap: java.util.HashMap$HashMapEntry[] table>"},{"step":1,"from":"1093250184","to":"1093555856","type":"create","field":"<java.util.HashMap: java.util.HashMap$HashMapEntry[] table>"},{"step":2,"from":"sdaReg6","to":"1093250184","type":"store","field":"<java.util.HashMap: int threshold>"},{"step":3,"from":"1093250184","to":"1093250184.<java.util.HashMap: int size>","type":"load","field":"<java.util.HashMap: int size>"},{"step":4,"from":"1093544472","to":"1093250240","type":"load","field":"arrayIdx_int:0"},{"step":5,"from":"1093250240","to":"1093250240.<java.util.HashMap$HashMapEntry: int hash>","type":"load","field":"<java.util.HashMap$HashMapEntry: int hash>"},{"step":6,"from":"1093250240","to":"1093555856","type":"store","field":"arrayIdx_int:0"},{"step":7,"from":"1093544472","to":"1093555824","type":"load","field":"arrayIdx_int:1"},{"step":8,"from":"1093555824","to":"1093555824.<java.util.HashMap$HashMapEntry: int hash>","type":"load","field":"<java.util.HashMap$HashMapEntry: int hash>"},{"step":9,"from":"1093555824","to":"1093555856","type":"store","field":"arrayIdx_int:5"},{"step":10,"from":"1093555824","to":"1093555792","type":"load","field":"<java.util.HashMap$HashMapEntry: java.util.HashMap$HashMapEntry next>"},{"step":11,"from":"1093555792","to":"1093555792.<java.util.HashMap$HashMapEntry: int hash>","type":"load","field":"<java.util.HashMap$HashMapEntry: int hash>"},{"step":12,"from":"1093555792","to":"1093555856","type":"store","field":"arrayIdx_int:1"},{"step":13,"from":"1093555824","to":"sdaReg14","type":"create","field":"<java.util.HashMap$HashMapEntry: java.util.HashMap$HashMapEntry next>"},{"step":14,"from":"1093544472","to":"1093556336","type":"load","field":"arrayIdx_int:3"},{"step":15,"from":"1093556336","to":"1093556336.<java.util.HashMap$HashMapEntry: int hash>","type":"load","field":"<java.util.HashMap$HashMapEntry: int hash>"},{"step":16,"from":"1093556336","to":"1093555856","type":"store","field":"arrayIdx_int:3"}],"parameters":[{"id":"1093250184","name":"this","klass":"java.util.HashMap"}],"returns":[{"id":"1093555856","name":"return","klass":"java.util.HashMap$HashMapEntry[]"}],"colors":{"heapLocToColor":{"sdaReg9":[0],"1093555824.<java.util.HashMap$HashMapEntry: int hash>":[0],"sdaReg7":[1],"1093250184":[0],"1093544472":[0],"1093556336":[0],"1093555792.<java.util.HashMap$HashMapEntry: int hash>":[0],"sdaReg13":[0],"1093250184.<java.util.HashMap: int size>":[0],"sdaReg11":[0],"sdaReg12":[0],"1093250240.<java.util.HashMap$HashMapEntry: int hash>":[0],"1093555824":[0],"1093250240":[0],"1093556336.<java.util.HashMap$HashMapEntry: int hash>":[0],"sdaReg2":[0],"1093555792":[0],"1093555856":[1]},"colorToColor":{"0":[1],"1":[0, 2]},"colorToLabel":{"0":"this","2":"return"}}}

Generated Model
	this->return

