Scanning method <android.os.Bundle: long getLong(java.lang.String,long)>

All seen event types: BinaryOperationRecord, MethodReturnRecord, MethodCallRecord, CastRecord, ArrayLengthRecord, LoadInstanceRecord, MethodStartRecord, LoadArrayRecord, MethodEndRecord, IfRecord, 
Ignored event types: IfRecord, 

JSON Encoded Analysis Data (for visualization):{"heapEdges":[{"step":0,"from":"1093935424","to":"1093711024","type":"load","field":"<android.os.Bundle: java.util.Map mMap>"},{"step":1,"from":"1093711024","to":"1094080944","type":"load","field":"<java.util.HashMap: java.util.HashMap$HashMapEntry[] table>"},{"step":2,"from":"1094080944","to":"1094080984","type":"load","field":"arrayIdx_int:2"},{"step":3,"from":"1094080984","to":"1093536264","type":"load","field":"<java.util.HashMap$HashMapEntry: java.lang.Object key>"},{"step":4,"from":"1094080984","to":"1094070808","type":"load","field":"<java.util.HashMap$HashMapEntry: java.lang.Object value>"},{"step":5,"from":"1094070808","to":"sdaReg18","type":"model"}],"parameters":[{"id":"1093935424","name":"this","klass":"android.os.Bundle"},{"id":"sdaReg0","name":"arg#1","klass":"string"},{"id":"sdaReg1","name":"arg#2","klass":"long"}],"returns":[{"id":"sdaReg18","name":"return","klass":"long"}],"colors":{"heapLocToColor":{"1093711024":[0],"sdaReg8":[3],"sdaReg9":[3],"sdaReg6":[3],"sdaReg7":[3],"sdaReg4":[3],"sdaReg5":[3],"1093935424":[0],"1093536264":[0],"sdaReg11":[3],"sdaReg12":[3],"sdaReg10":[3],"sdaReg3":[0],"sdaReg2":[0],"sdaReg1":[2],"1094080984":[0],"sdaReg0":[1],"sdaReg17":[0],"1094070808":[0],"sdaReg18":[0, 4],"sdaReg15":[3],"1094080944":[0],"sdaReg16":[0]},"colorToColor":{"0":[5],"4":[5]},"colorToLabel":{"0":"this","1":"arg#1","2":"arg#2","5":"return"}}}

Generated Model
	this->return

