Scanning method <java.io.DataInputStream: int readUnsignedShort()>

All seen event types: LoadStaticRecord, BinaryOperationRecord, MethodReturnRecord, MethodCallRecord, LoadInstanceRecord, MethodStartRecord, MethodEndRecord, 
Ignored event types: 

JSON Encoded Analysis Data (for visualization):{"heapEdges":[{"step":0,"from":"1093668824","to":"1093668960","type":"load","field":"<java.io.FilterInputStream: java.io.InputStream in>"},{"step":1,"from":"1093668824","to":"1093669016","type":"load","field":"<java.io.DataInputStream: byte[] scratch>"},{"step":2,"from":"1093668960","to":"1093669016","type":"model"},{"step":3,"from":"1093668824","to":"1093669016","type":"load","field":"<java.io.DataInputStream: byte[] scratch>"},{"step":4,"from":"static.<java.nio.ByteOrder: java.nio.ByteOrder BIG_ENDIAN>","to":"1084339448","type":"load","field":"<java.nio.ByteOrder: java.nio.ByteOrder BIG_ENDIAN>"},{"step":5,"from":"1093669016","to":"sdaReg1","type":"model"}],"parameters":[{"id":"1093668824","name":"this","klass":"java.io.DataInputStream"}],"returns":[{"id":"sdaReg2","name":"return","klass":"int"}],"colors":{"heapLocToColor":{"1084339448":[1],"1093668960":[0],"sdaReg2":[2],"sdaReg1":[2],"sdaReg0":[0],"1093668824":[0],"static.<java.nio.ByteOrder: java.nio.ByteOrder BIG_ENDIAN>":[1],"1093668824.<java.io.DataInputStream: byte[] scratch>":[0],"1093669016":[0]},"colorToColor":{"0":[0, 2],"2":[3]},"colorToLabel":{"0":"this","1":"<java.nio.ByteOrder: java.nio.ByteOrder BIG_ENDIAN>","3":"return"}}}

Generated Model
	this->return

