Scanning method <java.util.ArrayList: java.lang.Object remove(int)>

All seen event types: BinaryOperationRecord, StoreArrayRecord, MethodReturnRecord, MethodCallRecord, LoadInstanceRecord, LoadArrayRecord, IfRecord, StoreInstanceRecord, 
Ignored event types: IfRecord, 

JSON Encoded Analysis Data (for visualization):{"heapEdges":[{"step":0,"from":"1093296712","to":"1093644864","type":"load","field":"<java.util.ArrayList: java.lang.Object[] array>"},{"step":1,"from":"1093296712","to":"1093296712.<java.util.ArrayList: int size>","type":"load","field":"<java.util.ArrayList: int size>"},{"step":2,"from":"1093644864","to":"1093312392","type":"load","field":"arrayIdx_int:42"},{"step":3,"from":"1093644864","to":"sdaReg4","type":"create","field":"arrayIdx_int:42"},{"step":4,"from":"sdaReg2","to":"1093296712","type":"store","field":"<java.util.ArrayList: int size>"},{"step":5,"from":"1093296712","to":"1093296712.<java.util.AbstractList: int modCount>","type":"load","field":"<java.util.AbstractList: int modCount>"},{"step":6,"from":"sdaReg5","to":"1093296712","type":"store","field":"<java.util.AbstractList: int modCount>"}],"parameters":[{"id":"1093296712","name":"this","klass":"java.util.ArrayList"},{"id":"sdaReg0","name":"arg#1","klass":"int"}],"returns":[{"id":"1093312392","name":"return","klass":"java.lang.Object"}],"colors":{"heapLocToColor":{"1093296712":[0],"sdaReg5":[0],"1093296712.<java.util.AbstractList: int modCount>":[0],"sdaReg3":[0, 1],"1093644864":[0],"sdaReg2":[0],"1093296712.<java.util.ArrayList: int size>":[0],"sdaReg1":[1],"1093312392":[0],"sdaReg0":[1]},"colorToColor":{"0":[0, 2]},"colorToLabel":{"0":"this","1":"arg#1","2":"return"}}}

Generated Model
	this->return

