Scanning method <java.util.ArrayList: java.lang.Object get(int)>

All seen event types: LoadInstanceRecord, LoadArrayRecord, IfRecord, 
Ignored event types: IfRecord, 

JSON Encoded Analysis Data (for visualization):{"heapEdges":[{"step":0,"from":"1093407352","to":"1093407352.<java.util.ArrayList: int size>","type":"load","field":"<java.util.ArrayList: int size>"},{"step":1,"from":"1093407352","to":"1093686080","type":"load","field":"<java.util.ArrayList: java.lang.Object[] array>"},{"step":2,"from":"1093686080","to":"1093318280","type":"load","field":"arrayIdx_int:80"}],"parameters":[{"id":"1093407352","name":"this","klass":"java.util.ArrayList"},{"id":"sdaReg0","name":"arg#1","klass":"int"}],"returns":[{"id":"1093318280","name":"return","klass":"java.lang.Object"}],"colors":{"heapLocToColor":{"1093318280":[0],"1093407352.<java.util.ArrayList: int size>":[0],"1093407352":[0],"1093686080":[0],"sdaReg0":[1]},"colorToColor":{"0":[2]},"colorToLabel":{"0":"this","1":"arg#1","2":"return"}}}

Generated Model
	this->return

