Scanning method <java.util.AbstractList$SubAbstractList: void <init>(java.util.AbstractList,int,int)>

All seen event types: BinaryOperationRecord, MethodReturnRecord, MethodCallRecord, LoadInstanceRecord, MethodStartRecord, MethodEndRecord, StoreInstanceRecord, 
Ignored event types: 

JSON Encoded Analysis Data (for visualization):{"heapEdges":[{"step":0,"from":"1093519824","to":"1093351928","type":"store","field":"<java.util.AbstractList$SubAbstractList: java.util.AbstractList fullList>"},{"step":1,"from":"1093519824","to":"1093519824.<java.util.AbstractList: int modCount>","type":"load","field":"<java.util.AbstractList: int modCount>"},{"step":2,"from":"1093519824.<java.util.AbstractList: int modCount>","to":"1093351928","type":"store","field":"<java.util.AbstractList: int modCount>"},{"step":3,"from":"sdaReg0","to":"1093351928","type":"store","field":"<java.util.AbstractList$SubAbstractList: int offset>"},{"step":4,"from":"sdaReg7","to":"1093351928","type":"store","field":"<java.util.AbstractList$SubAbstractList: int size>"}],"parameters":[{"id":"1093351928","name":"this","klass":"java.util.AbstractList$SubAbstractList"},{"id":"1093519824","name":"arg#1","klass":"java.util.AbstractList"},{"id":"sdaReg0","name":"arg#2","klass":"int"},{"id":"sdaReg1","name":"arg#3","klass":"int"}],"returns":[{"id":"1093351928","name":"return","klass":"java.util.AbstractList$SubAbstractList"}],"colors":{"heapLocToColor":{"sdaReg6":[0],"1093519824":[1],"sdaReg7":[2, 3],"sdaReg4":[0],"sdaReg5":[0],"sdaReg3":[0],"sdaReg2":[0],"sdaReg1":[3],"sdaReg0":[2],"1093519824.<java.util.AbstractList: int modCount>":[1],"1093351928":[0]},"colorToColor":{"0":[4],"1":[0],"2":[0],"3":[0]},"colorToLabel":{"0":"this","1":"arg#1","2":"arg#2","3":"arg#3","4":"return"}}}

Generated Model
	this->return
	arg#3->this
	arg#3->return
	arg#2->this
	arg#2->return
	arg#1->this
	arg#1->return

