Scanning method <android.os.Bundle: java.lang.String getString(java.lang.String)>

All seen event types: BinaryOperationRecord, MethodReturnRecord, MethodCallRecord, CastRecord, ArrayLengthRecord, LoadInstanceRecord, MethodStartRecord, LoadArrayRecord, MethodEndRecord, IfRecord, 
Ignored event types: IfRecord, 

JSON Encoded Analysis Data (for visualization):{"heapEdges":[{"step":0,"from":"1093968224","to":"1093975192","type":"load","field":"<android.os.Bundle: java.util.Map mMap>"},{"step":1,"from":"1093975192","to":"1093959256","type":"load","field":"<java.util.HashMap: java.util.HashMap$HashMapEntry[] table>"},{"step":2,"from":"1093959256","to":"1093959296","type":"load","field":"arrayIdx_int:2"},{"step":3,"from":"1093959296","to":"1093512712","type":"load","field":"<java.util.HashMap$HashMapEntry: java.lang.Object key>"},{"step":4,"from":"1093959296","to":"1093458776","type":"load","field":"<java.util.HashMap$HashMapEntry: java.lang.Object value>"}],"parameters":[{"id":"1093968224","name":"this","klass":"android.os.Bundle"},{"id":"sdaReg0","name":"arg#1","klass":"string"}],"returns":[{"id":"sdaReg16","name":"return","klass":"string"}],"colors":{"heapLocToColor":{"sdaReg8":[2],"sdaReg9":[2],"sdaReg6":[2],"sdaReg7":[2],"sdaReg4":[2],"sdaReg5":[2],"1093968224":[0],"sdaReg14":[2],"1093959256":[0],"1093512712":[0],"sdaReg11":[2],"sdaReg10":[2],"sdaReg3":[2],"1093975192":[0],"sdaReg2":[0],"1093458776":[0],"sdaReg1":[0],"sdaReg0":[1],"1093959296":[0],"sdaReg15":[0],"sdaReg16":[0]},"colorToColor":{"0":[3]},"colorToLabel":{"0":"this","1":"arg#1","3":"return"}}}

Generated Model
	this->return

