Scanning method <java.net.URLConnection: long getIfModifiedSince()>

All seen event types: LoadInstanceRecord, 
Ignored event types: 

JSON Encoded Analysis Data (for visualization):{"heapEdges":[{"step":0,"from":"1093591440","to":"1093591440.<java.net.URLConnection: long ifModifiedSince>","type":"load","field":"<java.net.URLConnection: long ifModifiedSince>"}],"parameters":[{"id":"1093591440","name":"this","klass":"java.net.URLConnection"}],"returns":[{"id":"1093591440.<java.net.URLConnection: long ifModifiedSince>","name":"return","klass":"long"}],"colors":{"heapLocToColor":{"1093591440":[0],"1093591440.<java.net.URLConnection: long ifModifiedSince>":[0]},"colorToColor":{"0":[1]},"colorToLabel":{"0":"this","1":"return"}}}

Generated Model
	this->return

