Scanning method <java.util.HashMap$EntryIterator: java.lang.Object next()>

All seen event types: BinaryOperationRecord, MethodReturnRecord, MethodCallRecord, ArrayLengthRecord, LoadInstanceRecord, MethodStartRecord, LoadArrayRecord, MethodEndRecord, IfRecord, StoreInstanceRecord, 
Ignored event types: IfRecord, 

JSON Encoded Analysis Data (for visualization):{"heapEdges":[{"step":0,"from":"1093843464","to":"1093566272","type":"load","field":"<java.util.HashMap$HashIterator: java.util.HashMap this$0>"},{"step":1,"from":"1093566272","to":"1093566272.<java.util.HashMap: int modCount>","type":"load","field":"<java.util.HashMap: int modCount>"},{"step":2,"from":"1093843464","to":"1093843464.<java.util.HashMap$HashIterator: int expectedModCount>","type":"load","field":"<java.util.HashMap$HashIterator: int expectedModCount>"},{"step":3,"from":"1093843464","to":"1093564600","type":"load","field":"<java.util.HashMap$HashIterator: java.util.HashMap$HashMapEntry nextEntry>"},{"step":4,"from":"1093843464","to":"1093564600","type":"load","field":"<java.util.HashMap$HashIterator: java.util.HashMap$HashMapEntry nextEntry>"},{"step":5,"from":"1093843464","to":"1093566272","type":"load","field":"<java.util.HashMap$HashIterator: java.util.HashMap this$0>"},{"step":6,"from":"1093566272","to":"1093578000","type":"load","field":"<java.util.HashMap: java.util.HashMap$HashMapEntry[] table>"},{"step":7,"from":"1093843464","to":"1093843464.<java.util.HashMap$HashIterator: int nextIndex>","type":"load","field":"<java.util.HashMap$HashIterator: int nextIndex>"},{"step":8,"from":"1093843464","to":"1093843464.<java.util.HashMap$HashIterator: int nextIndex>","type":"load","field":"<java.util.HashMap$HashIterator: int nextIndex>"},{"step":9,"from":"sdaReg3","to":"1093843464","type":"store","field":"<java.util.HashMap$HashIterator: int nextIndex>"},{"step":10,"from":"sdaReg3","to":"1093843464","type":"store","field":"<java.util.HashMap$HashIterator: int nextIndex>"},{"step":11,"from":"1093578000","to":"1093577968","type":"load","field":"arrayIdx_int:5"},{"step":12,"from":"1093577968","to":"1093843464","type":"store","field":"<java.util.HashMap$HashIterator: java.util.HashMap$HashMapEntry nextEntry>"},{"step":13,"from":"1093564600","to":"1093843464","type":"store","field":"<java.util.HashMap$HashIterator: java.util.HashMap$HashMapEntry lastEntryReturned>"}],"parameters":[{"id":"1093843464","name":"this","klass":"java.util.HashMap$EntryIterator"}],"returns":[{"id":"1093564600","name":"return","klass":"java.lang.Object"}],"colors":{"heapLocToColor":{"sdaReg6":[0],"sdaReg5":[0],"1093578000":[0],"1093577968":[0],"1093564600":[0],"1093843464.<java.util.HashMap$HashIterator: java.util.HashMap this$0>":[0],"1093566272.<java.util.HashMap: int modCount>":[0],"1093843464.<java.util.HashMap$HashIterator: int nextIndex>":[0],"1093843464.<java.util.HashMap$HashIterator: int expectedModCount>":[0],"1093566272":[0],"sdaReg3":[0],"sdaReg1":[0],"sdaReg0":[0],"1093843464.<java.util.HashMap$HashIterator: java.util.HashMap$HashMapEntry nextEntry>":[0],"1093843464":[0]},"colorToColor":{"0":[0, 1]},"colorToLabel":{"0":"this","1":"return"}}}

Generated Model
	this->return

