Scanning method <java.util.HashMap$EntryIterator: java.lang.Object next()>

All seen event types: MethodReturnRecord, MethodCallRecord, ArrayLengthRecord, LoadInstanceRecord, MethodStartRecord, MethodEndRecord, IfRecord, StoreInstanceRecord, 
Ignored event types: IfRecord, 

JSON Encoded Analysis Data (for visualization):{"heapEdges":[{"step":0,"from":"1093551424","to":"1093302184","type":"load","field":"<java.util.HashMap$HashIterator: java.util.HashMap this$0>"},{"step":1,"from":"1093302184","to":"1093302184.<java.util.HashMap: int modCount>","type":"load","field":"<java.util.HashMap: int modCount>"},{"step":2,"from":"1093551424","to":"1093551424.<java.util.HashMap$HashIterator: int expectedModCount>","type":"load","field":"<java.util.HashMap$HashIterator: int expectedModCount>"},{"step":3,"from":"1093551424","to":"1093300944","type":"load","field":"<java.util.HashMap$HashIterator: java.util.HashMap$HashMapEntry nextEntry>"},{"step":4,"from":"1093551424","to":"1093300944","type":"load","field":"<java.util.HashMap$HashIterator: java.util.HashMap$HashMapEntry nextEntry>"},{"step":5,"from":"1093551424","to":"1093302184","type":"load","field":"<java.util.HashMap$HashIterator: java.util.HashMap this$0>"},{"step":6,"from":"1093302184","to":"1093301888","type":"load","field":"<java.util.HashMap: java.util.HashMap$HashMapEntry[] table>"},{"step":7,"from":"1093551424","to":"1093551424.<java.util.HashMap$HashIterator: int nextIndex>","type":"load","field":"<java.util.HashMap$HashIterator: int nextIndex>"},{"step":8,"from":"1093300944","to":"1093551424","type":"store","field":"<java.util.HashMap$HashIterator: java.util.HashMap$HashMapEntry lastEntryReturned>"}],"parameters":[{"id":"1093551424","name":"this","klass":"java.util.HashMap$EntryIterator"}],"returns":[{"id":"1093300944","name":"return","klass":"java.lang.Object"}],"colors":{"heapLocToColor":{"1093551424.<java.util.HashMap$HashIterator: int nextIndex>":[0],"1093551424.<java.util.HashMap$HashIterator: java.util.HashMap$HashMapEntry nextEntry>":[0],"sdaReg4":[0],"1093301888":[0],"1093551424.<java.util.HashMap$HashIterator: java.util.HashMap this$0>":[0],"1093551424.<java.util.HashMap$HashIterator: int expectedModCount>":[0],"1093302184.<java.util.HashMap: int modCount>":[0],"1093300944":[0],"1093302184":[0],"sdaReg3":[0],"sdaReg1":[0],"sdaReg0":[0],"1093551424":[0]},"colorToColor":{"0":[0, 1]},"colorToLabel":{"0":"this","1":"return"}}}

Generated Model
	this->return

