Scanning method <java.util.AbstractList$SimpleListIterator: void <init>(java.util.AbstractList)>

All seen event types: MethodReturnRecord, MethodCallRecord, LoadInstanceRecord, StoreInstanceRecord, 
Ignored event types: 

JSON Encoded Analysis Data (for visualization):{"heapEdges":[{"step":0,"from":"1093562736","to":"1093626792","type":"store","field":"<java.util.AbstractList$SimpleListIterator: java.util.AbstractList this$0>"},{"step":1,"from":"1093626792","to":"sdaReg1","type":"create","field":"<java.util.AbstractList$SimpleListIterator: int pos>"},{"step":2,"from":"1093626792","to":"sdaReg2","type":"create","field":"<java.util.AbstractList$SimpleListIterator: int lastPosition>"},{"step":3,"from":"1093562736","to":"1093562736.<java.util.AbstractList: int modCount>","type":"load","field":"<java.util.AbstractList: int modCount>"},{"step":4,"from":"1093562736.<java.util.AbstractList: int modCount>","to":"1093626792","type":"store","field":"<java.util.AbstractList$SimpleListIterator: int expectedModCount>"}],"parameters":[{"id":"1093626792","name":"this","klass":"java.util.AbstractList$SimpleListIterator"},{"id":"1093562736","name":"arg#1","klass":"java.util.AbstractList"}],"returns":[{"id":"1093626792","name":"return","klass":"java.util.AbstractList$SimpleListIterator"}],"colors":{"heapLocToColor":{"1093562736.<java.util.AbstractList: int modCount>":[1],"1093626792":[0],"1093562736":[1],"sdaReg0":[0]},"colorToColor":{"0":[2],"1":[0]},"colorToLabel":{"0":"this","1":"arg#1","2":"return"}}}

Generated Model
	this->return
	arg#1->this
	arg#1->return

