Scanning method <java.io.BufferedReader: void <init>(java.io.Reader)>

All seen event types: NewArrayRecord, MethodReturnRecord, MethodCallRecord, MethodStartRecord, MethodEndRecord, IfRecord, StoreInstanceRecord, 
Ignored event types: IfRecord, 

JSON Encoded Analysis Data (for visualization):{"heapEdges":[{"step":0,"from":"1093677336","to":"1093676944","type":"store","field":"<java.io.Reader: java.lang.Object lock>"},{"step":1,"from":"1093676944","to":"sdaReg7","type":"create","field":"<java.io.BufferedReader: int mark>"},{"step":2,"from":"1093676944","to":"sdaReg8","type":"create","field":"<java.io.BufferedReader: int markLimit>"},{"step":3,"from":"1093677336","to":"1093676944","type":"store","field":"<java.io.BufferedReader: java.io.Reader in>"},{"step":4,"from":"1093676944","to":"1094298448","type":"create","field":"<java.io.BufferedReader: char[] buf>"}],"parameters":[{"id":"1093676944","name":"this","klass":"java.io.BufferedReader"},{"id":"1093677336","name":"arg#1","klass":"java.io.Reader"}],"returns":[{"id":"1093676944","name":"return","klass":"java.io.BufferedReader"}],"colors":{"heapLocToColor":{"sdaReg9":[0],"1094298448":[2],"sdaReg6":[0],"sdaReg4":[1],"sdaReg5":[0],"sdaReg3":[0],"1093676944":[0],"sdaReg1":[1],"sdaReg0":[0],"1093677336":[1]},"colorToColor":{"0":[3],"1":[0],"2":[0]},"colorToLabel":{"0":"this","1":"arg#1","3":"return"}}}

Generated Model
	this->return
	arg#1->this
	arg#1->return

