Scanning method <java.io.ObjectInputStream: java.lang.Object readNewObject(boolean)>

All seen event types: StoreArrayRecord, SimpleAssignmentRecord, MethodStartRecord, LoadInstanceRecord, IfRecord, InstanceOfRecord, StoreInstanceRecord, NewObjectRecord, NewArrayRecord, LoadStaticRecord, BinaryOperationRecord, MethodCallRecord, MethodReturnRecord, SwitchRecord, ArrayLengthRecord, CastRecord, LoadArrayRecord, MethodEndRecord, 
Ignored event types: SwitchRecord, IfRecord, 

JSON Encoded Analysis Data (for visualization):{"heapEdges":[{"step":0,"from":"1093240224","to":"1093240224.<java.io.ObjectInputStream: boolean hasPushbackTC>","type":"load","field":"<java.io.ObjectInputStream: boolean hasPushbackTC>"},{"step":1,"from":"1093240224","to":"1093292592","type":"load","field":"<java.io.ObjectInputStream: java.io.DataInputStream input>"},{"step":2,"from":"1093292592","to":"1093296112","type":"load","field":"<java.io.FilterInputStream: java.io.InputStream in>"},{"step":3,"from":"1093296112","to":"1093296112.<java.io.ByteArrayInputStream: int pos>","type":"load","field":"<java.io.ByteArrayInputStream: int pos>"},{"step":4,"from":"1093296112","to":"1093296112.<java.io.ByteArrayInputStream: int count>","type":"load","field":"<java.io.ByteArrayInputStream: int count>"},{"step":5,"from":"1093296112","to":"1093281776","type":"load","field":"<java.io.ByteArrayInputStream: byte[] buf>"},{"step":6,"from":"1093296112","to":"1093296112.<java.io.ByteArrayInputStream: int pos>","type":"load","field":"<java.io.ByteArrayInputStream: int pos>"},{"step":7,"from":"sdaReg5","to":"1093296112","type":"store","field":"<java.io.ByteArrayInputStream: int pos>"},{"step":8,"from":"1093281776","to":"1093281776.arrayIdx_int:5","type":"load","field":"arrayIdx_int:5"},{"step":9,"from":"sdaReg7","to":"1093240224","type":"store","field":"<java.io.ObjectInputStream: byte pushbackTC>"},{"step":10,"from":"1093240224","to":"1093292592","type":"load","field":"<java.io.ObjectInputStream: java.io.DataInputStream input>"},{"step":11,"from":"1093292592","to":"1093240224","type":"store","field":"<java.io.ObjectInputStream: java.io.InputStream primitiveData>"},{"step":12,"from":"1093240224","to":"1093240224.<java.io.ObjectInputStream: int descriptorHandle>","type":"load","field":"<java.io.ObjectInputStream: int descriptorHandle>"},{"step":13,"from":"1093240224","to":"1093240224.<java.io.ObjectInputStream: int nextHandle>","type":"load","field":"<java.io.ObjectInputStream: int nextHandle>"},{"step":14,"from":"sdaReg12","to":"1093240224","type":"store","field":"<java.io.ObjectInputStream: int nextHandle>"},{"step":15,"from":"1093240224.<java.io.ObjectInputStream: int nextHandle>","to":"1093240224","type":"store","field":"<java.io.ObjectInputStream: int descriptorHandle>"},{"step":16,"from":"1093240224","to":"1093292592","type":"load","field":"<java.io.ObjectInputStream: java.io.DataInputStream input>"},{"step":17,"from":"1093292592","to":"1093296112","type":"load","field":"<java.io.FilterInputStream: java.io.InputStream in>"},{"step":18,"from":"1093292592","to":"1093388880","type":"load","field":"<java.io.DataInputStream: byte[] scratch>"},{"step":19,"from":"1093296112","to":"1093388880","type":"model"},{"step":20,"from":"1093292592","to":"1093388880","type":"load","field":"<java.io.DataInputStream: byte[] scratch>"},{"step":21,"from":"static.<java.nio.ByteOrder: java.nio.ByteOrder BIG_ENDIAN>","to":"1084339448","type":"load","field":"<java.nio.ByteOrder: java.nio.ByteOrder BIG_ENDIAN>"},{"step":22,"from":"1093388880","to":"sdaReg19","type":"model"},{"step":23,"from":"1093292592","to":"1093296112","type":"load","field":"<java.io.FilterInputStream: java.io.InputStream in>"},{"step":24,"from":"1093296112","to":"1093447576","type":"model"},{"step":25,"from":"1093447576","to":"1093447576.arrayIdx_int:0","type":"load","field":"arrayIdx_int:0"},{"step":26,"from":"sdaReg33","to":"1093447656","type":"store","field":"arrayIdx_int:0"},{"step":27,"from":"1093447576","to":"1093447576.arrayIdx_int:1","type":"load","field":"arrayIdx_int:1"},{"step":28,"from":"sdaReg33","to":"1093447656","type":"store","field":"arrayIdx_int:1"},{"step":29,"from":"1093447576","to":"1093447576.arrayIdx_int:2","type":"load","field":"arrayIdx_int:2"},{"step":30,"from":"sdaReg33","to":"1093447656","type":"store","field":"arrayIdx_int:2"},{"step":31,"from":"1093447576","to":"1093447576.arrayIdx_int:3","type":"load","field":"arrayIdx_int:3"},{"step":32,"from":"sdaReg33","to":"1093447656","type":"store","field":"arrayIdx_int:3"},{"step":33,"from":"1093447576","to":"1093447576.arrayIdx_int:4","type":"load","field":"arrayIdx_int:4"},{"step":34,"from":"sdaReg33","to":"1093447656","type":"store","field":"arrayIdx_int:4"},{"step":35,"from":"1093447576","to":"1093447576.arrayIdx_int:5","type":"load","field":"arrayIdx_int:5"},{"step":36,"from":"sdaReg33","to":"1093447656","type":"store","field":"arrayIdx_int:5"},{"step":37,"from":"1093447576","to":"1093447576.arrayIdx_int:6","type":"load","field":"arrayIdx_int:6"},{"step":38,"from":"sdaReg33","to":"1093447656","type":"store","field":"arrayIdx_int:6"},{"step":39,"from":"1093447576","to":"1093447576.arrayIdx_int:7","type":"load","field":"arrayIdx_int:7"},{"step":40,"from":"sdaReg33","to":"1093447656","type":"store","field":"arrayIdx_int:7"},{"step":41,"from":"1093447576","to":"1093447576.arrayIdx_int:8","type":"load","field":"arrayIdx_int:8"},{"step":42,"from":"sdaReg33","to":"1093447656","type":"store","field":"arrayIdx_int:8"},{"step":43,"from":"1093447576","to":"1093447576.arrayIdx_int:9","type":"load","field":"arrayIdx_int:9"},{"step":44,"from":"sdaReg33","to":"1093447656","type":"store","field":"arrayIdx_int:9"},{"step":45,"from":"1093447576","to":"1093447576.arrayIdx_int:10","type":"load","field":"arrayIdx_int:10"},{"step":46,"from":"sdaReg33","to":"1093447656","type":"store","field":"arrayIdx_int:10"},{"step":47,"from":"1093447576","to":"1093447576.arrayIdx_int:11","type":"load","field":"arrayIdx_int:11"},{"step":48,"from":"sdaReg33","to":"1093447656","type":"store","field":"arrayIdx_int:11"},{"step":49,"from":"1093447576","to":"1093447576.arrayIdx_int:12","type":"load","field":"arrayIdx_int:12"},{"step":50,"from":"sdaReg33","to":"1093447656","type":"store","field":"arrayIdx_int:12"},{"step":51,"from":"1093447576","to":"1093447576.arrayIdx_int:13","type":"load","field":"arrayIdx_int:13"},{"step":52,"from":"sdaReg33","to":"1093447656","type":"store","field":"arrayIdx_int:13"},{"step":53,"from":"1093447576","to":"1093447576.arrayIdx_int:14","type":"load","field":"arrayIdx_int:14"},{"step":54,"from":"sdaReg33","to":"1093447656","type":"store","field":"arrayIdx_int:14"},{"step":55,"from":"1093447576","to":"1093447576.arrayIdx_int:15","type":"load","field":"arrayIdx_int:15"},{"step":56,"from":"sdaReg33","to":"1093447656","type":"store","field":"arrayIdx_int:15"},{"step":57,"from":"1093447576","to":"1093447576.arrayIdx_int:16","type":"load","field":"arrayIdx_int:16"},{"step":58,"from":"sdaReg33","to":"1093447656","type":"store","field":"arrayIdx_int:16"},{"step":59,"from":"1093447576","to":"1093447576.arrayIdx_int:17","type":"load","field":"arrayIdx_int:17"},{"step":60,"from":"sdaReg33","to":"1093447656","type":"store","field":"arrayIdx_int:17"},{"step":61,"from":"1093447576","to":"1093447576.arrayIdx_int:18","type":"load","field":"arrayIdx_int:18"},{"step":62,"from":"sdaReg33","to":"1093447656","type":"store","field":"arrayIdx_int:18"},{"step":63,"from":"1093447576","to":"1093447576.arrayIdx_int:19","type":"load","field":"arrayIdx_int:19"},{"step":64,"from":"sdaReg33","to":"1093447656","type":"store","field":"arrayIdx_int:19"},{"step":65,"from":"1093447576","to":"1093447576.arrayIdx_int:20","type":"load","field":"arrayIdx_int:20"},{"step":66,"from":"sdaReg33","to":"1093447656","type":"store","field":"arrayIdx_int:20"},{"step":67,"from":"1093447576","to":"1093447576.arrayIdx_int:21","type":"load","field":"arrayIdx_int:21"},{"step":68,"from":"sdaReg33","to":"1093447656","type":"store","field":"arrayIdx_int:21"},{"step":69,"from":"1093447576","to":"1093447576.arrayIdx_int:22","type":"load","field":"arrayIdx_int:22"},{"step":70,"from":"sdaReg33","to":"1093447656","type":"store","field":"arrayIdx_int:22"},{"step":71,"from":"1093447576","to":"1093447576.arrayIdx_int:23","type":"load","field":"arrayIdx_int:23"},{"step":72,"from":"sdaReg33","to":"1093447656","type":"store","field":"arrayIdx_int:23"},{"step":73,"from":"1093447576","to":"1093447576.arrayIdx_int:24","type":"load","field":"arrayIdx_int:24"},{"step":74,"from":"sdaReg33","to":"1093447656","type":"store","field":"arrayIdx_int:24"},{"step":75,"from":"1093447576","to":"1093447576.arrayIdx_int:25","type":"load","field":"arrayIdx_int:25"},{"step":76,"from":"sdaReg33","to":"1093447656","type":"store","field":"arrayIdx_int:25"},{"step":77,"from":"1093447576","to":"1093447576.arrayIdx_int:26","type":"load","field":"arrayIdx_int:26"},{"step":78,"from":"sdaReg33","to":"1093447656","type":"store","field":"arrayIdx_int:26"},{"step":79,"from":"1093447576","to":"1093447576.arrayIdx_int:27","type":"load","field":"arrayIdx_int:27"},{"step":80,"from":"sdaReg33","to":"1093447656","type":"store","field":"arrayIdx_int:27"},{"step":81,"from":"1093447576","to":"1093447576.arrayIdx_int:28","type":"load","field":"arrayIdx_int:28"},{"step":82,"from":"sdaReg33","to":"1093447656","type":"store","field":"arrayIdx_int:28"},{"step":83,"from":"1093447576","to":"1093447576.arrayIdx_int:29","type":"load","field":"arrayIdx_int:29"},{"step":84,"from":"sdaReg33","to":"1093447656","type":"store","field":"arrayIdx_int:29"},{"step":85,"from":"1093447576","to":"1093447576.arrayIdx_int:30","type":"load","field":"arrayIdx_int:30"},{"step":86,"from":"sdaReg33","to":"1093447656","type":"store","field":"arrayIdx_int:30"},{"step":87,"from":"1093447576","to":"1093447576.arrayIdx_int:31","type":"load","field":"arrayIdx_int:31"},{"step":88,"from":"sdaReg33","to":"1093447656","type":"store","field":"arrayIdx_int:31"},{"step":89,"from":"1093447576","to":"1093447576.arrayIdx_int:32","type":"load","field":"arrayIdx_int:32"},{"step":90,"from":"sdaReg33","to":"1093447656","type":"store","field":"arrayIdx_int:32"},{"step":91,"from":"1093447576","to":"1093447576.arrayIdx_int:33","type":"load","field":"arrayIdx_int:33"},{"step":92,"from":"sdaReg33","to":"1093447656","type":"store","field":"arrayIdx_int:33"},{"step":93,"from":"1093447576","to":"1093447576.arrayIdx_int:34","type":"load","field":"arrayIdx_int:34"},{"step":94,"from":"sdaReg33","to":"1093447656","type":"store","field":"arrayIdx_int:34"},{"step":95,"from":"1093447576","to":"1093447576.arrayIdx_int:35","type":"load","field":"arrayIdx_int:35"},{"step":96,"from":"sdaReg33","to":"1093447656","type":"store","field":"arrayIdx_int:35"},{"step":97,"from":"1093447576","to":"1093447576.arrayIdx_int:36","type":"load","field":"arrayIdx_int:36"},{"step":98,"from":"sdaReg33","to":"1093447656","type":"store","field":"arrayIdx_int:36"},{"step":99,"from":"1093447576","to":"1093447576.arrayIdx_int:37","type":"load","field":"arrayIdx_int:37"},{"step":100,"from":"sdaReg33","to":"1093447656","type":"store","field":"arrayIdx_int:37"},{"step":101,"from":"1093447576","to":"1093447576.arrayIdx_int:38","type":"load","field":"arrayIdx_int:38"},{"step":102,"from":"sdaReg33","to":"1093447656","type":"store","field":"arrayIdx_int:38"},{"step":103,"from":"1093447576","to":"1093447576.arrayIdx_int:39","type":"load","field":"arrayIdx_int:39"},{"step":104,"from":"sdaReg33","to":"1093447656","type":"store","field":"arrayIdx_int:39"},{"step":105,"from":"1093447576","to":"1093447576.arrayIdx_int:40","type":"load","field":"arrayIdx_int:40"},{"step":106,"from":"sdaReg33","to":"1093447656","type":"store","field":"arrayIdx_int:40"},{"step":107,"from":"1093447576","to":"1093447576.arrayIdx_int:41","type":"load","field":"arrayIdx_int:41"},{"step":108,"from":"sdaReg33","to":"1093447656","type":"store","field":"arrayIdx_int:41"},{"step":109,"from":"1093447576","to":"1093447576.arrayIdx_int:42","type":"load","field":"arrayIdx_int:42"},{"step":110,"from":"sdaReg33","to":"1093447656","type":"store","field":"arrayIdx_int:42"},{"step":111,"from":"1093447576","to":"1093447576.arrayIdx_int:43","type":"load","field":"arrayIdx_int:43"},{"step":112,"from":"sdaReg33","to":"1093447656","type":"store","field":"arrayIdx_int:43"},{"step":113,"from":"1093447576","to":"1093447576.arrayIdx_int:44","type":"load","field":"arrayIdx_int:44"},{"step":114,"from":"sdaReg33","to":"1093447656","type":"store","field":"arrayIdx_int:44"},{"step":115,"from":"1093447576","to":"1093447576.arrayIdx_int:45","type":"load","field":"arrayIdx_int:45"},{"step":116,"from":"sdaReg33","to":"1093447656","type":"store","field":"arrayIdx_int:45"},{"step":117,"from":"1093447576","to":"1093447576.arrayIdx_int:46","type":"load","field":"arrayIdx_int:46"},{"step":118,"from":"sdaReg33","to":"1093447656","type":"store","field":"arrayIdx_int:46"},{"step":119,"from":"1093447576","to":"1093447576.arrayIdx_int:47","type":"load","field":"arrayIdx_int:47"},{"step":120,"from":"sdaReg33","to":"1093447656","type":"store","field":"arrayIdx_int:47"},{"step":121,"from":"1093447576","to":"1093447576.arrayIdx_int:48","type":"load","field":"arrayIdx_int:48"},{"step":122,"from":"sdaReg33","to":"1093447656","type":"store","field":"arrayIdx_int:48"},{"step":123,"from":"1093447576","to":"1093447576.arrayIdx_int:49","type":"load","field":"arrayIdx_int:49"},{"step":124,"from":"sdaReg33","to":"1093447656","type":"store","field":"arrayIdx_int:49"},{"step":125,"from":"1093447576","to":"1093447576.arrayIdx_int:50","type":"load","field":"arrayIdx_int:50"},{"step":126,"from":"sdaReg33","to":"1093447656","type":"store","field":"arrayIdx_int:50"},{"step":127,"from":"1093447576","to":"1093447576.arrayIdx_int:51","type":"load","field":"arrayIdx_int:51"},{"step":128,"from":"sdaReg33","to":"1093447656","type":"store","field":"arrayIdx_int:51"},{"step":129,"from":"1093447576","to":"1093447576.arrayIdx_int:52","type":"load","field":"arrayIdx_int:52"},{"step":130,"from":"sdaReg33","to":"1093447656","type":"store","field":"arrayIdx_int:52"},{"step":131,"from":"1093447576","to":"1093447576.arrayIdx_int:53","type":"load","field":"arrayIdx_int:53"},{"step":132,"from":"sdaReg33","to":"1093447656","type":"store","field":"arrayIdx_int:53"},{"step":133,"from":"1093447576","to":"1093447576.arrayIdx_int:54","type":"load","field":"arrayIdx_int:54"},{"step":134,"from":"sdaReg33","to":"1093447656","type":"store","field":"arrayIdx_int:54"},{"step":135,"from":"1093447576","to":"1093447576.arrayIdx_int:55","type":"load","field":"arrayIdx_int:55"},{"step":136,"from":"sdaReg33","to":"1093447656","type":"store","field":"arrayIdx_int:55"},{"step":137,"from":"1093447576","to":"1093447576.arrayIdx_int:56","type":"load","field":"arrayIdx_int:56"},{"step":138,"from":"sdaReg33","to":"1093447656","type":"store","field":"arrayIdx_int:56"},{"step":139,"from":"1093447576","to":"1093447576.arrayIdx_int:57","type":"load","field":"arrayIdx_int:57"},{"step":140,"from":"sdaReg33","to":"1093447656","type":"store","field":"arrayIdx_int:57"},{"step":141,"from":"1093447576","to":"1093447576.arrayIdx_int:58","type":"load","field":"arrayIdx_int:58"},{"step":142,"from":"sdaReg33","to":"1093447656","type":"store","field":"arrayIdx_int:58"},{"step":143,"from":"1093447656","to":"sdaReg34","type":"model"},{"step":144,"from":"1093684944","to":"sdaReg34","type":"model"},{"step":145,"from":"sdaReg34","to":"1093684944","type":"model"},{"step":146,"from":"1093240224","to":"1093292592","type":"load","field":"<java.io.ObjectInputStream: java.io.DataInputStream input>"},{"step":147,"from":"1093292592","to":"1093296112","type":"load","field":"<java.io.FilterInputStream: java.io.InputStream in>"},{"step":148,"from":"1093292592","to":"1093388880","type":"load","field":"<java.io.DataInputStream: byte[] scratch>"},{"step":149,"from":"1093296112","to":"1093388880","type":"model"},{"step":150,"from":"1093292592","to":"1093388880","type":"load","field":"<java.io.DataInputStream: byte[] scratch>"},{"step":151,"from":"static.<java.nio.ByteOrder: java.nio.ByteOrder BIG_ENDIAN>","to":"1084339448","type":"load","field":"<java.nio.ByteOrder: java.nio.ByteOrder BIG_ENDIAN>"},{"step":152,"from":"1093388880","to":"sdaReg37","type":"model"},{"step":153,"from":"1093684944","to":"sdaReg37","type":"model"},{"step":154,"from":"sdaReg37","to":"1093684944","type":"model"},{"step":155,"from":"1093240224","to":"1093292592","type":"load","field":"<java.io.ObjectInputStream: java.io.DataInputStream input>"},{"step":156,"from":"1093292592","to":"1093296112","type":"load","field":"<java.io.FilterInputStream: java.io.InputStream in>"},{"step":157,"from":"1093296112","to":"1093296112.<java.io.ByteArrayInputStream: int count>","type":"load","field":"<java.io.ByteArrayInputStream: int count>"},{"step":158,"from":"1093296112","to":"1093281776","type":"load","field":"<java.io.ByteArrayInputStream: byte[] buf>"},{"step":159,"from":"sdaReg40","to":"1093296112","type":"store","field":"<java.io.ByteArrayInputStream: int pos>"},{"step":160,"from":"1093281776","to":"1093281776.arrayIdx_int:75","type":"load","field":"arrayIdx_int:75"},{"step":161,"from":"1093684944","to":"sdaReg42","type":"model"},{"step":162,"from":"sdaReg42","to":"1093684944","type":"model"},{"step":163,"from":"1093240224","to":"1093603784","type":"load","field":"<java.io.ObjectInputStream: java.util.ArrayList objectsRead>"},{"step":164,"from":"1093603784","to":"1093603784.<java.util.ArrayList: int size>","type":"load","field":"<java.util.ArrayList: int size>"},{"step":165,"from":"1093240224","to":"1093603784","type":"load","field":"<java.io.ObjectInputStream: java.util.ArrayList objectsRead>"},{"step":166,"from":"1093603784","to":"1083994088","type":"load","field":"<java.util.ArrayList: java.lang.Object[] array>"},{"step":167,"from":"1093603784","to":"1093603784.<java.util.ArrayList: int size>","type":"load","field":"<java.util.ArrayList: int size>"},{"step":168,"from":"1083994088","to":"1093315184","type":"model"},{"step":169,"from":"1093603784","to":"1093315184","type":"create","field":"<java.util.ArrayList: java.lang.Object[] array>"},{"step":170,"from":"1093315184","to":"1093684944","type":"create","field":"arrayIdx_int:0"},{"step":171,"from":"sdaReg54","to":"1093603784","type":"store","field":"<java.util.ArrayList: int size>"},{"step":172,"from":"1093603784","to":"1093603784.<java.util.AbstractList: int modCount>","type":"load","field":"<java.util.AbstractList: int modCount>"},{"step":173,"from":"sdaReg55","to":"1093603784","type":"store","field":"<java.util.AbstractList: int modCount>"},{"step":174,"from":"1093240224","to":"1093292592","type":"load","field":"<java.io.ObjectInputStream: java.io.DataInputStream input>"},{"step":175,"from":"1093292592","to":"1093296112","type":"load","field":"<java.io.FilterInputStream: java.io.InputStream in>"},{"step":176,"from":"1093292592","to":"1093388880","type":"load","field":"<java.io.DataInputStream: byte[] scratch>"},{"step":177,"from":"1093296112","to":"1093388880","type":"model"},{"step":178,"from":"1093292592","to":"1093388880","type":"load","field":"<java.io.DataInputStream: byte[] scratch>"},{"step":179,"from":"static.<java.nio.ByteOrder: java.nio.ByteOrder BIG_ENDIAN>","to":"1084339448","type":"load","field":"<java.nio.ByteOrder: java.nio.ByteOrder BIG_ENDIAN>"},{"step":180,"from":"1093388880","to":"sdaReg60","type":"model"},{"step":181,"from":"1093684944","to":"1093420056","type":"model"},{"step":182,"from":"1093420056","to":"1093684944","type":"model"},{"step":183,"from":"1093240224","to":"1093292592","type":"load","field":"<java.io.ObjectInputStream: java.io.DataInputStream input>"},{"step":184,"from":"1093292592","to":"1093296112","type":"load","field":"<java.io.FilterInputStream: java.io.InputStream in>"},{"step":185,"from":"1093296112","to":"1093296112.<java.io.ByteArrayInputStream: int count>","type":"load","field":"<java.io.ByteArrayInputStream: int count>"},{"step":186,"from":"1093296112","to":"1093281776","type":"load","field":"<java.io.ByteArrayInputStream: byte[] buf>"},{"step":187,"from":"sdaReg64","to":"1093296112","type":"store","field":"<java.io.ByteArrayInputStream: int pos>"},{"step":188,"from":"1093281776","to":"1093281776.arrayIdx_int:78","type":"load","field":"arrayIdx_int:78"},{"step":189,"from":"1093240224","to":"1093292592","type":"load","field":"<java.io.ObjectInputStream: java.io.DataInputStream input>"},{"step":190,"from":"1093292592","to":"1093296112","type":"load","field":"<java.io.FilterInputStream: java.io.InputStream in>"},{"step":191,"from":"1093292592","to":"1093388880","type":"load","field":"<java.io.DataInputStream: byte[] scratch>"},{"step":192,"from":"1093296112","to":"1093388880","type":"model"},{"step":193,"from":"1093292592","to":"1093388880","type":"load","field":"<java.io.DataInputStream: byte[] scratch>"},{"step":194,"from":"static.<java.nio.ByteOrder: java.nio.ByteOrder BIG_ENDIAN>","to":"1084339448","type":"load","field":"<java.nio.ByteOrder: java.nio.ByteOrder BIG_ENDIAN>"},{"step":195,"from":"1093388880","to":"sdaReg71","type":"model"},{"step":196,"from":"1093292592","to":"1093296112","type":"load","field":"<java.io.FilterInputStream: java.io.InputStream in>"},{"step":197,"from":"1093296112","to":"1093546416","type":"model"},{"step":198,"from":"1093546416","to":"1093546416.arrayIdx_int:0","type":"load","field":"arrayIdx_int:0"},{"step":199,"from":"sdaReg85","to":"1093546440","type":"store","field":"arrayIdx_int:0"},{"step":200,"from":"1093546440","to":"sdaReg86","type":"model"},{"step":201,"from":"sdaReg67","to":"sdaReg87","type":"model"},{"step":202,"from":"sdaReg67","to":"sdaReg88","type":"model"},{"step":203,"from":"sdaReg88","to":"sdaReg89","type":"model"},{"step":204,"from":"sdaReg88","to":"sdaReg91","type":"model"},{"step":205,"from":"sdaReg89","to":"sdaReg88","type":"model"},{"step":206,"from":"sdaReg89","to":"sdaReg91","type":"model"},{"step":207,"from":"sdaReg86","to":"1093508504","type":"store","field":"<java.io.ObjectStreamField: java.lang.String name>"},{"step":208,"from":"sdaReg88","to":"sdaReg94","type":"model"},{"step":209,"from":"sdaReg94","to":"sdaReg95","type":"model"},{"step":210,"from":"sdaReg95","to":"1093508504","type":"store","field":"<java.io.ObjectStreamField: java.lang.String typeString>"},{"step":211,"from":"static.<java.lang.Integer: java.lang.Class TYPE>","to":"1083909616","type":"load","field":"<java.lang.Integer: java.lang.Class TYPE>"},{"step":212,"from":"1083909616","to":"1093508504","type":"store","field":"<java.io.ObjectStreamField: java.lang.Object type>"},{"step":213,"from":"1093508504","to":"sdaReg99","type":"create","field":"<java.io.ObjectStreamField: boolean isDeserialized>"},{"step":214,"from":"1093420056","to":"1093508504","type":"create","field":"arrayIdx_int:0"},{"step":215,"from":"1093240224","to":"1093603784","type":"load","field":"<java.io.ObjectInputStream: java.util.ArrayList objectsRead>"},{"step":216,"from":"1093240224","to":"1093603784","type":"load","field":"<java.io.ObjectInputStream: java.util.ArrayList objectsRead>"},{"step":217,"from":"1093684944","to":"1093315184","type":"store","field":"arrayIdx_int:0"},{"step":218,"from":"1093240224.<java.io.ObjectInputStream: int descriptorHandle>","to":"1093240224","type":"store","field":"<java.io.ObjectInputStream: int descriptorHandle>"},{"step":219,"from":"1093240224","to":"1093388792","type":"load","field":"<java.io.ObjectInputStream: java.io.InputStream emptyStream>"},{"step":220,"from":"1093388792","to":"1093240224","type":"store","field":"<java.io.ObjectInputStream: java.io.InputStream primitiveData>"},{"step":221,"from":"1093240224","to":"1093684944","type":"model"},{"step":222,"from":"1093240224","to":"1093510072","type":"model"},{"step":223,"from":"1093684944","to":"1093240224","type":"model"},{"step":224,"from":"1093684944","to":"1093510072","type":"model"},{"step":225,"from":"1093684944","to":"1093510072","type":"model"},{"step":226,"from":"1093510072","to":"1093684944","type":"model"},{"step":227,"from":"1093684944","to":"1093510072","type":"model"},{"step":228,"from":"1093510072","to":"1093283736","type":"model"},{"step":229,"from":"1093684944","to":"sdaReg117","type":"model"},{"step":230,"from":"1093283736","to":"sdaReg118","type":"model"},{"step":231,"from":"1093684944","to":"sdaReg120","type":"model"},{"step":232,"from":"sdaReg120","to":"sdaReg121","type":"model"},{"step":233,"from":"sdaReg120","to":"sdaReg124","type":"model"},{"step":234,"from":"sdaReg120","to":"sdaReg125","type":"model"},{"step":235,"from":"sdaReg124","to":"sdaReg120","type":"model"},{"step":236,"from":"sdaReg124","to":"sdaReg125","type":"model"},{"step":237,"from":"1093283736","to":"sdaReg126","type":"model"},{"step":238,"from":"sdaReg126","to":"sdaReg127","type":"model"},{"step":239,"from":"sdaReg126","to":"sdaReg130","type":"model"},{"step":240,"from":"sdaReg126","to":"sdaReg131","type":"model"},{"step":241,"from":"sdaReg130","to":"sdaReg126","type":"model"},{"step":242,"from":"sdaReg130","to":"sdaReg131","type":"model"},{"step":243,"from":"1093684944","to":"1093283736","type":"model"},{"step":244,"from":"1093283736","to":"1093684944","type":"model"},{"step":245,"from":"1093684944","to":"1093420056","type":"model"},{"step":246,"from":"1093684944","to":"1093510072","type":"model"},{"step":247,"from":"1093684944","to":"1093510072","type":"model"},{"step":248,"from":"1093510072","to":"1093281096","type":"model"},{"step":249,"from":"static.<java.lang.Integer: java.lang.Class TYPE>","to":"1083909616","type":"load","field":"<java.lang.Integer: java.lang.Class TYPE>"},{"step":250,"from":"1083909616","to":"1093508504","type":"store","field":"<java.io.ObjectStreamField: java.lang.Object type>"},{"step":251,"from":"1093240224","to":"1093388792","type":"load","field":"<java.io.ObjectInputStream: java.io.InputStream emptyStream>"},{"step":252,"from":"1093388792","to":"1093240224","type":"store","field":"<java.io.ObjectInputStream: java.io.InputStream primitiveData>"},{"step":253,"from":"1093240224","to":"1093240224.<java.io.ObjectInputStream: boolean mustResolve>","type":"load","field":"<java.io.ObjectInputStream: boolean mustResolve>"},{"step":254,"from":"1093240224","to":"sdaReg150","type":"create","field":"<java.io.ObjectInputStream: boolean mustResolve>"},{"step":255,"from":"1093240224","to":"1093240224.<java.io.ObjectInputStream: boolean hasPushbackTC>","type":"load","field":"<java.io.ObjectInputStream: boolean hasPushbackTC>"},{"step":256,"from":"1093240224","to":"1093292592","type":"load","field":"<java.io.ObjectInputStream: java.io.DataInputStream input>"},{"step":257,"from":"1093292592","to":"1093296112","type":"load","field":"<java.io.FilterInputStream: java.io.InputStream in>"},{"step":258,"from":"1093296112","to":"1093296112.<java.io.ByteArrayInputStream: int count>","type":"load","field":"<java.io.ByteArrayInputStream: int count>"},{"step":259,"from":"1093296112","to":"1093281776","type":"load","field":"<java.io.ByteArrayInputStream: byte[] buf>"},{"step":260,"from":"sdaReg154","to":"1093296112","type":"store","field":"<java.io.ByteArrayInputStream: int pos>"},{"step":261,"from":"1093281776","to":"1093281776.arrayIdx_int:82","type":"load","field":"arrayIdx_int:82"},{"step":262,"from":"sdaReg156","to":"1093240224","type":"store","field":"<java.io.ObjectInputStream: byte pushbackTC>"},{"step":263,"from":"1093240224.<java.io.ObjectInputStream: boolean mustResolve>","to":"1093240224","type":"store","field":"<java.io.ObjectInputStream: boolean mustResolve>"},{"step":264,"from":"1093240224","to":"1093240224.<java.io.ObjectInputStream: boolean hasPushbackTC>","type":"load","field":"<java.io.ObjectInputStream: boolean hasPushbackTC>"},{"step":265,"from":"1093240224","to":"1093292592","type":"load","field":"<java.io.ObjectInputStream: java.io.DataInputStream input>"},{"step":266,"from":"1093292592","to":"1093296112","type":"load","field":"<java.io.FilterInputStream: java.io.InputStream in>"},{"step":267,"from":"1093296112","to":"1093296112.<java.io.ByteArrayInputStream: int count>","type":"load","field":"<java.io.ByteArrayInputStream: int count>"},{"step":268,"from":"1093296112","to":"1093281776","type":"load","field":"<java.io.ByteArrayInputStream: byte[] buf>"},{"step":269,"from":"sdaReg162","to":"1093296112","type":"store","field":"<java.io.ByteArrayInputStream: int pos>"},{"step":270,"from":"1093281776","to":"1093281776.arrayIdx_int:83","type":"load","field":"arrayIdx_int:83"},{"step":271,"from":"sdaReg164","to":"1093240224","type":"store","field":"<java.io.ObjectInputStream: byte pushbackTC>"},{"step":272,"from":"sdaReg173","to":"1093240224","type":"store","field":"<java.io.ObjectInputStream: int nextHandle>"},{"step":273,"from":"1093684944","to":"1093510072","type":"model"},{"step":274,"from":"1093684944","to":"1093510072","type":"model"},{"step":275,"from":"1093684944","to":"1093487144","type":"model"},{"step":276,"from":"1093510072","to":"1093684944","type":"model"},{"step":277,"from":"1093510072","to":"1093487144","type":"model"},{"step":278,"from":"1093240224","to":"1093603784","type":"load","field":"<java.io.ObjectInputStream: java.util.ArrayList objectsRead>"},{"step":279,"from":"1093240224","to":"1093603784","type":"load","field":"<java.io.ObjectInputStream: java.util.ArrayList objectsRead>"},{"step":280,"from":"1093315184","to":"1093487144","type":"create","field":"arrayIdx_int:1"},{"step":281,"from":"sdaReg187","to":"1093603784","type":"store","field":"<java.util.ArrayList: int size>"},{"step":282,"from":"sdaReg188","to":"1093603784","type":"store","field":"<java.util.AbstractList: int modCount>"},{"step":283,"from":"1093487144","to":"1093240224","type":"store","field":"<java.io.ObjectInputStream: java.lang.Object currentObject>"},{"step":284,"from":"1093684944","to":"1093240224","type":"store","field":"<java.io.ObjectInputStream: java.io.ObjectStreamClass currentClass>"},{"step":285,"from":"1093684944","to":"sdaReg190","type":"model"},{"step":286,"from":"1093684944","to":"1093391992","type":"model"},{"step":287,"from":"1093240224","to":"1093388824","type":"load","field":"<java.io.ObjectInputStream: java.util.HashMap cachedSuperclasses>"},{"step":288,"from":"1093487144","to":"1093510072","type":"model"},{"step":289,"from":"1093388824","to":"1093510072","type":"model"},{"step":290,"from":"1093388824","to":"0","type":"model"},{"step":291,"from":"1093510072","to":"1093388824","type":"model"},{"step":292,"from":"1093510072","to":"0","type":"model"},{"step":293,"from":"1093487144","to":"1093510072","type":"model"},{"step":294,"from":"static.<libcore.util.EmptyArray: java.lang.Object[] OBJECT>","to":"1083994088","type":"load","field":"<libcore.util.EmptyArray: java.lang.Object[] OBJECT>"},{"step":295,"from":"1083994088","to":"1093332712","type":"store","field":"<java.util.ArrayList: java.lang.Object[] array>"},{"step":296,"from":"1093510072","to":"1083910288","type":"model"},{"step":297,"from":"1093332712","to":"1093510072","type":"model"},{"step":298,"from":"1093510072","to":"1093332712","type":"model"},{"step":299,"from":"1083910288","to":"0","type":"model"},{"step":300,"from":"1093240224","to":"1093388824","type":"load","field":"<java.io.ObjectInputStream: java.util.HashMap cachedSuperclasses>"},{"step":301,"from":"1093388824","to":"1093510072","type":"model"},{"step":302,"from":"1093388824","to":"1093332712","type":"model"},{"step":303,"from":"1093510072","to":"1093388824","type":"model"},{"step":304,"from":"1093510072","to":"1093332712","type":"model"},{"step":305,"from":"1093332712","to":"1093388824","type":"model"},{"step":306,"from":"1093332712","to":"1093510072","type":"model"},{"step":307,"from":"1093332712","to":"1093332712.<java.util.ArrayList: int size>","type":"load","field":"<java.util.ArrayList: int size>"},{"step":308,"from":"1093332712","to":"1093332712.<java.util.ArrayList: int size>","type":"load","field":"<java.util.ArrayList: int size>"},{"step":309,"from":"1093308224","to":"1093510072","type":"load","field":"arrayIdx_int:0"},{"step":310,"from":"1093391992","to":"1093391992.<java.util.ArrayList: int size>","type":"load","field":"<java.util.ArrayList: int size>"},{"step":311,"from":"1093391992","to":"1093391992.<java.util.ArrayList: int size>","type":"load","field":"<java.util.ArrayList: int size>"},{"step":312,"from":"1093391992","to":"1093392016","type":"load","field":"<java.util.ArrayList: java.lang.Object[] array>"},{"step":313,"from":"1093392016","to":"1093684944","type":"load","field":"arrayIdx_int:0"},{"step":314,"from":"1093684944","to":"1093510072","type":"model"},{"step":315,"from":"1093510072","to":"sdaReg231","type":"model"},{"step":316,"from":"1093684944","to":"sdaReg232","type":"model"},{"step":317,"from":"1093510072","to":"sdaReg234","type":"model"},{"step":318,"from":"1093391992","to":"1093391992.<java.util.ArrayList: int size>","type":"load","field":"<java.util.ArrayList: int size>"},{"step":319,"from":"1093391992","to":"1093392016","type":"load","field":"<java.util.ArrayList: java.lang.Object[] array>"},{"step":320,"from":"1093392016","to":"1093684944","type":"load","field":"arrayIdx_int:0"},{"step":321,"from":"1093487144","to":"1093240224","type":"store","field":"<java.io.ObjectInputStream: java.lang.Object currentObject>"},{"step":322,"from":"1093684944","to":"1093240224","type":"store","field":"<java.io.ObjectInputStream: java.io.ObjectStreamClass currentClass>"},{"step":323,"from":"1093684944","to":"sdaReg243","type":"model"},{"step":324,"from":"1093684944","to":"1093510072","type":"model"},{"step":325,"from":"1093684944","to":"0","type":"model"},{"step":326,"from":"1093684944","to":"1093420056","type":"model"},{"step":327,"from":"1093684944","to":"1093510072","type":"model"},{"step":328,"from":"1093684944","to":"1093508504","type":"model"},{"step":329,"from":"1093684944","to":"1093279200","type":"model"},{"step":330,"from":"1093508504","to":"1093684944","type":"model"},{"step":331,"from":"1093508504","to":"1093279200","type":"model"},{"step":332,"from":"static.<java.lang.Byte: java.lang.Class TYPE>","to":"1083909112","type":"load","field":"<java.lang.Byte: java.lang.Class TYPE>"},{"step":333,"from":"static.<java.lang.Character: java.lang.Class TYPE>","to":"1083909448","type":"load","field":"<java.lang.Character: java.lang.Class TYPE>"},{"step":334,"from":"static.<java.lang.Double: java.lang.Class TYPE>","to":"1083910120","type":"load","field":"<java.lang.Double: java.lang.Class TYPE>"},{"step":335,"from":"static.<java.lang.Float: java.lang.Class TYPE>","to":"1083909952","type":"load","field":"<java.lang.Float: java.lang.Class TYPE>"},{"step":336,"from":"static.<java.lang.Integer: java.lang.Class TYPE>","to":"1083909616","type":"load","field":"<java.lang.Integer: java.lang.Class TYPE>"},{"step":337,"from":"1093240224","to":"1093292592","type":"load","field":"<java.io.ObjectInputStream: java.io.DataInputStream input>"},{"step":338,"from":"1093292592","to":"1093296112","type":"load","field":"<java.io.FilterInputStream: java.io.InputStream in>"},{"step":339,"from":"1093292592","to":"1093388880","type":"load","field":"<java.io.DataInputStream: byte[] scratch>"},{"step":340,"from":"1093296112","to":"1093388880","type":"model"},{"step":341,"from":"1093292592","to":"1093388880","type":"load","field":"<java.io.DataInputStream: byte[] scratch>"},{"step":342,"from":"static.<java.nio.ByteOrder: java.nio.ByteOrder BIG_ENDIAN>","to":"1084339448","type":"load","field":"<java.nio.ByteOrder: java.nio.ByteOrder BIG_ENDIAN>"},{"step":343,"from":"1093388880","to":"sdaReg266","type":"model"},{"step":344,"from":"1093279200","to":"1093487144","type":"model"},{"step":345,"from":"1093279200","to":"sdaReg266","type":"model"},{"step":346,"from":"1093487144","to":"1093279200","type":"model"},{"step":347,"from":"1093487144","to":"sdaReg266","type":"model"},{"step":348,"from":"sdaReg266","to":"1093279200","type":"model"},{"step":349,"from":"sdaReg266","to":"1093487144","type":"model"},{"step":350,"from":"1093240224","to":"sdaReg267","type":"create","field":"<java.io.ObjectInputStream: java.lang.Object currentObject>"},{"step":351,"from":"1093240224","to":"sdaReg268","type":"create","field":"<java.io.ObjectInputStream: java.io.ObjectStreamClass currentClass>"},{"step":352,"from":"1093240224","to":"sdaReg269","type":"create","field":"<java.io.ObjectInputStream: java.lang.Object currentObject>"},{"step":353,"from":"1093240224","to":"sdaReg270","type":"create","field":"<java.io.ObjectInputStream: java.io.ObjectStreamClass currentClass>"},{"step":354,"from":"1093684944","to":"sdaReg271","type":"model"},{"step":355,"from":"1093240224","to":"1093240224.<java.io.ObjectInputStream: boolean enableResolve>","type":"load","field":"<java.io.ObjectInputStream: boolean enableResolve>"}],"parameters":[{"id":"1093240224","name":"this","klass":"java.io.ObjectInputStream"},{"id":"sdaReg0","name":"arg#1","klass":"boolean"}],"returns":[{"id":"1093487144","name":"return","klass":"java.lang.Object"}],"colors":{"heapLocToColor":{"sdaReg191":[0, 2, 44],"sdaReg190":[0, 2, 44],"sdaReg199":[0, 46],"1093240224.<java.io.ObjectInputStream: java.util.HashMap cachedSuperclasses>":[0],"sdaReg198":[0, 2, 43, 26],"sdaReg195":[0, 2, 43],"sdaReg194":[0],"sdaReg197":[0, 2, 45],"sdaReg196":[0, 2],"sdaReg13":[0],"sdaReg14":[2],"sdaReg11":[0],"sdaReg12":[0],"1093388880":[0],"sdaReg19":[4],"sdaReg17":[0],"sdaReg18":[0],"sdaReg15":[2],"sdaReg16":[0],"1093315184":[10],"0":[0, 49, 2, 43, 26, 46, 45],"1093447576":[5],"1093388792":[0],"static.<java.lang.Character: java.lang.Class TYPE>":[59],"sdaReg171":[0, 2],"sdaReg170":[0, 2],"sdaReg172":[0],"sdaReg175":[0, 2, 26],"sdaReg177":[0, 2, 43],"sdaReg179":[0],"1093392016.arrayIdx_int:0":[0, 2, 45],"sdaReg178":[0, 2, 43],"1093240224.<java.io.ObjectInputStream: boolean hasPushbackTC>":[0],"1093296112.<java.io.ByteArrayInputStream: byte[] buf>":[0],"1093240224.<java.io.ObjectInputStream: java.io.DataInputStream input>":[0],"1093240224.<java.io.ObjectInputStream: java.util.ArrayList objectsRead>":[0],"1093296112":[0],"sdaReg182":[0],"1093546440":[15],"1093487144":[0, 2, 43, 57, 45],"sdaReg180":[0, 2, 43],"sdaReg185":[0, 2, 43],"sdaReg184":[0],"1093391992.<java.util.ArrayList: java.lang.Object[] array>":[0, 2, 45],"1093240224.<java.io.ObjectInputStream: java.io.InputStream emptyStream>":[0],"sdaReg60":[11],"1093684944":[0, 2, 45],"static.<java.lang.Float: java.lang.Class TYPE>":[61],"static.<libcore.util.EmptyArray: java.lang.Object[] OBJECT>":[0, 48],"1093296112.<java.io.ByteArrayInputStream: int count>":[0],"sdaReg59":[0],"sdaReg58":[2],"sdaReg57":[0],"1093281776":[0],"sdaReg55":[0],"1093283736":[0, 2, 27],"sdaReg54":[0],"sdaReg53":[0],"static.<java.lang.Double: java.lang.Class TYPE>":[60],"1093603784":[0],"sdaReg50":[2],"1093391992.<java.util.ArrayList: int size>":[0, 2, 45],"sdaReg49":[0],"sdaReg48":[0],"sdaReg44":[2],"1083910120":[60],"sdaReg41":[0],"sdaReg43":[0],"sdaReg42":[0, 2],"1093281096":[0, 2, 39, 26],"1093546416.arrayIdx_int:0":[14],"1093546416":[14],"sdaReg200":[0, 46],"sdaReg201":[0, 2, 43, 26],"sdaReg205":[47],"sdaReg204":[47],"sdaReg39":[0],"sdaReg203":[0, 2, 43, 26],"sdaReg38":[0],"sdaReg202":[0],"sdaReg37":[2, 9],"sdaReg209":[47],"sdaReg208":[47],"sdaReg207":[47],"sdaReg206":[47],"sdaReg36":[0],"sdaReg35":[8],"sdaReg34":[2, 7],"sdaReg33":[5],"1093332712":[0, 47],"sdaReg9":[0],"sdaReg6":[0],"sdaReg7":[0],"sdaReg4":[0],"sdaReg5":[0],"sdaReg27":[6],"sdaReg26":[5],"sdaReg3":[0],"sdaReg2":[0],"sdaReg1":[0],"sdaReg21":[0],"sdaReg0":[1],"sdaReg20":[4],"sdaReg23":[0],"sdaReg22":[0],"sdaReg24":[5],"sdaReg125":[0, 2, 33, 30],"1093447576.arrayIdx_int:15":[5],"sdaReg126":[34, 27],"1093447576.arrayIdx_int:16":[5],"sdaReg127":[34, 35, 27],"1093447576.arrayIdx_int:13":[5],"sdaReg128":[36],"1093447576.arrayIdx_int:14":[5],"sdaReg129":[36],"1093447576.arrayIdx_int:19":[5],"1093447576.arrayIdx_int:17":[5],"1093447576.arrayIdx_int:18":[5],"1093420056":[0, 2, 12, 45],"sdaReg228":[0, 2, 45],"sdaReg68":[0],"1093510072":[0, 50, 2, 43, 26, 47, 45],"sdaReg229":[0, 2, 45],"sdaReg69":[0],"sdaReg66":[0],"sdaReg67":[0],"sdaReg224":[0, 2, 45],"sdaReg65":[0],"sdaReg226":[0, 2, 45],"sdaReg62":[0],"sdaReg227":[0, 2, 45],"sdaReg63":[0],"sdaReg221":[0, 50, 2, 43, 26, 47],"sdaReg72":[13],"sdaReg220":[0, 50, 2, 43, 26, 47],"1093308224":[50],"sdaReg71":[13],"sdaReg223":[0, 50, 2, 43, 26, 47],"sdaReg70":[0],"sdaReg222":[0],"1093388824":[0],"sdaReg120":[0, 2, 30],"1093447576.arrayIdx_int:12":[5],"sdaReg122":[32],"1093447576.arrayIdx_int:11":[5],"sdaReg121":[0, 2, 31, 30],"1093447576.arrayIdx_int:10":[5],"sdaReg124":[0, 2, 31, 30],"sdaReg123":[32],"1093447576.arrayIdx_int:24":[5],"sdaReg116":[27],"1093447576.arrayIdx_int:25":[5],"sdaReg117":[0, 2, 28],"1093447576.arrayIdx_int:26":[5],"sdaReg114":[0, 2],"1093447576.arrayIdx_int:27":[5],"sdaReg115":[0, 2, 26],"1093447576.arrayIdx_int:28":[5],"1093447576.arrayIdx_int:29":[5],"sdaReg118":[27, 29],"sdaReg119":[0, 2, 27, 29, 28],"sdaReg219":[0, 47],"sdaReg78":[14],"sdaReg79":[15],"sdaReg218":[0, 47],"sdaReg215":[0, 47],"sdaReg73":[0],"sdaReg74":[0],"sdaReg213":[0, 49, 2, 43, 26],"sdaReg75":[0],"sdaReg214":[0, 2, 49, 43, 26, 46],"sdaReg76":[14],"sdaReg212":[0, 49, 2, 43, 26, 46],"sdaReg211":[47],"sdaReg210":[47],"1083994088":[0, 48],"1093447576.arrayIdx_int:21":[5],"sdaReg113":[0],"1093447576.arrayIdx_int:20":[5],"sdaReg112":[0, 26],"1093447576.arrayIdx_int:23":[5],"sdaReg111":[2],"1093240224.<java.io.ObjectInputStream: boolean enableResolve>":[0],"1093447576.arrayIdx_int:22":[5],"sdaReg110":[0],"sdaReg108":[0],"1093447576.arrayIdx_int:39":[5],"1093447576.arrayIdx_int:37":[5],"sdaReg103":[2],"1093447576.arrayIdx_int:38":[5],"sdaReg104":[0],"1093447576.arrayIdx_int:35":[5],"sdaReg105":[2],"1093447576.arrayIdx_int:36":[5],"sdaReg86":[16],"sdaReg247":[0, 50, 2, 43, 26, 47, 45],"sdaReg87":[17],"sdaReg248":[0, 2, 49, 43, 26, 46, 45],"sdaReg249":[0],"sdaReg85":[14],"sdaReg88":[18],"sdaReg89":[18],"sdaReg90":[19],"sdaReg241":[0, 2, 43],"1093296112.<java.io.ByteArrayInputStream: int pos>":[0],"sdaReg240":[0],"1083909616":[25],"sdaReg243":[0, 2, 56, 45],"sdaReg94":[18, 22],"sdaReg242":[0, 2, 45],"sdaReg93":[21],"sdaReg92":[21],"sdaReg244":[0, 2, 56, 45],"sdaReg91":[18, 20],"1093447576.arrayIdx_int:34":[5],"sdaReg100":[21],"1093447576.arrayIdx_int:33":[5],"1093447576.arrayIdx_int:32":[5],"1093447576.arrayIdx_int:31":[5],"1093292592.<java.io.DataInputStream: byte[] scratch>":[0],"1093603784.<java.util.ArrayList: int size>":[0],"sdaReg101":[21],"1093447576.arrayIdx_int:30":[5],"1093292592":[0],"1093391992":[0, 2, 45],"1093279200":[0, 2, 57, 45],"1093447576.arrayIdx_int:46":[5],"1093447576.arrayIdx_int:47":[5],"1093332712.<java.util.ArrayList: int size>":[0, 47],"1093447576.arrayIdx_int:48":[5],"1093447576.arrayIdx_int:49":[5],"sdaReg237":[0, 2, 45],"sdaReg95":[18, 23, 22],"sdaReg238":[0, 2, 45],"sdaReg96":[21],"sdaReg235":[55],"sdaReg97":[24],"1083910288":[0, 2, 49, 43, 26],"sdaReg239":[0, 2, 45],"sdaReg230":[0, 50, 2, 43, 26, 47, 45],"sdaReg234":[0, 50, 2, 54, 43, 26, 47, 45],"1093447656":[6],"sdaReg233":[53],"1084339448":[3],"sdaReg232":[0, 2, 52, 45],"sdaReg231":[0, 51, 50, 2, 43, 26, 47, 45],"1093447576.arrayIdx_int:43":[5],"1093308224.arrayIdx_int:0":[0, 2, 43, 26, 47],"1093447576.arrayIdx_int:42":[5],"1093447576.arrayIdx_int:45":[5],"1093447576.arrayIdx_int:44":[5],"1093447576.arrayIdx_int:41":[5],"1093508504":[0, 2, 21, 45],"1093447576.arrayIdx_int:40":[5],"1093392016":[0, 2, 45],"1093240224":[0],"1093447576.arrayIdx_int:9":[5],"1093292592.<java.io.FilterInputStream: java.io.InputStream in>":[0],"1093447576.arrayIdx_int:8":[5],"1093447576.arrayIdx_int:7":[5],"1093447576.arrayIdx_int:6":[5],"1093447576.arrayIdx_int:5":[5],"sdaReg169":[42],"1093447576.arrayIdx_int:4":[5],"1093447576.arrayIdx_int:3":[5],"1093447576.arrayIdx_int:58":[5],"1093447576.arrayIdx_int:2":[5],"1093447576.arrayIdx_int:57":[5],"1093447576.arrayIdx_int:1":[5],"static.<java.lang.Byte: java.lang.Class TYPE>":[58],"1093447576.arrayIdx_int:0":[5],"sdaReg161":[0],"1093447576.arrayIdx_int:51":[5],"1083909112":[58],"1093447576.arrayIdx_int:52":[5],"sdaReg163":[0],"sdaReg164":[0],"1093447576.arrayIdx_int:50":[5],"1093240224.<java.io.ObjectInputStream: int descriptorHandle>":[0],"1093447576.arrayIdx_int:55":[5],"1093447576.arrayIdx_int:56":[5],"sdaReg167":[0, 2],"1093447576.arrayIdx_int:53":[5],"1093447576.arrayIdx_int:54":[5],"sdaReg264":[25],"sdaReg265":[0],"sdaReg266":[0, 2, 57, 62, 45],"sdaReg260":[0, 2, 57, 45],"static.<java.nio.ByteOrder: java.nio.ByteOrder BIG_ENDIAN>":[3],"sdaReg261":[0, 2, 21, 45],"sdaReg160":[0],"1093281776.arrayIdx_int:5":[0],"sdaReg257":[0, 2, 12, 45],"1093603784.<java.util.AbstractList: int modCount>":[0],"sdaReg159":[0],"sdaReg158":[0],"sdaReg152":[0],"sdaReg153":[0],"sdaReg151":[0],"sdaReg156":[0],"sdaReg155":[0],"sdaReg255":[0, 2, 12, 45],"sdaReg256":[0, 50, 2, 43, 26, 47, 45],"sdaReg253":[0, 2, 12, 45],"sdaReg254":[0, 2, 12, 45],"sdaReg251":[0, 2, 43],"1083909448":[59],"sdaReg252":[0, 2, 45],"sdaReg250":[0],"1093240224.<java.io.ObjectInputStream: int nextHandle>":[0],"sdaReg147":[41],"sdaReg149":[0],"sdaReg143":[21],"sdaReg144":[0, 2, 39, 26],"sdaReg145":[40],"1083909952":[61],"sdaReg146":[21],"1093281776.arrayIdx_int:78":[0],"1093281776.arrayIdx_int:75":[0],"sdaReg140":[0, 2, 12],"1093240224.<java.io.ObjectInputStream: boolean mustResolve>":[0],"sdaReg139":[0, 2, 39, 26],"sdaReg138":[0, 2, 39, 26],"sdaReg137":[0, 2, 26],"sdaReg136":[0, 2, 26],"sdaReg134":[0, 2, 12],"sdaReg135":[0, 2, 12],"sdaReg132":[38],"sdaReg133":[0, 2, 12],"sdaReg130":[34, 35, 27],"sdaReg131":[34, 37, 27],"static.<java.lang.Integer: java.lang.Class TYPE>":[25],"sdaReg271":[0, 2, 63, 45],"1093281776.arrayIdx_int:82":[0],"1093281776.arrayIdx_int:83":[0]},"colorToColor":{"0":[0, 2, 33, 64, 4, 5, 43, 9, 10, 11, 46, 47, 13, 14, 45, 17, 18, 57, 27, 26, 62, 30],"2":[0, 2, 33, 64, 43, 10, 46, 47, 45, 27, 57, 26, 62, 30],"5":[6],"6":[7],"7":[2],"9":[2],"10":[0],"12":[2],"14":[15],"15":[16],"16":[21],"18":[18, 21, 20],"21":[0, 2, 57, 12, 45],"23":[21],"22":[21],"25":[21],"27":[0, 34, 2, 37, 27],"26":[0, 2, 43, 27, 46, 47],"31":[0, 2, 33, 30],"30":[0, 2, 33, 30],"34":[34, 37, 27],"35":[34, 37, 27],"43":[0, 2, 64, 57, 10, 46, 62, 47, 45],"47":[0, 2, 43, 26, 47],"45":[0, 2, 64, 43, 57, 62, 45],"48":[47],"57":[0, 2, 64, 43, 57, 62, 45],"62":[0, 2, 43, 57, 45]},"colorToLabel":{"0":"this","1":"arg#1","3":"<java.nio.ByteOrder: java.nio.ByteOrder BIG_ENDIAN>","25":"<java.lang.Integer: java.lang.Class TYPE>","48":"<libcore.util.EmptyArray: java.lang.Object[] OBJECT>","58":"<java.lang.Byte: java.lang.Class TYPE>","59":"<java.lang.Character: java.lang.Class TYPE>","60":"<java.lang.Double: java.lang.Class TYPE>","61":"<java.lang.Float: java.lang.Class TYPE>","64":"return"}}}

Generated Model
	this->return

