Scanning method <android.os.Bundle: void unparcel()>

All seen event types: StoreArrayRecord, SimpleAssignmentRecord, ExitMonitorRecord, LoadInstanceRecord, MethodStartRecord, IfRecord, NewObjectRecord, StoreInstanceRecord, LoadStaticRecord, NewArrayRecord, BinaryOperationRecord, MethodCallRecord, MethodReturnRecord, SwitchRecord, EnterMonitorRecord, ArrayLengthRecord, CastRecord, LoadArrayRecord, MethodEndRecord, 
Ignored event types: ExitMonitorRecord, SwitchRecord, EnterMonitorRecord, IfRecord, 

JSON Encoded Analysis Data (for visualization):{"heapEdges":[{"step":0,"from":"1093707288","to":"1093455336","type":"load","field":"<android.os.Bundle: android.os.Parcel mParcelledData>"},{"step":1,"from":"1093707288","to":"1093455336","type":"load","field":"<android.os.Bundle: android.os.Parcel mParcelledData>"},{"step":2,"from":"1093455336","to":"sdaReg0","type":"model"},{"step":3,"from":"static.<java.util.HashMap: java.util.Map$Entry[] EMPTY_TABLE>","to":"1083997920","type":"load","field":"<java.util.HashMap: java.util.Map$Entry[] EMPTY_TABLE>"},{"step":4,"from":"1083997920","to":"1093816856","type":"store","field":"<java.util.HashMap: java.util.HashMap$HashMapEntry[] table>"},{"step":5,"from":"1093816856","to":"sdaReg7","type":"create","field":"<java.util.HashMap: int threshold>"},{"step":6,"from":"1093707288","to":"1093816856","type":"create","field":"<android.os.Bundle: java.util.Map mMap>"},{"step":7,"from":"1093707288","to":"1093455336","type":"load","field":"<android.os.Bundle: android.os.Parcel mParcelledData>"},{"step":8,"from":"1093455336","to":"sdaReg14","type":"model"},{"step":9,"from":"1093455336","to":"sdaReg15","type":"model"},{"step":10,"from":"1093455336","to":"sdaReg19","type":"model"},{"step":11,"from":"1093455336","to":"sdaReg22","type":"model"},{"step":12,"from":"1093762232","to":"1093944216","type":"create","field":"<java.util.ArrayList: java.lang.Object[] array>"},{"step":13,"from":"1093455336","to":"sdaReg36","type":"model"},{"step":14,"from":"1093455336","to":"sdaReg37","type":"model"},{"step":15,"from":"1093762232","to":"1093762232.<java.util.ArrayList: int size>","type":"load","field":"<java.util.ArrayList: int size>"},{"step":16,"from":"1093955464","to":"1093944216","type":"store","field":"arrayIdx_int:0"},{"step":17,"from":"sdaReg42","to":"1093762232","type":"store","field":"<java.util.ArrayList: int size>"},{"step":18,"from":"1093762232","to":"1093762232.<java.util.AbstractList: int modCount>","type":"load","field":"<java.util.AbstractList: int modCount>"},{"step":19,"from":"sdaReg43","to":"1093762232","type":"store","field":"<java.util.AbstractList: int modCount>"},{"step":20,"from":"1093455336","to":"sdaReg47","type":"model"},{"step":21,"from":"1093455336","to":"sdaReg48","type":"model"},{"step":22,"from":"1093556360","to":"1093944216","type":"store","field":"arrayIdx_int:1"},{"step":23,"from":"sdaReg53","to":"1093762232","type":"store","field":"<java.util.ArrayList: int size>"},{"step":24,"from":"sdaReg54","to":"1093762232","type":"store","field":"<java.util.AbstractList: int modCount>"},{"step":25,"from":"1093455336","to":"sdaReg58","type":"model"},{"step":26,"from":"1093455336","to":"sdaReg59","type":"model"},{"step":27,"from":"1093640344","to":"1093944216","type":"store","field":"arrayIdx_int:2"},{"step":28,"from":"sdaReg64","to":"1093762232","type":"store","field":"<java.util.ArrayList: int size>"},{"step":29,"from":"sdaReg65","to":"1093762232","type":"store","field":"<java.util.AbstractList: int modCount>"},{"step":30,"from":"1093816856","to":"1093816856.<java.util.HashMap: int modCount>","type":"load","field":"<java.util.HashMap: int modCount>"},{"step":31,"from":"sdaReg84","to":"1093816856","type":"store","field":"<java.util.HashMap: int modCount>"},{"step":32,"from":"1093816856","to":"1093816856.<java.util.HashMap: int size>","type":"load","field":"<java.util.HashMap: int size>"},{"step":33,"from":"sdaReg85","to":"1093816856","type":"store","field":"<java.util.HashMap: int size>"},{"step":34,"from":"1093816856","to":"1093642136","type":"create","field":"<java.util.HashMap: java.util.HashMap$HashMapEntry[] table>"},{"step":35,"from":"sdaReg93","to":"1093816856","type":"store","field":"<java.util.HashMap: int threshold>"},{"step":36,"from":"1093700336","to":"1093642176","type":"store","field":"<java.util.HashMap$HashMapEntry: java.lang.Object key>"},{"step":37,"from":"1093642176","to":"1093762232","type":"create","field":"<java.util.HashMap$HashMapEntry: java.lang.Object value>"},{"step":38,"from":"sdaReg80","to":"1093642176","type":"store","field":"<java.util.HashMap$HashMapEntry: int hash>"},{"step":39,"from":"1093642136","to":"1093642176","type":"create","field":"arrayIdx_int:2"},{"step":40,"from":"1093707288","to":"1093455336","type":"load","field":"<android.os.Bundle: android.os.Parcel mParcelledData>"},{"step":41,"from":"1093455336","to":"1093455336.<android.os.Parcel: int mOwnObject>","type":"load","field":"<android.os.Parcel: int mOwnObject>"},{"step":42,"from":"static.<android.os.Parcel: android.os.Parcel[] sOwnedPool>","to":"1084044960","type":"load","field":"<android.os.Parcel: android.os.Parcel[] sOwnedPool>"},{"step":43,"from":"1093455336","to":"1084044960","type":"store","field":"arrayIdx_int:0"},{"step":44,"from":"1093707288","to":"sdaReg112","type":"create","field":"<android.os.Bundle: android.os.Parcel mParcelledData>"}],"parameters":[{"id":"1093707288","name":"this","klass":"android.os.Bundle"}],"returns":[{"id":null,"name":"return","klass":null}],"colors":{"heapLocToColor":{"sdaReg61":[8],"1084044960":[19],"1093707288.<android.os.Bundle: android.os.Parcel mParcelledData>":[0],"sdaReg68":[8],"1093642176":[18],"sdaReg69":[2],"sdaReg67":[8],"1093642136":[17],"1093707288":[0],"sdaReg72":[16],"sdaReg71":[8],"sdaReg14":[0, 4],"sdaReg12":[0],"sdaReg10":[2],"sdaReg59":[0, 15],"sdaReg58":[0, 14],"sdaReg19":[0, 6],"1083997920":[3],"sdaReg56":[0],"sdaReg17":[0],"sdaReg15":[0, 5],"sdaReg50":[8],"1093816856.<java.util.HashMap: int size>":[2],"1093816856.<java.util.HashMap: int modCount>":[2],"sdaReg77":[16],"sdaReg78":[16],"sdaReg79":[16],"1093455336.<android.os.Parcel: int mOwnObject>":[0],"sdaReg73":[16],"1093816856":[2],"sdaReg74":[16],"sdaReg75":[16],"sdaReg76":[16],"sdaReg80":[16],"sdaReg83":[16],"sdaReg48":[0, 13],"sdaReg45":[0],"sdaReg47":[0, 12],"sdaReg43":[8],"sdaReg110":[19],"sdaReg42":[8],"sdaReg107":[18],"sdaReg108":[0],"sdaReg109":[19],"static.<android.os.Parcel: android.os.Parcel[] sOwnedPool>":[19],"sdaReg104":[8],"sdaReg106":[18],"sdaReg86":[2],"1093762232.<java.util.AbstractList: int modCount>":[8],"sdaReg84":[2],"sdaReg85":[2],"sdaReg89":[2],"1093455336":[0],"sdaReg39":[8],"sdaReg37":[0, 11],"sdaReg94":[17],"sdaReg32":[8],"sdaReg31":[0],"sdaReg102":[18],"static.<java.util.HashMap: java.util.Map$Entry[] EMPTY_TABLE>":[3],"1093944216":[9],"sdaReg30":[8],"sdaReg101":[8],"sdaReg36":[0, 10],"sdaReg34":[0],"1093762232":[8],"sdaReg8":[2],"sdaReg9":[0],"sdaReg6":[3],"sdaReg4":[2],"sdaReg5":[3],"sdaReg96":[17],"sdaReg99":[2],"sdaReg27":[8],"sdaReg26":[8],"sdaReg29":[8],"sdaReg28":[8],"1093762232.<java.util.ArrayList: int size>":[8],"sdaReg3":[2],"sdaReg2":[2],"sdaReg1":[2],"sdaReg20":[0],"sdaReg0":[0, 1],"sdaReg23":[8],"sdaReg22":[0, 7],"sdaReg25":[8],"sdaReg24":[8]},"colorToColor":{"0":[19],"17":[2],"16":[18],"2":[0, 2],"18":[17],"3":[2],"8":[18, 8],"9":[8]},"colorToLabel":{"0":"this","3":"<java.util.HashMap: java.util.Map$Entry[] EMPTY_TABLE>","19":"<android.os.Parcel: android.os.Parcel[] sOwnedPool>","20":"return"}}}

Generated Model
	this-><android.os.Parcel: android.os.Parcel[] sOwnedPool>

