Scanning method <android.os.Bundle: void unparcel()>

All seen event types: StoreArrayRecord, SimpleAssignmentRecord, ExitMonitorRecord, LoadInstanceRecord, MethodStartRecord, IfRecord, NewObjectRecord, StoreInstanceRecord, NewArrayRecord, LoadStaticRecord, BinaryOperationRecord, MethodCallRecord, MethodReturnRecord, SwitchRecord, EnterMonitorRecord, CastRecord, ArrayLengthRecord, LoadArrayRecord, MethodEndRecord, 
Ignored event types: ExitMonitorRecord, SwitchRecord, EnterMonitorRecord, IfRecord, 

JSON Encoded Analysis Data (for visualization):{"heapEdges":[{"step":0,"from":"1093608016","to":"1093474152","type":"load","field":"<android.os.Bundle: android.os.Parcel mParcelledData>"},{"step":1,"from":"1093608016","to":"1093474152","type":"load","field":"<android.os.Bundle: android.os.Parcel mParcelledData>"},{"step":2,"from":"1093474152","to":"sdaReg0","type":"model"},{"step":3,"from":"static.<java.util.HashMap: java.util.Map$Entry[] EMPTY_TABLE>","to":"1083997920","type":"load","field":"<java.util.HashMap: java.util.Map$Entry[] EMPTY_TABLE>"},{"step":4,"from":"1083997920","to":"1093753528","type":"store","field":"<java.util.HashMap: java.util.HashMap$HashMapEntry[] table>"},{"step":5,"from":"1093753528","to":"sdaReg7","type":"create","field":"<java.util.HashMap: int threshold>"},{"step":6,"from":"1093608016","to":"1093753528","type":"create","field":"<android.os.Bundle: java.util.Map mMap>"},{"step":7,"from":"1093608016","to":"1093474152","type":"load","field":"<android.os.Bundle: android.os.Parcel mParcelledData>"},{"step":8,"from":"1093474152","to":"sdaReg14","type":"model"},{"step":9,"from":"1093474152","to":"sdaReg15","type":"model"},{"step":10,"from":"1093474152","to":"sdaReg19","type":"model"},{"step":11,"from":"1093474152","to":"sdaReg20","type":"model"},{"step":12,"from":"sdaReg20","to":"1093659056","type":"model"},{"step":13,"from":"1093753528","to":"1093753528.<java.util.HashMap: int modCount>","type":"load","field":"<java.util.HashMap: int modCount>"},{"step":14,"from":"sdaReg38","to":"1093753528","type":"store","field":"<java.util.HashMap: int modCount>"},{"step":15,"from":"1093753528","to":"1093753528.<java.util.HashMap: int size>","type":"load","field":"<java.util.HashMap: int size>"},{"step":16,"from":"sdaReg39","to":"1093753528","type":"store","field":"<java.util.HashMap: int size>"},{"step":17,"from":"1093753528","to":"1093504576","type":"create","field":"<java.util.HashMap: java.util.HashMap$HashMapEntry[] table>"},{"step":18,"from":"sdaReg47","to":"1093753528","type":"store","field":"<java.util.HashMap: int threshold>"},{"step":19,"from":"1093656688","to":"1093504616","type":"store","field":"<java.util.HashMap$HashMapEntry: java.lang.Object key>"},{"step":20,"from":"1093504616","to":"1093659056","type":"create","field":"<java.util.HashMap$HashMapEntry: java.lang.Object value>"},{"step":21,"from":"sdaReg34","to":"1093504616","type":"store","field":"<java.util.HashMap$HashMapEntry: int hash>"},{"step":22,"from":"1093504576","to":"1093504616","type":"create","field":"arrayIdx_int:2"},{"step":23,"from":"1093608016","to":"1093474152","type":"load","field":"<android.os.Bundle: android.os.Parcel mParcelledData>"},{"step":24,"from":"1093474152","to":"1093474152.<android.os.Parcel: int mOwnObject>","type":"load","field":"<android.os.Parcel: int mOwnObject>"},{"step":25,"from":"static.<android.os.Parcel: android.os.Parcel[] sOwnedPool>","to":"1084044960","type":"load","field":"<android.os.Parcel: android.os.Parcel[] sOwnedPool>"},{"step":26,"from":"1093474152","to":"1084044960","type":"store","field":"arrayIdx_int:0"},{"step":27,"from":"1093608016","to":"sdaReg66","type":"create","field":"<android.os.Bundle: android.os.Parcel mParcelledData>"}],"parameters":[{"id":"1093608016","name":"this","klass":"android.os.Bundle"}],"returns":[{"id":null,"name":"return","klass":null}],"colors":{"heapLocToColor":{"sdaReg60":[11],"sdaReg61":[11],"1084044960":[12],"1093659056":[8],"sdaReg64":[12],"sdaReg62":[0],"sdaReg63":[12],"sdaReg14":[0, 4],"sdaReg12":[0],"sdaReg10":[2],"sdaReg58":[8],"sdaReg56":[11],"sdaReg19":[0, 6],"1083997920":[3],"sdaReg55":[8],"sdaReg17":[0],"sdaReg53":[2],"sdaReg15":[0, 5],"sdaReg50":[10],"1093474152.<android.os.Parcel: int mOwnObject>":[0],"sdaReg48":[10],"sdaReg40":[2],"sdaReg43":[2],"1093753528":[2],"1093474152":[0],"static.<android.os.Parcel: android.os.Parcel[] sOwnedPool>":[12],"1093504576":[10],"sdaReg39":[2],"sdaReg38":[2],"sdaReg37":[9],"sdaReg32":[9],"sdaReg31":[9],"static.<java.util.HashMap: java.util.Map$Entry[] EMPTY_TABLE>":[3],"sdaReg30":[9],"sdaReg34":[9],"sdaReg33":[9],"1093608016":[0],"sdaReg8":[2],"sdaReg9":[0],"sdaReg6":[3],"sdaReg4":[2],"sdaReg5":[3],"1093753528.<java.util.HashMap: int modCount>":[2],"1093608016.<android.os.Bundle: android.os.Parcel mParcelledData>":[0],"sdaReg27":[9],"sdaReg26":[9],"sdaReg29":[9],"sdaReg28":[9],"1093753528.<java.util.HashMap: int size>":[2],"1093504616":[11],"sdaReg3":[2],"sdaReg2":[2],"sdaReg21":[8],"sdaReg1":[2],"sdaReg20":[0, 7],"sdaReg0":[0, 1],"sdaReg23":[2],"sdaReg22":[8],"sdaReg25":[8]},"colorToColor":{"0":[8, 12],"2":[0, 2],"3":[2],"7":[8],"8":[11],"9":[11],"10":[2],"11":[10]},"colorToLabel":{"0":"this","3":"<java.util.HashMap: java.util.Map$Entry[] EMPTY_TABLE>","12":"<android.os.Parcel: android.os.Parcel[] sOwnedPool>","13":"return"}}}

Generated Model
	this-><android.os.Parcel: android.os.Parcel[] sOwnedPool>

