Scanning method <android.os.Bundle: void unparcel()>

All seen event types: StoreArrayRecord, SimpleAssignmentRecord, ExitMonitorRecord, LoadInstanceRecord, MethodStartRecord, IfRecord, NewObjectRecord, StoreInstanceRecord, LoadStaticRecord, BinaryOperationRecord, MethodCallRecord, MethodReturnRecord, EnterMonitorRecord, CastRecord, LoadArrayRecord, MethodEndRecord, 
Ignored event types: ExitMonitorRecord, EnterMonitorRecord, IfRecord, 

JSON Encoded Analysis Data (for visualization):{"heapEdges":[{"step":0,"from":"1094074264","to":"1094128248","type":"load","field":"<android.os.Bundle: android.os.Parcel mParcelledData>"},{"step":1,"from":"1094074264","to":"1094128248","type":"load","field":"<android.os.Bundle: android.os.Parcel mParcelledData>"},{"step":2,"from":"1094128248","to":"sdaReg0","type":"model"},{"step":3,"from":"static.<java.util.HashMap: java.util.Map$Entry[] EMPTY_TABLE>","to":"1083997920","type":"load","field":"<java.util.HashMap: java.util.Map$Entry[] EMPTY_TABLE>"},{"step":4,"from":"1083997920","to":"1093739632","type":"store","field":"<java.util.HashMap: java.util.HashMap$HashMapEntry[] table>"},{"step":5,"from":"1093739632","to":"sdaReg7","type":"create","field":"<java.util.HashMap: int threshold>"},{"step":6,"from":"1094074264","to":"1093739632","type":"create","field":"<android.os.Bundle: java.util.Map mMap>"},{"step":7,"from":"1094074264","to":"1094128248","type":"load","field":"<android.os.Bundle: android.os.Parcel mParcelledData>"},{"step":8,"from":"1094074264","to":"1094128248","type":"load","field":"<android.os.Bundle: android.os.Parcel mParcelledData>"},{"step":9,"from":"1094128248","to":"1094128248.<android.os.Parcel: int mOwnObject>","type":"load","field":"<android.os.Parcel: int mOwnObject>"},{"step":10,"from":"static.<android.os.Parcel: android.os.Parcel[] sOwnedPool>","to":"1084044960","type":"load","field":"<android.os.Parcel: android.os.Parcel[] sOwnedPool>"},{"step":11,"from":"1084044960","to":"1093447448","type":"load","field":"arrayIdx_int:0"},{"step":12,"from":"1084044960","to":"1093563352","type":"load","field":"arrayIdx_int:1"},{"step":13,"from":"1094128248","to":"1084044960","type":"store","field":"arrayIdx_int:2"},{"step":14,"from":"1094074264","to":"sdaReg16","type":"create","field":"<android.os.Bundle: android.os.Parcel mParcelledData>"}],"parameters":[{"id":"1094074264","name":"this","klass":"android.os.Bundle"}],"returns":[{"id":null,"name":"return","klass":null}],"colors":{"heapLocToColor":{"1094074264.<android.os.Bundle: android.os.Parcel mParcelledData>":[0],"sdaReg8":[2],"sdaReg9":[0],"1094074264":[0],"sdaReg6":[3],"1084044960":[4],"static.<android.os.Parcel: android.os.Parcel[] sOwnedPool>":[4],"1094128248.<android.os.Parcel: int mOwnObject>":[0],"sdaReg4":[2],"sdaReg5":[3],"sdaReg13":[4],"sdaReg14":[4],"sdaReg12":[0],"sdaReg10":[2],"1093563352":[4],"sdaReg3":[2],"sdaReg2":[2],"1094128248":[0],"1093739632":[2],"sdaReg1":[2],"static.<java.util.HashMap: java.util.Map$Entry[] EMPTY_TABLE>":[3],"1083997920":[3],"sdaReg0":[0, 1],"1093447448":[4]},"colorToColor":{"0":[4],"2":[0],"3":[2]},"colorToLabel":{"0":"this","3":"<java.util.HashMap: java.util.Map$Entry[] EMPTY_TABLE>","4":"<android.os.Parcel: android.os.Parcel[] sOwnedPool>","5":"return"}}}

Generated Model
	this-><android.os.Parcel: android.os.Parcel[] sOwnedPool>

