Scanning method <java.io.PrintStream: void write(byte[],int,int)>

All seen event types: BinaryOperationRecord, SimpleAssignmentRecord, ExitMonitorRecord, MethodReturnRecord, MethodCallRecord, EnterMonitorRecord, LoadInstanceRecord, MethodStartRecord, ArrayLengthRecord, MethodEndRecord, IfRecord, StoreInstanceRecord, 
Ignored event types: ExitMonitorRecord, EnterMonitorRecord, IfRecord, 

JSON Encoded Analysis Data (for visualization):{"heapEdges":[{"step":0,"from":"1093467512","to":"1093467336","type":"load","field":"<java.io.FilterOutputStream: java.io.OutputStream out>"},{"step":1,"from":"1093467512","to":"1093467336","type":"load","field":"<java.io.FilterOutputStream: java.io.OutputStream out>"},{"step":2,"from":"1093467336","to":"1093467336.<java.io.ByteArrayOutputStream: int count>","type":"load","field":"<java.io.ByteArrayOutputStream: int count>"},{"step":3,"from":"1093467336","to":"1093467360","type":"load","field":"<java.io.ByteArrayOutputStream: byte[] buf>"},{"step":4,"from":"1093467336","to":"1093467360","type":"load","field":"<java.io.ByteArrayOutputStream: byte[] buf>"},{"step":5,"from":"1093467336","to":"1093467336.<java.io.ByteArrayOutputStream: int count>","type":"load","field":"<java.io.ByteArrayOutputStream: int count>"},{"step":6,"from":"1093315856","to":"1093467360","type":"model"},{"step":7,"from":"1093467336","to":"1093467336.<java.io.ByteArrayOutputStream: int count>","type":"load","field":"<java.io.ByteArrayOutputStream: int count>"},{"step":8,"from":"sdaReg14","to":"1093467336","type":"store","field":"<java.io.ByteArrayOutputStream: int count>"},{"step":9,"from":"1093467512","to":"1093467512.<java.io.PrintStream: boolean autoFlush>","type":"load","field":"<java.io.PrintStream: boolean autoFlush>"}],"parameters":[{"id":"1093467512","name":"this","klass":"java.io.PrintStream"},{"id":"1093315856","name":"arg#1","klass":"byte[]"},{"id":"sdaReg0","name":"arg#2","klass":"int"},{"id":"sdaReg1","name":"arg#3","klass":"int"}],"returns":[{"id":null,"name":"return","klass":null}],"colors":{"heapLocToColor":{"1093467336.<java.io.ByteArrayOutputStream: byte[] buf>":[0],"1093467512":[0],"sdaReg9":[2, 3],"sdaReg6":[0],"sdaReg7":[1],"sdaReg4":[2],"1093315856":[1],"sdaReg14":[0, 3],"sdaReg11":[0],"1093467512.<java.io.PrintStream: boolean autoFlush>":[0],"sdaReg12":[0, 3],"sdaReg10":[2],"1093467360":[0],"1093467336":[0],"sdaReg3":[2, 3],"1093467336.<java.io.ByteArrayOutputStream: int count>":[0],"sdaReg1":[3],"sdaReg0":[2],"1093467512.<java.io.FilterOutputStream: java.io.OutputStream out>":[0]},"colorToColor":{"0":[0],"1":[0],"3":[0]},"colorToLabel":{"0":"this","1":"arg#1","2":"arg#2","3":"arg#3","4":"return"}}}

Generated Model
	arg#3->this
	arg#1->this

