Scanning method <java.io.BufferedWriter: void <init>(java.io.Writer,int)>

All seen event types: NewArrayRecord, MethodReturnRecord, MethodCallRecord, MethodStartRecord, MethodEndRecord, IfRecord, StoreInstanceRecord, 
Ignored event types: IfRecord, 

JSON Encoded Analysis Data (for visualization):{"heapEdges":[{"step":0,"from":"1093585672","to":"1093592976","type":"store","field":"<java.io.Writer: java.lang.Object lock>"},{"step":1,"from":"1093585672","to":"1093592976","type":"store","field":"<java.io.BufferedWriter: java.io.Writer out>"},{"step":2,"from":"1093592976","to":"1093593008","type":"create","field":"<java.io.BufferedWriter: char[] buf>"}],"parameters":[{"id":"1093592976","name":"this","klass":"java.io.BufferedWriter"},{"id":"1093585672","name":"arg#1","klass":"java.io.Writer"},{"id":"sdaReg0","name":"arg#2","klass":"int"}],"returns":[{"id":"1093592976","name":"return","klass":"java.io.BufferedWriter"}],"colors":{"heapLocToColor":{"1093593008":[3],"sdaReg4":[0],"1093585672":[1],"sdaReg3":[0],"sdaReg2":[1],"sdaReg1":[0],"sdaReg0":[2],"1093592976":[0]},"colorToColor":{"0":[4],"1":[0],"3":[0]},"colorToLabel":{"0":"this","1":"arg#1","2":"arg#2","4":"return"}}}

Generated Model
	this->return
	arg#1->this
	arg#1->return

