Scanning method <java.util.AbstractList$SimpleListIterator: java.lang.Object next()>

All seen event types: BinaryOperationRecord, MethodReturnRecord, MethodCallRecord, MethodStartRecord, LoadInstanceRecord, LoadArrayRecord, MethodEndRecord, IfRecord, StoreInstanceRecord, 
Ignored event types: IfRecord, 

JSON Encoded Analysis Data (for visualization):{"heapEdges":[{"step":0,"from":"1093657864","to":"1093657864.<java.util.AbstractList$SimpleListIterator: int expectedModCount>","type":"load","field":"<java.util.AbstractList$SimpleListIterator: int expectedModCount>"},{"step":1,"from":"1093657864","to":"1093636088","type":"load","field":"<java.util.AbstractList$SimpleListIterator: java.util.AbstractList this$0>"},{"step":2,"from":"1093636088","to":"1093636088.<java.util.AbstractList: int modCount>","type":"load","field":"<java.util.AbstractList: int modCount>"},{"step":3,"from":"1093657864","to":"1093636088","type":"load","field":"<java.util.AbstractList$SimpleListIterator: java.util.AbstractList this$0>"},{"step":4,"from":"1093657864","to":"1093657864.<java.util.AbstractList$SimpleListIterator: int pos>","type":"load","field":"<java.util.AbstractList$SimpleListIterator: int pos>"},{"step":5,"from":"1093636088","to":"1093636024","type":"load","field":"<java.util.Arrays$ArrayList: java.lang.Object[] a>"},{"step":6,"from":"1093636024","to":"1093636056","type":"load","field":"arrayIdx_int:0"},{"step":7,"from":"1093657864","to":"1093657864.<java.util.AbstractList$SimpleListIterator: int pos>","type":"load","field":"<java.util.AbstractList$SimpleListIterator: int pos>"},{"step":8,"from":"sdaReg3","to":"1093657864","type":"store","field":"<java.util.AbstractList$SimpleListIterator: int pos>"},{"step":9,"from":"sdaReg3","to":"1093657864","type":"store","field":"<java.util.AbstractList$SimpleListIterator: int lastPosition>"}],"parameters":[{"id":"1093657864","name":"this","klass":"java.util.AbstractList$SimpleListIterator"}],"returns":[{"id":"1093636056","name":"return","klass":"java.lang.Object"}],"colors":{"heapLocToColor":{"1093636088.<java.util.AbstractList: int modCount>":[0],"1093636024":[0],"1093636088":[0],"1093657864.<java.util.AbstractList$SimpleListIterator: int expectedModCount>":[0],"1093657864.<java.util.AbstractList$SimpleListIterator: java.util.AbstractList this$0>":[0],"sdaReg3":[0],"sdaReg2":[0],"1093636056":[0],"sdaReg1":[0],"sdaReg0":[0],"1093657864":[0],"1093657864.<java.util.AbstractList$SimpleListIterator: int pos>":[0]},"colorToColor":{"0":[0, 1]},"colorToLabel":{"0":"this","1":"return"}}}

Generated Model
	this->return

