Scanning method <android.os.Bundle: void putBoolean(java.lang.String,boolean)>

All seen event types: StoreArrayRecord, SimpleAssignmentRecord, MethodStartRecord, LoadInstanceRecord, IfRecord, NewObjectRecord, StoreInstanceRecord, NewArrayRecord, BinaryOperationRecord, MethodCallRecord, MethodReturnRecord, ArrayLengthRecord, CastRecord, LoadArrayRecord, MethodEndRecord, 
Ignored event types: IfRecord, 

JSON Encoded Analysis Data (for visualization):{"heapEdges":[{"step":0,"from":"1093620424","to":"1093614768","type":"load","field":"<android.os.Bundle: java.util.Map mMap>"},{"step":1,"from":"sdaReg1","to":"1085837744","type":"model"},{"step":2,"from":"1093614768","to":"1094098552","type":"load","field":"<java.util.HashMap: java.util.HashMap$HashMapEntry[] table>"},{"step":3,"from":"1094098552","to":"1093864016","type":"load","field":"arrayIdx_int:3"},{"step":4,"from":"1093864016","to":"1093864016.<java.util.HashMap$HashMapEntry: int hash>","type":"load","field":"<java.util.HashMap$HashMapEntry: int hash>"},{"step":5,"from":"1093864016","to":"1094098592","type":"load","field":"<java.util.HashMap$HashMapEntry: java.util.HashMap$HashMapEntry next>"},{"step":6,"from":"1094098592","to":"1094098592.<java.util.HashMap$HashMapEntry: int hash>","type":"load","field":"<java.util.HashMap$HashMapEntry: int hash>"},{"step":7,"from":"1093614768","to":"1093614768.<java.util.HashMap: int modCount>","type":"load","field":"<java.util.HashMap: int modCount>"},{"step":8,"from":"sdaReg18","to":"1093614768","type":"store","field":"<java.util.HashMap: int modCount>"},{"step":9,"from":"1093614768","to":"1093614768.<java.util.HashMap: int size>","type":"load","field":"<java.util.HashMap: int size>"},{"step":10,"from":"sdaReg19","to":"1093614768","type":"store","field":"<java.util.HashMap: int size>"},{"step":11,"from":"1093614768","to":"1093614768.<java.util.HashMap: int threshold>","type":"load","field":"<java.util.HashMap: int threshold>"},{"step":12,"from":"1093614768","to":"1094098552","type":"load","field":"<java.util.HashMap: java.util.HashMap$HashMapEntry[] table>"},{"step":13,"from":"1093614768","to":"1093791048","type":"create","field":"<java.util.HashMap: java.util.HashMap$HashMapEntry[] table>"},{"step":14,"from":"sdaReg27","to":"1093614768","type":"store","field":"<java.util.HashMap: int threshold>"},{"step":15,"from":"1094098552","to":"1093784616","type":"load","field":"arrayIdx_int:0"},{"step":16,"from":"1093784616","to":"1093784616.<java.util.HashMap$HashMapEntry: int hash>","type":"load","field":"<java.util.HashMap$HashMapEntry: int hash>"},{"step":17,"from":"1093784616","to":"1093791048","type":"store","field":"arrayIdx_int:0"},{"step":18,"from":"1094098552","to":"1094168944","type":"load","field":"arrayIdx_int:1"},{"step":19,"from":"1094168944","to":"1094168944.<java.util.HashMap$HashMapEntry: int hash>","type":"load","field":"<java.util.HashMap$HashMapEntry: int hash>"},{"step":20,"from":"1094168944","to":"1093791048","type":"store","field":"arrayIdx_int:1"},{"step":21,"from":"1094098552","to":"1093864016","type":"load","field":"arrayIdx_int:3"},{"step":22,"from":"1093864016","to":"1093864016.<java.util.HashMap$HashMapEntry: int hash>","type":"load","field":"<java.util.HashMap$HashMapEntry: int hash>"},{"step":23,"from":"1093864016","to":"1093791048","type":"store","field":"arrayIdx_int:3"},{"step":24,"from":"1093864016","to":"1094098592","type":"load","field":"<java.util.HashMap$HashMapEntry: java.util.HashMap$HashMapEntry next>"},{"step":25,"from":"1094098592","to":"1094098592.<java.util.HashMap$HashMapEntry: int hash>","type":"load","field":"<java.util.HashMap$HashMapEntry: int hash>"},{"step":26,"from":"1094098592","to":"1093791048","type":"store","field":"arrayIdx_int:7"},{"step":27,"from":"1093864016","to":"sdaReg35","type":"create","field":"<java.util.HashMap$HashMapEntry: java.util.HashMap$HashMapEntry next>"},{"step":28,"from":"1093864048","to":"1093814992","type":"store","field":"<java.util.HashMap$HashMapEntry: java.lang.Object key>"},{"step":29,"from":"1093814992","to":"1085837744","type":"create","field":"<java.util.HashMap$HashMapEntry: java.lang.Object value>"},{"step":30,"from":"sdaReg14","to":"1093814992","type":"store","field":"<java.util.HashMap$HashMapEntry: int hash>"},{"step":31,"from":"1093864016","to":"1093814992","type":"store","field":"<java.util.HashMap$HashMapEntry: java.util.HashMap$HashMapEntry next>"},{"step":32,"from":"1093791048","to":"1093814992","type":"create","field":"arrayIdx_int:3"}],"parameters":[{"id":"1093620424","name":"this","klass":"android.os.Bundle"},{"id":"sdaReg0","name":"arg#1","klass":"string"},{"id":"sdaReg1","name":"arg#2","klass":"boolean"}],"returns":[{"id":null,"name":"return","klass":null}],"colors":{"heapLocToColor":{"1093784616":[0],"1094098552":[0],"sdaReg13":[4],"sdaReg14":[4],"sdaReg11":[4],"1093784616.<java.util.HashMap$HashMapEntry: int hash>":[0],"sdaReg12":[4],"sdaReg10":[4],"1094098592.<java.util.HashMap$HashMapEntry: int hash>":[0],"sdaReg19":[0],"sdaReg17":[4],"sdaReg18":[0],"1093814992":[6],"1094098552.arrayIdx_int:3":[0],"1094098592":[0],"1094168944.<java.util.HashMap$HashMapEntry: int hash>":[0],"1093864016":[0],"1093614768.<java.util.HashMap: int threshold>":[0],"1093864016.<java.util.HashMap$HashMapEntry: java.util.HashMap$HashMapEntry next>":[0],"sdaReg45":[0],"sdaReg44":[3],"sdaReg47":[6],"sdaReg46":[6],"sdaReg41":[3],"sdaReg42":[6],"1093614768.<java.util.HashMap: int modCount>":[0],"1093864016.<java.util.HashMap$HashMapEntry: int hash>":[0],"sdaReg39":[0],"1094168944":[0],"sdaReg32":[0],"sdaReg31":[0],"sdaReg30":[0],"sdaReg36":[5],"1093614768.<java.util.HashMap: int size>":[0],"sdaReg34":[0],"sdaReg33":[0],"1093614768":[0],"sdaReg8":[4],"sdaReg9":[4],"sdaReg6":[4],"sdaReg7":[4],"sdaReg4":[0],"sdaReg5":[3],"1093791048":[5],"1093614768.<java.util.HashMap: java.util.HashMap$HashMapEntry[] table>":[0],"1085837744":[3],"sdaReg28":[5],"1093620424":[0],"sdaReg3":[3],"sdaReg2":[0],"sdaReg1":[2],"sdaReg0":[1],"sdaReg20":[0],"sdaReg23":[0]},"colorToColor":{"0":[0, 5, 6],"2":[3],"3":[6],"4":[6],"5":[0],"6":[5]},"colorToLabel":{"0":"this","1":"arg#1","2":"arg#2","7":"return"}}}

Generated Model
	arg#2->this

