Scanning method <android.location.Location: boolean hasAccuracy()>

All seen event types: LoadInstanceRecord, 
Ignored event types: 

JSON Encoded Analysis Data (for visualization):{"heapEdges":[{"step":0,"from":"1093843408","to":"1093843408.<android.location.Location: boolean mHasAccuracy>","type":"load","field":"<android.location.Location: boolean mHasAccuracy>"}],"parameters":[{"id":"1093843408","name":"this","klass":"android.location.Location"}],"returns":[{"id":"1093843408.<android.location.Location: boolean mHasAccuracy>","name":"return","klass":"boolean"}],"colors":{"heapLocToColor":{"1093843408.<android.location.Location: boolean mHasAccuracy>":[0],"1093843408":[0]},"colorToColor":{"0":[1]},"colorToLabel":{"0":"this","1":"return"}}}

Generated Model
	this->return

