Scanning method <java.io.RandomAccessFile: void write(byte[],int,int)>

All seen event types: MethodReturnRecord, MethodCallRecord, LoadInstanceRecord, IfRecord, 
Ignored event types: IfRecord, 

JSON Encoded Analysis Data (for visualization):{"heapEdges":[{"step":0,"from":"1093680456","to":"1093556776","type":"load","field":"<java.io.RandomAccessFile: java.io.FileDescriptor fd>"},{"step":1,"from":"1093680456","to":"1093680456.<java.io.RandomAccessFile: boolean syncMetadata>","type":"load","field":"<java.io.RandomAccessFile: boolean syncMetadata>"}],"parameters":[{"id":"1093680456","name":"this","klass":"java.io.RandomAccessFile"},{"id":"1093493456","name":"arg#1","klass":"byte[]"},{"id":"sdaReg0","name":"arg#2","klass":"int"},{"id":"sdaReg1","name":"arg#3","klass":"int"}],"returns":[{"id":null,"name":"return","klass":null}],"colors":{"heapLocToColor":{"1093556776":[0],"sdaReg1":[3],"1093493456":[1],"sdaReg0":[2],"1093680456":[0],"1093680456.<java.io.RandomAccessFile: boolean syncMetadata>":[0]},"colorToColor":{},"colorToLabel":{"0":"this","1":"arg#1","2":"arg#2","3":"arg#3","4":"return"}}}

Generated Model

