Scanning method <java.io.ObjectInputStream: java.lang.Object readObject()>

All seen event types: StoreArrayRecord, SimpleAssignmentRecord, MethodStartRecord, LoadInstanceRecord, IfRecord, InstanceOfRecord, NewObjectRecord, StoreInstanceRecord, NewArrayRecord, LoadStaticRecord, BinaryOperationRecord, SwitchRecord, MethodCallRecord, MethodReturnRecord, ArrayLengthRecord, CastRecord, LoadArrayRecord, MethodEndRecord, 
Ignored event types: SwitchRecord, IfRecord, 

JSON Encoded Analysis Data (for visualization):{"heapEdges":[{"step":0,"from":"1093293768","to":"1093386288","type":"load","field":"<java.io.ObjectInputStream: java.io.InputStream primitiveData>"},{"step":1,"from":"1093293768","to":"1093386376","type":"load","field":"<java.io.ObjectInputStream: java.io.DataInputStream input>"},{"step":2,"from":"1093293768","to":"1093293768.<java.io.ObjectInputStream: boolean subclassOverridingImplementation>","type":"load","field":"<java.io.ObjectInputStream: boolean subclassOverridingImplementation>"},{"step":3,"from":"1093293768","to":"1093293768.<java.io.ObjectInputStream: int nestedLevels>","type":"load","field":"<java.io.ObjectInputStream: int nestedLevels>"},{"step":4,"from":"sdaReg4","to":"1093293768","type":"store","field":"<java.io.ObjectInputStream: int nestedLevels>"},{"step":5,"from":"1093390352","to":"1085582952","type":"load","field":"arrayIdx_int:0"},{"step":6,"from":"1085582952","to":"1083999984","type":"model"},{"step":7,"from":"static.<java.io.ObjectInputStream: java.lang.ClassLoader bootstrapLoader>","to":"1083999984","type":"load","field":"<java.io.ObjectInputStream: java.lang.ClassLoader bootstrapLoader>"},{"step":8,"from":"1093390352","to":"1085582952","type":"load","field":"arrayIdx_int:1"},{"step":9,"from":"1085582952","to":"1083999984","type":"model"},{"step":10,"from":"static.<java.io.ObjectInputStream: java.lang.ClassLoader bootstrapLoader>","to":"1083999984","type":"load","field":"<java.io.ObjectInputStream: java.lang.ClassLoader bootstrapLoader>"},{"step":11,"from":"1093390352","to":"1085582952","type":"load","field":"arrayIdx_int:2"},{"step":12,"from":"1085582952","to":"1083999984","type":"model"},{"step":13,"from":"static.<java.io.ObjectInputStream: java.lang.ClassLoader bootstrapLoader>","to":"1083999984","type":"load","field":"<java.io.ObjectInputStream: java.lang.ClassLoader bootstrapLoader>"},{"step":14,"from":"1093390352","to":"1085582952","type":"load","field":"arrayIdx_int:3"},{"step":15,"from":"1085582952","to":"1083999984","type":"model"},{"step":16,"from":"static.<java.io.ObjectInputStream: java.lang.ClassLoader bootstrapLoader>","to":"1083999984","type":"load","field":"<java.io.ObjectInputStream: java.lang.ClassLoader bootstrapLoader>"},{"step":17,"from":"1093390352","to":"1085582952","type":"load","field":"arrayIdx_int:4"},{"step":18,"from":"1085582952","to":"1083999984","type":"model"},{"step":19,"from":"static.<java.io.ObjectInputStream: java.lang.ClassLoader bootstrapLoader>","to":"1083999984","type":"load","field":"<java.io.ObjectInputStream: java.lang.ClassLoader bootstrapLoader>"},{"step":20,"from":"1093390352","to":"1093333384","type":"load","field":"arrayIdx_int:5"},{"step":21,"from":"1093333384","to":"1093284544","type":"model"},{"step":22,"from":"static.<java.io.ObjectInputStream: java.lang.ClassLoader bootstrapLoader>","to":"1083999984","type":"load","field":"<java.io.ObjectInputStream: java.lang.ClassLoader bootstrapLoader>"},{"step":23,"from":"static.<java.io.ObjectInputStream: java.lang.ClassLoader systemLoader>","to":"1083999760","type":"load","field":"<java.io.ObjectInputStream: java.lang.ClassLoader systemLoader>"},{"step":24,"from":"1093293768","to":"1093284544","type":"create","field":"<java.io.ObjectInputStream: java.lang.ClassLoader callerClassLoader>"},{"step":25,"from":"1093293768","to":"1093386288","type":"load","field":"<java.io.ObjectInputStream: java.io.InputStream primitiveData>"},{"step":26,"from":"1093293768","to":"1093386376","type":"load","field":"<java.io.ObjectInputStream: java.io.DataInputStream input>"},{"step":27,"from":"1093293768","to":"1093386288","type":"load","field":"<java.io.ObjectInputStream: java.io.InputStream primitiveData>"},{"step":28,"from":"1093386288","to":"1093386288.<java.io.ByteArrayInputStream: int count>","type":"load","field":"<java.io.ByteArrayInputStream: int count>"},{"step":29,"from":"1093386288","to":"1093386288.<java.io.ByteArrayInputStream: int pos>","type":"load","field":"<java.io.ByteArrayInputStream: int pos>"},{"step":30,"from":"1093293768","to":"1093293768.<java.io.ObjectInputStream: boolean hasPushbackTC>","type":"load","field":"<java.io.ObjectInputStream: boolean hasPushbackTC>"},{"step":31,"from":"1093293768","to":"1093386376","type":"load","field":"<java.io.ObjectInputStream: java.io.DataInputStream input>"},{"step":32,"from":"1093386376","to":"1093544616","type":"load","field":"<java.io.FilterInputStream: java.io.InputStream in>"},{"step":33,"from":"1093544616","to":"1093544616.<java.io.ByteArrayInputStream: int pos>","type":"load","field":"<java.io.ByteArrayInputStream: int pos>"},{"step":34,"from":"1093544616","to":"1093544616.<java.io.ByteArrayInputStream: int count>","type":"load","field":"<java.io.ByteArrayInputStream: int count>"},{"step":35,"from":"1093544616","to":"1093544400","type":"load","field":"<java.io.ByteArrayInputStream: byte[] buf>"},{"step":36,"from":"1093544616","to":"1093544616.<java.io.ByteArrayInputStream: int pos>","type":"load","field":"<java.io.ByteArrayInputStream: int pos>"},{"step":37,"from":"sdaReg23","to":"1093544616","type":"store","field":"<java.io.ByteArrayInputStream: int pos>"},{"step":38,"from":"1093544400","to":"1093544400.arrayIdx_int:4","type":"load","field":"arrayIdx_int:4"},{"step":39,"from":"sdaReg25","to":"1093293768","type":"store","field":"<java.io.ObjectInputStream: byte pushbackTC>"},{"step":40,"from":"1093293768","to":"sdaReg27","type":"create","field":"<java.io.ObjectInputStream: boolean hasPushbackTC>"},{"step":41,"from":"1093293768","to":"1093386288","type":"load","field":"<java.io.ObjectInputStream: java.io.InputStream primitiveData>"},{"step":42,"from":"1093386288","to":"1093386288.<java.io.ByteArrayInputStream: int count>","type":"load","field":"<java.io.ByteArrayInputStream: int count>"},{"step":43,"from":"1093386288","to":"1093386288.<java.io.ByteArrayInputStream: int pos>","type":"load","field":"<java.io.ByteArrayInputStream: int pos>"},{"step":44,"from":"1093293768","to":"sdaReg31","type":"create","field":"<java.io.ObjectInputStream: boolean hasPushbackTC>"},{"step":45,"from":"1093293768","to":"1093386376","type":"load","field":"<java.io.ObjectInputStream: java.io.DataInputStream input>"},{"step":46,"from":"1093386376","to":"1093544616","type":"load","field":"<java.io.FilterInputStream: java.io.InputStream in>"},{"step":47,"from":"1093544616","to":"1093544616.<java.io.ByteArrayInputStream: int count>","type":"load","field":"<java.io.ByteArrayInputStream: int count>"},{"step":48,"from":"1093544616","to":"1093544400","type":"load","field":"<java.io.ByteArrayInputStream: byte[] buf>"},{"step":49,"from":"sdaReg38","to":"1093544616","type":"store","field":"<java.io.ByteArrayInputStream: int pos>"},{"step":50,"from":"1093544400","to":"1093544400.arrayIdx_int:5","type":"load","field":"arrayIdx_int:5"},{"step":51,"from":"sdaReg40","to":"1093293768","type":"store","field":"<java.io.ObjectInputStream: byte pushbackTC>"},{"step":52,"from":"1093293768","to":"1093386376","type":"load","field":"<java.io.ObjectInputStream: java.io.DataInputStream input>"},{"step":53,"from":"1093386376","to":"1093293768","type":"store","field":"<java.io.ObjectInputStream: java.io.InputStream primitiveData>"},{"step":54,"from":"1093293768","to":"1093293768.<java.io.ObjectInputStream: int descriptorHandle>","type":"load","field":"<java.io.ObjectInputStream: int descriptorHandle>"},{"step":55,"from":"1093293768","to":"1093293768.<java.io.ObjectInputStream: int nextHandle>","type":"load","field":"<java.io.ObjectInputStream: int nextHandle>"},{"step":56,"from":"sdaReg45","to":"1093293768","type":"store","field":"<java.io.ObjectInputStream: int nextHandle>"},{"step":57,"from":"1093293768.<java.io.ObjectInputStream: int nextHandle>","to":"1093293768","type":"store","field":"<java.io.ObjectInputStream: int descriptorHandle>"},{"step":58,"from":"1093293768","to":"1093386376","type":"load","field":"<java.io.ObjectInputStream: java.io.DataInputStream input>"},{"step":59,"from":"1093386376","to":"1093544616","type":"load","field":"<java.io.FilterInputStream: java.io.InputStream in>"},{"step":60,"from":"1093386376","to":"1093388312","type":"load","field":"<java.io.DataInputStream: byte[] scratch>"},{"step":61,"from":"1093544616","to":"1093388312","type":"model"},{"step":62,"from":"1093386376","to":"1093388312","type":"load","field":"<java.io.DataInputStream: byte[] scratch>"},{"step":63,"from":"static.<java.nio.ByteOrder: java.nio.ByteOrder BIG_ENDIAN>","to":"1084339448","type":"load","field":"<java.nio.ByteOrder: java.nio.ByteOrder BIG_ENDIAN>"},{"step":64,"from":"1093388312","to":"sdaReg52","type":"model"},{"step":65,"from":"1093386376","to":"1093544616","type":"load","field":"<java.io.FilterInputStream: java.io.InputStream in>"},{"step":66,"from":"1093544616","to":"1093497832","type":"model"},{"step":67,"from":"1093497832","to":"1093497832.arrayIdx_int:0","type":"load","field":"arrayIdx_int:0"},{"step":68,"from":"sdaReg66","to":"1093499800","type":"store","field":"arrayIdx_int:0"},{"step":69,"from":"1093497832","to":"1093497832.arrayIdx_int:1","type":"load","field":"arrayIdx_int:1"},{"step":70,"from":"sdaReg66","to":"1093499800","type":"store","field":"arrayIdx_int:1"},{"step":71,"from":"1093497832","to":"1093497832.arrayIdx_int:2","type":"load","field":"arrayIdx_int:2"},{"step":72,"from":"sdaReg66","to":"1093499800","type":"store","field":"arrayIdx_int:2"},{"step":73,"from":"1093497832","to":"1093497832.arrayIdx_int:3","type":"load","field":"arrayIdx_int:3"},{"step":74,"from":"sdaReg66","to":"1093499800","type":"store","field":"arrayIdx_int:3"},{"step":75,"from":"1093497832","to":"1093497832.arrayIdx_int:4","type":"load","field":"arrayIdx_int:4"},{"step":76,"from":"sdaReg66","to":"1093499800","type":"store","field":"arrayIdx_int:4"},{"step":77,"from":"1093497832","to":"1093497832.arrayIdx_int:5","type":"load","field":"arrayIdx_int:5"},{"step":78,"from":"sdaReg66","to":"1093499800","type":"store","field":"arrayIdx_int:5"},{"step":79,"from":"1093497832","to":"1093497832.arrayIdx_int:6","type":"load","field":"arrayIdx_int:6"},{"step":80,"from":"sdaReg66","to":"1093499800","type":"store","field":"arrayIdx_int:6"},{"step":81,"from":"1093497832","to":"1093497832.arrayIdx_int:7","type":"load","field":"arrayIdx_int:7"},{"step":82,"from":"sdaReg66","to":"1093499800","type":"store","field":"arrayIdx_int:7"},{"step":83,"from":"1093497832","to":"1093497832.arrayIdx_int:8","type":"load","field":"arrayIdx_int:8"},{"step":84,"from":"sdaReg66","to":"1093499800","type":"store","field":"arrayIdx_int:8"},{"step":85,"from":"1093497832","to":"1093497832.arrayIdx_int:9","type":"load","field":"arrayIdx_int:9"},{"step":86,"from":"sdaReg66","to":"1093499800","type":"store","field":"arrayIdx_int:9"},{"step":87,"from":"1093497832","to":"1093497832.arrayIdx_int:10","type":"load","field":"arrayIdx_int:10"},{"step":88,"from":"sdaReg66","to":"1093499800","type":"store","field":"arrayIdx_int:10"},{"step":89,"from":"1093497832","to":"1093497832.arrayIdx_int:11","type":"load","field":"arrayIdx_int:11"},{"step":90,"from":"sdaReg66","to":"1093499800","type":"store","field":"arrayIdx_int:11"},{"step":91,"from":"1093497832","to":"1093497832.arrayIdx_int:12","type":"load","field":"arrayIdx_int:12"},{"step":92,"from":"sdaReg66","to":"1093499800","type":"store","field":"arrayIdx_int:12"},{"step":93,"from":"1093497832","to":"1093497832.arrayIdx_int:13","type":"load","field":"arrayIdx_int:13"},{"step":94,"from":"sdaReg66","to":"1093499800","type":"store","field":"arrayIdx_int:13"},{"step":95,"from":"1093497832","to":"1093497832.arrayIdx_int:14","type":"load","field":"arrayIdx_int:14"},{"step":96,"from":"sdaReg66","to":"1093499800","type":"store","field":"arrayIdx_int:14"},{"step":97,"from":"1093497832","to":"1093497832.arrayIdx_int:15","type":"load","field":"arrayIdx_int:15"},{"step":98,"from":"sdaReg66","to":"1093499800","type":"store","field":"arrayIdx_int:15"},{"step":99,"from":"1093497832","to":"1093497832.arrayIdx_int:16","type":"load","field":"arrayIdx_int:16"},{"step":100,"from":"sdaReg66","to":"1093499800","type":"store","field":"arrayIdx_int:16"},{"step":101,"from":"1093499800","to":"sdaReg67","type":"model"},{"step":102,"from":"1093497664","to":"sdaReg67","type":"model"},{"step":103,"from":"sdaReg67","to":"1093497664","type":"model"},{"step":104,"from":"1093293768","to":"1093386376","type":"load","field":"<java.io.ObjectInputStream: java.io.DataInputStream input>"},{"step":105,"from":"1093386376","to":"1093544616","type":"load","field":"<java.io.FilterInputStream: java.io.InputStream in>"},{"step":106,"from":"1093386376","to":"1093388312","type":"load","field":"<java.io.DataInputStream: byte[] scratch>"},{"step":107,"from":"1093544616","to":"1093388312","type":"model"},{"step":108,"from":"1093386376","to":"1093388312","type":"load","field":"<java.io.DataInputStream: byte[] scratch>"},{"step":109,"from":"static.<java.nio.ByteOrder: java.nio.ByteOrder BIG_ENDIAN>","to":"1084339448","type":"load","field":"<java.nio.ByteOrder: java.nio.ByteOrder BIG_ENDIAN>"},{"step":110,"from":"1093388312","to":"sdaReg70","type":"model"},{"step":111,"from":"1093497664","to":"sdaReg70","type":"model"},{"step":112,"from":"sdaReg70","to":"1093497664","type":"model"},{"step":113,"from":"1093293768","to":"1093386376","type":"load","field":"<java.io.ObjectInputStream: java.io.DataInputStream input>"},{"step":114,"from":"1093386376","to":"1093544616","type":"load","field":"<java.io.FilterInputStream: java.io.InputStream in>"},{"step":115,"from":"1093544616","to":"1093544616.<java.io.ByteArrayInputStream: int count>","type":"load","field":"<java.io.ByteArrayInputStream: int count>"},{"step":116,"from":"1093544616","to":"1093544400","type":"load","field":"<java.io.ByteArrayInputStream: byte[] buf>"},{"step":117,"from":"sdaReg73","to":"1093544616","type":"store","field":"<java.io.ByteArrayInputStream: int pos>"},{"step":118,"from":"1093544400","to":"1093544400.arrayIdx_int:33","type":"load","field":"arrayIdx_int:33"},{"step":119,"from":"1093497664","to":"sdaReg75","type":"model"},{"step":120,"from":"sdaReg75","to":"1093497664","type":"model"},{"step":121,"from":"1093293768","to":"1093388400","type":"load","field":"<java.io.ObjectInputStream: java.util.ArrayList objectsRead>"},{"step":122,"from":"1093388400","to":"1093388400.<java.util.ArrayList: int size>","type":"load","field":"<java.util.ArrayList: int size>"},{"step":123,"from":"1093293768","to":"1093388400","type":"load","field":"<java.io.ObjectInputStream: java.util.ArrayList objectsRead>"},{"step":124,"from":"1093388400","to":"1083994088","type":"load","field":"<java.util.ArrayList: java.lang.Object[] array>"},{"step":125,"from":"1093388400","to":"1093388400.<java.util.ArrayList: int size>","type":"load","field":"<java.util.ArrayList: int size>"},{"step":126,"from":"1083994088","to":"1093453440","type":"model"},{"step":127,"from":"1093388400","to":"1093453440","type":"create","field":"<java.util.ArrayList: java.lang.Object[] array>"},{"step":128,"from":"1093453440","to":"1093497664","type":"create","field":"arrayIdx_int:0"},{"step":129,"from":"sdaReg87","to":"1093388400","type":"store","field":"<java.util.ArrayList: int size>"},{"step":130,"from":"1093388400","to":"1093388400.<java.util.AbstractList: int modCount>","type":"load","field":"<java.util.AbstractList: int modCount>"},{"step":131,"from":"sdaReg88","to":"1093388400","type":"store","field":"<java.util.AbstractList: int modCount>"},{"step":132,"from":"1093293768","to":"1093386376","type":"load","field":"<java.io.ObjectInputStream: java.io.DataInputStream input>"},{"step":133,"from":"1093386376","to":"1093544616","type":"load","field":"<java.io.FilterInputStream: java.io.InputStream in>"},{"step":134,"from":"1093386376","to":"1093388312","type":"load","field":"<java.io.DataInputStream: byte[] scratch>"},{"step":135,"from":"1093544616","to":"1093388312","type":"model"},{"step":136,"from":"1093386376","to":"1093388312","type":"load","field":"<java.io.DataInputStream: byte[] scratch>"},{"step":137,"from":"static.<java.nio.ByteOrder: java.nio.ByteOrder BIG_ENDIAN>","to":"1084339448","type":"load","field":"<java.nio.ByteOrder: java.nio.ByteOrder BIG_ENDIAN>"},{"step":138,"from":"1093388312","to":"sdaReg93","type":"model"},{"step":139,"from":"1093497664","to":"1093702528","type":"model"},{"step":140,"from":"1093702528","to":"1093497664","type":"model"},{"step":141,"from":"1093293768","to":"1093386376","type":"load","field":"<java.io.ObjectInputStream: java.io.DataInputStream input>"},{"step":142,"from":"1093386376","to":"1093544616","type":"load","field":"<java.io.FilterInputStream: java.io.InputStream in>"},{"step":143,"from":"1093544616","to":"1093544616.<java.io.ByteArrayInputStream: int count>","type":"load","field":"<java.io.ByteArrayInputStream: int count>"},{"step":144,"from":"1093544616","to":"1093544400","type":"load","field":"<java.io.ByteArrayInputStream: byte[] buf>"},{"step":145,"from":"sdaReg97","to":"1093544616","type":"store","field":"<java.io.ByteArrayInputStream: int pos>"},{"step":146,"from":"1093544400","to":"1093544400.arrayIdx_int:36","type":"load","field":"arrayIdx_int:36"},{"step":147,"from":"1093293768","to":"1093386376","type":"load","field":"<java.io.ObjectInputStream: java.io.DataInputStream input>"},{"step":148,"from":"1093386376","to":"1093544616","type":"load","field":"<java.io.FilterInputStream: java.io.InputStream in>"},{"step":149,"from":"1093386376","to":"1093388312","type":"load","field":"<java.io.DataInputStream: byte[] scratch>"},{"step":150,"from":"1093544616","to":"1093388312","type":"model"},{"step":151,"from":"1093386376","to":"1093388312","type":"load","field":"<java.io.DataInputStream: byte[] scratch>"},{"step":152,"from":"static.<java.nio.ByteOrder: java.nio.ByteOrder BIG_ENDIAN>","to":"1084339448","type":"load","field":"<java.nio.ByteOrder: java.nio.ByteOrder BIG_ENDIAN>"},{"step":153,"from":"1093388312","to":"sdaReg104","type":"model"},{"step":154,"from":"1093386376","to":"1093544616","type":"load","field":"<java.io.FilterInputStream: java.io.InputStream in>"},{"step":155,"from":"1093544616","to":"1093325200","type":"model"},{"step":156,"from":"1093325200","to":"1093325200.arrayIdx_int:0","type":"load","field":"arrayIdx_int:0"},{"step":157,"from":"sdaReg118","to":"1093319920","type":"store","field":"arrayIdx_int:0"},{"step":158,"from":"1093325200","to":"1093325200.arrayIdx_int:1","type":"load","field":"arrayIdx_int:1"},{"step":159,"from":"sdaReg118","to":"1093319920","type":"store","field":"arrayIdx_int:1"},{"step":160,"from":"1093325200","to":"1093325200.arrayIdx_int:2","type":"load","field":"arrayIdx_int:2"},{"step":161,"from":"sdaReg118","to":"1093319920","type":"store","field":"arrayIdx_int:2"},{"step":162,"from":"1093325200","to":"1093325200.arrayIdx_int:3","type":"load","field":"arrayIdx_int:3"},{"step":163,"from":"sdaReg118","to":"1093319920","type":"store","field":"arrayIdx_int:3"},{"step":164,"from":"1093325200","to":"1093325200.arrayIdx_int:4","type":"load","field":"arrayIdx_int:4"},{"step":165,"from":"sdaReg118","to":"1093319920","type":"store","field":"arrayIdx_int:4"},{"step":166,"from":"1093319920","to":"sdaReg119","type":"model"},{"step":167,"from":"sdaReg100","to":"sdaReg120","type":"model"},{"step":168,"from":"sdaReg100","to":"sdaReg121","type":"model"},{"step":169,"from":"sdaReg121","to":"sdaReg122","type":"model"},{"step":170,"from":"sdaReg121","to":"sdaReg124","type":"model"},{"step":171,"from":"sdaReg122","to":"sdaReg121","type":"model"},{"step":172,"from":"sdaReg122","to":"sdaReg124","type":"model"},{"step":173,"from":"sdaReg119","to":"1093280088","type":"store","field":"<java.io.ObjectStreamField: java.lang.String name>"},{"step":174,"from":"sdaReg121","to":"sdaReg127","type":"model"},{"step":175,"from":"sdaReg127","to":"sdaReg128","type":"model"},{"step":176,"from":"sdaReg128","to":"1093280088","type":"store","field":"<java.io.ObjectStreamField: java.lang.String typeString>"},{"step":177,"from":"static.<java.lang.Integer: java.lang.Class TYPE>","to":"1083909616","type":"load","field":"<java.lang.Integer: java.lang.Class TYPE>"},{"step":178,"from":"1083909616","to":"1093280088","type":"store","field":"<java.io.ObjectStreamField: java.lang.Object type>"},{"step":179,"from":"1093280088","to":"sdaReg132","type":"create","field":"<java.io.ObjectStreamField: boolean isDeserialized>"},{"step":180,"from":"1093702528","to":"1093280088","type":"create","field":"arrayIdx_int:0"},{"step":181,"from":"1093293768","to":"1093388400","type":"load","field":"<java.io.ObjectInputStream: java.util.ArrayList objectsRead>"},{"step":182,"from":"1093293768","to":"1093388400","type":"load","field":"<java.io.ObjectInputStream: java.util.ArrayList objectsRead>"},{"step":183,"from":"1093497664","to":"1093453440","type":"store","field":"arrayIdx_int:0"},{"step":184,"from":"1093293768.<java.io.ObjectInputStream: int descriptorHandle>","to":"1093293768","type":"store","field":"<java.io.ObjectInputStream: int descriptorHandle>"},{"step":185,"from":"1093293768","to":"1093386288","type":"load","field":"<java.io.ObjectInputStream: java.io.InputStream emptyStream>"},{"step":186,"from":"1093386288","to":"1093293768","type":"store","field":"<java.io.ObjectInputStream: java.io.InputStream primitiveData>"},{"step":187,"from":"1093497664","to":"0","type":"model"},{"step":188,"from":"1093497664","to":"sdaReg148","type":"model"},{"step":189,"from":"static.<java.io.ObjectInputStream: java.util.HashMap PRIMITIVE_CLASSES>","to":"1093661056","type":"load","field":"<java.io.ObjectInputStream: java.util.HashMap PRIMITIVE_CLASSES>"},{"step":190,"from":"1093661056","to":"1093646272","type":"load","field":"<java.util.HashMap: java.util.HashMap$HashMapEntry[] table>"},{"step":191,"from":"1093646272","to":"1093673432","type":"load","field":"arrayIdx_int:9"},{"step":192,"from":"1093673432","to":"1083992288","type":"load","field":"<java.util.HashMap$HashMapEntry: java.lang.Object key>"},{"step":193,"from":"1093673432","to":"1093673432.<java.util.HashMap$HashMapEntry: int hash>","type":"load","field":"<java.util.HashMap$HashMapEntry: int hash>"},{"step":194,"from":"sdaReg148","to":"1093284544","type":"model"},{"step":195,"from":"sdaReg148","to":"1083934568","type":"model"},{"step":196,"from":"1093284544","to":"sdaReg148","type":"model"},{"step":197,"from":"1093284544","to":"1083934568","type":"model"},{"step":198,"from":"1093497664","to":"1083934568","type":"model"},{"step":199,"from":"1083934568","to":"1093497664","type":"model"},{"step":200,"from":"1093497664","to":"1083934568","type":"model"},{"step":201,"from":"1083934568","to":"1093622840","type":"model"},{"step":202,"from":"1093497664","to":"sdaReg169","type":"model"},{"step":203,"from":"1093622840","to":"sdaReg170","type":"model"},{"step":204,"from":"1093497664","to":"sdaReg172","type":"model"},{"step":205,"from":"sdaReg172","to":"sdaReg173","type":"model"},{"step":206,"from":"sdaReg172","to":"sdaReg176","type":"model"},{"step":207,"from":"sdaReg172","to":"sdaReg177","type":"model"},{"step":208,"from":"sdaReg176","to":"sdaReg172","type":"model"},{"step":209,"from":"sdaReg176","to":"sdaReg177","type":"model"},{"step":210,"from":"1093622840","to":"sdaReg178","type":"model"},{"step":211,"from":"sdaReg178","to":"sdaReg179","type":"model"},{"step":212,"from":"sdaReg178","to":"sdaReg182","type":"model"},{"step":213,"from":"sdaReg178","to":"sdaReg183","type":"model"},{"step":214,"from":"sdaReg182","to":"sdaReg178","type":"model"},{"step":215,"from":"sdaReg182","to":"sdaReg183","type":"model"},{"step":216,"from":"1093497664","to":"1093622840","type":"model"},{"step":217,"from":"1093622840","to":"1093497664","type":"model"},{"step":218,"from":"1093497664","to":"1093702528","type":"model"},{"step":219,"from":"1093497664","to":"1083934568","type":"model"},{"step":220,"from":"1093497664","to":"1083934568","type":"model"},{"step":221,"from":"1083934568","to":"1083999984","type":"model"},{"step":222,"from":"static.<java.lang.Integer: java.lang.Class TYPE>","to":"1083909616","type":"load","field":"<java.lang.Integer: java.lang.Class TYPE>"},{"step":223,"from":"1083909616","to":"1093280088","type":"store","field":"<java.io.ObjectStreamField: java.lang.Object type>"},{"step":224,"from":"1093293768","to":"1093386288","type":"load","field":"<java.io.ObjectInputStream: java.io.InputStream emptyStream>"},{"step":225,"from":"1093386288","to":"1093293768","type":"store","field":"<java.io.ObjectInputStream: java.io.InputStream primitiveData>"},{"step":226,"from":"1093293768","to":"1093293768.<java.io.ObjectInputStream: boolean mustResolve>","type":"load","field":"<java.io.ObjectInputStream: boolean mustResolve>"},{"step":227,"from":"1093293768","to":"sdaReg202","type":"create","field":"<java.io.ObjectInputStream: boolean mustResolve>"},{"step":228,"from":"1093293768","to":"1093386376","type":"load","field":"<java.io.ObjectInputStream: java.io.DataInputStream input>"},{"step":229,"from":"1093386376","to":"1093544616","type":"load","field":"<java.io.FilterInputStream: java.io.InputStream in>"},{"step":230,"from":"1093544616","to":"1093544616.<java.io.ByteArrayInputStream: int count>","type":"load","field":"<java.io.ByteArrayInputStream: int count>"},{"step":231,"from":"1093544616","to":"1093544400","type":"load","field":"<java.io.ByteArrayInputStream: byte[] buf>"},{"step":232,"from":"sdaReg206","to":"1093544616","type":"store","field":"<java.io.ByteArrayInputStream: int pos>"},{"step":233,"from":"1093544400","to":"1093544400.arrayIdx_int:44","type":"load","field":"arrayIdx_int:44"},{"step":234,"from":"sdaReg208","to":"1093293768","type":"store","field":"<java.io.ObjectInputStream: byte pushbackTC>"},{"step":235,"from":"1093293768.<java.io.ObjectInputStream: boolean mustResolve>","to":"1093293768","type":"store","field":"<java.io.ObjectInputStream: boolean mustResolve>"},{"step":236,"from":"1093293768","to":"1093386376","type":"load","field":"<java.io.ObjectInputStream: java.io.DataInputStream input>"},{"step":237,"from":"1093386376","to":"1093544616","type":"load","field":"<java.io.FilterInputStream: java.io.InputStream in>"},{"step":238,"from":"1093544616","to":"1093544616.<java.io.ByteArrayInputStream: int count>","type":"load","field":"<java.io.ByteArrayInputStream: int count>"},{"step":239,"from":"1093544616","to":"1093544400","type":"load","field":"<java.io.ByteArrayInputStream: byte[] buf>"},{"step":240,"from":"sdaReg214","to":"1093544616","type":"store","field":"<java.io.ByteArrayInputStream: int pos>"},{"step":241,"from":"1093544400","to":"1093544400.arrayIdx_int:45","type":"load","field":"arrayIdx_int:45"},{"step":242,"from":"sdaReg216","to":"1093293768","type":"store","field":"<java.io.ObjectInputStream: byte pushbackTC>"},{"step":243,"from":"1093293768","to":"1093386376","type":"load","field":"<java.io.ObjectInputStream: java.io.DataInputStream input>"},{"step":244,"from":"1093386376","to":"1093293768","type":"store","field":"<java.io.ObjectInputStream: java.io.InputStream primitiveData>"},{"step":245,"from":"sdaReg221","to":"1093293768","type":"store","field":"<java.io.ObjectInputStream: int nextHandle>"},{"step":246,"from":"sdaReg222","to":"1093293768","type":"store","field":"<java.io.ObjectInputStream: int descriptorHandle>"},{"step":247,"from":"1093293768","to":"1093386376","type":"load","field":"<java.io.ObjectInputStream: java.io.DataInputStream input>"},{"step":248,"from":"1093386376","to":"1093544616","type":"load","field":"<java.io.FilterInputStream: java.io.InputStream in>"},{"step":249,"from":"1093386376","to":"1093388312","type":"load","field":"<java.io.DataInputStream: byte[] scratch>"},{"step":250,"from":"1093544616","to":"1093388312","type":"model"},{"step":251,"from":"1093386376","to":"1093388312","type":"load","field":"<java.io.DataInputStream: byte[] scratch>"},{"step":252,"from":"static.<java.nio.ByteOrder: java.nio.ByteOrder BIG_ENDIAN>","to":"1084339448","type":"load","field":"<java.nio.ByteOrder: java.nio.ByteOrder BIG_ENDIAN>"},{"step":253,"from":"1093388312","to":"sdaReg229","type":"model"},{"step":254,"from":"1093386376","to":"1093544616","type":"load","field":"<java.io.FilterInputStream: java.io.InputStream in>"},{"step":255,"from":"1093544616","to":"1093292448","type":"model"},{"step":256,"from":"1093292448","to":"1093292448.arrayIdx_int:0","type":"load","field":"arrayIdx_int:0"},{"step":257,"from":"sdaReg243","to":"1093292488","type":"store","field":"arrayIdx_int:0"},{"step":258,"from":"1093292448","to":"1093292448.arrayIdx_int:1","type":"load","field":"arrayIdx_int:1"},{"step":259,"from":"sdaReg243","to":"1093292488","type":"store","field":"arrayIdx_int:1"},{"step":260,"from":"1093292448","to":"1093292448.arrayIdx_int:2","type":"load","field":"arrayIdx_int:2"},{"step":261,"from":"sdaReg243","to":"1093292488","type":"store","field":"arrayIdx_int:2"},{"step":262,"from":"1093292448","to":"1093292448.arrayIdx_int:3","type":"load","field":"arrayIdx_int:3"},{"step":263,"from":"sdaReg243","to":"1093292488","type":"store","field":"arrayIdx_int:3"},{"step":264,"from":"1093292448","to":"1093292448.arrayIdx_int:4","type":"load","field":"arrayIdx_int:4"},{"step":265,"from":"sdaReg243","to":"1093292488","type":"store","field":"arrayIdx_int:4"},{"step":266,"from":"1093292448","to":"1093292448.arrayIdx_int:5","type":"load","field":"arrayIdx_int:5"},{"step":267,"from":"sdaReg243","to":"1093292488","type":"store","field":"arrayIdx_int:5"},{"step":268,"from":"1093292448","to":"1093292448.arrayIdx_int:6","type":"load","field":"arrayIdx_int:6"},{"step":269,"from":"sdaReg243","to":"1093292488","type":"store","field":"arrayIdx_int:6"},{"step":270,"from":"1093292448","to":"1093292448.arrayIdx_int:7","type":"load","field":"arrayIdx_int:7"},{"step":271,"from":"sdaReg243","to":"1093292488","type":"store","field":"arrayIdx_int:7"},{"step":272,"from":"1093292448","to":"1093292448.arrayIdx_int:8","type":"load","field":"arrayIdx_int:8"},{"step":273,"from":"sdaReg243","to":"1093292488","type":"store","field":"arrayIdx_int:8"},{"step":274,"from":"1093292448","to":"1093292448.arrayIdx_int:9","type":"load","field":"arrayIdx_int:9"},{"step":275,"from":"sdaReg243","to":"1093292488","type":"store","field":"arrayIdx_int:9"},{"step":276,"from":"1093292448","to":"1093292448.arrayIdx_int:10","type":"load","field":"arrayIdx_int:10"},{"step":277,"from":"sdaReg243","to":"1093292488","type":"store","field":"arrayIdx_int:10"},{"step":278,"from":"1093292448","to":"1093292448.arrayIdx_int:11","type":"load","field":"arrayIdx_int:11"},{"step":279,"from":"sdaReg243","to":"1093292488","type":"store","field":"arrayIdx_int:11"},{"step":280,"from":"1093292448","to":"1093292448.arrayIdx_int:12","type":"load","field":"arrayIdx_int:12"},{"step":281,"from":"sdaReg243","to":"1093292488","type":"store","field":"arrayIdx_int:12"},{"step":282,"from":"1093292448","to":"1093292448.arrayIdx_int:13","type":"load","field":"arrayIdx_int:13"},{"step":283,"from":"sdaReg243","to":"1093292488","type":"store","field":"arrayIdx_int:13"},{"step":284,"from":"1093292448","to":"1093292448.arrayIdx_int:14","type":"load","field":"arrayIdx_int:14"},{"step":285,"from":"sdaReg243","to":"1093292488","type":"store","field":"arrayIdx_int:14"},{"step":286,"from":"1093292448","to":"1093292448.arrayIdx_int:15","type":"load","field":"arrayIdx_int:15"},{"step":287,"from":"sdaReg243","to":"1093292488","type":"store","field":"arrayIdx_int:15"},{"step":288,"from":"1093292488","to":"sdaReg244","type":"model"},{"step":289,"from":"1093286304","to":"sdaReg244","type":"model"},{"step":290,"from":"sdaReg244","to":"1093286304","type":"model"},{"step":291,"from":"1093293768","to":"1093386376","type":"load","field":"<java.io.ObjectInputStream: java.io.DataInputStream input>"},{"step":292,"from":"1093386376","to":"1093544616","type":"load","field":"<java.io.FilterInputStream: java.io.InputStream in>"},{"step":293,"from":"1093386376","to":"1093388312","type":"load","field":"<java.io.DataInputStream: byte[] scratch>"},{"step":294,"from":"1093544616","to":"1093388312","type":"model"},{"step":295,"from":"1093386376","to":"1093388312","type":"load","field":"<java.io.DataInputStream: byte[] scratch>"},{"step":296,"from":"static.<java.nio.ByteOrder: java.nio.ByteOrder BIG_ENDIAN>","to":"1084339448","type":"load","field":"<java.nio.ByteOrder: java.nio.ByteOrder BIG_ENDIAN>"},{"step":297,"from":"1093388312","to":"sdaReg247","type":"model"},{"step":298,"from":"1093286304","to":"sdaReg247","type":"model"},{"step":299,"from":"sdaReg247","to":"1093286304","type":"model"},{"step":300,"from":"1093293768","to":"1093386376","type":"load","field":"<java.io.ObjectInputStream: java.io.DataInputStream input>"},{"step":301,"from":"1093386376","to":"1093544616","type":"load","field":"<java.io.FilterInputStream: java.io.InputStream in>"},{"step":302,"from":"1093544616","to":"1093544616.<java.io.ByteArrayInputStream: int count>","type":"load","field":"<java.io.ByteArrayInputStream: int count>"},{"step":303,"from":"1093544616","to":"1093544400","type":"load","field":"<java.io.ByteArrayInputStream: byte[] buf>"},{"step":304,"from":"sdaReg250","to":"1093544616","type":"store","field":"<java.io.ByteArrayInputStream: int pos>"},{"step":305,"from":"1093544400","to":"1093544400.arrayIdx_int:72","type":"load","field":"arrayIdx_int:72"},{"step":306,"from":"1093286304","to":"sdaReg252","type":"model"},{"step":307,"from":"sdaReg252","to":"1093286304","type":"model"},{"step":308,"from":"1093293768","to":"1093388400","type":"load","field":"<java.io.ObjectInputStream: java.util.ArrayList objectsRead>"},{"step":309,"from":"1093293768","to":"1093388400","type":"load","field":"<java.io.ObjectInputStream: java.util.ArrayList objectsRead>"},{"step":310,"from":"1093453440","to":"1093286304","type":"create","field":"arrayIdx_int:1"},{"step":311,"from":"sdaReg263","to":"1093388400","type":"store","field":"<java.util.ArrayList: int size>"},{"step":312,"from":"sdaReg264","to":"1093388400","type":"store","field":"<java.util.AbstractList: int modCount>"},{"step":313,"from":"1093293768","to":"1093386376","type":"load","field":"<java.io.ObjectInputStream: java.io.DataInputStream input>"},{"step":314,"from":"1093386376","to":"1093544616","type":"load","field":"<java.io.FilterInputStream: java.io.InputStream in>"},{"step":315,"from":"1093386376","to":"1093388312","type":"load","field":"<java.io.DataInputStream: byte[] scratch>"},{"step":316,"from":"1093544616","to":"1093388312","type":"model"},{"step":317,"from":"1093386376","to":"1093388312","type":"load","field":"<java.io.DataInputStream: byte[] scratch>"},{"step":318,"from":"static.<java.nio.ByteOrder: java.nio.ByteOrder BIG_ENDIAN>","to":"1084339448","type":"load","field":"<java.nio.ByteOrder: java.nio.ByteOrder BIG_ENDIAN>"},{"step":319,"from":"1093388312","to":"sdaReg269","type":"model"},{"step":320,"from":"1093286304","to":"1093481392","type":"model"},{"step":321,"from":"1093481392","to":"1093286304","type":"model"},{"step":322,"from":"1093293768","to":"1093388400","type":"load","field":"<java.io.ObjectInputStream: java.util.ArrayList objectsRead>"},{"step":323,"from":"1093293768","to":"1093388400","type":"load","field":"<java.io.ObjectInputStream: java.util.ArrayList objectsRead>"},{"step":324,"from":"1093286304","to":"1093453440","type":"store","field":"arrayIdx_int:1"},{"step":325,"from":"sdaReg280","to":"1093293768","type":"store","field":"<java.io.ObjectInputStream: int descriptorHandle>"},{"step":326,"from":"1093293768","to":"1093386288","type":"load","field":"<java.io.ObjectInputStream: java.io.InputStream emptyStream>"},{"step":327,"from":"1093386288","to":"1093293768","type":"store","field":"<java.io.ObjectInputStream: java.io.InputStream primitiveData>"},{"step":328,"from":"1093286304","to":"0","type":"model"},{"step":329,"from":"1093286304","to":"sdaReg284","type":"model"},{"step":330,"from":"static.<java.io.ObjectInputStream: java.util.HashMap PRIMITIVE_CLASSES>","to":"1093661056","type":"load","field":"<java.io.ObjectInputStream: java.util.HashMap PRIMITIVE_CLASSES>"},{"step":331,"from":"1093661056","to":"1093646272","type":"load","field":"<java.util.HashMap: java.util.HashMap$HashMapEntry[] table>"},{"step":332,"from":"1093646272","to":"1093646360","type":"load","field":"arrayIdx_int:0"},{"step":333,"from":"1093646360","to":"1083991528","type":"load","field":"<java.util.HashMap$HashMapEntry: java.lang.Object key>"},{"step":334,"from":"1093646360","to":"1093646360.<java.util.HashMap$HashMapEntry: int hash>","type":"load","field":"<java.util.HashMap$HashMapEntry: int hash>"},{"step":335,"from":"sdaReg284","to":"1093284544","type":"model"},{"step":336,"from":"sdaReg284","to":"1083931088","type":"model"},{"step":337,"from":"1093284544","to":"sdaReg284","type":"model"},{"step":338,"from":"1093284544","to":"1083931088","type":"model"},{"step":339,"from":"1093286304","to":"1083931088","type":"model"},{"step":340,"from":"1083931088","to":"1093286304","type":"model"},{"step":341,"from":"1093286304","to":"1083931088","type":"model"},{"step":342,"from":"1083931088","to":"1093514224","type":"model"},{"step":343,"from":"1093286304","to":"sdaReg305","type":"model"},{"step":344,"from":"1093514224","to":"sdaReg306","type":"model"},{"step":345,"from":"1093286304","to":"sdaReg308","type":"model"},{"step":346,"from":"sdaReg308","to":"sdaReg309","type":"model"},{"step":347,"from":"sdaReg308","to":"sdaReg312","type":"model"},{"step":348,"from":"sdaReg308","to":"sdaReg313","type":"model"},{"step":349,"from":"sdaReg312","to":"sdaReg308","type":"model"},{"step":350,"from":"sdaReg312","to":"sdaReg313","type":"model"},{"step":351,"from":"1093514224","to":"sdaReg314","type":"model"},{"step":352,"from":"sdaReg314","to":"sdaReg315","type":"model"},{"step":353,"from":"sdaReg314","to":"sdaReg318","type":"model"},{"step":354,"from":"sdaReg314","to":"sdaReg319","type":"model"},{"step":355,"from":"sdaReg318","to":"sdaReg314","type":"model"},{"step":356,"from":"sdaReg318","to":"sdaReg319","type":"model"},{"step":357,"from":"1093286304","to":"1093514224","type":"model"},{"step":358,"from":"1093514224","to":"1093286304","type":"model"},{"step":359,"from":"1093286304","to":"1093481392","type":"model"},{"step":360,"from":"1093286304","to":"1083931088","type":"model"},{"step":361,"from":"1093286304","to":"1083931088","type":"model"},{"step":362,"from":"1083931088","to":"1083999984","type":"model"},{"step":363,"from":"1093293768","to":"1093386288","type":"load","field":"<java.io.ObjectInputStream: java.io.InputStream emptyStream>"},{"step":364,"from":"1093386288","to":"1093293768","type":"store","field":"<java.io.ObjectInputStream: java.io.InputStream primitiveData>"},{"step":365,"from":"1093293768","to":"sdaReg332","type":"create","field":"<java.io.ObjectInputStream: boolean mustResolve>"},{"step":366,"from":"1093293768","to":"1093386376","type":"load","field":"<java.io.ObjectInputStream: java.io.DataInputStream input>"},{"step":367,"from":"1093386376","to":"1093544616","type":"load","field":"<java.io.FilterInputStream: java.io.InputStream in>"},{"step":368,"from":"1093544616","to":"1093544616.<java.io.ByteArrayInputStream: int count>","type":"load","field":"<java.io.ByteArrayInputStream: int count>"},{"step":369,"from":"1093544616","to":"1093544400","type":"load","field":"<java.io.ByteArrayInputStream: byte[] buf>"},{"step":370,"from":"sdaReg336","to":"1093544616","type":"store","field":"<java.io.ByteArrayInputStream: int pos>"},{"step":371,"from":"1093544400","to":"1093544400.arrayIdx_int:75","type":"load","field":"arrayIdx_int:75"},{"step":372,"from":"sdaReg338","to":"1093293768","type":"store","field":"<java.io.ObjectInputStream: byte pushbackTC>"},{"step":373,"from":"sdaReg340","to":"1093293768","type":"store","field":"<java.io.ObjectInputStream: boolean mustResolve>"},{"step":374,"from":"1093293768","to":"1093386376","type":"load","field":"<java.io.ObjectInputStream: java.io.DataInputStream input>"},{"step":375,"from":"1093386376","to":"1093544616","type":"load","field":"<java.io.FilterInputStream: java.io.InputStream in>"},{"step":376,"from":"1093544616","to":"1093544616.<java.io.ByteArrayInputStream: int count>","type":"load","field":"<java.io.ByteArrayInputStream: int count>"},{"step":377,"from":"1093544616","to":"1093544400","type":"load","field":"<java.io.ByteArrayInputStream: byte[] buf>"},{"step":378,"from":"sdaReg345","to":"1093544616","type":"store","field":"<java.io.ByteArrayInputStream: int pos>"},{"step":379,"from":"1093544400","to":"1093544400.arrayIdx_int:76","type":"load","field":"arrayIdx_int:76"},{"step":380,"from":"sdaReg347","to":"1093293768","type":"store","field":"<java.io.ObjectInputStream: byte pushbackTC>"},{"step":381,"from":"1093497664","to":"1093286304","type":"model"},{"step":382,"from":"1093286304","to":"1093497664","type":"model"},{"step":383,"from":"sdaReg361","to":"1093293768","type":"store","field":"<java.io.ObjectInputStream: int nextHandle>"},{"step":384,"from":"1093497664","to":"1083934568","type":"model"},{"step":385,"from":"1093497664","to":"1083934568","type":"model"},{"step":386,"from":"1093497664","to":"1093281456","type":"model"},{"step":387,"from":"1083934568","to":"1093497664","type":"model"},{"step":388,"from":"1083934568","to":"1093281456","type":"model"},{"step":389,"from":"1093293768","to":"1093388400","type":"load","field":"<java.io.ObjectInputStream: java.util.ArrayList objectsRead>"},{"step":390,"from":"1093293768","to":"1093388400","type":"load","field":"<java.io.ObjectInputStream: java.util.ArrayList objectsRead>"},{"step":391,"from":"1093453440","to":"1093281456","type":"create","field":"arrayIdx_int:2"},{"step":392,"from":"sdaReg375","to":"1093388400","type":"store","field":"<java.util.ArrayList: int size>"},{"step":393,"from":"sdaReg376","to":"1093388400","type":"store","field":"<java.util.AbstractList: int modCount>"},{"step":394,"from":"1093281456","to":"1093293768","type":"store","field":"<java.io.ObjectInputStream: java.lang.Object currentObject>"},{"step":395,"from":"1093497664","to":"1093293768","type":"store","field":"<java.io.ObjectInputStream: java.io.ObjectStreamClass currentClass>"},{"step":396,"from":"1093497664","to":"sdaReg378","type":"model"},{"step":397,"from":"1093497664","to":"1093328432","type":"model"},{"step":398,"from":"1093293768","to":"1093386320","type":"load","field":"<java.io.ObjectInputStream: java.util.HashMap cachedSuperclasses>"},{"step":399,"from":"1093281456","to":"1083934568","type":"model"},{"step":400,"from":"1093386320","to":"1083934568","type":"model"},{"step":401,"from":"1093386320","to":"0","type":"model"},{"step":402,"from":"1083934568","to":"1093386320","type":"model"},{"step":403,"from":"1083934568","to":"0","type":"model"},{"step":404,"from":"1093281456","to":"1083934568","type":"model"},{"step":405,"from":"static.<libcore.util.EmptyArray: java.lang.Object[] OBJECT>","to":"1083994088","type":"load","field":"<libcore.util.EmptyArray: java.lang.Object[] OBJECT>"},{"step":406,"from":"1083994088","to":"1093660920","type":"store","field":"<java.util.ArrayList: java.lang.Object[] array>"},{"step":407,"from":"1083934568","to":"1083931088","type":"model"},{"step":408,"from":"1093660920","to":"1083934568","type":"model"},{"step":409,"from":"1083934568","to":"1093660920","type":"model"},{"step":410,"from":"1083931088","to":"1083910288","type":"model"},{"step":411,"from":"1093660920","to":"1083931088","type":"model"},{"step":412,"from":"1083931088","to":"1093660920","type":"model"},{"step":413,"from":"1083910288","to":"0","type":"model"},{"step":414,"from":"1093293768","to":"1093386320","type":"load","field":"<java.io.ObjectInputStream: java.util.HashMap cachedSuperclasses>"},{"step":415,"from":"1093386320","to":"1083934568","type":"model"},{"step":416,"from":"1093386320","to":"1093660920","type":"model"},{"step":417,"from":"1083934568","to":"1093386320","type":"model"},{"step":418,"from":"1083934568","to":"1093660920","type":"model"},{"step":419,"from":"1093660920","to":"1093386320","type":"model"},{"step":420,"from":"1093660920","to":"1083934568","type":"model"},{"step":421,"from":"1093660920","to":"1093660920.<java.util.ArrayList: int size>","type":"load","field":"<java.util.ArrayList: int size>"},{"step":422,"from":"1093660920","to":"1093660920.<java.util.ArrayList: int size>","type":"load","field":"<java.util.ArrayList: int size>"},{"step":423,"from":"1093513352","to":"1083931088","type":"load","field":"arrayIdx_int:0"},{"step":424,"from":"1093328432","to":"1093328432.<java.util.ArrayList: int size>","type":"load","field":"<java.util.ArrayList: int size>"},{"step":425,"from":"1093328432","to":"1093328432.<java.util.ArrayList: int size>","type":"load","field":"<java.util.ArrayList: int size>"},{"step":426,"from":"1093328432","to":"1093424448","type":"load","field":"<java.util.ArrayList: java.lang.Object[] array>"},{"step":427,"from":"1093424448","to":"1093286304","type":"load","field":"arrayIdx_int:0"},{"step":428,"from":"1093286304","to":"1083931088","type":"model"},{"step":429,"from":"1083931088","to":"sdaReg420","type":"model"},{"step":430,"from":"1093286304","to":"sdaReg421","type":"model"},{"step":431,"from":"1083931088","to":"sdaReg423","type":"model"},{"step":432,"from":"1093286304","to":"sdaReg424","type":"model"},{"step":433,"from":"1093328432","to":"1093328432.<java.util.ArrayList: int size>","type":"load","field":"<java.util.ArrayList: int size>"},{"step":434,"from":"1093328432","to":"1093424448","type":"load","field":"<java.util.ArrayList: java.lang.Object[] array>"},{"step":435,"from":"1093424448","to":"1093286304","type":"load","field":"arrayIdx_int:0"},{"step":436,"from":"1093281456","to":"1093293768","type":"store","field":"<java.io.ObjectInputStream: java.lang.Object currentObject>"},{"step":437,"from":"1093286304","to":"1093293768","type":"store","field":"<java.io.ObjectInputStream: java.io.ObjectStreamClass currentClass>"},{"step":438,"from":"1093286304","to":"sdaReg433","type":"model"},{"step":439,"from":"1093286304","to":"1083931088","type":"model"},{"step":440,"from":"1093286304","to":"0","type":"model"},{"step":441,"from":"1093286304","to":"1093481392","type":"model"},{"step":442,"from":"1093286304","to":"1083931088","type":"model"},{"step":443,"from":"1093293768","to":"sdaReg450","type":"create","field":"<java.io.ObjectInputStream: java.lang.Object currentObject>"},{"step":444,"from":"1093293768","to":"sdaReg451","type":"create","field":"<java.io.ObjectInputStream: java.io.ObjectStreamClass currentClass>"},{"step":445,"from":"1093660920","to":"1093660920.<java.util.ArrayList: int size>","type":"load","field":"<java.util.ArrayList: int size>"},{"step":446,"from":"1093513352","to":"1083934568","type":"load","field":"arrayIdx_int:1"},{"step":447,"from":"1093328432","to":"1093328432.<java.util.ArrayList: int size>","type":"load","field":"<java.util.ArrayList: int size>"},{"step":448,"from":"1093328432","to":"1093328432.<java.util.ArrayList: int size>","type":"load","field":"<java.util.ArrayList: int size>"},{"step":449,"from":"1093328432","to":"1093424448","type":"load","field":"<java.util.ArrayList: java.lang.Object[] array>"},{"step":450,"from":"1093424448","to":"1093497664","type":"load","field":"arrayIdx_int:1"},{"step":451,"from":"1093497664","to":"1083934568","type":"model"},{"step":452,"from":"1083934568","to":"sdaReg463","type":"model"},{"step":453,"from":"1093497664","to":"sdaReg464","type":"model"},{"step":454,"from":"1083934568","to":"sdaReg466","type":"model"},{"step":455,"from":"1093497664","to":"sdaReg467","type":"model"},{"step":456,"from":"1093328432","to":"1093328432.<java.util.ArrayList: int size>","type":"load","field":"<java.util.ArrayList: int size>"},{"step":457,"from":"1093328432","to":"1093424448","type":"load","field":"<java.util.ArrayList: java.lang.Object[] array>"},{"step":458,"from":"1093424448","to":"1093497664","type":"load","field":"arrayIdx_int:1"},{"step":459,"from":"1093281456","to":"1093293768","type":"store","field":"<java.io.ObjectInputStream: java.lang.Object currentObject>"},{"step":460,"from":"1093497664","to":"1093293768","type":"store","field":"<java.io.ObjectInputStream: java.io.ObjectStreamClass currentClass>"},{"step":461,"from":"1093497664","to":"sdaReg474","type":"model"},{"step":462,"from":"1093497664","to":"1083934568","type":"model"},{"step":463,"from":"1093497664","to":"0","type":"model"},{"step":464,"from":"1093497664","to":"1093702528","type":"model"},{"step":465,"from":"1093497664","to":"1083934568","type":"model"},{"step":466,"from":"1093497664","to":"1093280088","type":"model"},{"step":467,"from":"1093497664","to":"1093388936","type":"model"},{"step":468,"from":"1093280088","to":"1093497664","type":"model"},{"step":469,"from":"1093280088","to":"1093388936","type":"model"},{"step":470,"from":"static.<java.lang.Byte: java.lang.Class TYPE>","to":"1083909112","type":"load","field":"<java.lang.Byte: java.lang.Class TYPE>"},{"step":471,"from":"static.<java.lang.Character: java.lang.Class TYPE>","to":"1083909448","type":"load","field":"<java.lang.Character: java.lang.Class TYPE>"},{"step":472,"from":"static.<java.lang.Double: java.lang.Class TYPE>","to":"1083910120","type":"load","field":"<java.lang.Double: java.lang.Class TYPE>"},{"step":473,"from":"static.<java.lang.Float: java.lang.Class TYPE>","to":"1083909952","type":"load","field":"<java.lang.Float: java.lang.Class TYPE>"},{"step":474,"from":"static.<java.lang.Integer: java.lang.Class TYPE>","to":"1083909616","type":"load","field":"<java.lang.Integer: java.lang.Class TYPE>"},{"step":475,"from":"1093293768","to":"1093386376","type":"load","field":"<java.io.ObjectInputStream: java.io.DataInputStream input>"},{"step":476,"from":"1093386376","to":"1093544616","type":"load","field":"<java.io.FilterInputStream: java.io.InputStream in>"},{"step":477,"from":"1093386376","to":"1093388312","type":"load","field":"<java.io.DataInputStream: byte[] scratch>"},{"step":478,"from":"1093544616","to":"1093388312","type":"model"},{"step":479,"from":"1093386376","to":"1093388312","type":"load","field":"<java.io.DataInputStream: byte[] scratch>"},{"step":480,"from":"static.<java.nio.ByteOrder: java.nio.ByteOrder BIG_ENDIAN>","to":"1084339448","type":"load","field":"<java.nio.ByteOrder: java.nio.ByteOrder BIG_ENDIAN>"},{"step":481,"from":"1093388312","to":"sdaReg497","type":"model"},{"step":482,"from":"1093388936","to":"1093281456","type":"model"},{"step":483,"from":"1093388936","to":"sdaReg497","type":"model"},{"step":484,"from":"1093281456","to":"1093388936","type":"model"},{"step":485,"from":"1093281456","to":"sdaReg497","type":"model"},{"step":486,"from":"sdaReg497","to":"1093388936","type":"model"},{"step":487,"from":"sdaReg497","to":"1093281456","type":"model"},{"step":488,"from":"1093293768","to":"sdaReg498","type":"create","field":"<java.io.ObjectInputStream: java.lang.Object currentObject>"},{"step":489,"from":"1093293768","to":"sdaReg499","type":"create","field":"<java.io.ObjectInputStream: java.io.ObjectStreamClass currentClass>"},{"step":490,"from":"1093293768","to":"sdaReg500","type":"create","field":"<java.io.ObjectInputStream: java.lang.Object currentObject>"},{"step":491,"from":"1093293768","to":"sdaReg501","type":"create","field":"<java.io.ObjectInputStream: java.io.ObjectStreamClass currentClass>"},{"step":492,"from":"1093497664","to":"sdaReg502","type":"model"},{"step":493,"from":"1093293768","to":"1093293768.<java.io.ObjectInputStream: boolean enableResolve>","type":"load","field":"<java.io.ObjectInputStream: boolean enableResolve>"},{"step":494,"from":"1093293768","to":"1093281456","type":"model"},{"step":495,"from":"1093293768","to":"1093293752","type":"model"},{"step":496,"from":"1093281456","to":"1093293768","type":"model"},{"step":497,"from":"1093281456","to":"1093293752","type":"model"},{"step":498,"from":"1093293768","to":"1093388400","type":"load","field":"<java.io.ObjectInputStream: java.util.ArrayList objectsRead>"},{"step":499,"from":"1093293768","to":"1093388400","type":"load","field":"<java.io.ObjectInputStream: java.util.ArrayList objectsRead>"},{"step":500,"from":"1093453440","to":"1093293752","type":"create","field":"arrayIdx_int:2"},{"step":501,"from":"sdaReg513","to":"1093293768","type":"store","field":"<java.io.ObjectInputStream: int nestedLevels>"},{"step":502,"from":"1093293768","to":"sdaReg514","type":"create","field":"<java.io.ObjectInputStream: java.lang.ClassLoader callerClassLoader>"}],"parameters":[{"id":"1093293768","name":"this","klass":"java.io.ObjectInputStream"}],"returns":[{"id":"1093293752","name":"return","klass":"java.lang.Object"}],"colors":{"heapLocToColor":{"sdaReg191":[34, 1, 2, 3, 6],"sdaReg294":[59],"sdaReg190":[34, 1, 2, 3, 6],"sdaReg293":[59],"sdaReg192":[16, 6],"sdaReg298":[49, 6, 30],"sdaReg297":[59],"sdaReg299":[60],"static.<java.io.ObjectInputStream: java.lang.ClassLoader bootstrapLoader>":[1, 2, 3],"sdaReg199":[48],"sdaReg198":[25],"sdaReg195":[25],"sdaReg290":[59],"sdaReg197":[47],"sdaReg292":[59],"sdaReg196":[34, 1, 2, 3, 6],"sdaReg291":[59],"1093328432":[6, 77],"1093544400.arrayIdx_int:36":[0],"1093544400.arrayIdx_int:33":[0],"0":[34, 0, 49, 80, 6, 77, 75, 60, 30],"static.<java.lang.Character: java.lang.Class TYPE>":[98],"sdaReg171":[35, 36, 6, 37],"sdaReg170":[35, 37],"sdaReg173":[38, 39, 6],"sdaReg172":[38, 6],"sdaReg175":[40],"1093281456":[0, 96, 6, 77, 75],"sdaReg174":[40],"sdaReg177":[38, 6, 41],"1093544400.arrayIdx_int:44":[0],"sdaReg176":[38, 39, 6],"1093544400.arrayIdx_int:45":[0],"sdaReg179":[35, 42, 43],"sdaReg178":[35, 42],"1093424448":[6, 77],"1093293768.<java.io.ObjectInputStream: java.io.DataInputStream input>":[0],"1093497664":[6, 77],"sdaReg182":[35, 42, 43],"sdaReg181":[44],"sdaReg180":[44],"sdaReg186":[16, 6],"sdaReg185":[16, 6],"1093386376.<java.io.DataInputStream: byte[] scratch>":[0],"sdaReg184":[46],"sdaReg183":[35, 42, 45],"1093513352.arrayIdx_int:0":[0, 34, 49, 6, 78, 60, 75],"1093513352.arrayIdx_int:1":[34, 0, 6, 78, 75],"sdaReg189":[34, 6],"sdaReg188":[34, 6],"sdaReg187":[16, 6],"static.<java.lang.Float: java.lang.Class TYPE>":[100],"1093544400.arrayIdx_int:72":[0],"1083910120":[99],"1093544400.arrayIdx_int:75":[0],"1093544400.arrayIdx_int:76":[0],"1093293768.<java.io.ObjectInputStream: java.util.HashMap cachedSuperclasses>":[0],"1093386288.<java.io.ByteArrayInputStream: int pos>":[0],"1093325200.arrayIdx_int:0":[18],"1093325200.arrayIdx_int:1":[18],"1093292448":[51],"1093325200.arrayIdx_int:2":[18],"1093325200.arrayIdx_int:3":[18],"1093325200.arrayIdx_int:4":[18],"1093544616":[0],"1093388400.<java.util.AbstractList: int modCount>":[0],"sdaReg68":[12],"sdaReg69":[0],"sdaReg66":[9],"sdaReg67":[6, 11],"sdaReg72":[0],"sdaReg71":[0],"sdaReg70":[6, 13],"sdaReg77":[6],"sdaReg74":[0],"sdaReg75":[0, 6],"sdaReg76":[0],"sdaReg504":[0],"sdaReg81":[0],"sdaReg503":[0, 103],"sdaReg83":[6],"sdaReg505":[0, 103],"sdaReg82":[0],"1093328432.<java.util.ArrayList: int size>":[6, 77],"sdaReg502":[102, 6, 77],"sdaReg507":[0],"sdaReg509":[0],"sdaReg86":[0],"sdaReg87":[0],"sdaReg88":[0],"sdaReg90":[0],"sdaReg512":[0, 103],"sdaReg511":[0, 103],"sdaReg510":[0, 103],"sdaReg93":[15],"sdaReg515":[0, 103],"sdaReg92":[0],"sdaReg91":[6],"1085582952":[1],"sdaReg95":[0],"sdaReg96":[0],"sdaReg98":[0],"1083910288":[0, 34, 49, 80, 6, 60, 75],"sdaReg99":[0],"1093390352":[1],"1093388936":[6, 96, 77],"static.<java.lang.Byte: java.lang.Class TYPE>":[97],"1083909112":[97],"1093293768":[0],"1093293768.<java.io.ObjectInputStream: boolean subclassOverridingImplementation>":[0],"1093544616.<java.io.ByteArrayInputStream: int pos>":[0],"1093673432.<java.util.HashMap$HashMapEntry: int hash>":[32],"1093661056.<java.util.HashMap: java.util.HashMap$HashMapEntry[] table>":[32],"1083992288":[32],"1093497832.arrayIdx_int:0":[9],"1093497832.arrayIdx_int:1":[9],"1093497832.arrayIdx_int:2":[9],"1093661056":[32],"1093497832.arrayIdx_int:3":[9],"1093497832.arrayIdx_int:4":[9],"1093497832.arrayIdx_int:5":[9],"1083909448":[98],"1093293752":[0, 103],"1093544616.<java.io.ByteArrayInputStream: byte[] buf>":[0],"1093292448.arrayIdx_int:10":[51],"1093292448.arrayIdx_int:12":[51],"1093292448.arrayIdx_int:11":[51],"1093497832.arrayIdx_int:9":[9],"1093497832.arrayIdx_int:8":[9],"1093497832.arrayIdx_int:7":[9],"1093497832.arrayIdx_int:6":[9],"1093702528":[16, 6, 77],"static.<java.io.ObjectInputStream: java.util.HashMap PRIMITIVE_CLASSES>":[32],"1093293768.<java.io.ObjectInputStream: boolean enableResolve>":[0],"1093292448.arrayIdx_int:15":[51],"1093386288":[0],"1093292448.arrayIdx_int:13":[51],"1093292448.arrayIdx_int:14":[51],"static.<java.lang.Integer: java.lang.Class TYPE>":[29],"1093280088":[6, 25, 77],"sdaReg429":[49, 6, 77],"sdaReg428":[49, 6, 77],"sdaReg427":[6, 77],"sdaReg425":[87],"sdaReg424":[49, 86, 6, 77],"sdaReg423":[0, 34, 85, 49, 81, 6, 77, 78, 60, 75],"sdaReg422":[84],"sdaReg326":[34, 1, 2, 49, 3, 6, 60],"sdaReg325":[49, 60],"sdaReg324":[49, 60],"1093453440":[14],"sdaReg323":[49, 57],"sdaReg328":[49, 57],"sdaReg327":[34, 1, 49, 2, 3, 6, 60],"sdaReg13":[1, 2, 3],"sdaReg14":[1, 4],"sdaReg11":[1, 2, 3],"sdaReg12":[1, 2, 3],"sdaReg321":[49, 57],"sdaReg10":[1, 2, 3],"sdaReg322":[49, 57],"sdaReg320":[72],"sdaReg420":[0, 34, 49, 81, 6, 82, 77, 78, 60, 75],"sdaReg421":[49, 6, 83, 77],"sdaReg19":[0],"sdaReg17":[0],"sdaReg18":[0],"sdaReg15":[1, 4],"sdaReg16":[0],"sdaReg416":[6, 77],"sdaReg415":[6, 77],"sdaReg418":[49, 6, 77],"sdaReg417":[49, 6, 77],"sdaReg412":[0, 34, 49, 81, 6, 78, 60, 75],"sdaReg411":[0],"sdaReg413":[6, 77],"1083999760":[5],"1093286304":[49, 6, 77],"sdaReg313":[49, 64, 67],"sdaReg312":[49, 64, 65],"1093328432.<java.util.ArrayList: java.lang.Object[] array>":[6, 77],"sdaReg315":[68, 69, 61],"sdaReg314":[68, 61],"sdaReg317":[70],"sdaReg419":[0, 34, 49, 81, 6, 77, 78, 60, 75],"sdaReg316":[70],"1083931088":[34, 0, 49, 81, 6, 77, 78, 75, 60],"sdaReg319":[68, 71, 61],"sdaReg318":[68, 69, 61],"1083991528":[32],"sdaReg310":[66],"sdaReg311":[66],"sdaReg410":[34, 0, 49, 81, 6, 78, 75, 60],"sdaReg447":[49, 6, 77, 57],"sdaReg446":[0, 34, 49, 81, 6, 77, 78, 60, 75],"sdaReg445":[49, 6, 77, 57],"sdaReg444":[49, 6, 77, 57],"1083934568":[0, 34, 81, 6, 77, 78, 75],"sdaReg309":[49, 64, 65],"sdaReg308":[49, 64],"1093481392":[49, 6, 77, 57],"sdaReg307":[49, 63, 62, 61],"sdaReg306":[63, 61],"sdaReg305":[49, 62],"sdaReg304":[61],"sdaReg303":[49, 60],"sdaReg302":[49],"sdaReg301":[0],"sdaReg300":[60],"1093386376.<java.io.FilterInputStream: java.io.InputStream in>":[0],"sdaReg442":[49, 6, 77],"sdaReg443":[49, 6, 77, 57],"sdaReg440":[0],"sdaReg441":[6, 75],"sdaReg434":[49, 6, 77, 88],"sdaReg433":[49, 6, 77, 88],"sdaReg438":[0, 34, 49, 80, 6, 77, 30, 60, 75],"sdaReg437":[0, 34, 49, 81, 6, 77, 78, 60, 75],"sdaReg439":[0],"1093424448.arrayIdx_int:1":[6, 77],"1093424448.arrayIdx_int:0":[49, 6, 77],"sdaReg430":[0],"sdaReg431":[6, 75],"sdaReg432":[49, 6, 77],"sdaReg60":[10],"1093673432":[32],"static.<libcore.util.EmptyArray: java.lang.Object[] OBJECT>":[0, 79],"1093544616.<java.io.ByteArrayInputStream: int count>":[0],"sdaReg59":[9],"sdaReg57":[9],"sdaReg56":[0],"sdaReg55":[0],"sdaReg54":[0],"sdaReg53":[8],"sdaReg52":[8],"static.<java.lang.Double: java.lang.Class TYPE>":[99],"sdaReg51":[0],"1093386288.<java.io.ByteArrayInputStream: int count>":[0],"1093325200":[18],"sdaReg50":[0],"1093646360.<java.util.HashMap$HashMapEntry: int hash>":[32],"1093514224":[49, 61],"sdaReg49":[0],"sdaReg48":[6],"1093646272":[32],"sdaReg45":[0],"sdaReg44":[0],"sdaReg47":[6],"sdaReg46":[0],"sdaReg40":[0],"sdaReg42":[0],"sdaReg408":[0, 78],"sdaReg409":[0, 34, 49, 81, 6, 78, 60, 75],"sdaReg402":[34, 0, 49, 80, 6, 75, 60],"sdaReg403":[0, 34, 49, 80, 6, 30, 60, 75],"sdaReg400":[0, 34, 49, 80, 6, 30, 60, 75],"sdaReg401":[0, 34, 49, 6, 60, 75],"sdaReg407":[0, 78],"sdaReg201":[0],"sdaReg404":[0, 78],"1093293768.<java.io.ObjectInputStream: java.util.ArrayList objectsRead>":[0],"sdaReg205":[0],"sdaReg39":[0],"sdaReg204":[0],"sdaReg203":[0],"sdaReg37":[0],"sdaReg208":[0],"1093544400.arrayIdx_int:5":[0],"sdaReg207":[0],"1093544400.arrayIdx_int:4":[0],"1093544400":[0],"1093293768.<java.io.ObjectInputStream: boolean mustResolve>":[0],"sdaReg30":[0],"sdaReg36":[0],"sdaReg35":[0],"sdaReg34":[0],"sdaReg33":[0],"sdaReg9":[1, 2],"sdaReg6":[1],"sdaReg4":[0],"sdaReg5":[1],"sdaReg26":[0],"sdaReg29":[0],"sdaReg28":[0],"sdaReg21":[0],"sdaReg0":[0],"sdaReg23":[0],"sdaReg22":[0],"sdaReg25":[0],"sdaReg24":[0],"sdaReg125":[25],"sdaReg126":[25],"sdaReg127":[22, 26],"sdaReg128":[22, 27, 26],"1093497832":[9],"sdaReg129":[25],"sdaReg228":[0],"sdaReg229":[50],"sdaReg224":[49],"sdaReg225":[49],"sdaReg226":[0],"sdaReg227":[0],"sdaReg220":[0],"sdaReg223":[0],"1093388312":[0],"sdaReg120":[21],"sdaReg122":[22],"sdaReg121":[22],"sdaReg124":[22, 24],"sdaReg123":[23],"sdaReg394":[78],"sdaReg395":[78],"sdaReg392":[78],"sdaReg393":[78],"1093319920":[19],"sdaReg398":[78],"sdaReg399":[78],"sdaReg396":[78],"sdaReg118":[18],"sdaReg397":[78],"sdaReg119":[20],"sdaReg497":[101, 96, 6, 77],"sdaReg495":[29],"sdaReg496":[0],"sdaReg218":[0],"sdaReg390":[0],"sdaReg215":[0],"sdaReg391":[34, 0, 6, 75],"1093284544":[1, 4],"sdaReg216":[0],"sdaReg491":[96, 6, 77],"sdaReg213":[0],"sdaReg492":[6, 25, 77],"sdaReg212":[0],"sdaReg211":[0],"sdaReg210":[0],"1083994088":[0, 79],"1093497832.arrayIdx_int:13":[9],"1093497832.arrayIdx_int:14":[9],"1093497832.arrayIdx_int:15":[9],"1093497832.arrayIdx_int:16":[9],"1093388400":[0],"1093497832.arrayIdx_int:10":[9],"1093497832.arrayIdx_int:11":[9],"1093497832.arrayIdx_int:12":[9],"sdaReg112":[19],"sdaReg111":[18],"sdaReg385":[6, 77],"sdaReg107":[0],"sdaReg386":[34, 6, 75],"sdaReg108":[0],"sdaReg387":[0, 49, 6, 30],"sdaReg109":[18],"sdaReg388":[0, 49, 6, 30],"sdaReg103":[0],"sdaReg382":[0],"sdaReg104":[17],"sdaReg383":[6, 75],"sdaReg105":[17],"sdaReg384":[6],"sdaReg106":[0],"1093646360":[32],"sdaReg246":[0],"sdaReg247":[49, 55],"sdaReg248":[0],"sdaReg249":[0],"1093292488":[52],"1083909616":[29],"sdaReg243":[51],"sdaReg245":[54],"sdaReg244":[49, 53],"sdaReg100":[0],"sdaReg102":[0],"sdaReg101":[0],"sdaReg389":[34, 0, 6, 75],"1093386320":[0],"sdaReg372":[0],"sdaReg373":[6, 75],"sdaReg370":[0],"sdaReg237":[52],"sdaReg236":[51],"1093660920":[0, 78],"sdaReg230":[50],"1093293768.<java.io.ObjectInputStream: java.io.InputStream primitiveData>":[0],"sdaReg234":[51],"1084339448":[7],"sdaReg233":[0],"sdaReg232":[0],"sdaReg231":[0],"sdaReg379":[6, 76],"sdaReg378":[6, 76],"sdaReg463":[34, 0, 81, 6, 77, 78, 89, 75],"sdaReg462":[34, 0, 81, 6, 77, 78, 75],"sdaReg465":[91],"sdaReg464":[6, 77, 90],"sdaReg269":[56],"sdaReg268":[0],"sdaReg461":[6, 77],"1093513352":[81],"sdaReg460":[6, 77],"sdaReg360":[0],"sdaReg169":[6, 36],"sdaReg363":[34, 6],"sdaReg366":[6, 75],"sdaReg365":[6, 75],"sdaReg367":[0],"sdaReg161":[33],"1093292448.arrayIdx_int:9":[51],"sdaReg368":[6, 75],"sdaReg162":[6, 30],"1093292448.arrayIdx_int:8":[51],"sdaReg163":[34],"1093292448.arrayIdx_int:7":[51],"sdaReg164":[34],"1093292448.arrayIdx_int:6":[51],"sdaReg165":[0],"sdaReg166":[6],"sdaReg167":[34, 6],"sdaReg168":[35],"1093292448.arrayIdx_int:1":[51],"1093292448.arrayIdx_int:0":[51],"sdaReg266":[0],"sdaReg267":[49],"sdaReg466":[34, 0, 81, 6, 77, 92, 78, 75],"static.<java.nio.ByteOrder: java.nio.ByteOrder BIG_ENDIAN>":[7],"1093292448.arrayIdx_int:5":[51],"sdaReg260":[0],"sdaReg467":[6, 93, 77],"1093292448.arrayIdx_int:4":[51],"sdaReg261":[49],"sdaReg468":[94],"1093292448.arrayIdx_int:3":[51],"sdaReg469":[6, 77],"1093292448.arrayIdx_int:2":[51],"sdaReg454":[0],"sdaReg453":[34, 0, 81, 6, 78, 75],"sdaReg452":[0, 78],"1093293768.<java.io.ObjectInputStream: int nestedLevels>":[0],"sdaReg258":[0],"sdaReg351":[49, 6, 30],"sdaReg350":[49],"sdaReg158":[33],"sdaReg355":[6],"sdaReg354":[49],"sdaReg353":[49],"sdaReg352":[73],"sdaReg358":[6],"sdaReg152":[33],"sdaReg359":[6],"sdaReg153":[33],"sdaReg356":[49],"sdaReg150":[33],"sdaReg357":[74],"sdaReg151":[33],"sdaReg156":[33],"sdaReg157":[33],"1093293768.<java.io.ObjectInputStream: int nextHandle>":[0],"sdaReg154":[33],"sdaReg155":[33],"sdaReg459":[6, 77],"1093333384":[1],"sdaReg253":[0],"1093622840":[35, 6],"sdaReg254":[49],"sdaReg251":[0],"sdaReg458":[6, 77],"1093388400.<java.util.ArrayList: int size>":[0],"sdaReg252":[0, 49],"sdaReg455":[34, 0, 81, 6, 78, 75],"sdaReg456":[6, 77],"sdaReg481":[0],"sdaReg480":[0],"sdaReg483":[6, 77],"sdaReg482":[6, 75],"sdaReg485":[16, 6, 77],"1093660920.<java.util.ArrayList: int size>":[0, 78],"sdaReg484":[16, 6, 77],"sdaReg487":[34, 0, 81, 6, 77, 78, 75],"sdaReg486":[16, 6, 77],"1093499800":[10],"sdaReg342":[0],"sdaReg341":[0],"sdaReg344":[0],"sdaReg343":[0],"sdaReg148":[6, 31],"sdaReg147":[6, 30],"sdaReg149":[32],"sdaReg143":[0],"sdaReg349":[49, 6, 30],"sdaReg144":[6],"sdaReg145":[0],"1083909952":[100],"sdaReg146":[6],"sdaReg346":[0],"sdaReg141":[0],"static.<java.io.ObjectInputStream: java.lang.ClassLoader systemLoader>":[5],"sdaReg347":[0],"sdaReg281":[0],"sdaReg488":[16, 6, 77],"sdaReg282":[49],"1083999984":[34, 1, 49, 2, 3, 6, 60],"sdaReg283":[49, 6, 30],"1093293768.<java.io.ObjectInputStream: boolean hasPushbackTC>":[0],"sdaReg284":[49, 58],"sdaReg285":[32],"sdaReg286":[59],"sdaReg287":[59],"sdaReg288":[59],"sdaReg289":[59],"sdaReg472":[6, 75],"sdaReg471":[0],"sdaReg470":[6, 77],"1093390352.arrayIdx_int:1":[1],"1093390352.arrayIdx_int:2":[1],"sdaReg279":[49],"1093390352.arrayIdx_int:3":[1],"sdaReg475":[6, 77, 95],"1093390352.arrayIdx_int:4":[1],"sdaReg474":[6, 77, 95],"sdaReg473":[6, 77],"1093293768.<java.io.ObjectInputStream: java.io.InputStream emptyStream>":[0],"sdaReg333":[0],"sdaReg331":[0],"sdaReg138":[6],"sdaReg137":[0],"sdaReg136":[6],"sdaReg134":[25],"sdaReg338":[0],"sdaReg133":[25],"sdaReg130":[28],"sdaReg337":[0],"sdaReg334":[0],"1093386376":[0],"sdaReg335":[0],"sdaReg479":[0, 34, 49, 80, 6, 77, 30, 60, 75],"sdaReg273":[49],"sdaReg271":[49],"sdaReg478":[34, 0, 81, 6, 77, 78, 75],"sdaReg272":[0],"1093293768.<java.io.ObjectInputStream: int descriptorHandle>":[0],"sdaReg278":[0],"sdaReg276":[0]},"colorToColor":{"68":[68, 71, 61],"0":[34, 0, 103, 101, 6, 8, 9, 78, 13, 104, 14, 75, 15, 17, 51, 50, 49, 18, 55, 21, 22, 56, 30],"69":[68, 71, 61],"1":[34, 0, 49, 6, 58, 31, 60],"64":[49, 64, 67],"4":[34, 0, 49, 6, 58, 31, 60],"65":[49, 64, 67],"6":[34, 0, 103, 1, 35, 101, 4, 38, 96, 6, 77, 78, 41, 14, 75, 49, 30],"77":[0, 103, 101, 96, 6, 77, 75],"9":[10],"78":[34, 0, 6, 78, 75],"10":[11],"79":[78],"11":[6],"13":[6],"14":[0],"75":[0, 103, 49, 101, 96, 6, 77, 78, 14, 30],"16":[6],"19":[20],"18":[19],"20":[25],"22":[22, 25, 24],"25":[16, 96, 6, 77],"27":[25],"26":[25],"29":[25],"31":[34, 1, 4],"34":[0, 35, 49, 6, 78, 30, 75],"103":[104, 14],"35":[35, 6, 42, 45],"101":[96, 6, 77, 75],"38":[38, 6, 41],"39":[38, 6, 41],"96":[0, 103, 101, 96, 6, 77, 75],"42":[35, 42, 45],"43":[35, 42, 45],"51":[52],"49":[0, 1, 49, 64, 4, 6, 67, 78, 61, 14, 60],"55":[49],"53":[49],"52":[53],"58":[1, 4, 60],"57":[49],"61":[68, 49, 71, 61],"60":[49, 78, 61]},"colorToLabel":{"0":"this","3":"<java.io.ObjectInputStream: java.lang.ClassLoader bootstrapLoader>","5":"<java.io.ObjectInputStream: java.lang.ClassLoader systemLoader>","7":"<java.nio.ByteOrder: java.nio.ByteOrder BIG_ENDIAN>","29":"<java.lang.Integer: java.lang.Class TYPE>","32":"<java.io.ObjectInputStream: java.util.HashMap PRIMITIVE_CLASSES>","79":"<libcore.util.EmptyArray: java.lang.Object[] OBJECT>","97":"<java.lang.Byte: java.lang.Class TYPE>","98":"<java.lang.Character: java.lang.Class TYPE>","99":"<java.lang.Double: java.lang.Class TYPE>","100":"<java.lang.Float: java.lang.Class TYPE>","104":"return"}}}

Generated Model
	this->return

