Scanning method <java.io.BufferedInputStream: void <init>(java.io.InputStream)>

All seen event types: NewArrayRecord, MethodReturnRecord, MethodCallRecord, MethodStartRecord, IfRecord, MethodEndRecord, StoreInstanceRecord, 
Ignored event types: IfRecord, 

JSON Encoded Analysis Data (for visualization):{"heapEdges":[{"step":0,"from":"1093284784","to":"1093282656","type":"store","field":"<java.io.FilterInputStream: java.io.InputStream in>"},{"step":1,"from":"1093282656","to":"sdaReg9","type":"create","field":"<java.io.BufferedInputStream: int markpos>"},{"step":2,"from":"1093282656","to":"1094270688","type":"create","field":"<java.io.BufferedInputStream: byte[] buf>"}],"parameters":[{"id":"1093282656","name":"this","klass":"java.io.BufferedInputStream"},{"id":"1093284784","name":"arg#1","klass":"java.io.InputStream"}],"returns":[{"id":"1093282656","name":"return","klass":"java.io.BufferedInputStream"}],"colors":{"heapLocToColor":{"sdaReg8":[0],"sdaReg6":[0],"1093284784":[1],"1093282656":[0],"sdaReg10":[0],"sdaReg7":[0],"sdaReg4":[1],"sdaReg5":[0],"sdaReg3":[0],"sdaReg1":[1],"sdaReg0":[0],"1094270688":[2]},"colorToColor":{"0":[3],"1":[0],"2":[0]},"colorToLabel":{"0":"this","1":"arg#1","3":"return"}}}

Generated Model
	this->return
	arg#1->this
	arg#1->return

