Scanning method <java.util.TreeSet: boolean add(java.lang.Object)>

All seen event types: SimpleAssignmentRecord, LoadInstanceRecord, MethodStartRecord, IfRecord, NewObjectRecord, StoreInstanceRecord, LoadStaticRecord, BinaryOperationRecord, MethodCallRecord, MethodReturnRecord, SwitchRecord, CastRecord, LoadArrayRecord, MethodEndRecord, 
Ignored event types: SwitchRecord, IfRecord, 

JSON Encoded Analysis Data (for visualization):{"heapEdges":[{"step":0,"from":"1094676392","to":"1093233072","type":"load","field":"<java.util.TreeSet: java.util.NavigableMap backingMap>"},{"step":1,"from":"static.<java.lang.Boolean: java.lang.Boolean TRUE>","to":"1085638584","type":"load","field":"<java.lang.Boolean: java.lang.Boolean TRUE>"},{"step":2,"from":"static.<java.util.TreeMap$Relation: java.util.TreeMap$Relation CREATE>","to":"1085707192","type":"load","field":"<java.util.TreeMap$Relation: java.util.TreeMap$Relation CREATE>"},{"step":3,"from":"1093233072","to":"1093533024","type":"load","field":"<java.util.TreeMap: java.util.TreeMap$Node root>"},{"step":4,"from":"1093233072","to":"1083970648","type":"load","field":"<java.util.TreeMap: java.util.Comparator comparator>"},{"step":5,"from":"static.<java.util.TreeMap: java.util.Comparator NATURAL_ORDER>","to":"1083970648","type":"load","field":"<java.util.TreeMap: java.util.Comparator NATURAL_ORDER>"},{"step":6,"from":"1093233072","to":"1093533024","type":"load","field":"<java.util.TreeMap: java.util.TreeMap$Node root>"},{"step":7,"from":"1093533024","to":"1093342360","type":"load","field":"<java.util.TreeMap$Node: java.lang.Object key>"},{"step":8,"from":"1093288432","to":"1093342360","type":"model"},{"step":9,"from":"1093288432","to":"sdaReg11","type":"model"},{"step":10,"from":"1093342360","to":"1093288432","type":"model"},{"step":11,"from":"1093342360","to":"sdaReg11","type":"model"},{"step":12,"from":"1093533024","to":"1095563624","type":"load","field":"<java.util.TreeMap$Node: java.util.TreeMap$Node right>"},{"step":13,"from":"1095563624","to":"1093254744","type":"load","field":"<java.util.TreeMap$Node: java.lang.Object key>"},{"step":14,"from":"1093288432","to":"1093254744","type":"model"},{"step":15,"from":"1093288432","to":"sdaReg14","type":"model"},{"step":16,"from":"1093254744","to":"1093288432","type":"model"},{"step":17,"from":"1093254744","to":"sdaReg14","type":"model"},{"step":18,"from":"1095563624","to":"1095477992","type":"load","field":"<java.util.TreeMap$Node: java.util.TreeMap$Node right>"},{"step":19,"from":"1095477992","to":"1093447440","type":"load","field":"<java.util.TreeMap$Node: java.lang.Object key>"},{"step":20,"from":"1093288432","to":"1093447440","type":"model"},{"step":21,"from":"1093288432","to":"sdaReg15","type":"model"},{"step":22,"from":"1093447440","to":"1093288432","type":"model"},{"step":23,"from":"1093447440","to":"sdaReg15","type":"model"},{"step":24,"from":"1095477992","to":"1097517960","type":"load","field":"<java.util.TreeMap$Node: java.util.TreeMap$Node right>"},{"step":25,"from":"1097517960","to":"1093472464","type":"load","field":"<java.util.TreeMap$Node: java.lang.Object key>"},{"step":26,"from":"1093288432","to":"1093472464","type":"model"},{"step":27,"from":"1093288432","to":"sdaReg16","type":"model"},{"step":28,"from":"1093472464","to":"1093288432","type":"model"},{"step":29,"from":"1093472464","to":"sdaReg16","type":"model"},{"step":30,"from":"1097517960","to":"1097092104","type":"load","field":"<java.util.TreeMap$Node: java.util.TreeMap$Node right>"},{"step":31,"from":"1097092104","to":"1093250392","type":"load","field":"<java.util.TreeMap$Node: java.lang.Object key>"},{"step":32,"from":"1093288432","to":"1093250392","type":"model"},{"step":33,"from":"1093288432","to":"sdaReg17","type":"model"},{"step":34,"from":"1093250392","to":"1093288432","type":"model"},{"step":35,"from":"1093250392","to":"sdaReg17","type":"model"},{"step":36,"from":"static.<java.util.TreeMap$2: int[] $SwitchMap$java$util$TreeMap$Relation>","to":"1085752200","type":"load","field":"<java.util.TreeMap$2: int[] $SwitchMap$java$util$TreeMap$Relation>"},{"step":37,"from":"1085707192","to":"sdaReg18","type":"model"},{"step":38,"from":"1085752200","to":"1085752200.arrayIdx_int:3","type":"load","field":"arrayIdx_int:3"},{"step":39,"from":"1097092104","to":"1096599912","type":"store","field":"<java.util.TreeMap$Node: java.util.TreeMap$Node parent>"},{"step":40,"from":"1093288432","to":"1096599912","type":"store","field":"<java.util.TreeMap$Node: java.lang.Object key>"},{"step":41,"from":"1096599912","to":"sdaReg23","type":"create","field":"<java.util.TreeMap$Node: int height>"},{"step":42,"from":"1097092104","to":"1096599912","type":"create","field":"<java.util.TreeMap$Node: java.util.TreeMap$Node right>"},{"step":43,"from":"1093233072","to":"1093233072.<java.util.TreeMap: int size>","type":"load","field":"<java.util.TreeMap: int size>"},{"step":44,"from":"sdaReg26","to":"1093233072","type":"store","field":"<java.util.TreeMap: int size>"},{"step":45,"from":"1093233072","to":"1093233072.<java.util.TreeMap: int modCount>","type":"load","field":"<java.util.TreeMap: int modCount>"},{"step":46,"from":"sdaReg27","to":"1093233072","type":"store","field":"<java.util.TreeMap: int modCount>"},{"step":47,"from":"static.<java.util.TreeMap: boolean $assertionsDisabled>","to":"static.<java.util.TreeMap: boolean $assertionsDisabled>","type":"load","field":"<java.util.TreeMap: boolean $assertionsDisabled>"},{"step":48,"from":"sdaReg33","to":"sdaReg34","type":"model"},{"step":49,"from":"sdaReg33","to":"sdaReg36","type":"model"},{"step":50,"from":"sdaReg34","to":"sdaReg33","type":"model"},{"step":51,"from":"sdaReg34","to":"sdaReg36","type":"model"},{"step":52,"from":"sdaReg37","to":"1097092104","type":"store","field":"<java.util.TreeMap$Node: int height>"},{"step":53,"from":"1097092104","to":"1097517960","type":"load","field":"<java.util.TreeMap$Node: java.util.TreeMap$Node parent>"},{"step":54,"from":"1097517960","to":"1097092104","type":"load","field":"<java.util.TreeMap$Node: java.util.TreeMap$Node right>"},{"step":55,"from":"1097517960","to":"1097092104","type":"load","field":"<java.util.TreeMap$Node: java.util.TreeMap$Node right>"},{"step":56,"from":"1097517960","to":"1095477992","type":"load","field":"<java.util.TreeMap$Node: java.util.TreeMap$Node parent>"},{"step":57,"from":"1097517960","to":"sdaReg47","type":"create","field":"<java.util.TreeMap$Node: java.util.TreeMap$Node parent>"},{"step":58,"from":"1095477992","to":"1097092104","type":"store","field":"<java.util.TreeMap$Node: java.util.TreeMap$Node parent>"},{"step":59,"from":"1095477992","to":"1095477952","type":"load","field":"<java.util.TreeMap$Node: java.util.TreeMap$Node left>"},{"step":60,"from":"static.<java.util.TreeMap: boolean $assertionsDisabled>","to":"static.<java.util.TreeMap: boolean $assertionsDisabled>","type":"load","field":"<java.util.TreeMap: boolean $assertionsDisabled>"},{"step":61,"from":"1097092104","to":"1095477992","type":"store","field":"<java.util.TreeMap$Node: java.util.TreeMap$Node right>"},{"step":62,"from":"1097517960","to":"1097092104","type":"store","field":"<java.util.TreeMap$Node: java.util.TreeMap$Node left>"},{"step":63,"from":"1097092104","to":"1097517960","type":"store","field":"<java.util.TreeMap$Node: java.util.TreeMap$Node parent>"},{"step":64,"from":"sdaReg48","to":"sdaReg49","type":"model"},{"step":65,"from":"sdaReg48","to":"sdaReg50","type":"model"},{"step":66,"from":"sdaReg49","to":"sdaReg48","type":"model"},{"step":67,"from":"sdaReg49","to":"sdaReg50","type":"model"},{"step":68,"from":"sdaReg51","to":"1097517960","type":"store","field":"<java.util.TreeMap$Node: int height>"},{"step":69,"from":"sdaReg53","to":"1097092104","type":"store","field":"<java.util.TreeMap$Node: int height>"},{"step":70,"from":"1085638584","to":"1096599912","type":"store","field":"<java.util.TreeMap$Node: java.lang.Object value>"}],"parameters":[{"id":"1094676392","name":"this","klass":"java.util.TreeSet"},{"id":"1093288432","name":"arg#1","klass":"java.lang.Object"}],"returns":[{"id":"sdaReg57","name":"return","klass":"boolean"}],"colors":{"heapLocToColor":{"1093233072.<java.util.TreeMap: int size>":[0],"sdaReg14":[1, 6],"sdaReg11":[1, 5],"sdaReg12":[1, 5, 6, 7, 8, 9],"sdaReg10":[1],"1095563624":[0],"static.<java.lang.Boolean: java.lang.Boolean TRUE>":[2],"1085707192":[3],"sdaReg19":[12],"sdaReg54":[12],"sdaReg17":[1, 9],"sdaReg53":[16],"sdaReg18":[3, 11],"sdaReg52":[16],"sdaReg15":[1, 7],"1096599912":[12],"sdaReg51":[15],"sdaReg16":[1, 8],"sdaReg50":[15],"1085752200":[10],"1093288432":[1],"1093233072":[0],"static.<java.util.TreeMap$2: int[] $SwitchMap$java$util$TreeMap$Relation>":[10],"static.<java.util.TreeMap: boolean $assertionsDisabled>":[13],"sdaReg45":[0],"sdaReg44":[0],"1085638584":[2],"sdaReg46":[0],"sdaReg43":[0],"sdaReg42":[0],"1083970648":[0, 4],"1093342360":[0, 1],"1093233072.<java.util.TreeMap: java.util.TreeMap$Node root>":[0],"static.<java.util.TreeMap: java.util.Comparator NATURAL_ORDER>":[0, 4],"1093254744":[0, 1],"1094676392":[0],"1085752200.arrayIdx_int:3":[10],"sdaReg37":[14],"1093447440":[0, 1],"sdaReg31":[0],"1097092104.<java.util.TreeMap$Node: java.util.TreeMap$Node parent>":[0],"sdaReg36":[14],"1097517960.<java.util.TreeMap$Node: java.util.TreeMap$Node parent>":[0],"sdaReg8":[3],"sdaReg9":[1],"sdaReg6":[0],"sdaReg7":[1],"1097517960.<java.util.TreeMap$Node: java.util.TreeMap$Node right>":[0],"sdaReg4":[1],"sdaReg5":[2],"static.<java.util.TreeMap$Relation: java.util.TreeMap$Relation CREATE>":[3],"1093233072.<java.util.TreeMap: int modCount>":[0],"1097092104":[0],"1097517960":[0],"1093472464":[0, 1],"sdaReg27":[0],"sdaReg26":[0],"sdaReg29":[0],"sdaReg28":[0],"1095477952":[0],"1093250392":[0, 1],"sdaReg3":[0],"sdaReg2":[2],"sdaReg1":[1],"sdaReg21":[1],"1093533024":[0],"sdaReg0":[0],"1095477992":[0],"sdaReg20":[0],"sdaReg22":[12],"sdaReg25":[12],"sdaReg24":[12]},"colorToColor":{"0":[0, 1, 5, 6, 7, 8, 9, 12],"16":[0],"1":[1, 5, 6, 7, 8, 9, 12],"2":[12],"12":[0],"14":[0],"15":[0]},"colorToLabel":{"0":"this","1":"arg#1","2":"<java.lang.Boolean: java.lang.Boolean TRUE>","3":"<java.util.TreeMap$Relation: java.util.TreeMap$Relation CREATE>","4":"<java.util.TreeMap: java.util.Comparator NATURAL_ORDER>","10":"<java.util.TreeMap$2: int[] $SwitchMap$java$util$TreeMap$Relation>","13":"<java.util.TreeMap: boolean $assertionsDisabled>","17":"return"}}}

Generated Model
	this->arg#1
	arg#1->this

