Scanning method <java.net.InetAddress: java.net.InetAddress getLocalHost()>

All seen event types: StoreArrayRecord, SimpleAssignmentRecord, LoadInstanceRecord, MethodStartRecord, IfRecord, StoreInstanceRecord, NewObjectRecord, NewArrayRecord, LoadStaticRecord, BinaryOperationRecord, MethodCallRecord, MethodReturnRecord, ArrayLengthRecord, CastRecord, LoadArrayRecord, MethodEndRecord, 
Ignored event types: IfRecord, 

JSON Encoded Analysis Data (for visualization):{"heapEdges":[{"step":0,"from":"static.<libcore.io.Libcore: libcore.io.Os os>","to":"1083982784","type":"load","field":"<libcore.io.Libcore: libcore.io.Os os>"},{"step":1,"from":"1083982784","to":"1093671168","type":"model"},{"step":2,"from":"1093671168","to":"1093671168.<libcore.io.StructUtsname: java.lang.String nodename>","type":"load","field":"<libcore.io.StructUtsname: java.lang.String nodename>"},{"step":3,"from":"static.<java.net.InetAddress: java.net.AddressCache addressCache>","to":"1085715264","type":"load","field":"<java.net.InetAddress: java.net.AddressCache addressCache>"},{"step":4,"from":"1085715264","to":"1085715280","type":"load","field":"<java.net.AddressCache: libcore.util.BasicLruCache cache>"},{"step":5,"from":"1085715280","to":"1085715304","type":"load","field":"<libcore.util.BasicLruCache: java.util.LinkedHashMap map>"},{"step":6,"from":"1085715304","to":"1083997920","type":"load","field":"<java.util.HashMap: java.util.HashMap$HashMapEntry[] table>"},{"step":7,"from":"static.<libcore.io.OsConstants: int AI_ADDRCONFIG>","to":"static.<libcore.io.OsConstants: int AI_ADDRCONFIG>","type":"load","field":"<libcore.io.OsConstants: int AI_ADDRCONFIG>"},{"step":8,"from":"static.<libcore.io.OsConstants: int AI_ADDRCONFIG>","to":"1093681536","type":"store","field":"<libcore.io.StructAddrinfo: int ai_flags>"},{"step":9,"from":"static.<libcore.io.OsConstants: int AF_UNSPEC>","to":"static.<libcore.io.OsConstants: int AF_UNSPEC>","type":"load","field":"<libcore.io.OsConstants: int AF_UNSPEC>"},{"step":10,"from":"static.<libcore.io.OsConstants: int AF_UNSPEC>","to":"1093681536","type":"store","field":"<libcore.io.StructAddrinfo: int ai_family>"},{"step":11,"from":"static.<libcore.io.OsConstants: int SOCK_STREAM>","to":"static.<libcore.io.OsConstants: int SOCK_STREAM>","type":"load","field":"<libcore.io.OsConstants: int SOCK_STREAM>"},{"step":12,"from":"static.<libcore.io.OsConstants: int SOCK_STREAM>","to":"1093681536","type":"store","field":"<libcore.io.StructAddrinfo: int ai_socktype>"},{"step":13,"from":"static.<libcore.io.Libcore: libcore.io.Os os>","to":"1083982784","type":"load","field":"<libcore.io.Libcore: libcore.io.Os os>"},{"step":14,"from":"1093681536","to":"1093681776","type":"model"},{"step":15,"from":"1093671168.<libcore.io.StructUtsname: java.lang.String nodename>","to":"1093681776","type":"model"},{"step":16,"from":"1093681776","to":"1093681856","type":"load","field":"arrayIdx_int:0"},{"step":17,"from":"1093671168.<libcore.io.StructUtsname: java.lang.String nodename>","to":"1093681856","type":"store","field":"<java.net.InetAddress: java.lang.String hostName>"},{"step":18,"from":"static.<java.net.InetAddress: java.net.AddressCache addressCache>","to":"1085715264","type":"load","field":"<java.net.InetAddress: java.net.AddressCache addressCache>"},{"step":19,"from":"1085715264","to":"1085715280","type":"load","field":"<java.net.AddressCache: libcore.util.BasicLruCache cache>"},{"step":20,"from":"1093682224","to":"1093681776","type":"create","field":"<java.net.AddressCache$AddressCacheEntry: java.lang.Object value>"},{"step":21,"from":"sdaReg41","to":"1093682224","type":"store","field":"<java.net.AddressCache$AddressCacheEntry: long expiryNanos>"},{"step":22,"from":"1085715280","to":"1085715304","type":"load","field":"<libcore.util.BasicLruCache: java.util.LinkedHashMap map>"},{"step":23,"from":"1085715304","to":"1083997920","type":"load","field":"<java.util.HashMap: java.util.HashMap$HashMapEntry[] table>"},{"step":24,"from":"1085715304","to":"1085715304.<java.util.HashMap: int modCount>","type":"load","field":"<java.util.HashMap: int modCount>"},{"step":25,"from":"sdaReg63","to":"1085715304","type":"store","field":"<java.util.HashMap: int modCount>"},{"step":26,"from":"1085715304","to":"1085715304.<java.util.HashMap: int size>","type":"load","field":"<java.util.HashMap: int size>"},{"step":27,"from":"sdaReg64","to":"1085715304","type":"store","field":"<java.util.HashMap: int size>"},{"step":28,"from":"1085715304","to":"1085715304.<java.util.HashMap: int threshold>","type":"load","field":"<java.util.HashMap: int threshold>"},{"step":29,"from":"1085715304","to":"1083997920","type":"load","field":"<java.util.HashMap: java.util.HashMap$HashMapEntry[] table>"},{"step":30,"from":"1085715304","to":"1093682288","type":"create","field":"<java.util.HashMap: java.util.HashMap$HashMapEntry[] table>"},{"step":31,"from":"sdaReg72","to":"1085715304","type":"store","field":"<java.util.HashMap: int threshold>"},{"step":32,"from":"1085715304","to":"1085715368","type":"load","field":"<java.util.LinkedHashMap: java.util.LinkedHashMap$LinkedEntry header>"},{"step":33,"from":"1085715368","to":"1085715368","type":"load","field":"<java.util.LinkedHashMap$LinkedEntry: java.util.LinkedHashMap$LinkedEntry nxt>"},{"step":34,"from":"1085715368","to":"1085715368","type":"load","field":"<java.util.LinkedHashMap$LinkedEntry: java.util.LinkedHashMap$LinkedEntry prv>"},{"step":35,"from":"1093670824","to":"1093588544","type":"store","field":"<java.util.HashMap$HashMapEntry: java.lang.Object key>"},{"step":36,"from":"1093588544","to":"1093682224","type":"create","field":"<java.util.HashMap$HashMapEntry: java.lang.Object value>"},{"step":37,"from":"sdaReg59","to":"1093588544","type":"store","field":"<java.util.HashMap$HashMapEntry: int hash>"},{"step":38,"from":"1085715368","to":"1093588544","type":"store","field":"<java.util.LinkedHashMap$LinkedEntry: java.util.LinkedHashMap$LinkedEntry nxt>"},{"step":39,"from":"1085715368","to":"1093588544","type":"store","field":"<java.util.LinkedHashMap$LinkedEntry: java.util.LinkedHashMap$LinkedEntry prv>"},{"step":40,"from":"1085715368","to":"1093588544","type":"create","field":"<java.util.LinkedHashMap$LinkedEntry: java.util.LinkedHashMap$LinkedEntry prv>"},{"step":41,"from":"1093588544","to":"1085715368","type":"store","field":"<java.util.LinkedHashMap$LinkedEntry: java.util.LinkedHashMap$LinkedEntry nxt>"},{"step":42,"from":"1093588544","to":"1093682288","type":"store","field":"arrayIdx_int:2"},{"step":43,"from":"1085715280","to":"1085715280.<libcore.util.BasicLruCache: int maxSize>","type":"load","field":"<libcore.util.BasicLruCache: int maxSize>"},{"step":44,"from":"1085715280","to":"1085715304","type":"load","field":"<libcore.util.BasicLruCache: java.util.LinkedHashMap map>"},{"step":45,"from":"1093681776","to":"1093681856","type":"load","field":"arrayIdx_int:0"}],"parameters":[],"returns":[{"id":"1093681856","name":"return","klass":"java.net.InetAddress"}],"colors":{"heapLocToColor":{"static.<libcore.io.OsConstants: int AF_UNSPEC>":[7],"1085715304.<java.util.HashMap: int threshold>":[3],"1085715280":[3],"sdaReg68":[3],"1085715264.<java.net.AddressCache: libcore.util.BasicLruCache cache>":[3],"1083982784":[0],"sdaReg64":[3],"sdaReg65":[3],"1085715304.<java.util.HashMap: java.util.HashMap$HashMapEntry[] table>":[3],"sdaReg62":[12],"sdaReg63":[3],"sdaReg13":[4],"sdaReg14":[4],"sdaReg11":[4],"sdaReg12":[4],"sdaReg10":[4],"1084337336":[2],"sdaReg59":[12],"sdaReg58":[12],"sdaReg57":[12],"1093671168.<libcore.io.StructUtsname: java.lang.String nodename>":[0, 1],"sdaReg56":[12],"1083997920":[3],"sdaReg19":[3],"sdaReg55":[12],"sdaReg54":[12],"sdaReg17":[4],"sdaReg53":[12],"sdaReg52":[12],"sdaReg51":[12],"1093671168":[0, 1],"sdaReg50":[11],"sdaReg78":[3],"1093682288":[13],"sdaReg73":[13],"sdaReg75":[13],"1085715280.<libcore.util.BasicLruCache: java.util.LinkedHashMap map>":[3],"sdaReg81":[14],"sdaReg80":[11],"sdaReg83":[11],"1085715280.<libcore.util.BasicLruCache: int maxSize>":[3],"sdaReg48":[3],"sdaReg45":[11],"sdaReg44":[11],"sdaReg47":[11],"sdaReg46":[3],"sdaReg41":[10],"sdaReg40":[10],"sdaReg43":[9],"sdaReg42":[11],"1093681776":[9],"1085715368.<java.util.LinkedHashMap$LinkedEntry: java.util.LinkedHashMap$LinkedEntry nxt>":[3],"sdaReg86":[3],"sdaReg87":[14],"1085715304.<java.util.HashMap: int modCount>":[3],"sdaReg85":[3],"static.<libcore.io.Libcore: libcore.io.Os os>":[0],"sdaReg89":[11],"1085715264":[3],"static.<libcore.io.OsConstants: int AI_ADDRCONFIG>":[6],"sdaReg94":[14],"sdaReg93":[14],"sdaReg92":[14],"sdaReg91":[14],"sdaReg32":[9],"sdaReg31":[3],"1085715368":[3],"static.<java.net.InetAddress: java.net.AddressCache addressCache>":[3],"sdaReg34":[9],"sdaReg33":[3],"sdaReg8":[4],"sdaReg9":[4],"sdaReg6":[4],"1085715304.<java.util.HashMap: int size>":[3],"sdaReg7":[4],"sdaReg4":[3],"sdaReg96":[3],"sdaReg97":[3],"1085715368.<java.util.LinkedHashMap$LinkedEntry: java.util.LinkedHashMap$LinkedEntry prv>":[3],"sdaReg99":[9],"static.<libcore.io.OsConstants: int SOCK_STREAM>":[8],"1085715304":[3],"sdaReg27":[9],"1093681776.arrayIdx_int:0":[9],"1093681536":[5],"sdaReg26":[5],"sdaReg28":[9],"sdaReg3":[3],"sdaReg2":[3],"sdaReg1":[2],"sdaReg0":[0, 1],"1093682224":[11],"1093588544":[14],"sdaReg25":[5],"1093681856":[9]},"colorToColor":{"0":[9],"1":[9],"3":[3, 14],"5":[9],"6":[5],"7":[5],"8":[5],"9":[11, 15],"10":[11],"11":[14],"12":[14],"13":[3],"14":[3, 13]},"colorToLabel":{"0":"<libcore.io.Libcore: libcore.io.Os os>","3":"<java.net.InetAddress: java.net.AddressCache addressCache>","6":"<libcore.io.OsConstants: int AI_ADDRCONFIG>","7":"<libcore.io.OsConstants: int AF_UNSPEC>","8":"<libcore.io.OsConstants: int SOCK_STREAM>","15":"return"}}}

Generated Model

