Scanning method <java.util.HashMap$KeyIterator: void <init>(java.util.HashMap,java.util.HashMap$1)>

All seen event types: BinaryOperationRecord, SimpleAssignmentRecord, MethodReturnRecord, MethodCallRecord, ArrayLengthRecord, LoadInstanceRecord, MethodStartRecord, LoadArrayRecord, MethodEndRecord, IfRecord, StoreInstanceRecord, 
Ignored event types: IfRecord, 

JSON Encoded Analysis Data (for visualization):{"heapEdges":[{"step":0,"from":"1093572488","to":"1093651432","type":"store","field":"<java.util.HashMap$KeyIterator: java.util.HashMap this$0>"},{"step":1,"from":"1093572488","to":"1093651432","type":"store","field":"<java.util.HashMap$HashIterator: java.util.HashMap this$0>"},{"step":2,"from":"1093572488","to":"1093572488.<java.util.HashMap: int modCount>","type":"load","field":"<java.util.HashMap: int modCount>"},{"step":3,"from":"1093572488.<java.util.HashMap: int modCount>","to":"1093651432","type":"store","field":"<java.util.HashMap$HashIterator: int expectedModCount>"},{"step":4,"from":"1093572488","to":"1093579680","type":"load","field":"<java.util.HashMap: java.util.HashMap$HashMapEntry[] table>"},{"step":5,"from":"1093651432","to":"1093651432.<java.util.HashMap$HashIterator: int nextIndex>","type":"load","field":"<java.util.HashMap$HashIterator: int nextIndex>"},{"step":6,"from":"1093651432","to":"1093651432.<java.util.HashMap$HashIterator: int nextIndex>","type":"load","field":"<java.util.HashMap$HashIterator: int nextIndex>"},{"step":7,"from":"sdaReg7","to":"1093651432","type":"store","field":"<java.util.HashMap$HashIterator: int nextIndex>"},{"step":8,"from":"sdaReg7","to":"1093651432","type":"store","field":"<java.util.HashMap$HashIterator: int nextIndex>"},{"step":9,"from":"sdaReg7","to":"1093651432","type":"store","field":"<java.util.HashMap$HashIterator: int nextIndex>"},{"step":10,"from":"1093579680","to":"1093629856","type":"load","field":"arrayIdx_int:2"},{"step":11,"from":"1093629856","to":"1093651432","type":"store","field":"<java.util.HashMap$HashIterator: java.util.HashMap$HashMapEntry nextEntry>"}],"parameters":[{"id":"1093651432","name":"this","klass":"java.util.HashMap$KeyIterator"},{"id":"1093572488","name":"arg#1","klass":"java.util.HashMap"},{"id":"0","name":"arg#2","klass":"java.util.HashMap$1"}],"returns":[{"id":"1093651432","name":"return","klass":"java.util.HashMap$KeyIterator"}],"colors":{"heapLocToColor":{"1093579680":[1],"1093572488":[1],"sdaReg7":[0],"sdaReg4":[0],"1093651432.<java.util.HashMap$HashIterator: int nextIndex>":[0],"1093651432":[0],"1093629856":[1],"sdaReg11":[0],"0":[2],"1093572488.<java.util.HashMap: int modCount>":[1],"sdaReg10":[0],"sdaReg3":[1],"sdaReg2":[0],"sdaReg1":[1],"sdaReg0":[0]},"colorToColor":{"0":[0, 3],"1":[0]},"colorToLabel":{"0":"this","1":"arg#1","2":"arg#2","3":"return"}}}

Generated Model
	this->return
	arg#1->this
	arg#1->return

