Scanning method <java.io.PrintWriter: void write(char[],int,int)>

All seen event types: SimpleAssignmentRecord, ExitMonitorRecord, MethodReturnRecord, MethodCallRecord, EnterMonitorRecord, LoadInstanceRecord, MethodStartRecord, MethodEndRecord, IfRecord, 
Ignored event types: ExitMonitorRecord, EnterMonitorRecord, IfRecord, 

JSON Encoded Analysis Data (for visualization):{"heapEdges":[{"step":0,"from":"1093658288","to":"1093659224","type":"load","field":"<java.io.Writer: java.lang.Object lock>"},{"step":1,"from":"1093658288","to":"1093659224","type":"load","field":"<java.io.PrintWriter: java.io.Writer out>"},{"step":2,"from":"1093658288","to":"1093659224","type":"load","field":"<java.io.PrintWriter: java.io.Writer out>"},{"step":3,"from":"1093659224","to":"1093667744","type":"model"},{"step":4,"from":"1093659224","to":"sdaReg0","type":"model"},{"step":5,"from":"1093659224","to":"sdaReg1","type":"model"},{"step":6,"from":"1093667744","to":"1093659224","type":"model"},{"step":7,"from":"1093667744","to":"sdaReg0","type":"model"},{"step":8,"from":"1093667744","to":"sdaReg1","type":"model"},{"step":9,"from":"sdaReg0","to":"1093659224","type":"model"},{"step":10,"from":"sdaReg0","to":"1093667744","type":"model"},{"step":11,"from":"sdaReg0","to":"sdaReg1","type":"model"},{"step":12,"from":"sdaReg1","to":"1093659224","type":"model"},{"step":13,"from":"sdaReg1","to":"1093667744","type":"model"},{"step":14,"from":"sdaReg1","to":"sdaReg0","type":"model"}],"parameters":[{"id":"1093658288","name":"this","klass":"java.io.PrintWriter"},{"id":"1093667744","name":"arg#1","klass":"char[]"},{"id":"sdaReg0","name":"arg#2","klass":"int"},{"id":"sdaReg1","name":"arg#3","klass":"int"}],"returns":[{"id":null,"name":"return","klass":null}],"colors":{"heapLocToColor":{"1093658288.<java.io.PrintWriter: java.io.Writer out>":[0],"1093658288":[0],"1093667744":[0, 1],"sdaReg3":[1],"sdaReg2":[0],"sdaReg1":[0, 3],"1093659224":[0],"sdaReg0":[0, 2]},"colorToColor":{"0":[0, 1, 2, 3],"1":[0, 2, 3],"2":[0, 1, 3],"3":[0, 1, 2]},"colorToLabel":{"0":"this","1":"arg#1","2":"arg#2","3":"arg#3","4":"return"}}}

Generated Model
	this->arg#3
	this->arg#2
	this->arg#1
	arg#3->this
	arg#3->arg#2
	arg#3->arg#1
	arg#2->this
	arg#2->arg#3
	arg#2->arg#1
	arg#1->this
	arg#1->arg#3
	arg#1->arg#2

