Scanning method <java.io.OutputStreamWriter: void drainEncoder()>

All seen event types: StoreArrayRecord, SimpleAssignmentRecord, MethodStartRecord, LoadInstanceRecord, IfRecord, NewObjectRecord, StoreInstanceRecord, NewArrayRecord, LoadStaticRecord, BinaryOperationRecord, MethodCallRecord, MethodReturnRecord, LoadArrayRecord, MethodEndRecord, 
Ignored event types: IfRecord, 

JSON Encoded Analysis Data (for visualization):{"heapEdges":[{"step":0,"from":"1095264352","to":"sdaReg10","type":"create","field":"<java.nio.Buffer: int mark>"},{"step":1,"from":"1095264352","to":"sdaReg11","type":"create","field":"<java.nio.Buffer: int position>"},{"step":2,"from":"1095264352","to":"sdaReg8","type":"create","field":"<java.nio.Buffer: int _elementSizeShift>"},{"step":3,"from":"1095264352","to":"sdaReg0","type":"create","field":"<java.nio.Buffer: int limit>"},{"step":4,"from":"sdaReg0","to":"1095264352","type":"store","field":"<java.nio.Buffer: int capacity>"},{"step":5,"from":"1095264352","to":"1095264400","type":"create","field":"<java.nio.CharArrayBuffer: char[] backingArray>"},{"step":6,"from":"1095264352","to":"sdaReg5","type":"create","field":"<java.nio.CharArrayBuffer: int offset>"},{"step":7,"from":"1093517424","to":"1093516184","type":"load","field":"<java.io.OutputStreamWriter: java.nio.charset.CharsetEncoder encoder>"},{"step":8,"from":"1093517424","to":"1093517456","type":"load","field":"<java.io.OutputStreamWriter: java.nio.ByteBuffer bytes>"},{"step":9,"from":"1093516184","to":"1093516184.<java.nio.charset.CharsetEncoder: int status>","type":"load","field":"<java.nio.charset.CharsetEncoder: int status>"},{"step":10,"from":"1093516184","to":"1093516184.<java.nio.charset.CharsetEncoder: int status>","type":"load","field":"<java.nio.charset.CharsetEncoder: int status>"},{"step":11,"from":"static.<java.nio.charset.CoderResult: java.nio.charset.CoderResult UNDERFLOW>","to":"1084215096","type":"load","field":"<java.nio.charset.CoderResult: java.nio.charset.CoderResult UNDERFLOW>"},{"step":12,"from":"static.<java.nio.charset.CoderResult: java.nio.charset.CoderResult UNDERFLOW>","to":"1084215096","type":"load","field":"<java.nio.charset.CoderResult: java.nio.charset.CoderResult UNDERFLOW>"},{"step":13,"from":"sdaReg28","to":"1093516184","type":"store","field":"<java.nio.charset.CharsetEncoder: int status>"},{"step":14,"from":"1084215096","to":"1084215096.<java.nio.charset.CoderResult: int type>","type":"load","field":"<java.nio.charset.CoderResult: int type>"},{"step":15,"from":"1084215096","to":"1084215096.<java.nio.charset.CoderResult: int type>","type":"load","field":"<java.nio.charset.CoderResult: int type>"},{"step":16,"from":"1084215096","to":"1084215096.<java.nio.charset.CoderResult: int type>","type":"load","field":"<java.nio.charset.CoderResult: int type>"},{"step":17,"from":"1093517424","to":"1093516184","type":"load","field":"<java.io.OutputStreamWriter: java.nio.charset.CharsetEncoder encoder>"},{"step":18,"from":"1093517424","to":"1093517456","type":"load","field":"<java.io.OutputStreamWriter: java.nio.ByteBuffer bytes>"},{"step":19,"from":"static.<libcore.util.EmptyArray: char[] CHAR>","to":"1083993992","type":"load","field":"<libcore.util.EmptyArray: char[] CHAR>"},{"step":20,"from":"1083993992","to":"1093516184","type":"store","field":"<java.nio.charset.CharsetEncoderICU: char[] input>"},{"step":21,"from":"1093516184","to":"sdaReg40","type":"create","field":"<java.nio.charset.CharsetEncoderICU: int inEnd>"},{"step":22,"from":"1093516184","to":"1093516312","type":"load","field":"<java.nio.charset.CharsetEncoderICU: int[] data>"},{"step":23,"from":"1093516312","to":"sdaReg41","type":"create","field":"arrayIdx_int:0"},{"step":24,"from":"1093516184","to":"1093516312","type":"load","field":"<java.nio.charset.CharsetEncoderICU: int[] data>"},{"step":25,"from":"1093517456","to":"1093896280","type":"load","field":"<java.nio.HeapByteBuffer: byte[] backingArray>"},{"step":26,"from":"1093896280","to":"1093516184","type":"store","field":"<java.nio.charset.CharsetEncoderICU: byte[] output>"},{"step":27,"from":"1093517456","to":"1093517456.<java.nio.HeapByteBuffer: int offset>","type":"load","field":"<java.nio.HeapByteBuffer: int offset>"},{"step":28,"from":"1093517456","to":"1093517456.<java.nio.Buffer: int limit>","type":"load","field":"<java.nio.Buffer: int limit>"},{"step":29,"from":"sdaReg54","to":"1093516184","type":"store","field":"<java.nio.charset.CharsetEncoderICU: int outEnd>"},{"step":30,"from":"1093517456","to":"1093517456.<java.nio.HeapByteBuffer: int offset>","type":"load","field":"<java.nio.HeapByteBuffer: int offset>"},{"step":31,"from":"1093517456","to":"1093517456.<java.nio.Buffer: int position>","type":"load","field":"<java.nio.Buffer: int position>"},{"step":32,"from":"sdaReg58","to":"1093516312","type":"store","field":"arrayIdx_int:1"},{"step":33,"from":"1093516184","to":"1093516312","type":"load","field":"<java.nio.charset.CharsetEncoderICU: int[] data>"},{"step":34,"from":"1093516312","to":"sdaReg59","type":"create","field":"arrayIdx_int:2"},{"step":35,"from":"1093516184","to":"1093516184.<java.nio.charset.CharsetEncoderICU: long converterHandle>","type":"load","field":"<java.nio.charset.CharsetEncoderICU: long converterHandle>"},{"step":36,"from":"1093516184","to":"1093516312","type":"load","field":"<java.nio.charset.CharsetEncoderICU: int[] data>"},{"step":37,"from":"1093516184.<java.nio.charset.CharsetEncoderICU: long converterHandle>","to":"1083993992","type":"model"},{"step":38,"from":"1093516184.<java.nio.charset.CharsetEncoderICU: long converterHandle>","to":"1093896280","type":"model"},{"step":39,"from":"1093516184.<java.nio.charset.CharsetEncoderICU: long converterHandle>","to":"1093516312","type":"model"},{"step":40,"from":"1093516184.<java.nio.charset.CharsetEncoderICU: long converterHandle>","to":"sdaReg60","type":"model"},{"step":41,"from":"1083993992","to":"1093516184.<java.nio.charset.CharsetEncoderICU: long converterHandle>","type":"model"},{"step":42,"from":"1083993992","to":"1093896280","type":"model"},{"step":43,"from":"1083993992","to":"1093516312","type":"model"},{"step":44,"from":"1083993992","to":"sdaReg60","type":"model"},{"step":45,"from":"1093896280","to":"1093516184.<java.nio.charset.CharsetEncoderICU: long converterHandle>","type":"model"},{"step":46,"from":"1093896280","to":"1083993992","type":"model"},{"step":47,"from":"1093896280","to":"1093516312","type":"model"},{"step":48,"from":"1093896280","to":"sdaReg60","type":"model"},{"step":49,"from":"1093516312","to":"1093516184.<java.nio.charset.CharsetEncoderICU: long converterHandle>","type":"model"},{"step":50,"from":"1093516312","to":"1083993992","type":"model"},{"step":51,"from":"1093516312","to":"1093896280","type":"model"},{"step":52,"from":"1093516312","to":"sdaReg60","type":"model"},{"step":53,"from":"sdaReg60","to":"1093516184","type":"store","field":"<java.nio.charset.CharsetEncoderICU: int ec>"},{"step":54,"from":"static.<java.nio.charset.CoderResult: java.nio.charset.CoderResult UNDERFLOW>","to":"1084215096","type":"load","field":"<java.nio.charset.CoderResult: java.nio.charset.CoderResult UNDERFLOW>"},{"step":55,"from":"1093517456","to":"1093517456.<java.nio.Buffer: int position>","type":"load","field":"<java.nio.Buffer: int position>"},{"step":56,"from":"1093516184","to":"1093516312","type":"load","field":"<java.nio.charset.CharsetEncoderICU: int[] data>"},{"step":57,"from":"1093517456","to":"1093517456.<java.nio.HeapByteBuffer: int offset>","type":"load","field":"<java.nio.HeapByteBuffer: int offset>"},{"step":58,"from":"1093517456","to":"1093517456.<java.nio.Buffer: int limit>","type":"load","field":"<java.nio.Buffer: int limit>"},{"step":59,"from":"sdaReg72","to":"1093517456","type":"store","field":"<java.nio.Buffer: int position>"},{"step":60,"from":"1093517456","to":"1093517456.<java.nio.Buffer: int mark>","type":"load","field":"<java.nio.Buffer: int mark>"},{"step":61,"from":"1093516184","to":"sdaReg75","type":"create","field":"<java.nio.charset.CharsetEncoderICU: byte[] output>"},{"step":62,"from":"1093516184","to":"1093516184.<java.nio.charset.CharsetEncoderICU: long converterHandle>","type":"load","field":"<java.nio.charset.CharsetEncoderICU: long converterHandle>"},{"step":63,"from":"1093516184","to":"1093516312","type":"load","field":"<java.nio.charset.CharsetEncoderICU: int[] data>"},{"step":64,"from":"1093516312","to":"sdaReg77","type":"create","field":"arrayIdx_int:0"},{"step":65,"from":"1093516184","to":"1093516312","type":"load","field":"<java.nio.charset.CharsetEncoderICU: int[] data>"},{"step":66,"from":"1093516312","to":"sdaReg78","type":"create","field":"arrayIdx_int:1"},{"step":67,"from":"1093516184","to":"1093516312","type":"load","field":"<java.nio.charset.CharsetEncoderICU: int[] data>"},{"step":68,"from":"1093516312","to":"sdaReg79","type":"create","field":"arrayIdx_int:2"},{"step":69,"from":"1093516184","to":"sdaReg80","type":"create","field":"<java.nio.charset.CharsetEncoderICU: byte[] output>"},{"step":70,"from":"1093516184","to":"sdaReg81","type":"create","field":"<java.nio.charset.CharsetEncoderICU: char[] input>"},{"step":71,"from":"1093516184","to":"sdaReg82","type":"create","field":"<java.nio.charset.CharsetEncoderICU: char[] allocatedInput>"},{"step":72,"from":"1093516184","to":"sdaReg83","type":"create","field":"<java.nio.charset.CharsetEncoderICU: byte[] allocatedOutput>"},{"step":73,"from":"1093516184","to":"sdaReg84","type":"create","field":"<java.nio.charset.CharsetEncoderICU: int ec>"},{"step":74,"from":"1093516184","to":"sdaReg85","type":"create","field":"<java.nio.charset.CharsetEncoderICU: int inEnd>"},{"step":75,"from":"1093516184","to":"sdaReg86","type":"create","field":"<java.nio.charset.CharsetEncoderICU: int outEnd>"},{"step":76,"from":"static.<java.nio.charset.CoderResult: java.nio.charset.CoderResult UNDERFLOW>","to":"1084215096","type":"load","field":"<java.nio.charset.CoderResult: java.nio.charset.CoderResult UNDERFLOW>"},{"step":77,"from":"1093516184","to":"sdaReg88","type":"create","field":"<java.nio.charset.CharsetEncoder: int status>"},{"step":78,"from":"1084215096","to":"1084215096.<java.nio.charset.CoderResult: int type>","type":"load","field":"<java.nio.charset.CoderResult: int type>"}],"parameters":[{"id":"1093517424","name":"this","klass":"java.io.OutputStreamWriter"}],"returns":[{"id":null,"name":"return","klass":null}],"colors":{"heapLocToColor":{"sdaReg60":[5],"1093517456.<java.nio.Buffer: int limit>":[0],"sdaReg68":[0],"sdaReg69":[0],"1093517424":[0],"1095264352":[1],"sdaReg66":[0],"1093516184.<java.nio.charset.CharsetEncoderICU: long converterHandle>":[0],"sdaReg64":[0],"sdaReg65":[0],"sdaReg63":[0],"1093516184.<java.nio.charset.CharsetEncoderICU: int[] data>":[0],"sdaReg72":[0],"sdaReg13":[1],"sdaReg71":[0],"sdaReg14":[1],"sdaReg70":[0],"sdaReg12":[1],"sdaReg58":[0],"sdaReg57":[0],"sdaReg56":[0],"sdaReg19":[1],"sdaReg55":[0],"sdaReg54":[0],"sdaReg17":[1],"sdaReg53":[0],"sdaReg18":[0],"sdaReg52":[0],"sdaReg15":[1],"sdaReg51":[0],"sdaReg16":[1],"sdaReg50":[0],"1093517456.<java.nio.HeapByteBuffer: int offset>":[0],"1093517456":[0],"sdaReg73":[0],"sdaReg74":[0],"sdaReg76":[0],"1093896280":[0],"1093517424.<java.io.OutputStreamWriter: java.nio.charset.CharsetEncoder encoder>":[0],"sdaReg49":[0],"sdaReg48":[0],"1084215096":[3],"sdaReg45":[0],"sdaReg44":[0],"sdaReg47":[0],"sdaReg43":[0],"sdaReg42":[0],"1095264400":[2],"sdaReg87":[3],"1093516184.<java.nio.charset.CharsetEncoder: int status>":[0],"static.<java.nio.charset.CoderResult: java.nio.charset.CoderResult UNDERFLOW>":[3],"sdaReg89":[3],"sdaReg90":[3],"sdaReg39":[0],"sdaReg38":[0],"sdaReg37":[0],"sdaReg32":[3],"1093516312":[0],"1093516184":[0],"sdaReg31":[3],"1084215096.<java.nio.charset.CoderResult: int type>":[3],"sdaReg36":[0],"sdaReg34":[3],"1093517424.<java.io.OutputStreamWriter: java.nio.ByteBuffer bytes>":[0],"sdaReg9":[1],"sdaReg6":[1],"1083993992":[4],"sdaReg7":[1],"sdaReg4":[2],"static.<libcore.util.EmptyArray: char[] CHAR>":[4],"sdaReg27":[3],"sdaReg29":[1],"sdaReg3":[1],"sdaReg2":[1],"sdaReg1":[1],"sdaReg20":[0],"sdaReg23":[1],"sdaReg22":[0],"sdaReg25":[1],"1093517456.<java.nio.Buffer: int mark>":[0],"1093517456.<java.nio.Buffer: int position>":[0],"sdaReg24":[0]},"colorToColor":{"0":[0, 4, 5],"2":[1],"4":[0, 5],"5":[0]},"colorToLabel":{"0":"this","3":"<java.nio.charset.CoderResult: java.nio.charset.CoderResult UNDERFLOW>","4":"<libcore.util.EmptyArray: char[] CHAR>","6":"return"}}}

Generated Model
	this-><libcore.util.EmptyArray: char[] CHAR>

