Scanning method <android.location.Address: int getMaxAddressLineIndex()>

All seen event types: LoadInstanceRecord, 
Ignored event types: 

JSON Encoded Analysis Data (for visualization):{"heapEdges":[{"step":0,"from":"1093844368","to":"1093844368.<android.location.Address: int mMaxAddressLineIndex>","type":"load","field":"<android.location.Address: int mMaxAddressLineIndex>"}],"parameters":[{"id":"1093844368","name":"this","klass":"android.location.Address"}],"returns":[{"id":"1093844368.<android.location.Address: int mMaxAddressLineIndex>","name":"return","klass":"int"}],"colors":{"heapLocToColor":{"1093844368.<android.location.Address: int mMaxAddressLineIndex>":[0],"1093844368":[0]},"colorToColor":{"0":[1]},"colorToLabel":{"0":"this","1":"return"}}}

Generated Model
	this->return

