Scanning method <java.net.CookieHandler: void setDefault(java.net.CookieHandler)>

All seen event types: StoreStaticRecord, 
Ignored event types: 

JSON Encoded Analysis Data (for visualization):{"heapEdges":[],"parameters":[{"id":"0","name":"arg#0","klass":"java.net.CookieHandler"}],"returns":[{"id":null,"name":"return","klass":null}],"colors":{"heapLocToColor":{"static.<java.net.CookieHandler: java.net.CookieHandler systemWideCookieHandler>":[1],"0":[0]},"colorToColor":{},"colorToLabel":{"0":"arg#0","1":"<java.net.CookieHandler: java.net.CookieHandler systemWideCookieHandler>","2":"return"}}}

Generated Model

