Scanning method <java.io.DataInputStream: java.lang.String readUTF(java.io.DataInput)>

All seen event types: StoreArrayRecord, SimpleAssignmentRecord, MethodStartRecord, LoadInstanceRecord, IfRecord, NewObjectRecord, LoadStaticRecord, NewArrayRecord, BinaryOperationRecord, MethodCallRecord, MethodReturnRecord, CastRecord, LoadArrayRecord, MethodEndRecord, 
Ignored event types: IfRecord, 

JSON Encoded Analysis Data (for visualization):{"heapEdges":[{"step":0,"from":"1093303808","to":"1093604600","type":"load","field":"<java.io.FilterInputStream: java.io.InputStream in>"},{"step":1,"from":"1093303808","to":"1093604672","type":"load","field":"<java.io.DataInputStream: byte[] scratch>"},{"step":2,"from":"1093604600","to":"1093604672","type":"model"},{"step":3,"from":"1093303808","to":"1093604672","type":"load","field":"<java.io.DataInputStream: byte[] scratch>"},{"step":4,"from":"static.<java.nio.ByteOrder: java.nio.ByteOrder BIG_ENDIAN>","to":"1084339448","type":"load","field":"<java.nio.ByteOrder: java.nio.ByteOrder BIG_ENDIAN>"},{"step":5,"from":"1093604672","to":"sdaReg2","type":"model"},{"step":6,"from":"1093303808","to":"1093604600","type":"load","field":"<java.io.FilterInputStream: java.io.InputStream in>"},{"step":7,"from":"1093604600","to":"1093460968","type":"model"},{"step":8,"from":"1093460968","to":"1093460968.arrayIdx_int:0","type":"load","field":"arrayIdx_int:0"},{"step":9,"from":"sdaReg15","to":"1093474608","type":"store","field":"arrayIdx_int:0"},{"step":10,"from":"1093460968","to":"1093460968.arrayIdx_int:1","type":"load","field":"arrayIdx_int:1"},{"step":11,"from":"sdaReg15","to":"1093474608","type":"store","field":"arrayIdx_int:1"},{"step":12,"from":"1093460968","to":"1093460968.arrayIdx_int:2","type":"load","field":"arrayIdx_int:2"},{"step":13,"from":"sdaReg15","to":"1093474608","type":"store","field":"arrayIdx_int:2"},{"step":14,"from":"1093460968","to":"1093460968.arrayIdx_int:3","type":"load","field":"arrayIdx_int:3"},{"step":15,"from":"sdaReg15","to":"1093474608","type":"store","field":"arrayIdx_int:3"},{"step":16,"from":"1093460968","to":"1093460968.arrayIdx_int:4","type":"load","field":"arrayIdx_int:4"},{"step":17,"from":"sdaReg15","to":"1093474608","type":"store","field":"arrayIdx_int:4"},{"step":18,"from":"1093460968","to":"1093460968.arrayIdx_int:5","type":"load","field":"arrayIdx_int:5"},{"step":19,"from":"sdaReg15","to":"1093474608","type":"store","field":"arrayIdx_int:5"},{"step":20,"from":"1093460968","to":"1093460968.arrayIdx_int:6","type":"load","field":"arrayIdx_int:6"},{"step":21,"from":"sdaReg15","to":"1093474608","type":"store","field":"arrayIdx_int:6"},{"step":22,"from":"1093460968","to":"1093460968.arrayIdx_int:7","type":"load","field":"arrayIdx_int:7"},{"step":23,"from":"sdaReg15","to":"1093474608","type":"store","field":"arrayIdx_int:7"},{"step":24,"from":"1093460968","to":"1093460968.arrayIdx_int:8","type":"load","field":"arrayIdx_int:8"},{"step":25,"from":"sdaReg15","to":"1093474608","type":"store","field":"arrayIdx_int:8"},{"step":26,"from":"1093460968","to":"1093460968.arrayIdx_int:9","type":"load","field":"arrayIdx_int:9"},{"step":27,"from":"sdaReg15","to":"1093474608","type":"store","field":"arrayIdx_int:9"},{"step":28,"from":"1093460968","to":"1093460968.arrayIdx_int:10","type":"load","field":"arrayIdx_int:10"},{"step":29,"from":"sdaReg15","to":"1093474608","type":"store","field":"arrayIdx_int:10"},{"step":30,"from":"1093474608","to":"sdaReg16","type":"model"}],"parameters":[{"id":"1093303808","name":"arg#0","klass":"java.io.DataInput"}],"returns":[{"id":"sdaReg16","name":"return","klass":"string"}],"colors":{"heapLocToColor":{"1093303808.<java.io.DataInputStream: byte[] scratch>":[0],"1093604672":[0],"1093474608":[4],"static.<java.nio.ByteOrder: java.nio.ByteOrder BIG_ENDIAN>":[1],"1093460968":[3],"sdaReg15":[3],"sdaReg16":[5],"sdaReg8":[3],"sdaReg9":[4],"sdaReg6":[3],"sdaReg4":[0],"1093604600":[0],"sdaReg5":[0],"1093303808.<java.io.FilterInputStream: java.io.InputStream in>":[0],"1093460968.arrayIdx_int:9":[3],"1093460968.arrayIdx_int:10":[3],"1093460968.arrayIdx_int:8":[3],"1084339448":[1],"1093460968.arrayIdx_int:7":[3],"1093460968.arrayIdx_int:6":[3],"sdaReg3":[2],"1093460968.arrayIdx_int:5":[3],"sdaReg2":[2],"1093303808":[0],"1093460968.arrayIdx_int:4":[3],"sdaReg1":[0],"1093460968.arrayIdx_int:3":[3],"sdaReg0":[0],"1093460968.arrayIdx_int:2":[3],"1093460968.arrayIdx_int:1":[3],"1093460968.arrayIdx_int:0":[3]},"colorToColor":{"0":[0, 2, 3],"3":[4],"4":[5],"5":[6]},"colorToLabel":{"0":"arg#0","1":"<java.nio.ByteOrder: java.nio.ByteOrder BIG_ENDIAN>","6":"return"}}}

Generated Model
	arg#0->return

