Scanning method <java.io.DataOutputStream: void writeUTF(java.lang.String)>

All seen event types: LoadStaticRecord, NewArrayRecord, BinaryOperationRecord, StoreArrayRecord, SimpleAssignmentRecord, MethodReturnRecord, MethodCallRecord, CastRecord, MethodStartRecord, MethodEndRecord, IfRecord, 
Ignored event types: IfRecord, 

JSON Encoded Analysis Data (for visualization):{"heapEdges":[{"step":0,"from":"sdaReg0","to":"sdaReg5","type":"model"},{"step":1,"from":"sdaReg0","to":"sdaReg7","type":"model"},{"step":2,"from":"sdaReg0","to":"sdaReg8","type":"model"},{"step":3,"from":"sdaReg0","to":"sdaReg9","type":"model"},{"step":4,"from":"static.<java.nio.ByteOrder: java.nio.ByteOrder BIG_ENDIAN>","to":"1084339448","type":"load","field":"<java.nio.ByteOrder: java.nio.ByteOrder BIG_ENDIAN>"},{"step":5,"from":"1093346624","to":"sdaReg12","type":"model"},{"step":6,"from":"1093346624","to":"1084339448","type":"model"},{"step":7,"from":"sdaReg12","to":"1093346624","type":"model"},{"step":8,"from":"sdaReg12","to":"1084339448","type":"model"},{"step":9,"from":"1084339448","to":"1093346624","type":"model"},{"step":10,"from":"1084339448","to":"sdaReg12","type":"model"},{"step":11,"from":"sdaReg0","to":"sdaReg17","type":"model"},{"step":12,"from":"sdaReg19","to":"1093346624","type":"store","field":"arrayIdx_int:2"},{"step":13,"from":"sdaReg0","to":"sdaReg20","type":"model"},{"step":14,"from":"sdaReg19","to":"1093346624","type":"store","field":"arrayIdx_int:3"},{"step":15,"from":"sdaReg0","to":"sdaReg21","type":"model"},{"step":16,"from":"sdaReg19","to":"1093346624","type":"store","field":"arrayIdx_int:4"},{"step":17,"from":"sdaReg0","to":"sdaReg22","type":"model"},{"step":18,"from":"sdaReg19","to":"1093346624","type":"store","field":"arrayIdx_int:5"},{"step":19,"from":"1093399728","to":"1093346624","type":"model"},{"step":20,"from":"1093346624","to":"1093399728","type":"model"}],"parameters":[{"id":"1093399728","name":"this","klass":"java.io.DataOutputStream"},{"id":"sdaReg0","name":"arg#1","klass":"string"}],"returns":[{"id":null,"name":"return","klass":null}],"colors":{"heapLocToColor":{"sdaReg8":[1, 5],"sdaReg9":[1, 6],"1093346624":[0, 7],"sdaReg7":[1, 4],"sdaReg5":[1, 3],"sdaReg13":[7],"1093399728":[0],"1084339448":[8],"sdaReg3":[2],"sdaReg21":[1, 12],"sdaReg19":[1, 10, 11, 12, 13],"sdaReg20":[1, 11],"sdaReg0":[1],"sdaReg23":[7],"static.<java.nio.ByteOrder: java.nio.ByteOrder BIG_ENDIAN>":[8],"sdaReg17":[1, 10],"sdaReg22":[1, 13],"sdaReg15":[9]},"colorToColor":{"0":[0],"1":[7],"7":[0, 8],"8":[7],"10":[7],"11":[7],"12":[7],"13":[7]},"colorToLabel":{"0":"this","1":"arg#1","8":"<java.nio.ByteOrder: java.nio.ByteOrder BIG_ENDIAN>","14":"return"}}}

Generated Model
	arg#1->this
	arg#1-><java.nio.ByteOrder: java.nio.ByteOrder BIG_ENDIAN>

