Scanning method <java.io.DataOutputStream: void writeUTF(java.lang.String)>

All seen event types: LoadStaticRecord, NewArrayRecord, BinaryOperationRecord, StoreArrayRecord, SimpleAssignmentRecord, MethodReturnRecord, MethodCallRecord, CastRecord, MethodStartRecord, MethodEndRecord, IfRecord, 
Ignored event types: IfRecord, 

JSON Encoded Analysis Data (for visualization):{"heapEdges":[{"step":0,"from":"sdaReg0","to":"sdaReg5","type":"model"},{"step":1,"from":"sdaReg0","to":"sdaReg7","type":"model"},{"step":2,"from":"sdaReg0","to":"sdaReg8","type":"model"},{"step":3,"from":"sdaReg0","to":"sdaReg9","type":"model"},{"step":4,"from":"sdaReg0","to":"sdaReg10","type":"model"},{"step":5,"from":"sdaReg0","to":"sdaReg11","type":"model"},{"step":6,"from":"sdaReg0","to":"sdaReg12","type":"model"},{"step":7,"from":"static.<java.nio.ByteOrder: java.nio.ByteOrder BIG_ENDIAN>","to":"1084339448","type":"load","field":"<java.nio.ByteOrder: java.nio.ByteOrder BIG_ENDIAN>"},{"step":8,"from":"1093296168","to":"sdaReg15","type":"model"},{"step":9,"from":"1093296168","to":"1084339448","type":"model"},{"step":10,"from":"sdaReg15","to":"1093296168","type":"model"},{"step":11,"from":"sdaReg15","to":"1084339448","type":"model"},{"step":12,"from":"1084339448","to":"1093296168","type":"model"},{"step":13,"from":"1084339448","to":"sdaReg15","type":"model"},{"step":14,"from":"sdaReg0","to":"sdaReg20","type":"model"},{"step":15,"from":"sdaReg22","to":"1093296168","type":"store","field":"arrayIdx_int:2"},{"step":16,"from":"sdaReg0","to":"sdaReg23","type":"model"},{"step":17,"from":"sdaReg22","to":"1093296168","type":"store","field":"arrayIdx_int:3"},{"step":18,"from":"sdaReg0","to":"sdaReg24","type":"model"},{"step":19,"from":"sdaReg22","to":"1093296168","type":"store","field":"arrayIdx_int:4"},{"step":20,"from":"sdaReg0","to":"sdaReg25","type":"model"},{"step":21,"from":"sdaReg22","to":"1093296168","type":"store","field":"arrayIdx_int:5"},{"step":22,"from":"sdaReg0","to":"sdaReg26","type":"model"},{"step":23,"from":"sdaReg22","to":"1093296168","type":"store","field":"arrayIdx_int:6"},{"step":24,"from":"sdaReg0","to":"sdaReg27","type":"model"},{"step":25,"from":"sdaReg22","to":"1093296168","type":"store","field":"arrayIdx_int:7"},{"step":26,"from":"sdaReg0","to":"sdaReg28","type":"model"},{"step":27,"from":"sdaReg22","to":"1093296168","type":"store","field":"arrayIdx_int:8"},{"step":28,"from":"1093485888","to":"1093296168","type":"model"},{"step":29,"from":"1093296168","to":"1093485888","type":"model"}],"parameters":[{"id":"1093485888","name":"this","klass":"java.io.DataOutputStream"},{"id":"sdaReg0","name":"arg#1","klass":"string"}],"returns":[{"id":null,"name":"return","klass":null}],"colors":{"heapLocToColor":{"sdaReg8":[1, 5],"sdaReg9":[1, 6],"sdaReg7":[1, 4],"1093296168":[0, 10],"sdaReg5":[1, 3],"sdaReg27":[1, 18],"sdaReg26":[17, 1],"sdaReg29":[10],"sdaReg11":[1, 8],"sdaReg28":[1, 19],"sdaReg12":[1, 9],"sdaReg10":[1, 7],"1084339448":[11],"sdaReg3":[2],"sdaReg20":[1, 13],"1093485888":[0],"sdaReg0":[1],"sdaReg23":[1, 14],"static.<java.nio.ByteOrder: java.nio.ByteOrder BIG_ENDIAN>":[11],"sdaReg22":[17, 16, 1, 19, 18, 13, 14, 15],"sdaReg18":[12],"sdaReg25":[1, 16],"sdaReg24":[1, 15],"sdaReg16":[10]},"colorToColor":{"0":[0],"17":[10],"16":[10],"1":[10],"19":[10],"18":[10],"10":[0, 11],"11":[10],"13":[10],"14":[10],"15":[10]},"colorToLabel":{"0":"this","1":"arg#1","11":"<java.nio.ByteOrder: java.nio.ByteOrder BIG_ENDIAN>","20":"return"}}}

Generated Model
	arg#1->this
	arg#1-><java.nio.ByteOrder: java.nio.ByteOrder BIG_ENDIAN>

