Scanning method <java.io.ObjectInputStream: java.lang.Class resolveClass(java.io.ObjectStreamClass)>

All seen event types: MethodReturnRecord, MethodCallRecord, IfRecord, 
Ignored event types: IfRecord, 

JSON Encoded Analysis Data (for visualization):{"heapEdges":[{"step":0,"from":"1093283136","to":"1093660336","type":"model"}],"parameters":[{"id":"1093619504","name":"this","klass":"java.io.ObjectInputStream"},{"id":"1093283136","name":"arg#1","klass":"java.io.ObjectStreamClass"}],"returns":[{"id":"1093660336","name":"return","klass":"com.android.cts.droidrecord.modelgen.ObjectInputStreamTest$TestExtObject.class"}],"colors":{"heapLocToColor":{"1093283136":[1],"1093660336":[1, 2],"1093619504":[0],"sdaReg0":[1, 2]},"colorToColor":{"1":[3],"2":[3]},"colorToLabel":{"0":"this","1":"arg#1","3":"return"}}}

Generated Model
	arg#1->return

