Scanning method <java.util.HashMap$KeyIterator: java.lang.Object next()>

All seen event types: BinaryOperationRecord, MethodReturnRecord, MethodCallRecord, ArrayLengthRecord, LoadInstanceRecord, MethodStartRecord, LoadArrayRecord, MethodEndRecord, IfRecord, StoreInstanceRecord, 
Ignored event types: IfRecord, 

JSON Encoded Analysis Data (for visualization):{"heapEdges":[{"step":0,"from":"1093631088","to":"1093552176","type":"load","field":"<java.util.HashMap$HashIterator: java.util.HashMap this$0>"},{"step":1,"from":"1093552176","to":"1093552176.<java.util.HashMap: int modCount>","type":"load","field":"<java.util.HashMap: int modCount>"},{"step":2,"from":"1093631088","to":"1093631088.<java.util.HashMap$HashIterator: int expectedModCount>","type":"load","field":"<java.util.HashMap$HashIterator: int expectedModCount>"},{"step":3,"from":"1093631088","to":"1093609528","type":"load","field":"<java.util.HashMap$HashIterator: java.util.HashMap$HashMapEntry nextEntry>"},{"step":4,"from":"1093631088","to":"1093609528","type":"load","field":"<java.util.HashMap$HashIterator: java.util.HashMap$HashMapEntry nextEntry>"},{"step":5,"from":"1093631088","to":"1093552176","type":"load","field":"<java.util.HashMap$HashIterator: java.util.HashMap this$0>"},{"step":6,"from":"1093552176","to":"1093559368","type":"load","field":"<java.util.HashMap: java.util.HashMap$HashMapEntry[] table>"},{"step":7,"from":"1093631088","to":"1093631088.<java.util.HashMap$HashIterator: int nextIndex>","type":"load","field":"<java.util.HashMap$HashIterator: int nextIndex>"},{"step":8,"from":"1093631088","to":"1093631088.<java.util.HashMap$HashIterator: int nextIndex>","type":"load","field":"<java.util.HashMap$HashIterator: int nextIndex>"},{"step":9,"from":"sdaReg2","to":"1093631088","type":"store","field":"<java.util.HashMap$HashIterator: int nextIndex>"},{"step":10,"from":"1093559368","to":"1093559408","type":"load","field":"arrayIdx_int:1"},{"step":11,"from":"1093559408","to":"1093631088","type":"store","field":"<java.util.HashMap$HashIterator: java.util.HashMap$HashMapEntry nextEntry>"},{"step":12,"from":"1093609528","to":"1093631088","type":"store","field":"<java.util.HashMap$HashIterator: java.util.HashMap$HashMapEntry lastEntryReturned>"},{"step":13,"from":"1093609528","to":"1093609408","type":"load","field":"<java.util.HashMap$HashMapEntry: java.lang.Object key>"}],"parameters":[{"id":"1093631088","name":"this","klass":"java.util.HashMap$KeyIterator"}],"returns":[{"id":"1093609408","name":"return","klass":"java.lang.Object"}],"colors":{"heapLocToColor":{"1093609408":[0],"1093552176.<java.util.HashMap: int modCount>":[0],"1093552176":[0],"1093631088.<java.util.HashMap$HashIterator: java.util.HashMap$HashMapEntry nextEntry>":[0],"1093559368":[0],"1093631088.<java.util.HashMap$HashIterator: int nextIndex>":[0],"1093631088.<java.util.HashMap$HashIterator: int expectedModCount>":[0],"1093631088.<java.util.HashMap$HashIterator: java.util.HashMap this$0>":[0],"1093631088":[0],"sdaReg3":[0],"sdaReg2":[0],"sdaReg0":[0],"1093609528":[0],"1093559408":[0]},"colorToColor":{"0":[0, 1]},"colorToLabel":{"0":"this","1":"return"}}}

Generated Model
	this->return

