Scanning method <java.util.HashMap$KeyIterator: java.lang.Object next()>

All seen event types: BinaryOperationRecord, MethodReturnRecord, MethodCallRecord, ArrayLengthRecord, LoadInstanceRecord, MethodStartRecord, LoadArrayRecord, MethodEndRecord, IfRecord, StoreInstanceRecord, 
Ignored event types: IfRecord, 

JSON Encoded Analysis Data (for visualization):{"heapEdges":[{"step":0,"from":"1094205360","to":"1094039048","type":"load","field":"<java.util.HashMap$HashIterator: java.util.HashMap this$0>"},{"step":1,"from":"1094039048","to":"1094039048.<java.util.HashMap: int modCount>","type":"load","field":"<java.util.HashMap: int modCount>"},{"step":2,"from":"1094205360","to":"1094205360.<java.util.HashMap$HashIterator: int expectedModCount>","type":"load","field":"<java.util.HashMap$HashIterator: int expectedModCount>"},{"step":3,"from":"1094205360","to":"1094039272","type":"load","field":"<java.util.HashMap$HashIterator: java.util.HashMap$HashMapEntry nextEntry>"},{"step":4,"from":"1094205360","to":"1094039272","type":"load","field":"<java.util.HashMap$HashIterator: java.util.HashMap$HashMapEntry nextEntry>"},{"step":5,"from":"1094205360","to":"1094039048","type":"load","field":"<java.util.HashMap$HashIterator: java.util.HashMap this$0>"},{"step":6,"from":"1094039048","to":"1094039232","type":"load","field":"<java.util.HashMap: java.util.HashMap$HashMapEntry[] table>"},{"step":7,"from":"1094205360","to":"1094205360.<java.util.HashMap$HashIterator: int nextIndex>","type":"load","field":"<java.util.HashMap$HashIterator: int nextIndex>"},{"step":8,"from":"1094205360","to":"1094205360.<java.util.HashMap$HashIterator: int nextIndex>","type":"load","field":"<java.util.HashMap$HashIterator: int nextIndex>"},{"step":9,"from":"sdaReg2","to":"1094205360","type":"store","field":"<java.util.HashMap$HashIterator: int nextIndex>"},{"step":10,"from":"1094039232","to":"1094039400","type":"load","field":"arrayIdx_int:1"},{"step":11,"from":"1094039400","to":"1094205360","type":"store","field":"<java.util.HashMap$HashIterator: java.util.HashMap$HashMapEntry nextEntry>"},{"step":12,"from":"1094039272","to":"1094205360","type":"store","field":"<java.util.HashMap$HashIterator: java.util.HashMap$HashMapEntry lastEntryReturned>"},{"step":13,"from":"1094039272","to":"1094039136","type":"load","field":"<java.util.HashMap$HashMapEntry: java.lang.Object key>"}],"parameters":[{"id":"1094205360","name":"this","klass":"java.util.HashMap$KeyIterator"}],"returns":[{"id":"1094039136","name":"return","klass":"java.lang.Object"}],"colors":{"heapLocToColor":{"1094039400":[0],"1094205360.<java.util.HashMap$HashIterator: java.util.HashMap$HashMapEntry nextEntry>":[0],"1094039048":[0],"1094205360.<java.util.HashMap$HashIterator: int nextIndex>":[0],"1094205360.<java.util.HashMap$HashIterator: int expectedModCount>":[0],"1094039136":[0],"1094039232":[0],"1094205360":[0],"1094039272":[0],"sdaReg3":[0],"sdaReg2":[0],"sdaReg0":[0],"1094205360.<java.util.HashMap$HashIterator: java.util.HashMap this$0>":[0],"1094039048.<java.util.HashMap: int modCount>":[0]},"colorToColor":{"0":[0, 1]},"colorToLabel":{"0":"this","1":"return"}}}

Generated Model
	this->return

