Scanning method <java.util.HashMap$KeyIterator: java.lang.Object next()>

All seen event types: MethodReturnRecord, MethodCallRecord, ArrayLengthRecord, LoadInstanceRecord, MethodStartRecord, MethodEndRecord, IfRecord, StoreInstanceRecord, 
Ignored event types: IfRecord, 

JSON Encoded Analysis Data (for visualization):{"heapEdges":[{"step":0,"from":"1093651432","to":"1093572488","type":"load","field":"<java.util.HashMap$HashIterator: java.util.HashMap this$0>"},{"step":1,"from":"1093572488","to":"1093572488.<java.util.HashMap: int modCount>","type":"load","field":"<java.util.HashMap: int modCount>"},{"step":2,"from":"1093651432","to":"1093651432.<java.util.HashMap$HashIterator: int expectedModCount>","type":"load","field":"<java.util.HashMap$HashIterator: int expectedModCount>"},{"step":3,"from":"1093651432","to":"1093579720","type":"load","field":"<java.util.HashMap$HashIterator: java.util.HashMap$HashMapEntry nextEntry>"},{"step":4,"from":"1093651432","to":"1093579720","type":"load","field":"<java.util.HashMap$HashIterator: java.util.HashMap$HashMapEntry nextEntry>"},{"step":5,"from":"1093651432","to":"1093572488","type":"load","field":"<java.util.HashMap$HashIterator: java.util.HashMap this$0>"},{"step":6,"from":"1093572488","to":"1093579680","type":"load","field":"<java.util.HashMap: java.util.HashMap$HashMapEntry[] table>"},{"step":7,"from":"1093651432","to":"1093651432.<java.util.HashMap$HashIterator: int nextIndex>","type":"load","field":"<java.util.HashMap$HashIterator: int nextIndex>"},{"step":8,"from":"1093579720","to":"1093651432","type":"store","field":"<java.util.HashMap$HashIterator: java.util.HashMap$HashMapEntry lastEntryReturned>"},{"step":9,"from":"1093579720","to":"1093579264","type":"load","field":"<java.util.HashMap$HashMapEntry: java.lang.Object key>"}],"parameters":[{"id":"1093651432","name":"this","klass":"java.util.HashMap$KeyIterator"}],"returns":[{"id":"1093579264","name":"return","klass":"java.lang.Object"}],"colors":{"heapLocToColor":{"1093579680":[0],"1093572488.<java.util.HashMap: int modCount>":[0],"1093572488":[0],"1093651432.<java.util.HashMap$HashIterator: java.util.HashMap$HashMapEntry nextEntry>":[0],"sdaReg2":[0],"1093651432.<java.util.HashMap$HashIterator: int nextIndex>":[0],"1093651432.<java.util.HashMap$HashIterator: java.util.HashMap this$0>":[0],"1093651432.<java.util.HashMap$HashIterator: int expectedModCount>":[0],"sdaReg0":[0],"1093579720":[0],"1093651432":[0],"1093579264":[0]},"colorToColor":{"0":[0, 1]},"colorToLabel":{"0":"this","1":"return"}}}

Generated Model
	this->return

