Scanning method <java.util.Collections: boolean addAll(java.util.Collection,java.lang.Object[])>

All seen event types: BinaryOperationRecord, StoreArrayRecord, SimpleAssignmentRecord, MethodReturnRecord, MethodCallRecord, LoadInstanceRecord, MethodStartRecord, ArrayLengthRecord, LoadArrayRecord, MethodEndRecord, IfRecord, StoreInstanceRecord, 
Ignored event types: IfRecord, 

JSON Encoded Analysis Data (for visualization):{"heapEdges":[{"step":0,"from":"1093642776","to":"1093598528","type":"load","field":"arrayIdx_int:0"},{"step":1,"from":"1093642800","to":"1093642824","type":"load","field":"<java.util.ArrayList: java.lang.Object[] array>"},{"step":2,"from":"1093642800","to":"1093642800.<java.util.ArrayList: int size>","type":"load","field":"<java.util.ArrayList: int size>"},{"step":3,"from":"1093598528","to":"1093642824","type":"store","field":"arrayIdx_int:0"},{"step":4,"from":"sdaReg6","to":"1093642800","type":"store","field":"<java.util.ArrayList: int size>"},{"step":5,"from":"1093642800","to":"1093642800.<java.util.AbstractList: int modCount>","type":"load","field":"<java.util.AbstractList: int modCount>"},{"step":6,"from":"sdaReg7","to":"1093642800","type":"store","field":"<java.util.AbstractList: int modCount>"}],"parameters":[{"id":"1093642800","name":"arg#0","klass":"java.util.Collection"},{"id":"1093642776","name":"arg#1","klass":"java.lang.Object[]"}],"returns":[{"id":"sdaReg0","name":"return","klass":"boolean"}],"colors":{"heapLocToColor":{"1093642800.<java.util.ArrayList: int size>":[0],"1093598528":[1],"1093642824":[0],"sdaReg6":[0],"sdaReg7":[0],"1093642800":[0],"sdaReg4":[1],"sdaReg3":[0],"1093642776":[1],"1093642800.<java.util.AbstractList: int modCount>":[0]},"colorToColor":{"0":[0],"1":[0]},"colorToLabel":{"0":"arg#0","1":"arg#1","2":"return"}}}

Generated Model
	arg#1->arg#0

