Scanning method <java.io.StringWriter: java.io.StringWriter append(java.lang.CharSequence,int,int)>

All seen event types: BinaryOperationRecord, MethodReturnRecord, MethodCallRecord, LoadInstanceRecord, MethodStartRecord, MethodEndRecord, IfRecord, 
Ignored event types: IfRecord, 

JSON Encoded Analysis Data (for visualization):{"heapEdges":[{"step":0,"from":"1093634608","to":"1093634840","type":"model"},{"step":1,"from":"1093634840","to":"sdaReg3","type":"model"},{"step":2,"from":"sdaReg3","to":"sdaReg8","type":"model"},{"step":3,"from":"1093634688","to":"1093634712","type":"load","field":"<java.io.StringWriter: java.lang.StringBuffer buf>"},{"step":4,"from":"sdaReg8","to":"1093634712","type":"model"}],"parameters":[{"id":"1093634688","name":"this","klass":"java.io.StringWriter"},{"id":"1093634608","name":"arg#1","klass":"java.lang.CharSequence"},{"id":"sdaReg0","name":"arg#2","klass":"int"},{"id":"sdaReg1","name":"arg#3","klass":"int"}],"returns":[{"id":"1093634688","name":"return","klass":"java.io.StringWriter"}],"colors":{"heapLocToColor":{"sdaReg8":[1, 4, 5, 7],"1093634688":[0],"1093634608":[1],"sdaReg7":[6],"sdaReg4":[6],"sdaReg5":[0],"1093634712":[0],"sdaReg3":[1, 4, 5],"sdaReg2":[1, 4],"sdaReg1":[3],"sdaReg0":[2],"1093634840":[1, 4]},"colorToColor":{"0":[8],"1":[0],"4":[0],"5":[0],"7":[0]},"colorToLabel":{"0":"this","1":"arg#1","2":"arg#2","3":"arg#3","8":"return"}}}

Generated Model
	this->return
	arg#1->this
	arg#1->return

