Scanning method <java.net.InetAddress: void <init>(int,byte[],java.lang.String)>

All seen event types: MethodReturnRecord, MethodCallRecord, StoreInstanceRecord, 
Ignored event types: 

JSON Encoded Analysis Data (for visualization):{"heapEdges":[{"step":0,"from":"sdaReg0","to":"1093661304","type":"store","field":"<java.net.InetAddress: int family>"},{"step":1,"from":"1093661328","to":"1093661304","type":"store","field":"<java.net.InetAddress: byte[] ipaddress>"},{"step":2,"from":"sdaReg1","to":"1093661304","type":"store","field":"<java.net.InetAddress: java.lang.String hostName>"}],"parameters":[{"id":"1093661304","name":"this","klass":"java.net.InetAddress"},{"id":"sdaReg0","name":"arg#1","klass":"int"},{"id":"1093661328","name":"arg#2","klass":"byte[]"},{"id":"sdaReg1","name":"arg#3","klass":"string"}],"returns":[{"id":"1093661304","name":"return","klass":"java.net.InetAddress"}],"colors":{"heapLocToColor":{"1093661328":[2],"sdaReg2":[0],"sdaReg1":[3],"1093661304":[0],"sdaReg0":[1]},"colorToColor":{"0":[4],"1":[0],"2":[0],"3":[0]},"colorToLabel":{"0":"this","1":"arg#1","2":"arg#2","3":"arg#3","4":"return"}}}

Generated Model
	this->return
	arg#3->this
	arg#3->return
	arg#2->this
	arg#2->return
	arg#1->this
	arg#1->return

