Scanning method <java.util.HashMap$HashMapEntry: java.lang.Object getValue()>

All seen event types: LoadInstanceRecord, 
Ignored event types: 

JSON Encoded Analysis Data (for visualization):{"heapEdges":[{"step":0,"from":"1093557120","to":"1093636128","type":"load","field":"<java.util.HashMap$HashMapEntry: java.lang.Object value>"}],"parameters":[{"id":"1093557120","name":"this","klass":"java.util.HashMap$HashMapEntry"}],"returns":[{"id":"1093636128","name":"return","klass":"java.lang.Object"}],"colors":{"heapLocToColor":{"1093557120":[0],"1093636128":[0]},"colorToColor":{"0":[1]},"colorToLabel":{"0":"this","1":"return"}}}

Generated Model
	this->return

