Scanning method <android.util.Base64: byte[] decode(java.lang.String,int)>

All seen event types: StoreArrayRecord, SimpleAssignmentRecord, MethodStartRecord, LoadInstanceRecord, IfRecord, NewObjectRecord, StoreInstanceRecord, NewArrayRecord, LoadStaticRecord, BinaryOperationRecord, SwitchRecord, MethodCallRecord, MethodReturnRecord, CastRecord, ArrayLengthRecord, LoadArrayRecord, MethodEndRecord, 
Ignored event types: SwitchRecord, IfRecord, 

JSON Encoded Analysis Data (for visualization):{"heapEdges":[{"step":0,"from":"sdaReg0","to":"1093454544","type":"model"},{"step":1,"from":"1093932832","to":"1093951728","type":"create","field":"<android.util.Base64$Coder: byte[] output>"},{"step":2,"from":"static.<android.util.Base64$Decoder: int[] DECODE_WEBSAFE>","to":"1093755832","type":"load","field":"<android.util.Base64$Decoder: int[] DECODE_WEBSAFE>"},{"step":3,"from":"1093755832","to":"1093932832","type":"store","field":"<android.util.Base64$Decoder: int[] alphabet>"},{"step":4,"from":"1093932832","to":"sdaReg15","type":"create","field":"<android.util.Base64$Decoder: int state>"},{"step":5,"from":"1093932832","to":"sdaReg16","type":"create","field":"<android.util.Base64$Decoder: int value>"},{"step":6,"from":"1093454544","to":"1093454544.arrayIdx_int:0","type":"load","field":"arrayIdx_int:0"},{"step":7,"from":"1093755832","to":"1093755832.arrayIdx_int:95","type":"load","field":"arrayIdx_int:95"},{"step":8,"from":"1093454544","to":"1093454544.arrayIdx_int:1","type":"load","field":"arrayIdx_int:1"},{"step":9,"from":"1093755832","to":"1093755832.arrayIdx_int:45","type":"load","field":"arrayIdx_int:45"},{"step":10,"from":"1093454544","to":"1093454544.arrayIdx_int:2","type":"load","field":"arrayIdx_int:2"},{"step":11,"from":"1093755832","to":"1093755832.arrayIdx_int:55","type":"load","field":"arrayIdx_int:55"},{"step":12,"from":"1093454544","to":"1093454544.arrayIdx_int:3","type":"load","field":"arrayIdx_int:3"},{"step":13,"from":"1093755832","to":"1093755832.arrayIdx_int:100","type":"load","field":"arrayIdx_int:100"},{"step":14,"from":"sdaReg41","to":"1093951728","type":"store","field":"arrayIdx_int:2"},{"step":15,"from":"sdaReg44","to":"1093951728","type":"store","field":"arrayIdx_int:1"},{"step":16,"from":"sdaReg46","to":"1093951728","type":"store","field":"arrayIdx_int:0"},{"step":17,"from":"sdaReg47","to":"1093932832","type":"store","field":"<android.util.Base64$Decoder: int state>"},{"step":18,"from":"sdaReg24","to":"1093932832","type":"store","field":"<android.util.Base64$Coder: int op>"}],"parameters":[{"id":"sdaReg0","name":"arg#0","klass":"string"},{"id":"sdaReg1","name":"arg#1","klass":"int"}],"returns":[{"id":"1093951728","name":"return","klass":"byte[]"}],"colors":{"heapLocToColor":{"1093454544.arrayIdx_int:3":[0, 2],"1093755832.arrayIdx_int:55":[5],"sdaReg13":[3],"sdaReg39":[5],"sdaReg14":[1],"sdaReg38":[5],"sdaReg11":[3],"sdaReg37":[0, 2],"sdaReg12":[3],"sdaReg10":[4],"1093755832":[5],"sdaReg31":[5],"sdaReg30":[5],"sdaReg19":[3],"sdaReg17":[3],"sdaReg35":[5],"sdaReg18":[3],"1093755832.arrayIdx_int:95":[5],"sdaReg34":[5],"sdaReg51":[4],"sdaReg33":[0, 2],"1093755832.arrayIdx_int:100":[5],"sdaReg50":[4],"sdaReg9":[3],"1093755832.arrayIdx_int:45":[5],"1093951728":[4],"sdaReg5":[0, 2],"sdaReg27":[5],"1093932832":[3],"sdaReg26":[0, 2],"sdaReg29":[0, 2],"sdaReg45":[5],"sdaReg3":[0, 2],"1093454544.arrayIdx_int:0":[0, 2],"sdaReg44":[5],"sdaReg2":[0, 2],"1093454544.arrayIdx_int:2":[0, 2],"sdaReg1":[1],"static.<android.util.Base64$Decoder: int[] DECODE_WEBSAFE>":[5],"sdaReg46":[5],"sdaReg0":[0],"sdaReg20":[0, 2],"1093454544.arrayIdx_int:1":[0, 2],"sdaReg41":[5],"1093454544":[0, 2],"sdaReg43":[5]},"colorToColor":{"4":[3, 6],"5":[3, 4]},"colorToLabel":{"0":"arg#0","1":"arg#1","5":"<android.util.Base64$Decoder: int[] DECODE_WEBSAFE>","6":"return"}}}

Generated Model

