Scanning method <android.util.Base64: byte[] decode(java.lang.String,int)>

All seen event types: StoreArrayRecord, SimpleAssignmentRecord, MethodStartRecord, LoadInstanceRecord, IfRecord, NewObjectRecord, StoreInstanceRecord, NewArrayRecord, LoadStaticRecord, BinaryOperationRecord, SwitchRecord, MethodCallRecord, MethodReturnRecord, CastRecord, ArrayLengthRecord, LoadArrayRecord, MethodEndRecord, 
Ignored event types: SwitchRecord, IfRecord, 

JSON Encoded Analysis Data (for visualization):{"heapEdges":[{"step":0,"from":"sdaReg0","to":"1093724456","type":"model"},{"step":1,"from":"1093472496","to":"1093724760","type":"create","field":"<android.util.Base64$Coder: byte[] output>"},{"step":2,"from":"static.<android.util.Base64$Decoder: int[] DECODE>","to":"1094029720","type":"load","field":"<android.util.Base64$Decoder: int[] DECODE>"},{"step":3,"from":"1094029720","to":"1093472496","type":"store","field":"<android.util.Base64$Decoder: int[] alphabet>"},{"step":4,"from":"1093472496","to":"sdaReg15","type":"create","field":"<android.util.Base64$Decoder: int state>"},{"step":5,"from":"1093472496","to":"sdaReg16","type":"create","field":"<android.util.Base64$Decoder: int value>"},{"step":6,"from":"1093724456","to":"1093724456.arrayIdx_int:0","type":"load","field":"arrayIdx_int:0"},{"step":7,"from":"1094029720","to":"1094029720.arrayIdx_int:89","type":"load","field":"arrayIdx_int:89"},{"step":8,"from":"1093724456","to":"1093724456.arrayIdx_int:1","type":"load","field":"arrayIdx_int:1"},{"step":9,"from":"1094029720","to":"1094029720.arrayIdx_int:81","type":"load","field":"arrayIdx_int:81"},{"step":10,"from":"1093724456","to":"1093724456.arrayIdx_int:2","type":"load","field":"arrayIdx_int:2"},{"step":11,"from":"1094029720","to":"1094029720.arrayIdx_int:61","type":"load","field":"arrayIdx_int:61"},{"step":12,"from":"1093724456","to":"1093724456.arrayIdx_int:3","type":"load","field":"arrayIdx_int:3"},{"step":13,"from":"1094029720","to":"1094029720.arrayIdx_int:61","type":"load","field":"arrayIdx_int:61"},{"step":14,"from":"1093724456","to":"1093724456.arrayIdx_int:0","type":"load","field":"arrayIdx_int:0"},{"step":15,"from":"1094029720","to":"1094029720.arrayIdx_int:89","type":"load","field":"arrayIdx_int:89"},{"step":16,"from":"1093724456","to":"1093724456.arrayIdx_int:1","type":"load","field":"arrayIdx_int:1"},{"step":17,"from":"1094029720","to":"1094029720.arrayIdx_int:81","type":"load","field":"arrayIdx_int:81"},{"step":18,"from":"1093724456","to":"1093724456.arrayIdx_int:2","type":"load","field":"arrayIdx_int:2"},{"step":19,"from":"1094029720","to":"1094029720.arrayIdx_int:61","type":"load","field":"arrayIdx_int:61"},{"step":20,"from":"sdaReg46","to":"1093724760","type":"store","field":"arrayIdx_int:0"},{"step":21,"from":"1093724456","to":"1093724456.arrayIdx_int:3","type":"load","field":"arrayIdx_int:3"},{"step":22,"from":"1094029720","to":"1094029720.arrayIdx_int:61","type":"load","field":"arrayIdx_int:61"},{"step":23,"from":"sdaReg42","to":"1093472496","type":"store","field":"<android.util.Base64$Decoder: int state>"},{"step":24,"from":"sdaReg24","to":"1093472496","type":"store","field":"<android.util.Base64$Coder: int op>"},{"step":25,"from":"1093724760","to":"1093572792","type":"model"}],"parameters":[{"id":"sdaReg0","name":"arg#0","klass":"string"},{"id":"sdaReg1","name":"arg#1","klass":"int"}],"returns":[{"id":"1093572792","name":"return","klass":"byte[]"}],"colors":{"heapLocToColor":{"1094029720.arrayIdx_int:89":[5],"1093472496":[3],"1094029720":[5],"sdaReg13":[3],"sdaReg39":[5],"sdaReg14":[1],"sdaReg38":[5],"sdaReg11":[3],"sdaReg37":[0, 2],"sdaReg12":[3],"sdaReg10":[4],"sdaReg31":[5],"1094029720.arrayIdx_int:81":[5],"1093572792":[6],"sdaReg30":[5],"sdaReg19":[3],"1093724456":[0, 2],"sdaReg17":[3],"sdaReg35":[5],"sdaReg18":[3],"sdaReg34":[5],"1094029720.arrayIdx_int:61":[5],"sdaReg33":[0, 2],"sdaReg50":[6],"sdaReg9":[3],"sdaReg5":[0, 2],"static.<android.util.Base64$Decoder: int[] DECODE>":[5],"sdaReg27":[5],"sdaReg26":[0, 2],"sdaReg29":[0, 2],"1093724456.arrayIdx_int:0":[0, 2],"sdaReg49":[6],"1093724456.arrayIdx_int:1":[0, 2],"1093724456.arrayIdx_int:2":[0, 2],"1093724456.arrayIdx_int:3":[0, 2],"sdaReg45":[5],"sdaReg3":[0, 2],"1093724760":[4],"sdaReg2":[0, 2],"sdaReg1":[1],"sdaReg46":[5],"sdaReg0":[0],"sdaReg20":[0, 2],"sdaReg41":[0, 2],"sdaReg43":[5]},"colorToColor":{"4":[3, 6],"5":[3, 4],"6":[7]},"colorToLabel":{"0":"arg#0","1":"arg#1","5":"<android.util.Base64$Decoder: int[] DECODE>","7":"return"}}}

Generated Model

