Scanning method <java.io.ObjectInputStream: byte[] readBlockData()>

All seen event types: NewArrayRecord, BinaryOperationRecord, MethodReturnRecord, MethodCallRecord, ArrayLengthRecord, CastRecord, MethodStartRecord, LoadInstanceRecord, LoadArrayRecord, MethodEndRecord, IfRecord, StoreInstanceRecord, 
Ignored event types: IfRecord, 

JSON Encoded Analysis Data (for visualization):{"heapEdges":[{"step":0,"from":"1093289048","to":"1093289368","type":"load","field":"<java.io.ObjectInputStream: java.io.DataInputStream input>"},{"step":1,"from":"1093289368","to":"1093289216","type":"load","field":"<java.io.FilterInputStream: java.io.InputStream in>"},{"step":2,"from":"1093289216","to":"1093289216.<java.io.ByteArrayInputStream: int pos>","type":"load","field":"<java.io.ByteArrayInputStream: int pos>"},{"step":3,"from":"1093289216","to":"1093289216.<java.io.ByteArrayInputStream: int count>","type":"load","field":"<java.io.ByteArrayInputStream: int count>"},{"step":4,"from":"1093289216","to":"1093289248","type":"load","field":"<java.io.ByteArrayInputStream: byte[] buf>"},{"step":5,"from":"1093289216","to":"1093289216.<java.io.ByteArrayInputStream: int pos>","type":"load","field":"<java.io.ByteArrayInputStream: int pos>"},{"step":6,"from":"sdaReg2","to":"1093289216","type":"store","field":"<java.io.ByteArrayInputStream: int pos>"},{"step":7,"from":"1093289248","to":"1093289248.arrayIdx_int:5","type":"load","field":"arrayIdx_int:5"},{"step":8,"from":"1093289048","to":"1093289368","type":"load","field":"<java.io.ObjectInputStream: java.io.DataInputStream input>"},{"step":9,"from":"1093289368","to":"1093289216","type":"load","field":"<java.io.FilterInputStream: java.io.InputStream in>"},{"step":10,"from":"1093289216","to":"1093377632","type":"model"}],"parameters":[{"id":"1093289048","name":"this","klass":"java.io.ObjectInputStream"}],"returns":[{"id":"1093377632","name":"return","klass":"byte[]"}],"colors":{"heapLocToColor":{"1093289248":[0],"sdaReg9":[0],"1093289248.arrayIdx_int:5":[0],"sdaReg6":[0],"sdaReg7":[1],"sdaReg4":[0],"sdaReg5":[0],"1093289216.<java.io.ByteArrayInputStream: int count>":[0],"1093377632":[1],"1093289368":[0],"sdaReg10":[1],"1093289048.<java.io.ObjectInputStream: java.io.DataInputStream input>":[0],"1093289216.<java.io.ByteArrayInputStream: int pos>":[0],"sdaReg3":[0],"1093289368.<java.io.FilterInputStream: java.io.InputStream in>":[0],"1093289216":[0],"sdaReg2":[0],"sdaReg1":[0],"sdaReg0":[0],"1093289048":[0]},"colorToColor":{"0":[0, 1],"1":[2]},"colorToLabel":{"0":"this","2":"return"}}}

Generated Model
	this->return

