Scanning method <java.util.Formatter: java.util.Formatter format(java.util.Locale,java.lang.String,java.lang.Object[])>

All seen event types: SimpleAssignmentRecord, ExitMonitorRecord, LoadInstanceRecord, MethodStartRecord, IfRecord, InstanceOfRecord, NewObjectRecord, StoreInstanceRecord, LoadStaticRecord, BinaryOperationRecord, SwitchRecord, MethodCallRecord, MethodReturnRecord, EnterMonitorRecord, CastRecord, ArrayLengthRecord, LoadArrayRecord, MethodEndRecord, 
Ignored event types: SwitchRecord, ExitMonitorRecord, EnterMonitorRecord, IfRecord, 

JSON Encoded Analysis Data (for visualization):{"heapEdges":[{"step":0,"from":"1093290992","to":"1093267832","type":"load","field":"<java.util.Formatter: java.util.Locale locale>"},{"step":1,"from":"1093267832","to":"1093290992","type":"store","field":"<java.util.Formatter: java.util.Locale locale>"},{"step":2,"from":"1093267832","to":"1093267832.<java.util.Locale: java.lang.String cachedToStringResult>","type":"load","field":"<java.util.Locale: java.lang.String cachedToStringResult>"},{"step":3,"from":"static.<libcore.icu.LocaleData: java.util.HashMap localeDataCache>","to":"1085803528","type":"load","field":"<libcore.icu.LocaleData: java.util.HashMap localeDataCache>"},{"step":4,"from":"static.<libcore.icu.LocaleData: java.util.HashMap localeDataCache>","to":"1085803528","type":"load","field":"<libcore.icu.LocaleData: java.util.HashMap localeDataCache>"},{"step":5,"from":"1085803528","to":"1085760672","type":"load","field":"<java.util.HashMap: java.util.HashMap$HashMapEntry[] table>"},{"step":6,"from":"1085760672","to":"1085767472","type":"load","field":"arrayIdx_int:0"},{"step":7,"from":"1085767472","to":"1085760768","type":"load","field":"<java.util.HashMap$HashMapEntry: java.lang.Object key>"},{"step":8,"from":"1085767472","to":"1085767472.<java.util.HashMap$HashMapEntry: int hash>","type":"load","field":"<java.util.HashMap$HashMapEntry: int hash>"},{"step":9,"from":"1085767472","to":"1085769600","type":"load","field":"<java.util.HashMap$HashMapEntry: java.lang.Object value>"},{"step":10,"from":"1085769600","to":"1093290992","type":"store","field":"<java.util.Formatter: libcore.icu.LocaleData localeData>"},{"step":11,"from":"1093290992","to":"1093290992.<java.util.Formatter: boolean closed>","type":"load","field":"<java.util.Formatter: boolean closed>"},{"step":12,"from":"sdaReg0","to":"1093293208","type":"store","field":"<java.util.Formatter$FormatSpecifierParser: java.lang.String format>"},{"step":13,"from":"sdaReg28","to":"1093293208","type":"store","field":"<java.util.Formatter$FormatSpecifierParser: int length>"},{"step":14,"from":"1093290992","to":"sdaReg0","type":"model"},{"step":15,"from":"1093290992","to":"sdaReg36","type":"model"},{"step":16,"from":"1093290992","to":"sdaReg39","type":"model"},{"step":17,"from":"sdaReg0","to":"1093290992","type":"model"},{"step":18,"from":"sdaReg0","to":"sdaReg36","type":"model"},{"step":19,"from":"sdaReg0","to":"sdaReg39","type":"model"},{"step":20,"from":"sdaReg36","to":"1093290992","type":"model"},{"step":21,"from":"sdaReg36","to":"sdaReg0","type":"model"},{"step":22,"from":"sdaReg36","to":"sdaReg39","type":"model"},{"step":23,"from":"sdaReg39","to":"1093290992","type":"model"},{"step":24,"from":"sdaReg39","to":"sdaReg0","type":"model"},{"step":25,"from":"sdaReg39","to":"sdaReg36","type":"model"},{"step":26,"from":"sdaReg40","to":"1093293208","type":"store","field":"<java.util.Formatter$FormatSpecifierParser: int startIndex>"},{"step":27,"from":"sdaReg40","to":"1093293208","type":"store","field":"<java.util.Formatter$FormatSpecifierParser: int i>"},{"step":28,"from":"1093583704","to":"sdaReg45","type":"create","field":"<java.util.Formatter$FormatToken: int argIndex>"},{"step":29,"from":"1093583704","to":"sdaReg46","type":"create","field":"<java.util.Formatter$FormatToken: char conversionType>"},{"step":30,"from":"1093583704","to":"sdaReg47","type":"create","field":"<java.util.Formatter$FormatToken: int precision>"},{"step":31,"from":"1093583704","to":"sdaReg48","type":"create","field":"<java.util.Formatter$FormatToken: int width>"},{"step":32,"from":"sdaReg67","to":"1093293208","type":"store","field":"<java.util.Formatter$FormatSpecifierParser: int i>"},{"step":33,"from":"sdaReg68","to":"1093583704","type":"store","field":"<java.util.Formatter$FormatToken: char conversionType>"},{"step":34,"from":"1093283152","to":"1093434424","type":"load","field":"arrayIdx_int:0"},{"step":35,"from":"1093290992","to":"1093583704","type":"create","field":"<java.util.Formatter: java.util.Formatter$FormatToken formatToken>"},{"step":36,"from":"1093434424","to":"1093290992","type":"store","field":"<java.util.Formatter: java.lang.Object arg>"},{"step":37,"from":"1093583704","to":"1093583704.<java.util.Formatter$FormatToken: boolean flagComma>","type":"load","field":"<java.util.Formatter$FormatToken: boolean flagComma>"},{"step":38,"from":"1093583704","to":"1093583704.<java.util.Formatter$FormatToken: boolean flagMinus>","type":"load","field":"<java.util.Formatter$FormatToken: boolean flagMinus>"},{"step":39,"from":"1093583704","to":"1093583704.<java.util.Formatter$FormatToken: boolean flagParenthesis>","type":"load","field":"<java.util.Formatter$FormatToken: boolean flagParenthesis>"},{"step":40,"from":"1093583704","to":"1093583704.<java.util.Formatter$FormatToken: boolean flagPlus>","type":"load","field":"<java.util.Formatter$FormatToken: boolean flagPlus>"},{"step":41,"from":"1093583704","to":"1093583704.<java.util.Formatter$FormatToken: boolean flagSharp>","type":"load","field":"<java.util.Formatter$FormatToken: boolean flagSharp>"},{"step":42,"from":"1093583704","to":"1093583704.<java.util.Formatter$FormatToken: boolean flagSpace>","type":"load","field":"<java.util.Formatter$FormatToken: boolean flagSpace>"},{"step":43,"from":"1093583704","to":"1093583704.<java.util.Formatter$FormatToken: boolean flagZero>","type":"load","field":"<java.util.Formatter$FormatToken: boolean flagZero>"},{"step":44,"from":"1093434424","to":"sdaReg94","type":"model"},{"step":45,"from":"1093290992","to":"1093514536","type":"load","field":"<java.util.Formatter: java.lang.Appendable out>"},{"step":46,"from":"1093434424","to":"1093514536","type":"model"},{"step":47,"from":"1093290992","to":"sdaReg0","type":"model"},{"step":48,"from":"1093290992","to":"sdaReg36","type":"model"},{"step":49,"from":"1093290992","to":"sdaReg39","type":"model"},{"step":50,"from":"sdaReg0","to":"1093290992","type":"model"},{"step":51,"from":"sdaReg0","to":"sdaReg36","type":"model"},{"step":52,"from":"sdaReg0","to":"sdaReg39","type":"model"},{"step":53,"from":"sdaReg36","to":"1093290992","type":"model"},{"step":54,"from":"sdaReg36","to":"sdaReg0","type":"model"},{"step":55,"from":"sdaReg36","to":"sdaReg39","type":"model"},{"step":56,"from":"sdaReg39","to":"1093290992","type":"model"},{"step":57,"from":"sdaReg39","to":"sdaReg0","type":"model"},{"step":58,"from":"sdaReg39","to":"sdaReg36","type":"model"},{"step":59,"from":"sdaReg40","to":"1093293208","type":"store","field":"<java.util.Formatter$FormatSpecifierParser: int startIndex>"},{"step":60,"from":"sdaReg40","to":"1093293208","type":"store","field":"<java.util.Formatter$FormatSpecifierParser: int i>"},{"step":61,"from":"1093584456","to":"sdaReg107","type":"create","field":"<java.util.Formatter$FormatToken: int argIndex>"},{"step":62,"from":"1093584456","to":"sdaReg108","type":"create","field":"<java.util.Formatter$FormatToken: char conversionType>"},{"step":63,"from":"1093584456","to":"sdaReg109","type":"create","field":"<java.util.Formatter$FormatToken: int precision>"},{"step":64,"from":"1093584456","to":"sdaReg110","type":"create","field":"<java.util.Formatter$FormatToken: int width>"},{"step":65,"from":"sdaReg129","to":"1093293208","type":"store","field":"<java.util.Formatter$FormatSpecifierParser: int i>"},{"step":66,"from":"sdaReg130","to":"1093584456","type":"store","field":"<java.util.Formatter$FormatToken: char conversionType>"},{"step":67,"from":"1093283152","to":"1093283184","type":"load","field":"arrayIdx_int:1"},{"step":68,"from":"1093290992","to":"1093584456","type":"create","field":"<java.util.Formatter: java.util.Formatter$FormatToken formatToken>"},{"step":69,"from":"1093283184","to":"1093290992","type":"store","field":"<java.util.Formatter: java.lang.Object arg>"},{"step":70,"from":"1093584456","to":"1093584456.<java.util.Formatter$FormatToken: boolean flagComma>","type":"load","field":"<java.util.Formatter$FormatToken: boolean flagComma>"},{"step":71,"from":"1093584456","to":"1093584456.<java.util.Formatter$FormatToken: boolean flagMinus>","type":"load","field":"<java.util.Formatter$FormatToken: boolean flagMinus>"},{"step":72,"from":"1093584456","to":"1093584456.<java.util.Formatter$FormatToken: boolean flagParenthesis>","type":"load","field":"<java.util.Formatter$FormatToken: boolean flagParenthesis>"},{"step":73,"from":"1093584456","to":"1093584456.<java.util.Formatter$FormatToken: boolean flagPlus>","type":"load","field":"<java.util.Formatter$FormatToken: boolean flagPlus>"},{"step":74,"from":"1093584456","to":"1093584456.<java.util.Formatter$FormatToken: boolean flagSharp>","type":"load","field":"<java.util.Formatter$FormatToken: boolean flagSharp>"},{"step":75,"from":"1093584456","to":"1093584456.<java.util.Formatter$FormatToken: boolean flagSpace>","type":"load","field":"<java.util.Formatter$FormatToken: boolean flagSpace>"},{"step":76,"from":"1093584456","to":"1093584456.<java.util.Formatter$FormatToken: boolean flagZero>","type":"load","field":"<java.util.Formatter$FormatToken: boolean flagZero>"},{"step":77,"from":"1093283184","to":"sdaReg153","type":"model"},{"step":78,"from":"1093290992","to":"1093514536","type":"load","field":"<java.util.Formatter: java.lang.Appendable out>"},{"step":79,"from":"1093283184","to":"1093514536","type":"model"},{"step":80,"from":"1093267832","to":"1093290992","type":"store","field":"<java.util.Formatter: java.util.Locale locale>"}],"parameters":[{"id":"1093290992","name":"this","klass":"java.util.Formatter"},{"id":"1093267832","name":"arg#1","klass":"java.util.Locale"},{"id":"sdaReg0","name":"arg#2","klass":"string"},{"id":"1093283152","name":"arg#3","klass":"java.lang.Object[]"}],"returns":[{"id":"1093290992","name":"return","klass":"java.util.Formatter"}],"colors":{"heapLocToColor":{"sdaReg125":[26],"sdaReg126":[7],"sdaReg127":[21],"sdaReg128":[7],"sdaReg68":[17],"sdaReg69":[11],"sdaReg66":[7],"sdaReg64":[7],"sdaReg65":[11],"sdaReg62":[15],"sdaReg63":[16],"1093283184":[3],"sdaReg13":[5],"sdaReg72":[11],"sdaReg14":[5],"sdaReg71":[11],"sdaReg11":[5],"sdaReg70":[11],"sdaReg12":[5],"sdaReg10":[5],"sdaReg120":[21],"sdaReg19":[6],"1093584456.<java.util.Formatter$FormatToken: boolean flagMinus>":[21],"sdaReg18":[5],"sdaReg124":[25],"sdaReg15":[5],"sdaReg123":[7],"sdaReg116":[22],"sdaReg117":[23],"1093290992.<java.util.Formatter: java.util.Locale locale>":[1],"sdaReg114":[21],"sdaReg115":[7],"1093584456.<java.util.Formatter$FormatToken: boolean flagParenthesis>":[21],"sdaReg118":[7],"sdaReg119":[24],"sdaReg74":[11],"sdaReg76":[11],"sdaReg81":[3],"sdaReg80":[0],"sdaReg82":[7],"1093293208":[7],"sdaReg113":[7],"sdaReg112":[21],"sdaReg111":[21],"1085760672":[4],"1093584456.<java.util.Formatter$FormatToken: boolean flagSharp>":[21],"sdaReg103":[7],"sdaReg104":[21],"sdaReg105":[21],"sdaReg106":[21],"sdaReg86":[0],"sdaReg87":[11],"sdaReg85":[3],"sdaReg88":[3],"sdaReg89":[11],"sdaReg94":[3, 18],"static.<libcore.icu.LocaleData: java.util.HashMap localeDataCache>":[4],"sdaReg91":[11],"sdaReg100":[7],"sdaReg102":[20],"sdaReg101":[0, 20, 10],"1093583704":[11],"1085767472":[4],"1093514536":[0],"sdaReg95":[3],"1093584456.<java.util.Formatter$FormatToken: boolean flagComma>":[21],"sdaReg96":[19],"sdaReg97":[0],"sdaReg98":[3],"1093583704.<java.util.Formatter$FormatToken: boolean flagZero>":[11],"1085760768":[4],"sdaReg61":[7],"1093267832":[0, 1],"sdaReg58":[11],"sdaReg57":[14],"1093583704.<java.util.Formatter$FormatToken: boolean flagPlus>":[11],"sdaReg56":[7],"sdaReg55":[13],"sdaReg54":[12],"sdaReg53":[7],"sdaReg52":[11],"sdaReg51":[7],"sdaReg50":[11],"sdaReg159":[7],"1093583704.<java.util.Formatter$FormatToken: boolean flagParenthesis>":[11],"sdaReg153":[3, 28],"sdaReg150":[21],"sdaReg156":[0],"1085767472.<java.util.HashMap$HashMapEntry: int hash>":[4],"sdaReg49":[11],"sdaReg157":[3],"1093583704.<java.util.Formatter$FormatToken: boolean flagMinus>":[11],"sdaReg154":[3],"1093290992.<java.util.Formatter: boolean closed>":[0],"sdaReg155":[29],"1093283152":[3],"sdaReg44":[11],"sdaReg41":[7],"1093434424":[3],"sdaReg40":[0, 20, 10],"1093584456.<java.util.Formatter$FormatToken: boolean flagZero>":[21],"sdaReg43":[11],"sdaReg42":[11],"1093584456.<java.util.Formatter$FormatToken: boolean flagPlus>":[21],"1093290992":[0],"1093583704.<java.util.Formatter$FormatToken: boolean flagSharp>":[11],"sdaReg148":[21],"sdaReg147":[3],"1093584456":[21],"sdaReg144":[3],"sdaReg39":[0, 20, 10],"sdaReg145":[0],"sdaReg38":[20, 10],"sdaReg146":[21],"sdaReg37":[10],"sdaReg140":[3],"1093583704.<java.util.Formatter$FormatToken: boolean flagSpace>":[11],"sdaReg141":[7],"sdaReg142":[3],"sdaReg32":[3],"sdaReg30":[7],"sdaReg36":[0],"sdaReg35":[0, 10],"sdaReg34":[9],"sdaReg8":[5],"1093267832.<java.util.Locale: java.lang.String cachedToStringResult>":[0, 1],"sdaReg9":[5],"sdaReg6":[4],"sdaReg7":[5],"sdaReg4":[0, 1],"1093584456.<java.util.Formatter$FormatToken: boolean flagSpace>":[21],"sdaReg5":[4],"sdaReg139":[0],"1085803528":[4],"sdaReg137":[21],"sdaReg134":[21],"sdaReg27":[7],"sdaReg135":[21],"sdaReg26":[7],"sdaReg132":[21],"sdaReg29":[7],"sdaReg133":[21],"sdaReg28":[8],"1093290992.<java.util.Formatter: java.lang.Appendable out>":[0],"sdaReg130":[27],"sdaReg131":[21],"1093583704.<java.util.Formatter$FormatToken: boolean flagComma>":[11],"1085769600":[4],"sdaReg3":[0, 1],"sdaReg2":[0, 1],"sdaReg21":[4],"sdaReg20":[4],"sdaReg0":[0, 2],"sdaReg23":[0],"sdaReg22":[4],"sdaReg25":[0],"sdaReg24":[3]},"colorToColor":{"17":[11],"0":[0, 2, 20, 7, 10, 30],"1":[0],"2":[0, 20, 7, 10],"3":[0],"21":[0],"4":[0],"20":[0, 2, 7],"8":[7],"27":[21],"10":[0, 2, 7],"11":[0]},"colorToLabel":{"0":"this","1":"arg#1","2":"arg#2","3":"arg#3","4":"<libcore.icu.LocaleData: java.util.HashMap localeDataCache>","30":"return"}}}

Generated Model
	this->return
	this->arg#2
	arg#3->this
	arg#3->return
	arg#3->arg#2
	arg#2->this
	arg#2->return
	arg#1->this
	arg#1->return
	arg#1->arg#2

