Scanning method <java.nio.CharBuffer: java.nio.CharBuffer put(java.lang.String)>

All seen event types: BinaryOperationRecord, StoreArrayRecord, SimpleAssignmentRecord, MethodReturnRecord, MethodCallRecord, LoadInstanceRecord, MethodStartRecord, MethodEndRecord, IfRecord, StoreInstanceRecord, 
Ignored event types: IfRecord, 

JSON Encoded Analysis Data (for visualization):{"heapEdges":[{"step":0,"from":"1093668944","to":"1093668944.<java.nio.Buffer: int limit>","type":"load","field":"<java.nio.Buffer: int limit>"},{"step":1,"from":"1093668944","to":"1093668944.<java.nio.Buffer: int position>","type":"load","field":"<java.nio.Buffer: int position>"},{"step":2,"from":"sdaReg0","to":"sdaReg9","type":"model"},{"step":3,"from":"1093668944","to":"1093668944.<java.nio.Buffer: int position>","type":"load","field":"<java.nio.Buffer: int position>"},{"step":4,"from":"1093668944","to":"1093668944.<java.nio.Buffer: int limit>","type":"load","field":"<java.nio.Buffer: int limit>"},{"step":5,"from":"1093668944","to":"1093668992","type":"load","field":"<java.nio.CharArrayBuffer: char[] backingArray>"},{"step":6,"from":"1093668944","to":"1093668944.<java.nio.CharArrayBuffer: int offset>","type":"load","field":"<java.nio.CharArrayBuffer: int offset>"},{"step":7,"from":"1093668944","to":"1093668944.<java.nio.Buffer: int position>","type":"load","field":"<java.nio.Buffer: int position>"},{"step":8,"from":"sdaReg11","to":"1093668944","type":"store","field":"<java.nio.Buffer: int position>"},{"step":9,"from":"sdaReg9","to":"1093668992","type":"store","field":"arrayIdx_int:0"},{"step":10,"from":"sdaReg0","to":"sdaReg13","type":"model"},{"step":11,"from":"1093668944","to":"1093668944.<java.nio.Buffer: int limit>","type":"load","field":"<java.nio.Buffer: int limit>"},{"step":12,"from":"1093668944","to":"1093668992","type":"load","field":"<java.nio.CharArrayBuffer: char[] backingArray>"},{"step":13,"from":"1093668944","to":"1093668944.<java.nio.CharArrayBuffer: int offset>","type":"load","field":"<java.nio.CharArrayBuffer: int offset>"},{"step":14,"from":"sdaReg15","to":"1093668944","type":"store","field":"<java.nio.Buffer: int position>"},{"step":15,"from":"sdaReg13","to":"1093668992","type":"store","field":"arrayIdx_int:1"},{"step":16,"from":"sdaReg0","to":"sdaReg17","type":"model"},{"step":17,"from":"1093668944","to":"1093668944.<java.nio.Buffer: int limit>","type":"load","field":"<java.nio.Buffer: int limit>"},{"step":18,"from":"1093668944","to":"1093668992","type":"load","field":"<java.nio.CharArrayBuffer: char[] backingArray>"},{"step":19,"from":"1093668944","to":"1093668944.<java.nio.CharArrayBuffer: int offset>","type":"load","field":"<java.nio.CharArrayBuffer: int offset>"},{"step":20,"from":"sdaReg19","to":"1093668944","type":"store","field":"<java.nio.Buffer: int position>"},{"step":21,"from":"sdaReg17","to":"1093668992","type":"store","field":"arrayIdx_int:2"},{"step":22,"from":"sdaReg0","to":"sdaReg21","type":"model"},{"step":23,"from":"1093668944","to":"1093668944.<java.nio.Buffer: int limit>","type":"load","field":"<java.nio.Buffer: int limit>"},{"step":24,"from":"1093668944","to":"1093668992","type":"load","field":"<java.nio.CharArrayBuffer: char[] backingArray>"},{"step":25,"from":"1093668944","to":"1093668944.<java.nio.CharArrayBuffer: int offset>","type":"load","field":"<java.nio.CharArrayBuffer: int offset>"},{"step":26,"from":"sdaReg23","to":"1093668944","type":"store","field":"<java.nio.Buffer: int position>"},{"step":27,"from":"sdaReg21","to":"1093668992","type":"store","field":"arrayIdx_int:3"}],"parameters":[{"id":"1093668944","name":"this","klass":"java.nio.CharBuffer"},{"id":"sdaReg0","name":"arg#1","klass":"string"}],"returns":[{"id":"1093668944","name":"return","klass":"java.nio.CharBuffer"}],"colors":{"heapLocToColor":{"1093668944.<java.nio.CharArrayBuffer: int offset>":[0],"sdaReg13":[1, 5],"sdaReg14":[0],"1093668944":[0],"sdaReg11":[0],"sdaReg12":[0],"sdaReg10":[0],"1093668944.<java.nio.Buffer: int position>":[0],"sdaReg17":[1, 6],"sdaReg18":[0],"sdaReg16":[0],"sdaReg9":[1, 4],"sdaReg6":[0],"sdaReg7":[0],"1093668992":[0],"sdaReg4":[3],"sdaReg5":[2],"1093668944.<java.nio.Buffer: int limit>":[0],"1093668944.<java.nio.CharArrayBuffer: char[] backingArray>":[0],"sdaReg2":[0],"sdaReg1":[2],"sdaReg21":[1, 7],"sdaReg0":[1],"sdaReg20":[0],"sdaReg22":[0],"sdaReg25":[0],"sdaReg24":[0]},"colorToColor":{"0":[0, 8],"1":[0],"4":[0],"5":[0],"6":[0],"7":[0]},"colorToLabel":{"0":"this","1":"arg#1","8":"return"}}}

Generated Model
	this->return
	arg#1->this
	arg#1->return

