Scanning method <java.io.BufferedInputStream: void close()>

All seen event types: MethodReturnRecord, MethodCallRecord, MethodStartRecord, LoadInstanceRecord, MethodEndRecord, IfRecord, StoreInstanceRecord, 
Ignored event types: IfRecord, 

JSON Encoded Analysis Data (for visualization):{"heapEdges":[{"step":0,"from":"1093300632","to":"sdaReg0","type":"create","field":"<java.io.BufferedInputStream: byte[] buf>"},{"step":1,"from":"1093300632","to":"1093271736","type":"load","field":"<java.io.FilterInputStream: java.io.InputStream in>"},{"step":2,"from":"1093300632","to":"sdaReg1","type":"create","field":"<java.io.FilterInputStream: java.io.InputStream in>"}],"parameters":[{"id":"1093300632","name":"this","klass":"java.io.BufferedInputStream"}],"returns":[{"id":null,"name":"return","klass":null}],"colors":{"heapLocToColor":{"1093300632":[0],"sdaReg2":[0],"1093271736":[0]},"colorToColor":{},"colorToLabel":{"0":"this","1":"return"}}}

Generated Model

