Scanning method <java.io.PrintStream: void println()>

All seen event types: MethodReturnRecord, MethodCallRecord, LoadInstanceRecord, MethodStartRecord, MethodEndRecord, IfRecord, 
Ignored event types: IfRecord, 

JSON Encoded Analysis Data (for visualization):{"heapEdges":[{"step":0,"from":"1093477192","to":"1093477016","type":"load","field":"<java.io.FilterOutputStream: java.io.OutputStream out>"},{"step":1,"from":"1093477192","to":"1093477192.<java.io.PrintStream: java.lang.String encoding>","type":"load","field":"<java.io.PrintStream: java.lang.String encoding>"},{"step":2,"from":"sdaReg1","to":"1093270472","type":"model"},{"step":3,"from":"1093477192","to":"1093270472","type":"model"},{"step":4,"from":"1093270472","to":"1093477192","type":"model"}],"parameters":[{"id":"1093477192","name":"this","klass":"java.io.PrintStream"}],"returns":[{"id":null,"name":"return","klass":null}],"colors":{"heapLocToColor":{"1093477192":[0],"1093270472":[0, 1, 2],"1093477192.<java.io.PrintStream: java.lang.String encoding>":[0],"sdaReg3":[1, 2],"sdaReg2":[0],"sdaReg1":[1],"1093477016":[0],"sdaReg0":[0]},"colorToColor":{"0":[0],"1":[0],"2":[0]},"colorToLabel":{"0":"this","3":"return"}}}

Generated Model

