Scanning method <java.io.InputStreamReader: void <init>(java.io.InputStream,java.nio.charset.Charset)>

All seen event types: SimpleAssignmentRecord, MethodStartRecord, LoadInstanceRecord, IfRecord, StoreInstanceRecord, NewObjectRecord, NewArrayRecord, LoadStaticRecord, BinaryOperationRecord, MethodCallRecord, MethodReturnRecord, ArrayLengthRecord, MethodEndRecord, 
Ignored event types: IfRecord, 

JSON Encoded Analysis Data (for visualization):{"heapEdges":[{"step":0,"from":"1093647768","to":"1093647800","type":"store","field":"<java.io.Reader: java.lang.Object lock>"},{"step":1,"from":"1093647800","to":"sdaReg4","type":"create","field":"<java.io.InputStreamReader: boolean endOfInput>"},{"step":2,"from":"1093647832","to":"sdaReg18","type":"create","field":"<java.nio.Buffer: int mark>"},{"step":3,"from":"1093647832","to":"sdaReg19","type":"create","field":"<java.nio.Buffer: int position>"},{"step":4,"from":"1093647832","to":"sdaReg15","type":"create","field":"<java.nio.Buffer: int _elementSizeShift>"},{"step":5,"from":"1093647832","to":"sdaReg5","type":"create","field":"<java.nio.Buffer: int limit>"},{"step":6,"from":"sdaReg5","to":"1093647832","type":"store","field":"<java.nio.Buffer: int capacity>"},{"step":7,"from":"static.<java.nio.ByteOrder: java.nio.ByteOrder BIG_ENDIAN>","to":"1084339448","type":"load","field":"<java.nio.ByteOrder: java.nio.ByteOrder BIG_ENDIAN>"},{"step":8,"from":"1084339448","to":"1093647832","type":"store","field":"<java.nio.ByteBuffer: java.nio.ByteOrder order>"},{"step":9,"from":"1093647832","to":"1093422280","type":"create","field":"<java.nio.HeapByteBuffer: byte[] backingArray>"},{"step":10,"from":"1093647832","to":"sdaReg10","type":"create","field":"<java.nio.HeapByteBuffer: int offset>"},{"step":11,"from":"1093647800","to":"1093647832","type":"create","field":"<java.io.InputStreamReader: java.nio.ByteBuffer bytes>"},{"step":12,"from":"1093647768","to":"1093647800","type":"store","field":"<java.io.InputStreamReader: java.io.InputStream in>"},{"step":13,"from":"1084325896","to":"1084325896.<java.nio.charset.CharsetICU: java.lang.String icuCanonicalName>","type":"load","field":"<java.nio.charset.CharsetICU: java.lang.String icuCanonicalName>"},{"step":14,"from":"1084325896.<java.nio.charset.CharsetICU: java.lang.String icuCanonicalName>","to":"sdaReg32","type":"model"},{"step":15,"from":"sdaReg32","to":"sdaReg33","type":"model"},{"step":16,"from":"sdaReg33","to":"1093321696","type":"store","field":"<java.nio.charset.CharsetDecoder: float averageCharsPerByte>"},{"step":17,"from":"1093321696","to":"sdaReg38","type":"create","field":"<java.nio.charset.CharsetDecoder: float maxCharsPerByte>"},{"step":18,"from":"1084325896","to":"1093321696","type":"store","field":"<java.nio.charset.CharsetDecoder: java.nio.charset.Charset cs>"},{"step":19,"from":"1093321696","to":"sdaReg43","type":"create","field":"<java.nio.charset.CharsetDecoder: int status>"},{"step":20,"from":"static.<java.nio.charset.CodingErrorAction: java.nio.charset.CodingErrorAction REPORT>","to":"1084336272","type":"load","field":"<java.nio.charset.CodingErrorAction: java.nio.charset.CodingErrorAction REPORT>"},{"step":21,"from":"1084336272","to":"1093321696","type":"store","field":"<java.nio.charset.CharsetDecoder: java.nio.charset.CodingErrorAction malformedInputAction>"},{"step":22,"from":"static.<java.nio.charset.CodingErrorAction: java.nio.charset.CodingErrorAction REPORT>","to":"1084336272","type":"load","field":"<java.nio.charset.CodingErrorAction: java.nio.charset.CodingErrorAction REPORT>"},{"step":23,"from":"1084336272","to":"1093321696","type":"store","field":"<java.nio.charset.CharsetDecoder: java.nio.charset.CodingErrorAction unmappableCharacterAction>"},{"step":24,"from":"1093321696","to":"sdaReg44","type":"create","field":"<java.nio.charset.CharsetDecoder: java.lang.String replacementChars>"},{"step":25,"from":"1093321696","to":"1093295808","type":"create","field":"<java.nio.charset.CharsetDecoderICU: int[] data>"},{"step":26,"from":"1093321696","to":"sdaReg46","type":"create","field":"<java.nio.charset.CharsetDecoderICU: long converterHandle>"},{"step":27,"from":"1093321696","to":"sdaReg47","type":"create","field":"<java.nio.charset.CharsetDecoderICU: byte[] input>"},{"step":28,"from":"1093321696","to":"sdaReg48","type":"create","field":"<java.nio.charset.CharsetDecoderICU: char[] output>"},{"step":29,"from":"1093321696","to":"sdaReg49","type":"create","field":"<java.nio.charset.CharsetDecoderICU: byte[] allocatedInput>"},{"step":30,"from":"1093321696","to":"sdaReg50","type":"create","field":"<java.nio.charset.CharsetDecoderICU: char[] allocatedOutput>"},{"step":31,"from":"sdaReg32","to":"1093321696","type":"store","field":"<java.nio.charset.CharsetDecoderICU: long converterHandle>"},{"step":32,"from":"static.<java.nio.charset.CodingErrorAction: java.nio.charset.CodingErrorAction REPORT>","to":"1084336272","type":"load","field":"<java.nio.charset.CodingErrorAction: java.nio.charset.CodingErrorAction REPORT>"},{"step":33,"from":"static.<java.nio.charset.CodingErrorAction: java.nio.charset.CodingErrorAction REPORT>","to":"1084336272","type":"load","field":"<java.nio.charset.CodingErrorAction: java.nio.charset.CodingErrorAction REPORT>"},{"step":34,"from":"sdaReg54","to":"sdaReg59","type":"model"},{"step":35,"from":"sdaReg54","to":"sdaReg63","type":"model"},{"step":36,"from":"sdaReg54","to":"sdaReg65","type":"model"},{"step":37,"from":"sdaReg54","to":"sdaReg66","type":"model"},{"step":38,"from":"sdaReg59","to":"sdaReg54","type":"model"},{"step":39,"from":"sdaReg59","to":"sdaReg63","type":"model"},{"step":40,"from":"sdaReg59","to":"sdaReg65","type":"model"},{"step":41,"from":"sdaReg59","to":"sdaReg66","type":"model"},{"step":42,"from":"sdaReg63","to":"sdaReg54","type":"model"},{"step":43,"from":"sdaReg63","to":"sdaReg59","type":"model"},{"step":44,"from":"sdaReg63","to":"sdaReg65","type":"model"},{"step":45,"from":"sdaReg63","to":"sdaReg66","type":"model"},{"step":46,"from":"sdaReg65","to":"sdaReg54","type":"model"},{"step":47,"from":"sdaReg65","to":"sdaReg59","type":"model"},{"step":48,"from":"sdaReg65","to":"sdaReg63","type":"model"},{"step":49,"from":"sdaReg65","to":"sdaReg66","type":"model"},{"step":50,"from":"sdaReg66","to":"1093321696","type":"store","field":"<java.nio.charset.CharsetDecoderICU: int ec>"},{"step":51,"from":"static.<java.nio.charset.CodingErrorAction: java.nio.charset.CodingErrorAction REPLACE>","to":"1084051696","type":"load","field":"<java.nio.charset.CodingErrorAction: java.nio.charset.CodingErrorAction REPLACE>"},{"step":52,"from":"1084051696","to":"1093321696","type":"store","field":"<java.nio.charset.CharsetDecoder: java.nio.charset.CodingErrorAction malformedInputAction>"},{"step":53,"from":"static.<java.nio.charset.CodingErrorAction: java.nio.charset.CodingErrorAction REPORT>","to":"1084336272","type":"load","field":"<java.nio.charset.CodingErrorAction: java.nio.charset.CodingErrorAction REPORT>"},{"step":54,"from":"static.<java.nio.charset.CodingErrorAction: java.nio.charset.CodingErrorAction IGNORE>","to":"1084016976","type":"load","field":"<java.nio.charset.CodingErrorAction: java.nio.charset.CodingErrorAction IGNORE>"},{"step":55,"from":"static.<java.nio.charset.CodingErrorAction: java.nio.charset.CodingErrorAction REPLACE>","to":"1084051696","type":"load","field":"<java.nio.charset.CodingErrorAction: java.nio.charset.CodingErrorAction REPLACE>"},{"step":56,"from":"static.<java.nio.charset.CodingErrorAction: java.nio.charset.CodingErrorAction REPORT>","to":"1084336272","type":"load","field":"<java.nio.charset.CodingErrorAction: java.nio.charset.CodingErrorAction REPORT>"},{"step":57,"from":"sdaReg78","to":"sdaReg83","type":"model"},{"step":58,"from":"sdaReg78","to":"sdaReg87","type":"model"},{"step":59,"from":"sdaReg78","to":"sdaReg89","type":"model"},{"step":60,"from":"sdaReg78","to":"sdaReg90","type":"model"},{"step":61,"from":"sdaReg83","to":"sdaReg78","type":"model"},{"step":62,"from":"sdaReg83","to":"sdaReg87","type":"model"},{"step":63,"from":"sdaReg83","to":"sdaReg89","type":"model"},{"step":64,"from":"sdaReg83","to":"sdaReg90","type":"model"},{"step":65,"from":"sdaReg87","to":"sdaReg78","type":"model"},{"step":66,"from":"sdaReg87","to":"sdaReg83","type":"model"},{"step":67,"from":"sdaReg87","to":"sdaReg89","type":"model"},{"step":68,"from":"sdaReg87","to":"sdaReg90","type":"model"},{"step":69,"from":"sdaReg89","to":"sdaReg78","type":"model"},{"step":70,"from":"sdaReg89","to":"sdaReg83","type":"model"},{"step":71,"from":"sdaReg89","to":"sdaReg87","type":"model"},{"step":72,"from":"sdaReg89","to":"sdaReg90","type":"model"},{"step":73,"from":"sdaReg90","to":"1093321696","type":"store","field":"<java.nio.charset.CharsetDecoderICU: int ec>"},{"step":74,"from":"static.<java.nio.charset.CodingErrorAction: java.nio.charset.CodingErrorAction REPLACE>","to":"1084051696","type":"load","field":"<java.nio.charset.CodingErrorAction: java.nio.charset.CodingErrorAction REPLACE>"},{"step":75,"from":"1084051696","to":"1093321696","type":"store","field":"<java.nio.charset.CharsetDecoder: java.nio.charset.CodingErrorAction unmappableCharacterAction>"},{"step":76,"from":"static.<java.nio.charset.CodingErrorAction: java.nio.charset.CodingErrorAction REPORT>","to":"1084336272","type":"load","field":"<java.nio.charset.CodingErrorAction: java.nio.charset.CodingErrorAction REPORT>"},{"step":77,"from":"static.<java.nio.charset.CodingErrorAction: java.nio.charset.CodingErrorAction IGNORE>","to":"1084016976","type":"load","field":"<java.nio.charset.CodingErrorAction: java.nio.charset.CodingErrorAction IGNORE>"},{"step":78,"from":"static.<java.nio.charset.CodingErrorAction: java.nio.charset.CodingErrorAction REPLACE>","to":"1084051696","type":"load","field":"<java.nio.charset.CodingErrorAction: java.nio.charset.CodingErrorAction REPLACE>"},{"step":79,"from":"static.<java.nio.charset.CodingErrorAction: java.nio.charset.CodingErrorAction REPORT>","to":"1084336272","type":"load","field":"<java.nio.charset.CodingErrorAction: java.nio.charset.CodingErrorAction REPORT>"},{"step":80,"from":"static.<java.nio.charset.CodingErrorAction: java.nio.charset.CodingErrorAction IGNORE>","to":"1084016976","type":"load","field":"<java.nio.charset.CodingErrorAction: java.nio.charset.CodingErrorAction IGNORE>"},{"step":81,"from":"static.<java.nio.charset.CodingErrorAction: java.nio.charset.CodingErrorAction REPLACE>","to":"1084051696","type":"load","field":"<java.nio.charset.CodingErrorAction: java.nio.charset.CodingErrorAction REPLACE>"},{"step":82,"from":"sdaReg99","to":"sdaReg104","type":"model"},{"step":83,"from":"sdaReg99","to":"sdaReg108","type":"model"},{"step":84,"from":"sdaReg99","to":"sdaReg110","type":"model"},{"step":85,"from":"sdaReg99","to":"sdaReg111","type":"model"},{"step":86,"from":"sdaReg104","to":"sdaReg99","type":"model"},{"step":87,"from":"sdaReg104","to":"sdaReg108","type":"model"},{"step":88,"from":"sdaReg104","to":"sdaReg110","type":"model"},{"step":89,"from":"sdaReg104","to":"sdaReg111","type":"model"},{"step":90,"from":"sdaReg108","to":"sdaReg99","type":"model"},{"step":91,"from":"sdaReg108","to":"sdaReg104","type":"model"},{"step":92,"from":"sdaReg108","to":"sdaReg110","type":"model"},{"step":93,"from":"sdaReg108","to":"sdaReg111","type":"model"},{"step":94,"from":"sdaReg110","to":"sdaReg99","type":"model"},{"step":95,"from":"sdaReg110","to":"sdaReg104","type":"model"},{"step":96,"from":"sdaReg110","to":"sdaReg108","type":"model"},{"step":97,"from":"sdaReg110","to":"sdaReg111","type":"model"},{"step":98,"from":"sdaReg111","to":"1093321696","type":"store","field":"<java.nio.charset.CharsetDecoderICU: int ec>"},{"step":99,"from":"1093647800","to":"1093321696","type":"create","field":"<java.io.InputStreamReader: java.nio.charset.CharsetDecoder decoder>"},{"step":100,"from":"1093647832","to":"sdaReg116","type":"create","field":"<java.nio.Buffer: int limit>"}],"parameters":[{"id":"1093647800","name":"this","klass":"java.io.InputStreamReader"},{"id":"1093647768","name":"arg#1","klass":"java.io.InputStream"},{"id":"1084325896","name":"arg#2","klass":"java.nio.charset.Charset"}],"returns":[{"id":"1093647800","name":"return","klass":"java.io.InputStreamReader"}],"colors":{"heapLocToColor":{"sdaReg60":[8],"sdaReg61":[9],"1093321696":[8],"sdaReg69":[8],"sdaReg66":[11],"1093647768":[1],"sdaReg64":[8],"sdaReg62":[9],"sdaReg72":[8],"sdaReg71":[8],"sdaReg14":[3],"sdaReg70":[6],"sdaReg11":[3],"sdaReg12":[3],"sdaReg58":[9],"sdaReg57":[9],"sdaReg56":[8],"sdaReg55":[8],"static.<java.nio.ByteOrder: java.nio.ByteOrder BIG_ENDIAN>":[5],"sdaReg17":[3],"sdaReg53":[8],"sdaReg52":[8],"sdaReg51":[8],"sdaReg117":[3],"sdaReg114":[8],"sdaReg115":[3],"sdaReg77":[8],"sdaReg79":[8],"sdaReg73":[8],"sdaReg74":[12],"sdaReg75":[8],"sdaReg76":[12],"sdaReg81":[12],"sdaReg80":[8],"static.<java.nio.charset.CodingErrorAction: java.nio.charset.CodingErrorAction IGNORE>":[13],"sdaReg82":[12],"1093422280":[4],"sdaReg45":[8],"static.<java.nio.charset.CodingErrorAction: java.nio.charset.CodingErrorAction REPORT>":[9],"1084325896.<java.nio.charset.CharsetICU: java.lang.String icuCanonicalName>":[2],"1084336272":[9],"1093647800":[0],"sdaReg40":[7],"sdaReg111":[15],"sdaReg42":[7],"sdaReg107":[12],"sdaReg109":[8],"sdaReg103":[12],"sdaReg105":[8],"sdaReg106":[12],"sdaReg86":[9],"sdaReg84":[8],"sdaReg85":[9],"sdaReg88":[8],"sdaReg90":[14],"sdaReg39":[8],"sdaReg37":[2],"sdaReg94":[8],"sdaReg93":[8],"1093647832":[3],"sdaReg100":[8],"sdaReg32":[6],"sdaReg102":[12],"sdaReg30":[2],"sdaReg101":[8],"1084051696":[12],"static.<java.nio.charset.CodingErrorAction: java.nio.charset.CodingErrorAction REPLACE>":[12],"sdaReg36":[8],"sdaReg35":[2],"sdaReg34":[8],"sdaReg33":[7],"sdaReg8":[3],"sdaReg9":[4],"sdaReg6":[3],"sdaReg7":[3],"1084325896":[2],"sdaReg95":[12],"sdaReg96":[8],"sdaReg97":[12],"sdaReg98":[8],"sdaReg27":[3],"sdaReg26":[3],"sdaReg29":[2],"sdaReg28":[3],"1084339448":[5],"1093295808":[10],"sdaReg3":[0],"sdaReg2":[0],"sdaReg21":[3],"sdaReg1":[1],"sdaReg20":[3],"sdaReg0":[0],"1084016976":[13],"sdaReg22":[3],"sdaReg25":[3]},"colorToColor":{"0":[16],"1":[0],"2":[6, 8],"3":[0],"4":[3],"5":[3],"6":[7, 8],"7":[8],"8":[0],"9":[8],"10":[8],"11":[8],"12":[8],"14":[8],"15":[8]},"colorToLabel":{"0":"this","1":"arg#1","2":"arg#2","5":"<java.nio.ByteOrder: java.nio.ByteOrder BIG_ENDIAN>","9":"<java.nio.charset.CodingErrorAction: java.nio.charset.CodingErrorAction REPORT>","12":"<java.nio.charset.CodingErrorAction: java.nio.charset.CodingErrorAction REPLACE>","13":"<java.nio.charset.CodingErrorAction: java.nio.charset.CodingErrorAction IGNORE>","16":"return"}}}

Generated Model
	this->return
	arg#2->this
	arg#2->return
	arg#1->this
	arg#1->return

