Scanning method <android.os.Message: android.os.Message obtain(android.os.Message)>

All seen event types: LoadStaticRecord, SimpleAssignmentRecord, MethodReturnRecord, ExitMonitorRecord, MethodCallRecord, EnterMonitorRecord, LoadInstanceRecord, MethodStartRecord, MethodEndRecord, IfRecord, StoreInstanceRecord, NewObjectRecord, 
Ignored event types: ExitMonitorRecord, EnterMonitorRecord, IfRecord, 

JSON Encoded Analysis Data (for visualization):{"heapEdges":[{"step":0,"from":"static.<android.os.Message: java.lang.Object sPoolSync>","to":"1085010160","type":"load","field":"<android.os.Message: java.lang.Object sPoolSync>"},{"step":1,"from":"1093447560","to":"1093447560.<android.os.Message: int what>","type":"load","field":"<android.os.Message: int what>"},{"step":2,"from":"1093447560.<android.os.Message: int what>","to":"1093479144","type":"store","field":"<android.os.Message: int what>"},{"step":3,"from":"1093447560","to":"1093447560.<android.os.Message: int arg1>","type":"load","field":"<android.os.Message: int arg1>"},{"step":4,"from":"1093447560.<android.os.Message: int arg1>","to":"1093479144","type":"store","field":"<android.os.Message: int arg1>"},{"step":5,"from":"1093447560","to":"1093447560.<android.os.Message: int arg2>","type":"load","field":"<android.os.Message: int arg2>"},{"step":6,"from":"1093447560.<android.os.Message: int arg2>","to":"1093479144","type":"store","field":"<android.os.Message: int arg2>"},{"step":7,"from":"1093447560","to":"1093582840","type":"load","field":"<android.os.Message: java.lang.Object obj>"},{"step":8,"from":"1093582840","to":"1093479144","type":"store","field":"<android.os.Message: java.lang.Object obj>"},{"step":9,"from":"1093447560","to":"1093546576","type":"load","field":"<android.os.Message: android.os.Handler target>"},{"step":10,"from":"1093546576","to":"1093479144","type":"store","field":"<android.os.Message: android.os.Handler target>"}],"parameters":[{"id":"1093447560","name":"arg#0","klass":"android.os.Message"}],"returns":[{"id":"1093479144","name":"return","klass":"android.os.Message"}],"colors":{"heapLocToColor":{"1085010160":[1],"sdaReg4":[3],"1093447560.<android.os.Message: int what>":[0],"static.<android.os.Message: java.lang.Object sPoolSync>":[1],"static.<android.os.Message: android.os.Message sPool>":[2],"1093447560.<android.os.Message: int arg1>":[0],"1093479144":[3],"1093582840":[0],"sdaReg3":[3],"sdaReg2":[3],"1093546576":[0],"sdaReg1":[3],"sdaReg0":[1],"1093447560":[0],"1093447560.<android.os.Message: int arg2>":[0]},"colorToColor":{"0":[3],"3":[4]},"colorToLabel":{"0":"arg#0","1":"<android.os.Message: java.lang.Object sPoolSync>","2":"<android.os.Message: android.os.Message sPool>","4":"return"}}}

Generated Model
	arg#0->return

