Scanning method <android.os.Bundle: android.util.SparseArray getSparseParcelableArray(java.lang.String)>

All seen event types: StoreArrayRecord, SimpleAssignmentRecord, ExitMonitorRecord, MethodStartRecord, LoadInstanceRecord, IfRecord, InstanceOfRecord, NewObjectRecord, StoreInstanceRecord, NewArrayRecord, LoadStaticRecord, BinaryOperationRecord, MethodCallRecord, MethodReturnRecord, SwitchRecord, EnterMonitorRecord, ArrayLengthRecord, CastRecord, LoadArrayRecord, MethodEndRecord, 
Ignored event types: ExitMonitorRecord, SwitchRecord, EnterMonitorRecord, IfRecord, 

JSON Encoded Analysis Data (for visualization):{"heapEdges":[{"step":0,"from":"1094220976","to":"1093444976","type":"load","field":"<android.os.Bundle: android.os.Parcel mParcelledData>"},{"step":1,"from":"1094220976","to":"1093444976","type":"load","field":"<android.os.Bundle: android.os.Parcel mParcelledData>"},{"step":2,"from":"1093444976","to":"sdaReg2","type":"model"},{"step":3,"from":"static.<java.util.HashMap: java.util.Map$Entry[] EMPTY_TABLE>","to":"1083997920","type":"load","field":"<java.util.HashMap: java.util.Map$Entry[] EMPTY_TABLE>"},{"step":4,"from":"1083997920","to":"1093861576","type":"store","field":"<java.util.HashMap: java.util.HashMap$HashMapEntry[] table>"},{"step":5,"from":"1093861576","to":"sdaReg9","type":"create","field":"<java.util.HashMap: int threshold>"},{"step":6,"from":"1094220976","to":"1093861576","type":"create","field":"<android.os.Bundle: java.util.Map mMap>"},{"step":7,"from":"1094220976","to":"1093444976","type":"load","field":"<android.os.Bundle: android.os.Parcel mParcelledData>"},{"step":8,"from":"1093444976","to":"sdaReg16","type":"model"},{"step":9,"from":"1093444976","to":"sdaReg17","type":"model"},{"step":10,"from":"1093444976","to":"sdaReg21","type":"model"},{"step":11,"from":"1093444976","to":"sdaReg24","type":"model"},{"step":12,"from":"1093872120","to":"sdaReg27","type":"create","field":"<android.util.SparseArray: boolean mGarbage>"},{"step":13,"from":"1093872120","to":"1093731904","type":"create","field":"<android.util.SparseArray: int[] mKeys>"},{"step":14,"from":"1093872120","to":"1093731944","type":"create","field":"<android.util.SparseArray: java.lang.Object[] mValues>"},{"step":15,"from":"1093872120","to":"sdaReg35","type":"create","field":"<android.util.SparseArray: int mSize>"},{"step":16,"from":"1093444976","to":"sdaReg41","type":"model"},{"step":17,"from":"1093444976","to":"sdaReg44","type":"model"},{"step":18,"from":"1093444976","to":"sdaReg47","type":"model"},{"step":19,"from":"1093926144","to":"sdaReg51","type":"create","field":"<android.os.Bundle: java.util.Map mMap>"},{"step":20,"from":"1093926144","to":"sdaReg52","type":"create","field":"<android.os.Bundle: android.os.Parcel mParcelledData>"},{"step":21,"from":"1093926144","to":"sdaReg53","type":"create","field":"<android.os.Bundle: boolean mHasFds>"},{"step":22,"from":"1093926144","to":"sdaReg54","type":"create","field":"<android.os.Bundle: boolean mFdsKnown>"},{"step":23,"from":"1093926144","to":"sdaReg55","type":"create","field":"<android.os.Bundle: boolean mAllowFds>"},{"step":24,"from":"1093444976","to":"sdaReg58","type":"model"},{"step":25,"from":"1093444976","to":"sdaReg59","type":"model"},{"step":26,"from":"1093444976","to":"sdaReg60","type":"model"},{"step":27,"from":"sdaReg60","to":"1093444976","type":"model"},{"step":28,"from":"static.<android.os.Parcel: android.os.Parcel[] sOwnedPool>","to":"1084044960","type":"load","field":"<android.os.Parcel: android.os.Parcel[] sOwnedPool>"},{"step":29,"from":"1093467128","to":"sdaReg64","type":"model"},{"step":30,"from":"sdaReg64","to":"1093467128","type":"model"},{"step":31,"from":"1093467128","to":"1093444976","type":"model"},{"step":32,"from":"1093467128","to":"sdaReg59","type":"model"},{"step":33,"from":"1093467128","to":"sdaReg47","type":"model"},{"step":34,"from":"1093444976","to":"1093467128","type":"model"},{"step":35,"from":"1093444976","to":"sdaReg59","type":"model"},{"step":36,"from":"1093444976","to":"sdaReg47","type":"model"},{"step":37,"from":"sdaReg59","to":"1093467128","type":"model"},{"step":38,"from":"sdaReg59","to":"1093444976","type":"model"},{"step":39,"from":"sdaReg59","to":"sdaReg47","type":"model"},{"step":40,"from":"sdaReg47","to":"1093467128","type":"model"},{"step":41,"from":"sdaReg47","to":"1093444976","type":"model"},{"step":42,"from":"sdaReg47","to":"sdaReg59","type":"model"},{"step":43,"from":"1093926144","to":"1093467128","type":"create","field":"<android.os.Bundle: android.os.Parcel mParcelledData>"},{"step":44,"from":"1093467128","to":"sdaReg68","type":"model"},{"step":45,"from":"sdaReg68","to":"1093926144","type":"store","field":"<android.os.Bundle: boolean mHasFds>"},{"step":46,"from":"1093926144","to":"sdaReg69","type":"create","field":"<android.os.Bundle: boolean mFdsKnown>"},{"step":47,"from":"sdaReg41","to":"1093731904","type":"store","field":"arrayIdx_int:0"},{"step":48,"from":"1093731944","to":"1093926144","type":"create","field":"arrayIdx_int:0"},{"step":49,"from":"sdaReg77","to":"1093872120","type":"store","field":"<android.util.SparseArray: int mSize>"},{"step":50,"from":"1093444976","to":"sdaReg78","type":"model"},{"step":51,"from":"1093444976","to":"sdaReg81","type":"model"},{"step":52,"from":"1093444976","to":"sdaReg84","type":"model"},{"step":53,"from":"static.<android.os.Parcel: java.util.HashMap mCreators>","to":"1084045240","type":"load","field":"<android.os.Parcel: java.util.HashMap mCreators>"},{"step":54,"from":"static.<android.os.Parcel: java.util.HashMap mCreators>","to":"1084045240","type":"load","field":"<android.os.Parcel: java.util.HashMap mCreators>"},{"step":55,"from":"static.<java.util.HashMap: java.util.Map$Entry[] EMPTY_TABLE>","to":"1083997920","type":"load","field":"<java.util.HashMap: java.util.Map$Entry[] EMPTY_TABLE>"},{"step":56,"from":"1083997920","to":"1093637680","type":"store","field":"<java.util.HashMap: java.util.HashMap$HashMapEntry[] table>"},{"step":57,"from":"1093637680","to":"sdaReg97","type":"create","field":"<java.util.HashMap: int threshold>"},{"step":58,"from":"static.<android.os.Parcel: java.util.HashMap mCreators>","to":"1084045240","type":"load","field":"<android.os.Parcel: java.util.HashMap mCreators>"},{"step":59,"from":"1093984432","to":"1093637680","type":"create","field":"<java.util.HashMap$HashMapEntry: java.lang.Object value>"},{"step":60,"from":"1093984432","to":"sdaReg108","type":"create","field":"<java.util.HashMap$HashMapEntry: int hash>"},{"step":61,"from":"1084045240","to":"1093984432","type":"create","field":"<java.util.HashMap: java.util.HashMap$HashMapEntry entryForNullKey>"},{"step":62,"from":"1084045240","to":"1084045240.<java.util.HashMap: int size>","type":"load","field":"<java.util.HashMap: int size>"},{"step":63,"from":"sdaReg111","to":"1084045240","type":"store","field":"<java.util.HashMap: int size>"},{"step":64,"from":"1084045240","to":"1084045240.<java.util.HashMap: int modCount>","type":"load","field":"<java.util.HashMap: int modCount>"},{"step":65,"from":"sdaReg112","to":"1084045240","type":"store","field":"<java.util.HashMap: int modCount>"},{"step":66,"from":"sdaReg84","to":"1084308992","type":"model"},{"step":67,"from":"1084308992","to":"1093773512","type":"model"},{"step":68,"from":"1093773512","to":"1084594584","type":"model"},{"step":69,"from":"1093637680","to":"1093637680.<java.util.HashMap: int modCount>","type":"load","field":"<java.util.HashMap: int modCount>"},{"step":70,"from":"sdaReg147","to":"1093637680","type":"store","field":"<java.util.HashMap: int modCount>"},{"step":71,"from":"1093637680","to":"1093637680.<java.util.HashMap: int size>","type":"load","field":"<java.util.HashMap: int size>"},{"step":72,"from":"sdaReg148","to":"1093637680","type":"store","field":"<java.util.HashMap: int size>"},{"step":73,"from":"1093637680","to":"1093773672","type":"create","field":"<java.util.HashMap: java.util.HashMap$HashMapEntry[] table>"},{"step":74,"from":"sdaReg156","to":"1093637680","type":"store","field":"<java.util.HashMap: int threshold>"},{"step":75,"from":"1093634144","to":"1093773712","type":"store","field":"<java.util.HashMap$HashMapEntry: java.lang.Object key>"},{"step":76,"from":"1093773712","to":"1084594584","type":"create","field":"<java.util.HashMap$HashMapEntry: java.lang.Object value>"},{"step":77,"from":"sdaReg143","to":"1093773712","type":"store","field":"<java.util.HashMap$HashMapEntry: int hash>"},{"step":78,"from":"1093773672","to":"1093773712","type":"create","field":"arrayIdx_int:1"},{"step":79,"from":"1093444976","to":"sdaReg181","type":"model"},{"step":80,"from":"sdaReg183","to":"1093837584","type":"store","field":"<android.content.Intent: java.lang.String mAction>"},{"step":81,"from":"static.<android.net.Uri: android.os.Parcelable$Creator CREATOR>","to":"1085193064","type":"load","field":"<android.net.Uri: android.os.Parcelable$Creator CREATOR>"},{"step":82,"from":"1085193064","to":"1093444976","type":"model"},{"step":83,"from":"1085193064","to":"0","type":"model"},{"step":84,"from":"1093444976","to":"1085193064","type":"model"},{"step":85,"from":"1093444976","to":"0","type":"model"},{"step":86,"from":"1093444976","to":"sdaReg186","type":"model"},{"step":87,"from":"sdaReg186","to":"1093837584","type":"store","field":"<android.content.Intent: java.lang.String mType>"},{"step":88,"from":"1093444976","to":"sdaReg187","type":"model"},{"step":89,"from":"sdaReg187","to":"1093837584","type":"store","field":"<android.content.Intent: int mFlags>"},{"step":90,"from":"1093444976","to":"sdaReg188","type":"model"},{"step":91,"from":"sdaReg188","to":"1093837584","type":"store","field":"<android.content.Intent: java.lang.String mPackage>"},{"step":92,"from":"1093444976","to":"sdaReg190","type":"model"},{"step":93,"from":"1093444976","to":"sdaReg193","type":"model"},{"step":94,"from":"1093444976","to":"sdaReg194","type":"model"},{"step":95,"from":"1093837584","to":"sdaReg195","type":"create","field":"<android.content.Intent: java.util.HashSet mCategories>"},{"step":96,"from":"1093444976","to":"sdaReg196","type":"model"},{"step":97,"from":"1093444976","to":"sdaReg199","type":"model"},{"step":98,"from":"sdaReg78","to":"1093731904","type":"store","field":"arrayIdx_int:1"},{"step":99,"from":"1093731944","to":"1093837584","type":"create","field":"arrayIdx_int:1"},{"step":100,"from":"sdaReg212","to":"1093872120","type":"store","field":"<android.util.SparseArray: int mSize>"},{"step":101,"from":"1093861576","to":"1093861576.<java.util.HashMap: int modCount>","type":"load","field":"<java.util.HashMap: int modCount>"},{"step":102,"from":"sdaReg230","to":"1093861576","type":"store","field":"<java.util.HashMap: int modCount>"},{"step":103,"from":"1093861576","to":"1093861576.<java.util.HashMap: int size>","type":"load","field":"<java.util.HashMap: int size>"},{"step":104,"from":"sdaReg231","to":"1093861576","type":"store","field":"<java.util.HashMap: int size>"},{"step":105,"from":"1093861576","to":"1094172432","type":"create","field":"<java.util.HashMap: java.util.HashMap$HashMapEntry[] table>"},{"step":106,"from":"sdaReg239","to":"1093861576","type":"store","field":"<java.util.HashMap: int threshold>"},{"step":107,"from":"1093906560","to":"1094172472","type":"store","field":"<java.util.HashMap$HashMapEntry: java.lang.Object key>"},{"step":108,"from":"1094172472","to":"1093872120","type":"create","field":"<java.util.HashMap$HashMapEntry: java.lang.Object value>"},{"step":109,"from":"sdaReg226","to":"1094172472","type":"store","field":"<java.util.HashMap$HashMapEntry: int hash>"},{"step":110,"from":"1094172432","to":"1094172472","type":"create","field":"arrayIdx_int:2"},{"step":111,"from":"1094220976","to":"1093444976","type":"load","field":"<android.os.Bundle: android.os.Parcel mParcelledData>"},{"step":112,"from":"1093444976","to":"1093444976.<android.os.Parcel: int mOwnObject>","type":"load","field":"<android.os.Parcel: int mOwnObject>"},{"step":113,"from":"static.<android.os.Parcel: android.os.Parcel[] sOwnedPool>","to":"1084044960","type":"load","field":"<android.os.Parcel: android.os.Parcel[] sOwnedPool>"},{"step":114,"from":"1093444976","to":"1084044960","type":"store","field":"arrayIdx_int:0"},{"step":115,"from":"1094220976","to":"sdaReg258","type":"create","field":"<android.os.Bundle: android.os.Parcel mParcelledData>"}],"parameters":[{"id":"1094220976","name":"this","klass":"android.os.Bundle"},{"id":"sdaReg0","name":"arg#1","klass":"string"}],"returns":[{"id":"1093872120","name":"return","klass":"android.util.SparseArray"}],"colors":{"heapLocToColor":{"sdaReg190":[0, 19, 36, 41],"sdaReg193":[0, 19, 36, 42],"sdaReg192":[36, 37],"1084045240.<java.util.HashMap: int modCount>":[24],"1093926144":[15],"sdaReg199":[0, 19, 36, 45],"sdaReg198":[0, 19, 36],"1093773712":[33],"sdaReg194":[0, 19, 36, 43],"sdaReg197":[0, 19, 36],"sdaReg196":[0, 19, 36, 44],"sdaReg14":[0],"1093773512":[29, 28],"sdaReg11":[0],"sdaReg12":[3],"sdaReg10":[3],"sdaReg19":[0],"sdaReg17":[0, 6],"sdaReg16":[0, 5],"1084045240":[24],"static.<android.net.Uri: android.os.Parcelable$Creator CREATOR>":[36],"1094220976":[0],"0":[36, 37],"sdaReg170":[33],"sdaReg173":[0, 19],"sdaReg172":[29, 28, 30],"sdaReg175":[0, 19],"sdaReg174":[29, 28, 30],"1094220976.<android.os.Bundle: android.os.Parcel mParcelledData>":[0, 19, 36],"sdaReg177":[0, 19],"sdaReg176":[34],"1093984432":[26],"sdaReg179":[34],"sdaReg178":[34],"static.<java.util.HashMap: java.util.Map$Entry[] EMPTY_TABLE>":[4],"sdaReg182":[34],"sdaReg181":[0, 35, 19],"sdaReg180":[0, 19],"sdaReg186":[0, 19, 38, 36],"sdaReg185":[36, 37],"sdaReg184":[36, 37],"sdaReg189":[0, 19, 36],"sdaReg188":[0, 19, 36, 40],"sdaReg187":[0, 19, 39, 36],"1093731944":[11],"sdaReg60":[17, 0, 14],"sdaReg61":[18],"1093861576.<java.util.HashMap: int size>":[3],"sdaReg59":[0, 17, 19],"sdaReg58":[0, 16],"sdaReg57":[0],"1083997920":[4],"sdaReg56":[15],"1084045240.<java.util.HashMap: int size>":[24],"sdaReg50":[15],"1093444976.<android.os.Parcel: int mOwnObject>":[0, 19, 36],"sdaReg49":[0],"sdaReg48":[15],"sdaReg45":[0],"sdaReg44":[0, 13],"1093637680.<java.util.HashMap: int modCount>":[25],"sdaReg47":[0, 19, 14],"sdaReg41":[0, 12],"1093861576.<java.util.HashMap: int modCount>":[3],"sdaReg42":[0],"sdaReg200":[36, 37],"sdaReg201":[36, 37],"sdaReg205":[34],"sdaReg39":[9],"sdaReg204":[34],"sdaReg38":[0],"sdaReg203":[34],"sdaReg37":[9],"sdaReg202":[34],"sdaReg209":[34],"sdaReg208":[9],"sdaReg207":[34],"sdaReg206":[34],"sdaReg36":[9],"sdaReg8":[4],"sdaReg6":[3],"sdaReg7":[4],"sdaReg4":[3],"sdaReg5":[3],"sdaReg26":[9],"sdaReg28":[0, 8],"sdaReg3":[3],"sdaReg2":[0, 2],"sdaReg21":[0, 7],"sdaReg1":[0],"sdaReg0":[1],"sdaReg22":[0],"sdaReg25":[9],"sdaReg24":[0, 8],"sdaReg126":[27],"sdaReg128":[29, 28, 30],"sdaReg129":[28],"1084044960":[18],"sdaReg68":[19, 20],"sdaReg229":[46],"sdaReg66":[19],"sdaReg67":[19],"sdaReg224":[46],"sdaReg64":[19],"sdaReg225":[46],"sdaReg65":[19],"sdaReg226":[46],"sdaReg63":[19],"sdaReg72":[15],"sdaReg221":[46],"sdaReg71":[15],"sdaReg220":[46],"sdaReg223":[46],"sdaReg70":[15],"sdaReg222":[46],"sdaReg120":[27],"sdaReg122":[27],"sdaReg121":[27],"sdaReg123":[27],"sdaReg116":[27],"sdaReg117":[27],"sdaReg114":[25],"sdaReg115":[27],"sdaReg118":[27],"sdaReg119":[27],"sdaReg219":[46],"sdaReg78":[0, 19, 21],"sdaReg79":[0, 19],"sdaReg217":[9],"sdaReg218":[46],"sdaReg73":[15],"sdaReg215":[3],"sdaReg74":[9],"sdaReg75":[15],"sdaReg213":[9],"sdaReg214":[9],"sdaReg81":[0, 19, 22],"sdaReg82":[0, 19],"1094172472":[48],"sdaReg112":[24],"sdaReg111":[24],"sdaReg110":[26],"sdaReg107":[25],"sdaReg109":[26],"static.<android.os.Parcel: java.util.HashMap mCreators>":[24],"sdaReg103":[25],"sdaReg104":[24],"1084594584":[29, 28, 30],"sdaReg105":[25],"sdaReg106":[26],"sdaReg86":[24],"sdaReg247":[9],"sdaReg248":[48],"sdaReg84":[0, 19, 23],"sdaReg85":[24],"sdaReg90":[25],"sdaReg240":[47],"sdaReg94":[25],"sdaReg242":[47],"sdaReg93":[25],"sdaReg245":[3],"sdaReg92":[25],"sdaReg91":[25],"sdaReg102":[24],"sdaReg101":[25],"1093637680.<java.util.HashMap: int size>":[25],"1085193064":[36],"1093861576":[3],"sdaReg95":[4],"sdaReg96":[4],"sdaReg235":[3],"sdaReg98":[25],"1093872120":[9],"sdaReg99":[24],"sdaReg230":[3],"sdaReg232":[3],"sdaReg231":[3],"1093637680":[25],"1093444976":[0, 19, 36],"1093773672":[32],"sdaReg268":[49],"sdaReg169":[33],"sdaReg162":[25],"sdaReg164":[29, 28, 30],"sdaReg165":[33],"sdaReg167":[29, 28, 30],"sdaReg264":[49],"sdaReg265":[49],"sdaReg266":[49],"sdaReg267":[49],"sdaReg260":[49],"sdaReg261":[49],"sdaReg262":[49],"sdaReg263":[49],"sdaReg259":[3],"sdaReg159":[32],"1093467128":[19],"sdaReg152":[25],"1084308992":[28],"sdaReg157":[32],"sdaReg255":[18],"sdaReg256":[18],"sdaReg253":[48],"sdaReg254":[0, 19, 36],"sdaReg251":[36, 37],"1093731904":[10],"1093837584":[34],"sdaReg252":[48],"sdaReg250":[9],"1094172432":[47],"static.<android.os.Parcel: android.os.Parcel[] sOwnedPool>":[18],"sdaReg148":[25],"sdaReg147":[25],"sdaReg149":[25],"sdaReg143":[31],"sdaReg146":[31],"sdaReg140":[31],"sdaReg141":[31],"sdaReg142":[31],"sdaReg139":[31],"sdaReg138":[31],"sdaReg137":[31],"sdaReg136":[31],"sdaReg134":[29, 28, 30],"sdaReg135":[31],"sdaReg132":[29, 28, 30],"sdaReg133":[25],"sdaReg130":[28],"sdaReg131":[29, 28],"sdaReg273":[9],"sdaReg274":[9],"sdaReg271":[49],"sdaReg272":[50]},"colorToColor":{"0":[34, 17, 0, 19, 18, 36, 37, 10, 28, 14],"3":[0, 3],"4":[3, 25],"9":[51, 48],"10":[9],"11":[9],"12":[10],"14":[17, 0, 19],"15":[11],"17":[0, 19, 14],"19":[34, 17, 0, 19, 18, 36, 37, 10, 28, 14, 15],"21":[10],"20":[15],"23":[28],"25":[25, 26],"24":[24],"26":[24],"29":[33],"28":[33],"31":[33],"30":[33],"34":[11],"32":[25],"33":[32],"38":[34],"39":[34],"36":[34, 18, 36, 37],"40":[34],"46":[48],"47":[3],"48":[47]},"colorToLabel":{"0":"this","1":"arg#1","4":"<java.util.HashMap: java.util.Map$Entry[] EMPTY_TABLE>","18":"<android.os.Parcel: android.os.Parcel[] sOwnedPool>","24":"<android.os.Parcel: java.util.HashMap mCreators>","36":"<android.net.Uri: android.os.Parcelable$Creator CREATOR>","51":"return"}}}

Generated Model
	this->return
	this-><android.os.Parcel: java.util.HashMap mCreators>
	this-><android.os.Parcel: android.os.Parcel[] sOwnedPool>
	this-><android.net.Uri: android.os.Parcelable$Creator CREATOR>

