Scanning method <java.net.URLConnection: boolean getAllowUserInteraction()>

All seen event types: LoadInstanceRecord, 
Ignored event types: 

JSON Encoded Analysis Data (for visualization):{"heapEdges":[{"step":0,"from":"1093572744","to":"1093572744.<java.net.URLConnection: boolean allowUserInteraction>","type":"load","field":"<java.net.URLConnection: boolean allowUserInteraction>"}],"parameters":[{"id":"1093572744","name":"this","klass":"java.net.URLConnection"}],"returns":[{"id":"1093572744.<java.net.URLConnection: boolean allowUserInteraction>","name":"return","klass":"boolean"}],"colors":{"heapLocToColor":{"1093572744":[0],"1093572744.<java.net.URLConnection: boolean allowUserInteraction>":[0]},"colorToColor":{"0":[1]},"colorToLabel":{"0":"this","1":"return"}}}

Generated Model
	this->return

