Scanning method <java.io.CharArrayWriter: java.io.CharArrayWriter append(java.lang.CharSequence,int,int)>

All seen event types: SimpleAssignmentRecord, ExitMonitorRecord, MethodStartRecord, LoadInstanceRecord, IfRecord, StoreInstanceRecord, NewArrayRecord, BinaryOperationRecord, MethodCallRecord, MethodReturnRecord, EnterMonitorRecord, ArrayLengthRecord, MethodEndRecord, 
Ignored event types: ExitMonitorRecord, EnterMonitorRecord, IfRecord, 

JSON Encoded Analysis Data (for visualization):{"heapEdges":[{"step":0,"from":"1093659952","to":"sdaReg3","type":"model"},{"step":1,"from":"1093660032","to":"1093660056","type":"load","field":"<java.io.Writer: java.lang.Object lock>"},{"step":2,"from":"1093660032","to":"1093660032.<java.io.CharArrayWriter: int count>","type":"load","field":"<java.io.CharArrayWriter: int count>"},{"step":3,"from":"1093660032","to":"1093660056","type":"load","field":"<java.io.CharArrayWriter: char[] buf>"},{"step":4,"from":"1093660032","to":"1093660056","type":"load","field":"<java.io.CharArrayWriter: char[] buf>"},{"step":5,"from":"1093660032","to":"1093660032.<java.io.CharArrayWriter: int count>","type":"load","field":"<java.io.CharArrayWriter: int count>"},{"step":6,"from":"sdaReg15","to":"sdaReg16","type":"model"},{"step":7,"from":"sdaReg15","to":"sdaReg17","type":"model"},{"step":8,"from":"sdaReg16","to":"sdaReg15","type":"model"},{"step":9,"from":"sdaReg16","to":"sdaReg17","type":"model"},{"step":10,"from":"1093660032","to":"1093660056","type":"load","field":"<java.io.CharArrayWriter: char[] buf>"},{"step":11,"from":"1093660032","to":"1093660032.<java.io.CharArrayWriter: int count>","type":"load","field":"<java.io.CharArrayWriter: int count>"},{"step":12,"from":"1093660056","to":"1093660336","type":"model"},{"step":13,"from":"1093660032","to":"1093660336","type":"create","field":"<java.io.CharArrayWriter: char[] buf>"},{"step":14,"from":"1093660032","to":"1093660032.<java.io.CharArrayWriter: int count>","type":"load","field":"<java.io.CharArrayWriter: int count>"},{"step":15,"from":"sdaReg3","to":"1093660336","type":"model"},{"step":16,"from":"1093660032","to":"1093660032.<java.io.CharArrayWriter: int count>","type":"load","field":"<java.io.CharArrayWriter: int count>"},{"step":17,"from":"sdaReg19","to":"1093660032","type":"store","field":"<java.io.CharArrayWriter: int count>"}],"parameters":[{"id":"1093660032","name":"this","klass":"java.io.CharArrayWriter"},{"id":"1093659952","name":"arg#1","klass":"java.lang.CharSequence"},{"id":"sdaReg0","name":"arg#2","klass":"int"},{"id":"sdaReg1","name":"arg#3","klass":"int"}],"returns":[{"id":"1093660032","name":"return","klass":"java.io.CharArrayWriter"}],"colors":{"heapLocToColor":{"1093660056":[0],"sdaReg8":[6],"sdaReg9":[5, 6],"sdaReg7":[5],"1093660032.<java.io.CharArrayWriter: int count>":[0],"sdaReg4":[5],"sdaReg5":[0],"1093659952":[1],"sdaReg11":[0],"sdaReg12":[0, 5],"1093660336":[1, 4, 8],"1093660032.<java.io.CharArrayWriter: char[] buf>":[0],"1093660032":[0],"sdaReg3":[1, 4],"sdaReg2":[1],"sdaReg19":[0, 5],"sdaReg1":[3],"sdaReg0":[2],"sdaReg17":[7],"sdaReg18":[5],"sdaReg16":[0, 5]},"colorToColor":{"0":[0, 7, 8, 9],"5":[0, 7],"8":[0]},"colorToLabel":{"0":"this","1":"arg#1","2":"arg#2","3":"arg#3","9":"return"}}}

Generated Model
	this->return

