Scanning method <android.text.SpannableStringBuilder: java.lang.String toString()>

All seen event types: NewArrayRecord, BinaryOperationRecord, MethodReturnRecord, MethodCallRecord, ArrayLengthRecord, LoadInstanceRecord, MethodStartRecord, IfRecord, MethodEndRecord, NewObjectRecord, 
Ignored event types: IfRecord, 

JSON Encoded Analysis Data (for visualization):{"heapEdges":[{"step":0,"from":"1093717408","to":"1093998208","type":"load","field":"<android.text.SpannableStringBuilder: char[] mText>"},{"step":1,"from":"1093717408","to":"1093717408.<android.text.SpannableStringBuilder: int mGapLength>","type":"load","field":"<android.text.SpannableStringBuilder: int mGapLength>"},{"step":2,"from":"1093717408","to":"1093998208","type":"load","field":"<android.text.SpannableStringBuilder: char[] mText>"},{"step":3,"from":"1093717408","to":"1093717408.<android.text.SpannableStringBuilder: int mGapLength>","type":"load","field":"<android.text.SpannableStringBuilder: int mGapLength>"},{"step":4,"from":"1093717408","to":"1093717408.<android.text.SpannableStringBuilder: int mGapStart>","type":"load","field":"<android.text.SpannableStringBuilder: int mGapStart>"},{"step":5,"from":"1093717408","to":"1093998208","type":"load","field":"<android.text.SpannableStringBuilder: char[] mText>"},{"step":6,"from":"1093998208","to":"1094071136","type":"model"},{"step":7,"from":"1094071136","to":"sdaReg13","type":"model"}],"parameters":[{"id":"1093717408","name":"this","klass":"android.text.SpannableStringBuilder"}],"returns":[{"id":"sdaReg13","name":"return","klass":"string"}],"colors":{"heapLocToColor":{"1093998208":[0],"sdaReg9":[0],"sdaReg7":[0],"sdaReg5":[1],"1093717408.<android.text.SpannableStringBuilder: char[] mText>":[0],"sdaReg13":[2],"1094071136":[1],"sdaReg11":[0],"sdaReg12":[0],"1093717408.<android.text.SpannableStringBuilder: int mGapLength>":[0],"sdaReg3":[0],"sdaReg2":[0],"sdaReg0":[0],"1093717408":[0],"1093717408.<android.text.SpannableStringBuilder: int mGapStart>":[0]},"colorToColor":{"0":[1],"1":[2],"2":[3]},"colorToLabel":{"0":"this","3":"return"}}}

Generated Model
	this->return

