Scanning method <android.util.Base64: byte[] decode(byte[],int)>

All seen event types: StoreArrayRecord, SimpleAssignmentRecord, MethodStartRecord, LoadInstanceRecord, IfRecord, NewObjectRecord, StoreInstanceRecord, NewArrayRecord, LoadStaticRecord, BinaryOperationRecord, SwitchRecord, MethodCallRecord, MethodReturnRecord, CastRecord, ArrayLengthRecord, LoadArrayRecord, MethodEndRecord, 
Ignored event types: SwitchRecord, IfRecord, 

JSON Encoded Analysis Data (for visualization):{"heapEdges":[{"step":0,"from":"1093472496","to":"1093724760","type":"create","field":"<android.util.Base64$Coder: byte[] output>"},{"step":1,"from":"static.<android.util.Base64$Decoder: int[] DECODE>","to":"1094029720","type":"load","field":"<android.util.Base64$Decoder: int[] DECODE>"},{"step":2,"from":"1094029720","to":"1093472496","type":"store","field":"<android.util.Base64$Decoder: int[] alphabet>"},{"step":3,"from":"1093472496","to":"sdaReg12","type":"create","field":"<android.util.Base64$Decoder: int state>"},{"step":4,"from":"1093472496","to":"sdaReg13","type":"create","field":"<android.util.Base64$Decoder: int value>"},{"step":5,"from":"1093724456","to":"1093724456.arrayIdx_int:0","type":"load","field":"arrayIdx_int:0"},{"step":6,"from":"1094029720","to":"1094029720.arrayIdx_int:89","type":"load","field":"arrayIdx_int:89"},{"step":7,"from":"1093724456","to":"1093724456.arrayIdx_int:1","type":"load","field":"arrayIdx_int:1"},{"step":8,"from":"1094029720","to":"1094029720.arrayIdx_int:81","type":"load","field":"arrayIdx_int:81"},{"step":9,"from":"1093724456","to":"1093724456.arrayIdx_int:2","type":"load","field":"arrayIdx_int:2"},{"step":10,"from":"1094029720","to":"1094029720.arrayIdx_int:61","type":"load","field":"arrayIdx_int:61"},{"step":11,"from":"1093724456","to":"1093724456.arrayIdx_int:3","type":"load","field":"arrayIdx_int:3"},{"step":12,"from":"1094029720","to":"1094029720.arrayIdx_int:61","type":"load","field":"arrayIdx_int:61"},{"step":13,"from":"1093724456","to":"1093724456.arrayIdx_int:0","type":"load","field":"arrayIdx_int:0"},{"step":14,"from":"1094029720","to":"1094029720.arrayIdx_int:89","type":"load","field":"arrayIdx_int:89"},{"step":15,"from":"1093724456","to":"1093724456.arrayIdx_int:1","type":"load","field":"arrayIdx_int:1"},{"step":16,"from":"1094029720","to":"1094029720.arrayIdx_int:81","type":"load","field":"arrayIdx_int:81"},{"step":17,"from":"1093724456","to":"1093724456.arrayIdx_int:2","type":"load","field":"arrayIdx_int:2"},{"step":18,"from":"1094029720","to":"1094029720.arrayIdx_int:61","type":"load","field":"arrayIdx_int:61"},{"step":19,"from":"sdaReg43","to":"1093724760","type":"store","field":"arrayIdx_int:0"},{"step":20,"from":"1093724456","to":"1093724456.arrayIdx_int:3","type":"load","field":"arrayIdx_int:3"},{"step":21,"from":"1094029720","to":"1094029720.arrayIdx_int:61","type":"load","field":"arrayIdx_int:61"},{"step":22,"from":"sdaReg39","to":"1093472496","type":"store","field":"<android.util.Base64$Decoder: int state>"},{"step":23,"from":"sdaReg21","to":"1093472496","type":"store","field":"<android.util.Base64$Coder: int op>"},{"step":24,"from":"1093724760","to":"1093572792","type":"model"}],"parameters":[{"id":"1093724456","name":"arg#0","klass":"byte[]"},{"id":"sdaReg0","name":"arg#1","klass":"int"}],"returns":[{"id":"1093572792","name":"return","klass":"byte[]"}],"colors":{"heapLocToColor":{"1094029720.arrayIdx_int:89":[4],"1093472496":[2],"1094029720":[4],"sdaReg14":[2],"sdaReg38":[0],"sdaReg11":[1],"sdaReg10":[2],"sdaReg32":[4],"sdaReg31":[4],"1094029720.arrayIdx_int:81":[4],"1093572792":[5],"sdaReg30":[0],"sdaReg36":[4],"1093724456":[0],"sdaReg17":[0],"sdaReg35":[4],"sdaReg34":[0],"sdaReg15":[2],"1094029720.arrayIdx_int:61":[4],"sdaReg16":[2],"sdaReg8":[2],"sdaReg9":[2],"sdaReg6":[2],"sdaReg7":[3],"static.<android.util.Base64$Decoder: int[] DECODE>":[4],"sdaReg27":[4],"sdaReg26":[0],"sdaReg28":[4],"1093724456.arrayIdx_int:0":[0],"1093724456.arrayIdx_int:1":[0],"1093724456.arrayIdx_int:2":[0],"1093724456.arrayIdx_int:3":[0],"1093724760":[3],"sdaReg2":[0],"sdaReg46":[5],"sdaReg0":[1],"sdaReg23":[0],"sdaReg40":[4],"sdaReg43":[4],"sdaReg42":[4],"sdaReg24":[4]},"colorToColor":{"3":[2, 5],"4":[2, 3],"5":[6]},"colorToLabel":{"0":"arg#0","1":"arg#1","4":"<android.util.Base64$Decoder: int[] DECODE>","6":"return"}}}

Generated Model

