Scanning method <java.io.PrintWriter: void <init>(java.io.File)>

All seen event types: SimpleAssignmentRecord, MethodStartRecord, LoadInstanceRecord, IfRecord, NewObjectRecord, StoreInstanceRecord, LoadStaticRecord, NewArrayRecord, BinaryOperationRecord, MethodCallRecord, MethodReturnRecord, CastRecord, ArrayLengthRecord, LoadArrayRecord, MethodEndRecord, 
Ignored event types: IfRecord, 

JSON Encoded Analysis Data (for visualization):{"heapEdges":[{"step":0,"from":"1093324496","to":"1093333808","type":"model"},{"step":1,"from":"1093333808","to":"1093324496","type":"model"},{"step":2,"from":"1093333808","to":"1093324496","type":"model"},{"step":3,"from":"1093582664","to":"1093324496","type":"model"},{"step":4,"from":"1093324496","to":"1093582664","type":"model"},{"step":5,"from":"1093324496","to":"1093582664","type":"model"},{"step":6,"from":"static.<java.nio.charset.Charset: java.nio.charset.Charset DEFAULT_CHARSET>","to":"1084325896","type":"load","field":"<java.nio.charset.Charset: java.nio.charset.Charset DEFAULT_CHARSET>"},{"step":7,"from":"1093592912","to":"1093582664","type":"create","field":"<java.io.Writer: java.lang.Object lock>"},{"step":8,"from":"1093266784","to":"sdaReg28","type":"create","field":"<java.nio.Buffer: int mark>"},{"step":9,"from":"1093266784","to":"sdaReg29","type":"create","field":"<java.nio.Buffer: int position>"},{"step":10,"from":"1093266784","to":"sdaReg25","type":"create","field":"<java.nio.Buffer: int _elementSizeShift>"},{"step":11,"from":"1093266784","to":"sdaReg15","type":"create","field":"<java.nio.Buffer: int limit>"},{"step":12,"from":"sdaReg15","to":"1093266784","type":"store","field":"<java.nio.Buffer: int capacity>"},{"step":13,"from":"static.<java.nio.ByteOrder: java.nio.ByteOrder BIG_ENDIAN>","to":"1084339448","type":"load","field":"<java.nio.ByteOrder: java.nio.ByteOrder BIG_ENDIAN>"},{"step":14,"from":"1084339448","to":"1093266784","type":"store","field":"<java.nio.ByteBuffer: java.nio.ByteOrder order>"},{"step":15,"from":"1093266784","to":"1093648824","type":"create","field":"<java.nio.HeapByteBuffer: byte[] backingArray>"},{"step":16,"from":"1093266784","to":"sdaReg20","type":"create","field":"<java.nio.HeapByteBuffer: int offset>"},{"step":17,"from":"1093592912","to":"1093266784","type":"create","field":"<java.io.OutputStreamWriter: java.nio.ByteBuffer bytes>"},{"step":18,"from":"1093582664","to":"1093592912","type":"store","field":"<java.io.OutputStreamWriter: java.io.OutputStream out>"},{"step":19,"from":"1084325896","to":"1084325896.<java.nio.charset.CharsetICU: java.lang.String icuCanonicalName>","type":"load","field":"<java.nio.charset.CharsetICU: java.lang.String icuCanonicalName>"},{"step":20,"from":"1084325896.<java.nio.charset.CharsetICU: java.lang.String icuCanonicalName>","to":"sdaReg42","type":"model"},{"step":21,"from":"sdaReg42","to":"sdaReg43","type":"model"},{"step":22,"from":"sdaReg42","to":"sdaReg44","type":"model"},{"step":23,"from":"static.<java.nio.charset.CharsetEncoderICU: java.util.Map DEFAULT_REPLACEMENTS>","to":"1085689080","type":"load","field":"<java.nio.charset.CharsetEncoderICU: java.util.Map DEFAULT_REPLACEMENTS>"},{"step":24,"from":"1085689080","to":"1085689160","type":"load","field":"<java.util.HashMap: java.util.HashMap$HashMapEntry[] table>"},{"step":25,"from":"1085689160","to":"1085689200","type":"load","field":"arrayIdx_int:1"},{"step":26,"from":"1085689200","to":"1083986640","type":"load","field":"<java.util.HashMap$HashMapEntry: java.lang.Object key>"},{"step":27,"from":"1085689200","to":"1085689200.<java.util.HashMap$HashMapEntry: int hash>","type":"load","field":"<java.util.HashMap$HashMapEntry: int hash>"},{"step":28,"from":"1085689200","to":"1085689136","type":"load","field":"<java.util.HashMap$HashMapEntry: java.lang.Object value>"},{"step":29,"from":"1085689136","to":"1093335400","type":"model"},{"step":30,"from":"1093314368","to":"1084325896","type":"model"},{"step":31,"from":"1093314368","to":"sdaReg43","type":"model"},{"step":32,"from":"1093314368","to":"sdaReg45","type":"model"},{"step":33,"from":"1093314368","to":"1093335400","type":"model"},{"step":34,"from":"1084325896","to":"1093314368","type":"model"},{"step":35,"from":"1084325896","to":"sdaReg43","type":"model"},{"step":36,"from":"1084325896","to":"sdaReg45","type":"model"},{"step":37,"from":"1084325896","to":"1093335400","type":"model"},{"step":38,"from":"1084325896","to":"1093314368","type":"model"},{"step":39,"from":"sdaReg43","to":"1093314368","type":"model"},{"step":40,"from":"sdaReg43","to":"1084325896","type":"model"},{"step":41,"from":"sdaReg43","to":"sdaReg45","type":"model"},{"step":42,"from":"sdaReg43","to":"1093335400","type":"model"},{"step":43,"from":"sdaReg43","to":"1093314368","type":"model"},{"step":44,"from":"sdaReg45","to":"1093314368","type":"model"},{"step":45,"from":"sdaReg45","to":"1084325896","type":"model"},{"step":46,"from":"sdaReg45","to":"sdaReg43","type":"model"},{"step":47,"from":"sdaReg45","to":"1093335400","type":"model"},{"step":48,"from":"sdaReg45","to":"1093314368","type":"model"},{"step":49,"from":"1093335400","to":"1093314368","type":"model"},{"step":50,"from":"1093335400","to":"1084325896","type":"model"},{"step":51,"from":"1093335400","to":"sdaReg43","type":"model"},{"step":52,"from":"1093335400","to":"sdaReg45","type":"model"},{"step":53,"from":"1093335400","to":"1093314368","type":"model"},{"step":54,"from":"1093314368","to":"1093289736","type":"create","field":"<java.nio.charset.CharsetEncoderICU: int[] data>"},{"step":55,"from":"1093314368","to":"sdaReg69","type":"create","field":"<java.nio.charset.CharsetEncoderICU: long converterHandle>"},{"step":56,"from":"1093314368","to":"sdaReg70","type":"create","field":"<java.nio.charset.CharsetEncoderICU: char[] input>"},{"step":57,"from":"1093314368","to":"sdaReg71","type":"create","field":"<java.nio.charset.CharsetEncoderICU: byte[] output>"},{"step":58,"from":"1093314368","to":"sdaReg72","type":"create","field":"<java.nio.charset.CharsetEncoderICU: char[] allocatedInput>"},{"step":59,"from":"1093314368","to":"sdaReg73","type":"create","field":"<java.nio.charset.CharsetEncoderICU: byte[] allocatedOutput>"},{"step":60,"from":"sdaReg42","to":"1093314368","type":"store","field":"<java.nio.charset.CharsetEncoderICU: long converterHandle>"},{"step":61,"from":"1093314368","to":"1084336272","type":"load","field":"<java.nio.charset.CharsetEncoder: java.nio.charset.CodingErrorAction malformedInputAction>"},{"step":62,"from":"static.<java.nio.charset.CodingErrorAction: java.nio.charset.CodingErrorAction REPORT>","to":"1084336272","type":"load","field":"<java.nio.charset.CodingErrorAction: java.nio.charset.CodingErrorAction REPORT>"},{"step":63,"from":"1093314368","to":"1084336272","type":"load","field":"<java.nio.charset.CharsetEncoder: java.nio.charset.CodingErrorAction unmappableCharacterAction>"},{"step":64,"from":"static.<java.nio.charset.CodingErrorAction: java.nio.charset.CodingErrorAction REPORT>","to":"1084336272","type":"load","field":"<java.nio.charset.CodingErrorAction: java.nio.charset.CodingErrorAction REPORT>"},{"step":65,"from":"1093314368","to":"1093335400","type":"load","field":"<java.nio.charset.CharsetEncoder: byte[] replacementBytes>"},{"step":66,"from":"sdaReg75","to":"sdaReg80","type":"model"},{"step":67,"from":"sdaReg75","to":"sdaReg84","type":"model"},{"step":68,"from":"sdaReg75","to":"1093335400","type":"model"},{"step":69,"from":"sdaReg75","to":"sdaReg87","type":"model"},{"step":70,"from":"sdaReg80","to":"sdaReg75","type":"model"},{"step":71,"from":"sdaReg80","to":"sdaReg84","type":"model"},{"step":72,"from":"sdaReg80","to":"1093335400","type":"model"},{"step":73,"from":"sdaReg80","to":"sdaReg87","type":"model"},{"step":74,"from":"sdaReg84","to":"sdaReg75","type":"model"},{"step":75,"from":"sdaReg84","to":"sdaReg80","type":"model"},{"step":76,"from":"sdaReg84","to":"1093335400","type":"model"},{"step":77,"from":"sdaReg84","to":"sdaReg87","type":"model"},{"step":78,"from":"1093335400","to":"sdaReg75","type":"model"},{"step":79,"from":"1093335400","to":"sdaReg80","type":"model"},{"step":80,"from":"1093335400","to":"sdaReg84","type":"model"},{"step":81,"from":"1093335400","to":"sdaReg87","type":"model"},{"step":82,"from":"sdaReg87","to":"1093314368","type":"store","field":"<java.nio.charset.CharsetEncoderICU: int ec>"},{"step":83,"from":"1093592912","to":"1093314368","type":"create","field":"<java.io.OutputStreamWriter: java.nio.charset.CharsetEncoder encoder>"},{"step":84,"from":"static.<java.nio.charset.CodingErrorAction: java.nio.charset.CodingErrorAction REPLACE>","to":"1084051696","type":"load","field":"<java.nio.charset.CodingErrorAction: java.nio.charset.CodingErrorAction REPLACE>"},{"step":85,"from":"1084051696","to":"1093314368","type":"store","field":"<java.nio.charset.CharsetEncoder: java.nio.charset.CodingErrorAction malformedInputAction>"},{"step":86,"from":"static.<java.nio.charset.CodingErrorAction: java.nio.charset.CodingErrorAction REPORT>","to":"1084336272","type":"load","field":"<java.nio.charset.CodingErrorAction: java.nio.charset.CodingErrorAction REPORT>"},{"step":87,"from":"static.<java.nio.charset.CodingErrorAction: java.nio.charset.CodingErrorAction IGNORE>","to":"1084016976","type":"load","field":"<java.nio.charset.CodingErrorAction: java.nio.charset.CodingErrorAction IGNORE>"},{"step":88,"from":"static.<java.nio.charset.CodingErrorAction: java.nio.charset.CodingErrorAction REPLACE>","to":"1084051696","type":"load","field":"<java.nio.charset.CodingErrorAction: java.nio.charset.CodingErrorAction REPLACE>"},{"step":89,"from":"1093314368","to":"1084336272","type":"load","field":"<java.nio.charset.CharsetEncoder: java.nio.charset.CodingErrorAction unmappableCharacterAction>"},{"step":90,"from":"static.<java.nio.charset.CodingErrorAction: java.nio.charset.CodingErrorAction REPORT>","to":"1084336272","type":"load","field":"<java.nio.charset.CodingErrorAction: java.nio.charset.CodingErrorAction REPORT>"},{"step":91,"from":"1093314368","to":"1093335400","type":"load","field":"<java.nio.charset.CharsetEncoder: byte[] replacementBytes>"},{"step":92,"from":"sdaReg101","to":"sdaReg106","type":"model"},{"step":93,"from":"sdaReg101","to":"sdaReg110","type":"model"},{"step":94,"from":"sdaReg101","to":"1093335400","type":"model"},{"step":95,"from":"sdaReg101","to":"sdaReg113","type":"model"},{"step":96,"from":"sdaReg106","to":"sdaReg101","type":"model"},{"step":97,"from":"sdaReg106","to":"sdaReg110","type":"model"},{"step":98,"from":"sdaReg106","to":"1093335400","type":"model"},{"step":99,"from":"sdaReg106","to":"sdaReg113","type":"model"},{"step":100,"from":"sdaReg110","to":"sdaReg101","type":"model"},{"step":101,"from":"sdaReg110","to":"sdaReg106","type":"model"},{"step":102,"from":"sdaReg110","to":"1093335400","type":"model"},{"step":103,"from":"sdaReg110","to":"sdaReg113","type":"model"},{"step":104,"from":"1093335400","to":"sdaReg101","type":"model"},{"step":105,"from":"1093335400","to":"sdaReg106","type":"model"},{"step":106,"from":"1093335400","to":"sdaReg110","type":"model"},{"step":107,"from":"1093335400","to":"sdaReg113","type":"model"},{"step":108,"from":"sdaReg113","to":"1093314368","type":"store","field":"<java.nio.charset.CharsetEncoderICU: int ec>"},{"step":109,"from":"static.<java.nio.charset.CodingErrorAction: java.nio.charset.CodingErrorAction REPLACE>","to":"1084051696","type":"load","field":"<java.nio.charset.CodingErrorAction: java.nio.charset.CodingErrorAction REPLACE>"},{"step":110,"from":"1084051696","to":"1093314368","type":"store","field":"<java.nio.charset.CharsetEncoder: java.nio.charset.CodingErrorAction unmappableCharacterAction>"},{"step":111,"from":"static.<java.nio.charset.CodingErrorAction: java.nio.charset.CodingErrorAction REPORT>","to":"1084336272","type":"load","field":"<java.nio.charset.CodingErrorAction: java.nio.charset.CodingErrorAction REPORT>"},{"step":112,"from":"static.<java.nio.charset.CodingErrorAction: java.nio.charset.CodingErrorAction IGNORE>","to":"1084016976","type":"load","field":"<java.nio.charset.CodingErrorAction: java.nio.charset.CodingErrorAction IGNORE>"},{"step":113,"from":"static.<java.nio.charset.CodingErrorAction: java.nio.charset.CodingErrorAction REPLACE>","to":"1084051696","type":"load","field":"<java.nio.charset.CodingErrorAction: java.nio.charset.CodingErrorAction REPLACE>"},{"step":114,"from":"static.<java.nio.charset.CodingErrorAction: java.nio.charset.CodingErrorAction REPORT>","to":"1084336272","type":"load","field":"<java.nio.charset.CodingErrorAction: java.nio.charset.CodingErrorAction REPORT>"},{"step":115,"from":"static.<java.nio.charset.CodingErrorAction: java.nio.charset.CodingErrorAction IGNORE>","to":"1084016976","type":"load","field":"<java.nio.charset.CodingErrorAction: java.nio.charset.CodingErrorAction IGNORE>"},{"step":116,"from":"static.<java.nio.charset.CodingErrorAction: java.nio.charset.CodingErrorAction REPLACE>","to":"1084051696","type":"load","field":"<java.nio.charset.CodingErrorAction: java.nio.charset.CodingErrorAction REPLACE>"},{"step":117,"from":"1093314368","to":"1093335400","type":"load","field":"<java.nio.charset.CharsetEncoder: byte[] replacementBytes>"},{"step":118,"from":"sdaReg121","to":"sdaReg126","type":"model"},{"step":119,"from":"sdaReg121","to":"sdaReg130","type":"model"},{"step":120,"from":"sdaReg121","to":"1093335400","type":"model"},{"step":121,"from":"sdaReg121","to":"sdaReg133","type":"model"},{"step":122,"from":"sdaReg126","to":"sdaReg121","type":"model"},{"step":123,"from":"sdaReg126","to":"sdaReg130","type":"model"},{"step":124,"from":"sdaReg126","to":"1093335400","type":"model"},{"step":125,"from":"sdaReg126","to":"sdaReg133","type":"model"},{"step":126,"from":"sdaReg130","to":"sdaReg121","type":"model"},{"step":127,"from":"sdaReg130","to":"sdaReg126","type":"model"},{"step":128,"from":"sdaReg130","to":"1093335400","type":"model"},{"step":129,"from":"sdaReg130","to":"sdaReg133","type":"model"},{"step":130,"from":"1093335400","to":"sdaReg121","type":"model"},{"step":131,"from":"1093335400","to":"sdaReg126","type":"model"},{"step":132,"from":"1093335400","to":"sdaReg130","type":"model"},{"step":133,"from":"1093335400","to":"sdaReg133","type":"model"},{"step":134,"from":"sdaReg133","to":"1093314368","type":"store","field":"<java.nio.charset.CharsetEncoderICU: int ec>"},{"step":135,"from":"1093592880","to":"1093592912","type":"model"},{"step":136,"from":"1093592912","to":"1093592880","type":"model"},{"step":137,"from":"1093592912","to":"1093592880","type":"model"}],"parameters":[{"id":"1093592880","name":"this","klass":"java.io.PrintWriter"},{"id":"1093333808","name":"arg#1","klass":"java.io.File"}],"returns":[{"id":"1093592880","name":"return","klass":"java.io.PrintWriter"}],"colors":{"heapLocToColor":{"sdaReg125":[20],"1093592880":[0],"sdaReg127":[16],"sdaReg128":[20],"sdaReg129":[20],"1093266784":[6],"sdaReg68":[16],"1085689200":[12],"sdaReg66":[5],"sdaReg67":[12, 15],"sdaReg64":[12, 15],"sdaReg65":[16],"sdaReg62":[12, 15],"sdaReg63":[12, 15],"sdaReg13":[2],"sdaReg14":[2],"static.<java.nio.charset.CharsetEncoderICU: java.util.Map DEFAULT_REPLACEMENTS>":[12],"sdaReg11":[2],"sdaReg12":[3],"sdaReg10":[5],"1093314368":[16],"sdaReg120":[16],"sdaReg19":[7],"sdaReg122":[16],"sdaReg17":[6],"sdaReg18":[6],"sdaReg124":[20],"sdaReg123":[16],"sdaReg16":[6],"1085689200.<java.util.HashMap$HashMapEntry: int hash>":[12],"sdaReg116":[16],"sdaReg117":[20],"sdaReg118":[16],"sdaReg119":[20],"sdaReg77":[16],"sdaReg78":[16],"sdaReg79":[16],"1085689080":[12],"sdaReg74":[16],"sdaReg76":[16],"sdaReg81":[16],"sdaReg83":[16, 18],"sdaReg82":[16, 18],"1093333808":[1, 4],"1085689136":[12],"sdaReg113":[22],"sdaReg112":[16, 12, 15],"sdaReg111":[16],"sdaReg107":[16],"sdaReg108":[16, 18],"sdaReg109":[16, 18],"1093289736":[17],"sdaReg103":[16],"1093592912":[0, 2],"sdaReg104":[20],"sdaReg105":[20],"sdaReg86":[16, 12, 15],"sdaReg87":[19],"sdaReg85":[16],"sdaReg90":[16],"sdaReg94":[16],"sdaReg93":[9],"sdaReg92":[16],"1085689160":[12],"sdaReg91":[16],"sdaReg100":[16],"sdaReg102":[16],"1084051696":[20],"static.<java.nio.charset.CodingErrorAction: java.nio.charset.CodingErrorAction REPLACE>":[20],"1093324496":[3, 4],"1093582664":[3],"sdaReg95":[16],"sdaReg96":[16],"1093314368.<java.nio.charset.CharsetEncoder: java.nio.charset.CodingErrorAction unmappableCharacterAction>":[16, 18],"sdaReg97":[20],"sdaReg98":[16],"sdaReg99":[20],"1084339448":[8],"1084016976":[21],"sdaReg60":[12],"sdaReg61":[12],"1083986640":[12],"sdaReg59":[14],"sdaReg58":[13],"sdaReg55":[13],"static.<java.nio.ByteOrder: java.nio.ByteOrder BIG_ENDIAN>":[8],"sdaReg54":[13],"sdaReg53":[13],"sdaReg52":[13],"sdaReg51":[13],"sdaReg50":[13],"1093335400":[16, 12, 15],"static.<java.nio.charset.CodingErrorAction: java.nio.charset.CodingErrorAction IGNORE>":[21],"sdaReg49":[13],"sdaReg48":[13],"sdaReg45":[16, 11],"sdaReg44":[11],"static.<java.nio.charset.CodingErrorAction: java.nio.charset.CodingErrorAction REPORT>":[16, 18],"1084325896.<java.nio.charset.CharsetICU: java.lang.String icuCanonicalName>":[5],"sdaReg47":[13],"1084336272":[16, 18],"sdaReg46":[12],"sdaReg40":[5],"sdaReg43":[16, 10],"sdaReg42":[9],"static.<java.nio.charset.Charset: java.nio.charset.Charset DEFAULT_CHARSET>":[5],"sdaReg39":[5],"sdaReg38":[6],"sdaReg37":[6],"sdaReg32":[6],"sdaReg31":[6],"sdaReg30":[6],"sdaReg36":[6],"sdaReg35":[6],"sdaReg8":[2],"sdaReg9":[3],"sdaReg6":[3],"sdaReg7":[5],"1093648824":[7],"sdaReg4":[3],"sdaReg5":[2],"1084325896":[16, 5],"sdaReg138":[0],"1093314368.<java.nio.charset.CharsetEncoder: byte[] replacementBytes>":[16, 12, 15],"sdaReg137":[2],"sdaReg136":[2],"sdaReg27":[6],"sdaReg132":[16, 12, 15],"sdaReg133":[23],"sdaReg131":[16],"sdaReg3":[4],"sdaReg2":[4],"sdaReg21":[6],"sdaReg1":[1],"sdaReg0":[4],"sdaReg22":[6],"sdaReg24":[6]},"colorToColor":{"0":[0, 24],"1":[4],"2":[0],"3":[2, 3],"4":[3, 4],"5":[16, 9, 10, 11, 12, 15],"6":[2],"7":[6],"8":[6],"9":[16, 10, 11],"10":[16, 5, 11, 12, 15],"11":[16, 5, 10, 12, 15],"12":[16, 19, 5, 23, 22, 10, 11],"15":[16, 19, 5, 23, 22, 10, 11],"17":[16],"16":[16, 2, 19, 5, 23, 22, 10, 11, 12, 15],"19":[16],"20":[16],"23":[16],"22":[16]},"colorToLabel":{"0":"this","1":"arg#1","5":"<java.nio.charset.Charset: java.nio.charset.Charset DEFAULT_CHARSET>","8":"<java.nio.ByteOrder: java.nio.ByteOrder BIG_ENDIAN>","12":"<java.nio.charset.CharsetEncoderICU: java.util.Map DEFAULT_REPLACEMENTS>","18":"<java.nio.charset.CodingErrorAction: java.nio.charset.CodingErrorAction REPORT>","20":"<java.nio.charset.CodingErrorAction: java.nio.charset.CodingErrorAction REPLACE>","21":"<java.nio.charset.CodingErrorAction: java.nio.charset.CodingErrorAction IGNORE>","24":"return"}}}

Generated Model
	this->return
	arg#1->this
	arg#1->return

