Scanning method <java.io.ObjectInputStream: double readDouble()>

All seen event types: LoadStaticRecord, MethodReturnRecord, MethodCallRecord, MethodStartRecord, LoadInstanceRecord, MethodEndRecord, 
Ignored event types: 

JSON Encoded Analysis Data (for visualization):{"heapEdges":[{"step":0,"from":"1093292320","to":"1093440888","type":"load","field":"<java.io.ObjectInputStream: java.io.DataInputStream primitiveTypes>"},{"step":1,"from":"1093440888","to":"1093292320","type":"load","field":"<java.io.FilterInputStream: java.io.InputStream in>"},{"step":2,"from":"1093440888","to":"1093312424","type":"load","field":"<java.io.DataInputStream: byte[] scratch>"},{"step":3,"from":"1093292320","to":"1093312424","type":"model"},{"step":4,"from":"1093440888","to":"1093312424","type":"load","field":"<java.io.DataInputStream: byte[] scratch>"},{"step":5,"from":"static.<java.nio.ByteOrder: java.nio.ByteOrder BIG_ENDIAN>","to":"1084339448","type":"load","field":"<java.nio.ByteOrder: java.nio.ByteOrder BIG_ENDIAN>"},{"step":6,"from":"1093312424","to":"sdaReg2","type":"model"},{"step":7,"from":"sdaReg2","to":"sdaReg3","type":"model"}],"parameters":[{"id":"1093292320","name":"this","klass":"java.io.ObjectInputStream"}],"returns":[{"id":"sdaReg3","name":"return","klass":"double"}],"colors":{"heapLocToColor":{"1093292320":[0],"1084339448":[1],"1093440888.<java.io.DataInputStream: byte[] scratch>":[0],"sdaReg3":[3],"sdaReg2":[2],"1093312424":[0],"1093440888":[0],"sdaReg1":[0],"sdaReg0":[0],"static.<java.nio.ByteOrder: java.nio.ByteOrder BIG_ENDIAN>":[1],"1093440888.<java.io.FilterInputStream: java.io.InputStream in>":[0]},"colorToColor":{"0":[0, 2],"2":[3],"3":[4]},"colorToLabel":{"0":"this","1":"<java.nio.ByteOrder: java.nio.ByteOrder BIG_ENDIAN>","4":"return"}}}

Generated Model
	this->return

