Scanning method <java.util.HashMap$EntryIterator: void <init>(java.util.HashMap,java.util.HashMap$1)>

All seen event types: BinaryOperationRecord, SimpleAssignmentRecord, MethodReturnRecord, MethodCallRecord, ArrayLengthRecord, LoadInstanceRecord, MethodStartRecord, LoadArrayRecord, MethodEndRecord, IfRecord, StoreInstanceRecord, 
Ignored event types: IfRecord, 

JSON Encoded Analysis Data (for visualization):{"heapEdges":[{"step":0,"from":"1093556920","to":"1093382120","type":"store","field":"<java.util.HashMap$EntryIterator: java.util.HashMap this$0>"},{"step":1,"from":"1093556920","to":"1093382120","type":"store","field":"<java.util.HashMap$HashIterator: java.util.HashMap this$0>"},{"step":2,"from":"1093556920","to":"1093556920.<java.util.HashMap: int modCount>","type":"load","field":"<java.util.HashMap: int modCount>"},{"step":3,"from":"1093556920.<java.util.HashMap: int modCount>","to":"1093382120","type":"store","field":"<java.util.HashMap$HashIterator: int expectedModCount>"},{"step":4,"from":"1093556920","to":"1093557184","type":"load","field":"<java.util.HashMap: java.util.HashMap$HashMapEntry[] table>"},{"step":5,"from":"1093382120","to":"1093382120.<java.util.HashMap$HashIterator: int nextIndex>","type":"load","field":"<java.util.HashMap$HashIterator: int nextIndex>"},{"step":6,"from":"1093382120","to":"1093382120.<java.util.HashMap$HashIterator: int nextIndex>","type":"load","field":"<java.util.HashMap$HashIterator: int nextIndex>"},{"step":7,"from":"sdaReg7","to":"1093382120","type":"store","field":"<java.util.HashMap$HashIterator: int nextIndex>"},{"step":8,"from":"1093557184","to":"1093557240","type":"load","field":"arrayIdx_int:0"},{"step":9,"from":"1093557240","to":"1093382120","type":"store","field":"<java.util.HashMap$HashIterator: java.util.HashMap$HashMapEntry nextEntry>"}],"parameters":[{"id":"1093382120","name":"this","klass":"java.util.HashMap$EntryIterator"},{"id":"1093556920","name":"arg#1","klass":"java.util.HashMap"},{"id":"0","name":"arg#2","klass":"java.util.HashMap$1"}],"returns":[{"id":"1093382120","name":"return","klass":"java.util.HashMap$EntryIterator"}],"colors":{"heapLocToColor":{"1093557240":[1],"sdaReg8":[0],"sdaReg9":[0],"sdaReg7":[0],"sdaReg4":[0],"1093556920.<java.util.HashMap: int modCount>":[1],"1093557184":[1],"0":[2],"1093556920":[1],"sdaReg3":[1],"sdaReg2":[0],"sdaReg1":[1],"sdaReg0":[0],"1093382120.<java.util.HashMap$HashIterator: int nextIndex>":[0],"1093382120":[0]},"colorToColor":{"0":[0, 3],"1":[0]},"colorToLabel":{"0":"this","1":"arg#1","2":"arg#2","3":"return"}}}

Generated Model
	this->return
	arg#1->this
	arg#1->return

