Scanning method <java.util.TreeMap: java.util.Set keySet()>

All seen event types: SimpleAssignmentRecord, LoadInstanceRecord, IfRecord, 
Ignored event types: IfRecord, 

JSON Encoded Analysis Data (for visualization):{"heapEdges":[{"step":0,"from":"1099705064","to":"1093850104","type":"load","field":"<java.util.TreeMap: java.util.TreeMap$KeySet keySet>"}],"parameters":[{"id":"1099705064","name":"this","klass":"java.util.TreeMap"}],"returns":[{"id":"1093850104","name":"return","klass":"java.util.Set"}],"colors":{"heapLocToColor":{"1093850104":[0],"1099705064":[0]},"colorToColor":{"0":[1]},"colorToLabel":{"0":"this","1":"return"}}}

Generated Model
	this->return

