Scanning method <java.io.StringReader: boolean ready()>

All seen event types: SimpleAssignmentRecord, ExitMonitorRecord, MethodReturnRecord, MethodCallRecord, EnterMonitorRecord, MethodStartRecord, LoadInstanceRecord, MethodEndRecord, IfRecord, 
Ignored event types: ExitMonitorRecord, EnterMonitorRecord, IfRecord, 

JSON Encoded Analysis Data (for visualization):{"heapEdges":[{"step":0,"from":"1093683832","to":"1093683832","type":"load","field":"<java.io.Reader: java.lang.Object lock>"},{"step":1,"from":"1093683832","to":"1093683832.<java.io.StringReader: java.lang.String str>","type":"load","field":"<java.io.StringReader: java.lang.String str>"}],"parameters":[{"id":"1093683832","name":"this","klass":"java.io.StringReader"}],"returns":[{"id":"sdaReg4","name":"return","klass":"boolean"}],"colors":{"heapLocToColor":{"1093683832":[0],"sdaReg2":[0],"sdaReg1":[0],"1093683832.<java.io.Reader: java.lang.Object lock>":[0],"sdaReg0":[0],"1093683832.<java.io.StringReader: java.lang.String str>":[0]},"colorToColor":{},"colorToLabel":{"0":"this","1":"return"}}}

Generated Model

