Scanning method <java.util.TreeMap: java.lang.Object putInternal(java.lang.Object,java.lang.Object)>

All seen event types: LoadStaticRecord, BinaryOperationRecord, MethodReturnRecord, MethodCallRecord, LoadInstanceRecord, MethodStartRecord, MethodEndRecord, IfRecord, StoreInstanceRecord, NewObjectRecord, InstanceOfRecord, 
Ignored event types: IfRecord, 

JSON Encoded Analysis Data (for visualization):{"heapEdges":[{"step":0,"from":"static.<java.util.TreeMap$Relation: java.util.TreeMap$Relation CREATE>","to":"1085707192","type":"load","field":"<java.util.TreeMap$Relation: java.util.TreeMap$Relation CREATE>"},{"step":1,"from":"1099705064","to":"1083970648","type":"load","field":"<java.util.TreeMap: java.util.Comparator comparator>"},{"step":2,"from":"static.<java.util.TreeMap: java.util.Comparator NATURAL_ORDER>","to":"1083970648","type":"load","field":"<java.util.TreeMap: java.util.Comparator NATURAL_ORDER>"},{"step":3,"from":"static.<java.util.TreeMap$Relation: java.util.TreeMap$Relation CREATE>","to":"1085707192","type":"load","field":"<java.util.TreeMap$Relation: java.util.TreeMap$Relation CREATE>"},{"step":4,"from":"1093301176","to":"1099705112","type":"store","field":"<java.util.TreeMap$Node: java.lang.Object key>"},{"step":5,"from":"1099705112","to":"sdaReg7","type":"create","field":"<java.util.TreeMap$Node: int height>"},{"step":6,"from":"1099705064","to":"1099705112","type":"create","field":"<java.util.TreeMap: java.util.TreeMap$Node root>"},{"step":7,"from":"1099705064","to":"sdaReg9","type":"create","field":"<java.util.TreeMap: int size>"},{"step":8,"from":"1099705064","to":"1099705064.<java.util.TreeMap: int modCount>","type":"load","field":"<java.util.TreeMap: int modCount>"},{"step":9,"from":"sdaReg10","to":"1099705064","type":"store","field":"<java.util.TreeMap: int modCount>"},{"step":10,"from":"1085638584","to":"1099705112","type":"store","field":"<java.util.TreeMap$Node: java.lang.Object value>"}],"parameters":[{"id":"1099705064","name":"this","klass":"java.util.TreeMap"},{"id":"1093301176","name":"arg#1","klass":"java.lang.Object"},{"id":"1085638584","name":"arg#2","klass":"java.lang.Object"}],"returns":[{"id":"0","name":"return","klass":"java.lang.Object"}],"colors":{"heapLocToColor":{"sdaReg8":[5],"sdaReg6":[5],"sdaReg4":[5],"1093301176":[1],"static.<java.util.TreeMap: java.util.Comparator NATURAL_ORDER>":[0, 4],"sdaReg5":[1],"static.<java.util.TreeMap$Relation: java.util.TreeMap$Relation CREATE>":[3],"1099705064":[0],"sdaReg11":[5],"1099705064.<java.util.TreeMap: int modCount>":[0],"1099705112":[5],"sdaReg10":[0],"1085707192":[3],"sdaReg2":[3],"1085638584":[2],"sdaReg1":[1],"sdaReg0":[0],"1083970648":[0, 4]},"colorToColor":{"0":[0],"1":[5],"2":[5],"5":[0]},"colorToLabel":{"0":"this","1":"arg#1","2":"arg#2","3":"<java.util.TreeMap$Relation: java.util.TreeMap$Relation CREATE>","4":"<java.util.TreeMap: java.util.Comparator NATURAL_ORDER>","6":"return"}}}

Generated Model
	arg#2->this
	arg#1->this

