Scanning method <java.util.TreeMap: java.lang.Object putInternal(java.lang.Object,java.lang.Object)>

All seen event types: SimpleAssignmentRecord, MethodStartRecord, LoadInstanceRecord, IfRecord, NewObjectRecord, StoreInstanceRecord, LoadStaticRecord, BinaryOperationRecord, MethodCallRecord, MethodReturnRecord, SwitchRecord, CastRecord, LoadArrayRecord, MethodEndRecord, 
Ignored event types: SwitchRecord, IfRecord, 

JSON Encoded Analysis Data (for visualization):{"heapEdges":[{"step":0,"from":"static.<java.util.TreeMap$Relation: java.util.TreeMap$Relation CREATE>","to":"1085707192","type":"load","field":"<java.util.TreeMap$Relation: java.util.TreeMap$Relation CREATE>"},{"step":1,"from":"1093233072","to":"1093447784","type":"load","field":"<java.util.TreeMap: java.util.TreeMap$Node root>"},{"step":2,"from":"1093233072","to":"1083970648","type":"load","field":"<java.util.TreeMap: java.util.Comparator comparator>"},{"step":3,"from":"static.<java.util.TreeMap: java.util.Comparator NATURAL_ORDER>","to":"1083970648","type":"load","field":"<java.util.TreeMap: java.util.Comparator NATURAL_ORDER>"},{"step":4,"from":"1093233072","to":"1093447784","type":"load","field":"<java.util.TreeMap: java.util.TreeMap$Node root>"},{"step":5,"from":"1093447784","to":"1093229088","type":"load","field":"<java.util.TreeMap$Node: java.lang.Object key>"},{"step":6,"from":"1093464024","to":"1093229088","type":"model"},{"step":7,"from":"1093464024","to":"sdaReg5","type":"model"},{"step":8,"from":"1093229088","to":"1093464024","type":"model"},{"step":9,"from":"1093229088","to":"sdaReg5","type":"model"},{"step":10,"from":"1093447784","to":"1094178200","type":"load","field":"<java.util.TreeMap$Node: java.util.TreeMap$Node right>"},{"step":11,"from":"1094178200","to":"1093750272","type":"load","field":"<java.util.TreeMap$Node: java.lang.Object key>"},{"step":12,"from":"1093464024","to":"1093750272","type":"model"},{"step":13,"from":"1093464024","to":"sdaReg8","type":"model"},{"step":14,"from":"1093750272","to":"1093464024","type":"model"},{"step":15,"from":"1093750272","to":"sdaReg8","type":"model"},{"step":16,"from":"1094178200","to":"1093532944","type":"load","field":"<java.util.TreeMap$Node: java.util.TreeMap$Node right>"},{"step":17,"from":"1093532944","to":"1093431536","type":"load","field":"<java.util.TreeMap$Node: java.lang.Object key>"},{"step":18,"from":"1093464024","to":"1093431536","type":"model"},{"step":19,"from":"1093464024","to":"sdaReg9","type":"model"},{"step":20,"from":"1093431536","to":"1093464024","type":"model"},{"step":21,"from":"1093431536","to":"sdaReg9","type":"model"},{"step":22,"from":"1093532944","to":"1093532984","type":"load","field":"<java.util.TreeMap$Node: java.util.TreeMap$Node right>"},{"step":23,"from":"1093532984","to":"1093475704","type":"load","field":"<java.util.TreeMap$Node: java.lang.Object key>"},{"step":24,"from":"1093464024","to":"1093475704","type":"model"},{"step":25,"from":"1093464024","to":"sdaReg10","type":"model"},{"step":26,"from":"1093475704","to":"1093464024","type":"model"},{"step":27,"from":"1093475704","to":"sdaReg10","type":"model"},{"step":28,"from":"1093532984","to":"1093533024","type":"load","field":"<java.util.TreeMap$Node: java.util.TreeMap$Node right>"},{"step":29,"from":"1093533024","to":"1093342360","type":"load","field":"<java.util.TreeMap$Node: java.lang.Object key>"},{"step":30,"from":"1093464024","to":"1093342360","type":"model"},{"step":31,"from":"1093464024","to":"sdaReg11","type":"model"},{"step":32,"from":"1093342360","to":"1093464024","type":"model"},{"step":33,"from":"1093342360","to":"sdaReg11","type":"model"},{"step":34,"from":"static.<java.util.TreeMap$2: int[] $SwitchMap$java$util$TreeMap$Relation>","to":"1085752200","type":"load","field":"<java.util.TreeMap$2: int[] $SwitchMap$java$util$TreeMap$Relation>"},{"step":35,"from":"1085707192","to":"sdaReg12","type":"model"},{"step":36,"from":"1085752200","to":"1085752200.arrayIdx_int:3","type":"load","field":"arrayIdx_int:3"},{"step":37,"from":"1093533024","to":"1094089992","type":"store","field":"<java.util.TreeMap$Node: java.util.TreeMap$Node parent>"},{"step":38,"from":"1093464024","to":"1094089992","type":"store","field":"<java.util.TreeMap$Node: java.lang.Object key>"},{"step":39,"from":"1094089992","to":"sdaReg17","type":"create","field":"<java.util.TreeMap$Node: int height>"},{"step":40,"from":"1093533024","to":"1094089992","type":"create","field":"<java.util.TreeMap$Node: java.util.TreeMap$Node right>"},{"step":41,"from":"1093233072","to":"1093233072.<java.util.TreeMap: int size>","type":"load","field":"<java.util.TreeMap: int size>"},{"step":42,"from":"sdaReg20","to":"1093233072","type":"store","field":"<java.util.TreeMap: int size>"},{"step":43,"from":"1093233072","to":"1093233072.<java.util.TreeMap: int modCount>","type":"load","field":"<java.util.TreeMap: int modCount>"},{"step":44,"from":"sdaReg21","to":"1093233072","type":"store","field":"<java.util.TreeMap: int modCount>"},{"step":45,"from":"static.<java.util.TreeMap: boolean $assertionsDisabled>","to":"static.<java.util.TreeMap: boolean $assertionsDisabled>","type":"load","field":"<java.util.TreeMap: boolean $assertionsDisabled>"},{"step":46,"from":"sdaReg27","to":"sdaReg28","type":"model"},{"step":47,"from":"sdaReg27","to":"sdaReg30","type":"model"},{"step":48,"from":"sdaReg28","to":"sdaReg27","type":"model"},{"step":49,"from":"sdaReg28","to":"sdaReg30","type":"model"},{"step":50,"from":"sdaReg31","to":"1093533024","type":"store","field":"<java.util.TreeMap$Node: int height>"},{"step":51,"from":"1093533024","to":"1093532984","type":"load","field":"<java.util.TreeMap$Node: java.util.TreeMap$Node parent>"},{"step":52,"from":"1093532984","to":"1093533024","type":"load","field":"<java.util.TreeMap$Node: java.util.TreeMap$Node right>"},{"step":53,"from":"1093532984","to":"1093533024","type":"load","field":"<java.util.TreeMap$Node: java.util.TreeMap$Node right>"},{"step":54,"from":"1093532984","to":"1093532944","type":"load","field":"<java.util.TreeMap$Node: java.util.TreeMap$Node parent>"},{"step":55,"from":"1093532984","to":"sdaReg41","type":"create","field":"<java.util.TreeMap$Node: java.util.TreeMap$Node parent>"},{"step":56,"from":"1093532944","to":"1093533024","type":"store","field":"<java.util.TreeMap$Node: java.util.TreeMap$Node parent>"},{"step":57,"from":"1093532944","to":"1094178240","type":"load","field":"<java.util.TreeMap$Node: java.util.TreeMap$Node left>"},{"step":58,"from":"static.<java.util.TreeMap: boolean $assertionsDisabled>","to":"static.<java.util.TreeMap: boolean $assertionsDisabled>","type":"load","field":"<java.util.TreeMap: boolean $assertionsDisabled>"},{"step":59,"from":"1093533024","to":"1093532944","type":"store","field":"<java.util.TreeMap$Node: java.util.TreeMap$Node right>"},{"step":60,"from":"1093532984","to":"1093533024","type":"store","field":"<java.util.TreeMap$Node: java.util.TreeMap$Node left>"},{"step":61,"from":"1093533024","to":"1093532984","type":"store","field":"<java.util.TreeMap$Node: java.util.TreeMap$Node parent>"},{"step":62,"from":"sdaReg42","to":"sdaReg43","type":"model"},{"step":63,"from":"sdaReg42","to":"sdaReg44","type":"model"},{"step":64,"from":"sdaReg43","to":"sdaReg42","type":"model"},{"step":65,"from":"sdaReg43","to":"sdaReg44","type":"model"},{"step":66,"from":"sdaReg45","to":"1093532984","type":"store","field":"<java.util.TreeMap$Node: int height>"},{"step":67,"from":"sdaReg47","to":"1093533024","type":"store","field":"<java.util.TreeMap$Node: int height>"},{"step":68,"from":"1085638584","to":"1094089992","type":"store","field":"<java.util.TreeMap$Node: java.lang.Object value>"}],"parameters":[{"id":"1093233072","name":"this","klass":"java.util.TreeMap"},{"id":"1093464024","name":"arg#1","klass":"java.lang.Object"},{"id":"1085638584","name":"arg#2","klass":"java.lang.Object"}],"returns":[{"id":"0","name":"return","klass":"java.lang.Object"}],"colors":{"heapLocToColor":{"1093475704":[0, 1],"sdaReg13":[12],"1093233072.<java.util.TreeMap: int size>":[0],"sdaReg14":[0],"sdaReg11":[1, 9],"sdaReg12":[3, 11],"1093532944":[0],"sdaReg10":[1, 8],"1093532984":[0],"1085707192":[3],"sdaReg19":[12],"sdaReg18":[12],"1094089992":[12],"sdaReg15":[1],"sdaReg16":[12],"1094178200":[0],"1085752200":[10],"1093233072":[0],"1093532984.<java.util.TreeMap$Node: java.util.TreeMap$Node right>":[0],"static.<java.util.TreeMap$2: int[] $SwitchMap$java$util$TreeMap$Relation>":[10],"sdaReg48":[12],"static.<java.util.TreeMap: boolean $assertionsDisabled>":[13],"sdaReg45":[15],"sdaReg44":[15],"sdaReg47":[16],"1085638584":[2],"sdaReg46":[16],"sdaReg40":[0],"1083970648":[0, 4],"1093342360":[0, 1],"1093233072.<java.util.TreeMap: java.util.TreeMap$Node root>":[0],"1093532984.<java.util.TreeMap$Node: java.util.TreeMap$Node parent>":[0],"static.<java.util.TreeMap: java.util.Comparator NATURAL_ORDER>":[0, 4],"1094178240":[0],"1093447784":[0],"1093464024":[1],"1085752200.arrayIdx_int:3":[10],"sdaReg39":[0],"sdaReg38":[0],"sdaReg37":[0],"1093750272":[0, 1],"sdaReg31":[14],"sdaReg30":[14],"sdaReg36":[0],"sdaReg8":[1, 6],"sdaReg9":[1, 7],"sdaReg6":[1, 5, 6, 7, 8, 9],"sdaReg4":[1],"sdaReg5":[1, 5],"static.<java.util.TreeMap$Relation: java.util.TreeMap$Relation CREATE>":[3],"1093233072.<java.util.TreeMap: int modCount>":[0],"1093431536":[0, 1],"1093229088":[0, 1],"1093533024.<java.util.TreeMap$Node: java.util.TreeMap$Node parent>":[0],"sdaReg3":[1],"sdaReg2":[3],"sdaReg1":[1],"sdaReg21":[0],"sdaReg0":[0],"1093533024":[0],"sdaReg20":[0],"sdaReg23":[0],"sdaReg22":[0],"sdaReg25":[0]},"colorToColor":{"0":[0, 1, 5, 6, 7, 8, 9, 12],"16":[0],"1":[1, 5, 6, 7, 8, 9, 12],"2":[12],"12":[0],"14":[0],"15":[0]},"colorToLabel":{"0":"this","1":"arg#1","2":"arg#2","3":"<java.util.TreeMap$Relation: java.util.TreeMap$Relation CREATE>","4":"<java.util.TreeMap: java.util.Comparator NATURAL_ORDER>","10":"<java.util.TreeMap$2: int[] $SwitchMap$java$util$TreeMap$Relation>","13":"<java.util.TreeMap: boolean $assertionsDisabled>","17":"return"}}}

Generated Model
	this->arg#1
	arg#2->this
	arg#2->arg#1
	arg#1->this

