Scanning method <java.io.FilterInputStream: int read()>

All seen event types: BinaryOperationRecord, MethodReturnRecord, MethodCallRecord, MethodStartRecord, LoadInstanceRecord, LoadArrayRecord, MethodEndRecord, IfRecord, StoreInstanceRecord, 
Ignored event types: IfRecord, 

JSON Encoded Analysis Data (for visualization):{"heapEdges":[{"step":0,"from":"1093463584","to":"1093463432","type":"load","field":"<java.io.FilterInputStream: java.io.InputStream in>"},{"step":1,"from":"1093463432","to":"1093463432.<java.io.ByteArrayInputStream: int pos>","type":"load","field":"<java.io.ByteArrayInputStream: int pos>"},{"step":2,"from":"1093463432","to":"1093463432.<java.io.ByteArrayInputStream: int count>","type":"load","field":"<java.io.ByteArrayInputStream: int count>"},{"step":3,"from":"1093463432","to":"1093463464","type":"load","field":"<java.io.ByteArrayInputStream: byte[] buf>"},{"step":4,"from":"1093463432","to":"1093463432.<java.io.ByteArrayInputStream: int pos>","type":"load","field":"<java.io.ByteArrayInputStream: int pos>"},{"step":5,"from":"sdaReg1","to":"1093463432","type":"store","field":"<java.io.ByteArrayInputStream: int pos>"},{"step":6,"from":"1093463464","to":"1093463464.arrayIdx_int:4","type":"load","field":"arrayIdx_int:4"}],"parameters":[{"id":"1093463584","name":"this","klass":"java.io.FilterInputStream"}],"returns":[{"id":"sdaReg2","name":"return","klass":"int"}],"colors":{"heapLocToColor":{"1093463464":[0],"1093463432.<java.io.ByteArrayInputStream: int pos>":[0],"1093463432.<java.io.ByteArrayInputStream: int count>":[0],"1093463464.arrayIdx_int:4":[0],"sdaReg2":[0],"1093463432":[0],"sdaReg1":[0],"1093463584":[0],"sdaReg0":[0]},"colorToColor":{"0":[0, 1]},"colorToLabel":{"0":"this","1":"return"}}}

Generated Model
	this->return

