Scanning method <java.util.Vector: java.util.Enumeration elements()>

All seen event types: MethodReturnRecord, MethodCallRecord, MethodStartRecord, MethodEndRecord, StoreInstanceRecord, NewObjectRecord, 
Ignored event types: 

JSON Encoded Analysis Data (for visualization):{"heapEdges":[{"step":0,"from":"1094058936","to":"1093405416","type":"store","field":"<java.util.Vector$1: java.util.Vector this$0>"},{"step":1,"from":"1093405416","to":"sdaReg3","type":"create","field":"<java.util.Vector$1: int pos>"}],"parameters":[{"id":"1094058936","name":"this","klass":"java.util.Vector"}],"returns":[{"id":"1093405416","name":"return","klass":"java.util.Enumeration"}],"colors":{"heapLocToColor":{"sdaReg4":[1],"1094058936":[0],"sdaReg2":[1],"sdaReg1":[0],"sdaReg0":[1],"1093405416":[1]},"colorToColor":{"0":[1],"1":[2]},"colorToLabel":{"0":"this","2":"return"}}}

Generated Model
	this->return

