Scanning method <java.util.Vector: java.lang.Object elementAt(int)>

All seen event types: LoadInstanceRecord, LoadArrayRecord, IfRecord, 
Ignored event types: IfRecord, 

JSON Encoded Analysis Data (for visualization):{"heapEdges":[{"step":0,"from":"1093855856","to":"1093855856.<java.util.Vector: int elementCount>","type":"load","field":"<java.util.Vector: int elementCount>"},{"step":1,"from":"1093855856","to":"1093855888","type":"load","field":"<java.util.Vector: java.lang.Object[] elementData>"},{"step":2,"from":"1093855888","to":"1093856552","type":"load","field":"arrayIdx_int:100"}],"parameters":[{"id":"1093855856","name":"this","klass":"java.util.Vector"},{"id":"sdaReg0","name":"arg#1","klass":"int"}],"returns":[{"id":"1093856552","name":"return","klass":"java.lang.Object"}],"colors":{"heapLocToColor":{"1093855856":[0],"1093855888":[0],"1093856552":[0],"sdaReg0":[1],"1093855856.<java.util.Vector: int elementCount>":[0]},"colorToColor":{"0":[2]},"colorToLabel":{"0":"this","1":"arg#1","2":"return"}}}

Generated Model
	this->return

