Scanning method <android.os.Bundle: int size()>

All seen event types: StoreArrayRecord, SimpleAssignmentRecord, ExitMonitorRecord, MethodStartRecord, LoadInstanceRecord, IfRecord, NewObjectRecord, StoreInstanceRecord, LoadStaticRecord, BinaryOperationRecord, MethodCallRecord, MethodReturnRecord, EnterMonitorRecord, CastRecord, LoadArrayRecord, MethodEndRecord, 
Ignored event types: ExitMonitorRecord, EnterMonitorRecord, IfRecord, 

JSON Encoded Analysis Data (for visualization):{"heapEdges":[{"step":0,"from":"1093631752","to":"1093906952","type":"load","field":"<android.os.Bundle: android.os.Parcel mParcelledData>"},{"step":1,"from":"1093631752","to":"1093906952","type":"load","field":"<android.os.Bundle: android.os.Parcel mParcelledData>"},{"step":2,"from":"1093906952","to":"sdaReg1","type":"model"},{"step":3,"from":"static.<java.util.HashMap: java.util.Map$Entry[] EMPTY_TABLE>","to":"1083997920","type":"load","field":"<java.util.HashMap: java.util.Map$Entry[] EMPTY_TABLE>"},{"step":4,"from":"1083997920","to":"1093514744","type":"store","field":"<java.util.HashMap: java.util.HashMap$HashMapEntry[] table>"},{"step":5,"from":"1093514744","to":"sdaReg8","type":"create","field":"<java.util.HashMap: int threshold>"},{"step":6,"from":"1093631752","to":"1093514744","type":"create","field":"<android.os.Bundle: java.util.Map mMap>"},{"step":7,"from":"1093631752","to":"1093906952","type":"load","field":"<android.os.Bundle: android.os.Parcel mParcelledData>"},{"step":8,"from":"1093631752","to":"1093906952","type":"load","field":"<android.os.Bundle: android.os.Parcel mParcelledData>"},{"step":9,"from":"1093906952","to":"1093906952.<android.os.Parcel: int mOwnObject>","type":"load","field":"<android.os.Parcel: int mOwnObject>"},{"step":10,"from":"static.<android.os.Parcel: android.os.Parcel[] sOwnedPool>","to":"1084044960","type":"load","field":"<android.os.Parcel: android.os.Parcel[] sOwnedPool>"},{"step":11,"from":"1084044960","to":"1093446048","type":"load","field":"arrayIdx_int:0"},{"step":12,"from":"1093906952","to":"1084044960","type":"store","field":"arrayIdx_int:1"},{"step":13,"from":"1093631752","to":"sdaReg17","type":"create","field":"<android.os.Bundle: android.os.Parcel mParcelledData>"},{"step":14,"from":"1093514744","to":"1093514744.<java.util.HashMap: int size>","type":"load","field":"<java.util.HashMap: int size>"}],"parameters":[{"id":"1093631752","name":"this","klass":"android.os.Bundle"}],"returns":[{"id":"1093514744.<java.util.HashMap: int size>","name":"return","klass":"int"}],"colors":{"heapLocToColor":{"static.<android.os.Parcel: android.os.Parcel[] sOwnedPool>":[4],"1084044960":[4],"1093446048":[4],"sdaReg13":[0],"sdaReg14":[4],"sdaReg11":[2],"sdaReg10":[0],"1083997920":[3],"static.<java.util.HashMap: java.util.Map$Entry[] EMPTY_TABLE>":[3],"sdaReg18":[2],"sdaReg15":[4],"sdaReg9":[2],"sdaReg6":[3],"sdaReg7":[3],"sdaReg4":[2],"sdaReg5":[2],"1093631752.<android.os.Bundle: android.os.Parcel mParcelledData>":[0],"1093631752":[0],"1093906952":[0],"1093514744":[2],"1093514744.<java.util.HashMap: int size>":[2],"sdaReg3":[2],"sdaReg2":[2],"1093906952.<android.os.Parcel: int mOwnObject>":[0],"sdaReg1":[0, 1],"sdaReg0":[0]},"colorToColor":{"0":[4],"2":[0, 5],"3":[2]},"colorToLabel":{"0":"this","3":"<java.util.HashMap: java.util.Map$Entry[] EMPTY_TABLE>","4":"<android.os.Parcel: android.os.Parcel[] sOwnedPool>","5":"return"}}}

Generated Model
	this-><android.os.Parcel: android.os.Parcel[] sOwnedPool>

