Scanning method <java.io.ObjectInputStream: void readFieldValues(java.lang.Object,java.io.ObjectStreamClass)>

All seen event types: SimpleAssignmentRecord, MethodReturnRecord, MethodCallRecord, ArrayLengthRecord, IfRecord, 
Ignored event types: IfRecord, 

JSON Encoded Analysis Data (for visualization):{"heapEdges":[{"step":0,"from":"1093286304","to":"1093481392","type":"model"},{"step":1,"from":"1093286304","to":"1083931088","type":"model"}],"parameters":[{"id":"1093293768","name":"this","klass":"java.io.ObjectInputStream"},{"id":"1093281456","name":"arg#1","klass":"java.lang.Object"},{"id":"1093286304","name":"arg#2","klass":"java.io.ObjectStreamClass"}],"returns":[{"id":null,"name":"return","klass":null}],"colors":{"heapLocToColor":{"sdaReg4":[2, 3],"sdaReg3":[2, 4],"1093286304":[2],"sdaReg2":[2, 3],"1093481392":[2, 3],"sdaReg1":[2, 3],"1093293768":[0],"sdaReg0":[2, 3],"1093281456":[1],"1083931088":[2, 4]},"colorToColor":{},"colorToLabel":{"0":"this","1":"arg#1","2":"arg#2","5":"return"}}}

Generated Model

