Scanning method <android.os.Bundle: java.util.Set keySet()>

All seen event types: SimpleAssignmentRecord, MethodReturnRecord, MethodCallRecord, LoadInstanceRecord, MethodStartRecord, MethodEndRecord, IfRecord, StoreInstanceRecord, NewObjectRecord, 
Ignored event types: IfRecord, 

JSON Encoded Analysis Data (for visualization):{"heapEdges":[{"step":0,"from":"1094014560","to":"1094022800","type":"load","field":"<android.os.Bundle: java.util.Map mMap>"},{"step":1,"from":"1094022800","to":"1093704720","type":"store","field":"<java.util.HashMap$KeySet: java.util.HashMap this$0>"},{"step":2,"from":"1094022800","to":"1093704720","type":"create","field":"<java.util.HashMap: java.util.Set keySet>"}],"parameters":[{"id":"1094014560","name":"this","klass":"android.os.Bundle"}],"returns":[{"id":"1093704720","name":"return","klass":"java.util.Set"}],"colors":{"heapLocToColor":{"sdaReg8":[1],"sdaReg9":[1],"sdaReg6":[1],"sdaReg7":[1],"sdaReg4":[1],"sdaReg5":[0],"sdaReg13":[1],"sdaReg14":[1],"sdaReg11":[1],"sdaReg12":[1],"1094014560":[0],"sdaReg10":[1],"1094022800":[0],"1093704720":[1],"sdaReg3":[0],"sdaReg2":[1],"sdaReg1":[0],"sdaReg0":[0]},"colorToColor":{"0":[1],"1":[0, 2]},"colorToLabel":{"0":"this","2":"return"}}}

Generated Model
	this->return

