Scanning method <java.net.URI: void <init>(java.lang.String)>

All seen event types: LoadStaticRecord, BinaryOperationRecord, SimpleAssignmentRecord, MethodReturnRecord, MethodCallRecord, ArrayLengthRecord, LoadInstanceRecord, MethodStartRecord, LoadArrayRecord, MethodEndRecord, IfRecord, StoreInstanceRecord, 
Ignored event types: IfRecord, 

JSON Encoded Analysis Data (for visualization):{"heapEdges":[{"step":0,"from":"1093699128","to":"sdaReg2","type":"create","field":"<java.net.URI: int port>"},{"step":1,"from":"1093699128","to":"sdaReg3","type":"create","field":"<java.net.URI: boolean serverAuthority>"},{"step":2,"from":"1093699128","to":"sdaReg4","type":"create","field":"<java.net.URI: int hash>"},{"step":3,"from":"sdaReg0","to":"1093699128","type":"store","field":"<java.net.URI: java.lang.String string>"},{"step":4,"from":"sdaReg0","to":"sdaReg11","type":"model"},{"step":5,"from":"sdaReg0","to":"sdaReg13","type":"model"},{"step":6,"from":"sdaReg0","to":"sdaReg15","type":"model"},{"step":7,"from":"sdaReg0","to":"sdaReg17","type":"model"},{"step":8,"from":"sdaReg0","to":"sdaReg19","type":"model"},{"step":9,"from":"sdaReg0","to":"sdaReg21","type":"model"},{"step":10,"from":"sdaReg0","to":"sdaReg23","type":"model"},{"step":11,"from":"sdaReg0","to":"sdaReg25","type":"model"},{"step":12,"from":"sdaReg0","to":"sdaReg27","type":"model"},{"step":13,"from":"sdaReg0","to":"sdaReg29","type":"model"},{"step":14,"from":"sdaReg0","to":"sdaReg31","type":"model"},{"step":15,"from":"sdaReg0","to":"sdaReg33","type":"model"},{"step":16,"from":"sdaReg0","to":"sdaReg35","type":"model"},{"step":17,"from":"sdaReg0","to":"sdaReg37","type":"model"},{"step":18,"from":"sdaReg0","to":"sdaReg39","type":"model"},{"step":19,"from":"sdaReg0","to":"sdaReg41","type":"model"},{"step":20,"from":"sdaReg0","to":"sdaReg43","type":"model"},{"step":21,"from":"static.<java.net.URI: libcore.net.UriCodec ALL_LEGAL_ENCODER>","to":"1085538000","type":"load","field":"<java.net.URI: libcore.net.UriCodec ALL_LEGAL_ENCODER>"},{"step":22,"from":"sdaReg0","to":"sdaReg51","type":"model"},{"step":23,"from":"sdaReg0","to":"sdaReg52","type":"model"},{"step":24,"from":"sdaReg0","to":"sdaReg53","type":"model"},{"step":25,"from":"sdaReg0","to":"sdaReg54","type":"model"},{"step":26,"from":"sdaReg0","to":"sdaReg55","type":"model"},{"step":27,"from":"sdaReg0","to":"sdaReg56","type":"model"},{"step":28,"from":"sdaReg0","to":"sdaReg57","type":"model"},{"step":29,"from":"sdaReg0","to":"sdaReg58","type":"model"},{"step":30,"from":"sdaReg0","to":"sdaReg59","type":"model"},{"step":31,"from":"1085538000","to":"1085538000.<java.net.URI$PartEncoder: java.lang.String extraLegalCharacters>","type":"load","field":"<java.net.URI$PartEncoder: java.lang.String extraLegalCharacters>"},{"step":32,"from":"sdaReg0","to":"sdaReg67","type":"model"},{"step":33,"from":"sdaReg0","to":"sdaReg68","type":"model"},{"step":34,"from":"sdaReg0","to":"sdaReg69","type":"model"},{"step":35,"from":"sdaReg0","to":"sdaReg70","type":"model"},{"step":36,"from":"sdaReg0","to":"sdaReg71","type":"model"},{"step":37,"from":"sdaReg0","to":"sdaReg72","type":"model"},{"step":38,"from":"sdaReg72","to":"1093699128","type":"store","field":"<java.net.URI: java.lang.String fragment>"},{"step":39,"from":"sdaReg0","to":"sdaReg76","type":"model"},{"step":40,"from":"sdaReg0","to":"sdaReg78","type":"model"},{"step":41,"from":"sdaReg0","to":"sdaReg80","type":"model"},{"step":42,"from":"sdaReg0","to":"sdaReg82","type":"model"},{"step":43,"from":"sdaReg0","to":"sdaReg84","type":"model"},{"step":44,"from":"sdaReg0","to":"sdaReg89","type":"model"},{"step":45,"from":"sdaReg0","to":"sdaReg91","type":"model"},{"step":46,"from":"sdaReg0","to":"sdaReg93","type":"model"},{"step":47,"from":"sdaReg0","to":"sdaReg95","type":"model"},{"step":48,"from":"sdaReg0","to":"sdaReg97","type":"model"},{"step":49,"from":"sdaReg0","to":"sdaReg99","type":"model"},{"step":50,"from":"1093699128","to":"sdaReg101","type":"create","field":"<java.net.URI: boolean absolute>"},{"step":51,"from":"sdaReg0","to":"sdaReg104","type":"model"},{"step":52,"from":"sdaReg0","to":"sdaReg106","type":"model"},{"step":53,"from":"sdaReg0","to":"sdaReg108","type":"model"},{"step":54,"from":"sdaReg0","to":"sdaReg110","type":"model"},{"step":55,"from":"sdaReg0","to":"sdaReg112","type":"model"},{"step":56,"from":"sdaReg112","to":"1093699128","type":"store","field":"<java.net.URI: java.lang.String scheme>"},{"step":57,"from":"1093699128","to":"sdaReg115","type":"create","field":"<java.net.URI: boolean opaque>"},{"step":58,"from":"sdaReg0","to":"sdaReg116","type":"model"},{"step":59,"from":"sdaReg116","to":"1093699128","type":"store","field":"<java.net.URI: java.lang.String schemeSpecificPart>"},{"step":60,"from":"sdaReg0","to":"sdaReg121","type":"model"},{"step":61,"from":"sdaReg0","to":"sdaReg123","type":"model"},{"step":62,"from":"sdaReg0","to":"sdaReg125","type":"model"},{"step":63,"from":"sdaReg0","to":"sdaReg127","type":"model"},{"step":64,"from":"sdaReg0","to":"sdaReg129","type":"model"},{"step":65,"from":"static.<java.net.URI: libcore.net.UriCodec AUTHORITY_ENCODER>","to":"1085536376","type":"load","field":"<java.net.URI: libcore.net.UriCodec AUTHORITY_ENCODER>"},{"step":66,"from":"sdaReg0","to":"sdaReg135","type":"model"},{"step":67,"from":"sdaReg0","to":"sdaReg136","type":"model"},{"step":68,"from":"sdaReg0","to":"sdaReg137","type":"model"},{"step":69,"from":"sdaReg0","to":"sdaReg138","type":"model"},{"step":70,"from":"sdaReg0","to":"sdaReg139","type":"model"},{"step":71,"from":"sdaReg139","to":"1093699128","type":"store","field":"<java.net.URI: java.lang.String authority>"},{"step":72,"from":"sdaReg0","to":"sdaReg142","type":"model"},{"step":73,"from":"sdaReg0","to":"sdaReg144","type":"model"},{"step":74,"from":"sdaReg0","to":"sdaReg146","type":"model"},{"step":75,"from":"sdaReg0","to":"sdaReg148","type":"model"},{"step":76,"from":"sdaReg0","to":"sdaReg150","type":"model"},{"step":77,"from":"static.<java.net.URI: libcore.net.UriCodec PATH_ENCODER>","to":"1085474672","type":"load","field":"<java.net.URI: libcore.net.UriCodec PATH_ENCODER>"},{"step":78,"from":"sdaReg0","to":"sdaReg155","type":"model"},{"step":79,"from":"1085474672","to":"1085474672.<java.net.URI$PartEncoder: java.lang.String extraLegalCharacters>","type":"load","field":"<java.net.URI$PartEncoder: java.lang.String extraLegalCharacters>"},{"step":80,"from":"sdaReg0","to":"sdaReg163","type":"model"},{"step":81,"from":"sdaReg0","to":"sdaReg164","type":"model"},{"step":82,"from":"sdaReg0","to":"sdaReg165","type":"model"},{"step":83,"from":"sdaReg0","to":"sdaReg166","type":"model"},{"step":84,"from":"sdaReg0","to":"sdaReg167","type":"model"},{"step":85,"from":"sdaReg167","to":"1093699128","type":"store","field":"<java.net.URI: java.lang.String path>"},{"step":86,"from":"sdaReg175","to":"sdaReg181","type":"model"},{"step":87,"from":"sdaReg175","to":"sdaReg186","type":"model"},{"step":88,"from":"sdaReg175","to":"sdaReg188","type":"model"},{"step":89,"from":"sdaReg175","to":"sdaReg190","type":"model"},{"step":90,"from":"sdaReg175","to":"sdaReg192","type":"model"},{"step":91,"from":"sdaReg175","to":"1093466520","type":"model"},{"step":92,"from":"1093466520","to":"1093466520.arrayIdx_int:0","type":"load","field":"arrayIdx_int:0"},{"step":93,"from":"sdaReg169","to":"1093699128","type":"store","field":"<java.net.URI: java.lang.String userInfo>"},{"step":94,"from":"sdaReg175","to":"1093699128","type":"store","field":"<java.net.URI: java.lang.String host>"},{"step":95,"from":"sdaReg174","to":"1093699128","type":"store","field":"<java.net.URI: int port>"},{"step":96,"from":"1093699128","to":"sdaReg203","type":"create","field":"<java.net.URI: boolean serverAuthority>"}],"parameters":[{"id":"1093699128","name":"this","klass":"java.net.URI"},{"id":"sdaReg0","name":"arg#1","klass":"string"}],"returns":[{"id":"1093699128","name":"return","klass":"java.net.URI"}],"colors":{"heapLocToColor":{"sdaReg191":[139],"sdaReg125":[1, 92],"sdaReg190":[138],"sdaReg126":[93],"sdaReg193":[141],"sdaReg127":[1, 94],"sdaReg192":[140],"sdaReg128":[95],"sdaReg129":[1, 96],"sdaReg199":[144],"sdaReg68":[1, 53],"sdaReg198":[143],"sdaReg69":[1, 54],"sdaReg67":[1, 52],"sdaReg195":[142],"sdaReg64":[50],"sdaReg194":[142],"sdaReg65":[51],"sdaReg62":[49],"sdaReg13":[1, 5],"sdaReg72":[1, 57],"sdaReg14":[6],"sdaReg71":[1, 56],"sdaReg11":[1, 3],"sdaReg70":[1, 55],"sdaReg12":[4],"sdaReg19":[1, 11],"sdaReg17":[1, 9],"sdaReg122":[89],"sdaReg18":[10],"sdaReg121":[1, 88],"sdaReg124":[91],"sdaReg15":[1, 7],"sdaReg123":[1, 90],"sdaReg16":[8],"sdaReg116":[1, 86],"sdaReg117":[87],"sdaReg114":[85],"sdaReg77":[59],"sdaReg78":[1, 60],"sdaReg79":[61],"sdaReg76":[1, 58],"sdaReg81":[63],"sdaReg80":[1, 62],"sdaReg83":[65],"sdaReg82":[1, 64],"sdaReg112":[1, 84],"sdaReg110":[1, 83],"sdaReg108":[1, 82],"sdaReg104":[1, 80],"sdaReg170":[125],"sdaReg106":[1, 81],"sdaReg173":[127],"sdaReg172":[126],"sdaReg84":[1, 66],"sdaReg85":[67],"sdaReg177":[0],"sdaReg176":[128],"sdaReg179":[130],"sdaReg178":[129],"sdaReg89":[68, 1],"sdaReg90":[69],"sdaReg94":[73],"sdaReg93":[1, 72],"sdaReg92":[71],"sdaReg91":[1, 70],"sdaReg100":[79],"sdaReg102":[0],"sdaReg182":[0],"sdaReg181":[132],"sdaReg180":[131],"1085474672.<java.net.URI$PartEncoder: java.lang.String extraLegalCharacters>":[115],"sdaReg186":[134],"sdaReg95":[1, 74],"sdaReg185":[133],"sdaReg96":[75],"sdaReg97":[1, 76],"sdaReg98":[77],"1085536376":[99],"sdaReg99":[1, 78],"sdaReg189":[137],"sdaReg188":[136],"sdaReg187":[135],"1085538000.<java.net.URI$PartEncoder: java.lang.String extraLegalCharacters>":[38],"static.<java.net.URI: libcore.net.UriCodec PATH_ENCODER>":[115],"sdaReg60":[38],"1093699128":[0],"sdaReg161":[119],"sdaReg163":[1, 120],"sdaReg164":[1, 121],"sdaReg165":[1, 122],"sdaReg166":[1, 123],"sdaReg167":[1, 124],"sdaReg168":[0],"sdaReg59":[1, 48],"sdaReg58":[1, 47],"sdaReg57":[1, 46],"sdaReg56":[1, 45],"sdaReg55":[1, 44],"sdaReg54":[1, 43],"sdaReg53":[1, 42],"sdaReg52":[1, 41],"sdaReg160":[118],"sdaReg51":[1, 40],"sdaReg158":[117],"static.<java.net.URI: libcore.net.UriCodec ALL_LEGAL_ENCODER>":[38],"1093466520.arrayIdx_int:0":[142],"sdaReg152":[115],"sdaReg150":[1, 113],"sdaReg151":[114],"sdaReg156":[115],"sdaReg48":[38],"sdaReg155":[1, 116],"sdaReg45":[37],"sdaReg44":[36],"sdaReg47":[39],"1093466520":[142],"sdaReg41":[1, 33],"sdaReg40":[32],"sdaReg43":[1, 35],"sdaReg42":[34],"static.<java.net.URI: libcore.net.UriCodec AUTHORITY_ENCODER>":[99],"sdaReg200":[145],"sdaReg148":[1, 111],"sdaReg147":[110],"sdaReg149":[112],"sdaReg143":[106],"sdaReg144":[1, 107],"sdaReg39":[1, 31],"1085474672":[115],"sdaReg145":[108],"sdaReg38":[30],"sdaReg146":[1, 109],"sdaReg37":[1, 29],"sdaReg142":[1, 105],"1085538000":[38],"sdaReg32":[24],"sdaReg31":[1, 23],"sdaReg30":[22],"sdaReg36":[28],"sdaReg35":[1, 27],"sdaReg34":[26],"sdaReg33":[1, 25],"sdaReg7":[2],"sdaReg5":[0],"sdaReg139":[1, 104],"sdaReg138":[1, 103],"sdaReg137":[102, 1],"sdaReg136":[1, 101],"sdaReg27":[1, 19],"sdaReg135":[1, 100],"sdaReg26":[18],"sdaReg132":[99],"sdaReg29":[1, 21],"sdaReg28":[20],"sdaReg130":[97],"sdaReg131":[98],"sdaReg1":[0],"sdaReg21":[1, 13],"sdaReg0":[1],"sdaReg20":[12],"sdaReg23":[1, 15],"sdaReg22":[14],"sdaReg25":[17, 1],"sdaReg24":[16]},"colorToColor":{"0":[146],"84":[0],"1":[0],"86":[0],"57":[0],"124":[0],"104":[0]},"colorToLabel":{"0":"this","1":"arg#1","38":"<java.net.URI: libcore.net.UriCodec ALL_LEGAL_ENCODER>","99":"<java.net.URI: libcore.net.UriCodec AUTHORITY_ENCODER>","115":"<java.net.URI: libcore.net.UriCodec PATH_ENCODER>","146":"return"}}}

Generated Model
	this->return
	arg#1->this
	arg#1->return

