Scanning method <java.net.URI: void <init>(java.lang.String)>

All seen event types: LoadStaticRecord, BinaryOperationRecord, SimpleAssignmentRecord, MethodReturnRecord, MethodCallRecord, ArrayLengthRecord, LoadInstanceRecord, MethodStartRecord, LoadArrayRecord, MethodEndRecord, IfRecord, StoreInstanceRecord, 
Ignored event types: IfRecord, 

JSON Encoded Analysis Data (for visualization):{"heapEdges":[{"step":0,"from":"1093655104","to":"sdaReg2","type":"create","field":"<java.net.URI: int port>"},{"step":1,"from":"1093655104","to":"sdaReg3","type":"create","field":"<java.net.URI: boolean serverAuthority>"},{"step":2,"from":"1093655104","to":"sdaReg4","type":"create","field":"<java.net.URI: int hash>"},{"step":3,"from":"sdaReg0","to":"1093655104","type":"store","field":"<java.net.URI: java.lang.String string>"},{"step":4,"from":"sdaReg0","to":"sdaReg11","type":"model"},{"step":5,"from":"sdaReg0","to":"sdaReg13","type":"model"},{"step":6,"from":"sdaReg0","to":"sdaReg15","type":"model"},{"step":7,"from":"sdaReg0","to":"sdaReg17","type":"model"},{"step":8,"from":"sdaReg0","to":"sdaReg19","type":"model"},{"step":9,"from":"sdaReg0","to":"sdaReg21","type":"model"},{"step":10,"from":"sdaReg0","to":"sdaReg23","type":"model"},{"step":11,"from":"sdaReg0","to":"sdaReg25","type":"model"},{"step":12,"from":"sdaReg0","to":"sdaReg27","type":"model"},{"step":13,"from":"sdaReg0","to":"sdaReg29","type":"model"},{"step":14,"from":"sdaReg0","to":"sdaReg31","type":"model"},{"step":15,"from":"sdaReg0","to":"sdaReg33","type":"model"},{"step":16,"from":"sdaReg0","to":"sdaReg35","type":"model"},{"step":17,"from":"sdaReg0","to":"sdaReg37","type":"model"},{"step":18,"from":"sdaReg0","to":"sdaReg39","type":"model"},{"step":19,"from":"sdaReg0","to":"sdaReg41","type":"model"},{"step":20,"from":"sdaReg0","to":"sdaReg43","type":"model"},{"step":21,"from":"sdaReg0","to":"sdaReg45","type":"model"},{"step":22,"from":"sdaReg0","to":"sdaReg47","type":"model"},{"step":23,"from":"sdaReg0","to":"sdaReg49","type":"model"},{"step":24,"from":"sdaReg0","to":"sdaReg51","type":"model"},{"step":25,"from":"sdaReg0","to":"sdaReg53","type":"model"},{"step":26,"from":"sdaReg0","to":"sdaReg55","type":"model"},{"step":27,"from":"sdaReg0","to":"sdaReg57","type":"model"},{"step":28,"from":"sdaReg0","to":"sdaReg59","type":"model"},{"step":29,"from":"sdaReg0","to":"sdaReg61","type":"model"},{"step":30,"from":"sdaReg0","to":"sdaReg63","type":"model"},{"step":31,"from":"sdaReg0","to":"sdaReg65","type":"model"},{"step":32,"from":"sdaReg0","to":"sdaReg67","type":"model"},{"step":33,"from":"sdaReg0","to":"sdaReg69","type":"model"},{"step":34,"from":"sdaReg0","to":"sdaReg71","type":"model"},{"step":35,"from":"sdaReg0","to":"sdaReg73","type":"model"},{"step":36,"from":"sdaReg0","to":"sdaReg75","type":"model"},{"step":37,"from":"sdaReg0","to":"sdaReg77","type":"model"},{"step":38,"from":"sdaReg0","to":"sdaReg79","type":"model"},{"step":39,"from":"sdaReg0","to":"sdaReg81","type":"model"},{"step":40,"from":"sdaReg0","to":"sdaReg83","type":"model"},{"step":41,"from":"sdaReg0","to":"sdaReg85","type":"model"},{"step":42,"from":"sdaReg0","to":"sdaReg87","type":"model"},{"step":43,"from":"sdaReg0","to":"sdaReg89","type":"model"},{"step":44,"from":"sdaReg0","to":"sdaReg91","type":"model"},{"step":45,"from":"sdaReg0","to":"sdaReg93","type":"model"},{"step":46,"from":"sdaReg0","to":"sdaReg95","type":"model"},{"step":47,"from":"sdaReg0","to":"sdaReg97","type":"model"},{"step":48,"from":"sdaReg0","to":"sdaReg99","type":"model"},{"step":49,"from":"sdaReg0","to":"sdaReg101","type":"model"},{"step":50,"from":"sdaReg0","to":"sdaReg103","type":"model"},{"step":51,"from":"sdaReg0","to":"sdaReg105","type":"model"},{"step":52,"from":"sdaReg0","to":"sdaReg107","type":"model"},{"step":53,"from":"sdaReg0","to":"sdaReg109","type":"model"},{"step":54,"from":"sdaReg0","to":"sdaReg111","type":"model"},{"step":55,"from":"sdaReg0","to":"sdaReg113","type":"model"},{"step":56,"from":"sdaReg0","to":"sdaReg115","type":"model"},{"step":57,"from":"sdaReg0","to":"sdaReg117","type":"model"},{"step":58,"from":"sdaReg0","to":"sdaReg119","type":"model"},{"step":59,"from":"sdaReg0","to":"sdaReg121","type":"model"},{"step":60,"from":"static.<java.net.URI: libcore.net.UriCodec ALL_LEGAL_ENCODER>","to":"1085538000","type":"load","field":"<java.net.URI: libcore.net.UriCodec ALL_LEGAL_ENCODER>"},{"step":61,"from":"sdaReg0","to":"sdaReg129","type":"model"},{"step":62,"from":"sdaReg0","to":"sdaReg130","type":"model"},{"step":63,"from":"sdaReg0","to":"sdaReg131","type":"model"},{"step":64,"from":"sdaReg0","to":"sdaReg132","type":"model"},{"step":65,"from":"sdaReg132","to":"1093655104","type":"store","field":"<java.net.URI: java.lang.String fragment>"},{"step":66,"from":"sdaReg0","to":"sdaReg136","type":"model"},{"step":67,"from":"sdaReg0","to":"sdaReg138","type":"model"},{"step":68,"from":"sdaReg0","to":"sdaReg140","type":"model"},{"step":69,"from":"sdaReg0","to":"sdaReg142","type":"model"},{"step":70,"from":"sdaReg0","to":"sdaReg144","type":"model"},{"step":71,"from":"sdaReg0","to":"sdaReg149","type":"model"},{"step":72,"from":"sdaReg0","to":"sdaReg151","type":"model"},{"step":73,"from":"sdaReg0","to":"sdaReg153","type":"model"},{"step":74,"from":"sdaReg0","to":"sdaReg155","type":"model"},{"step":75,"from":"sdaReg0","to":"sdaReg157","type":"model"},{"step":76,"from":"sdaReg0","to":"sdaReg159","type":"model"},{"step":77,"from":"1093655104","to":"sdaReg161","type":"create","field":"<java.net.URI: boolean absolute>"},{"step":78,"from":"sdaReg0","to":"sdaReg164","type":"model"},{"step":79,"from":"sdaReg0","to":"sdaReg166","type":"model"},{"step":80,"from":"sdaReg0","to":"sdaReg168","type":"model"},{"step":81,"from":"sdaReg0","to":"sdaReg170","type":"model"},{"step":82,"from":"sdaReg0","to":"sdaReg172","type":"model"},{"step":83,"from":"sdaReg172","to":"1093655104","type":"store","field":"<java.net.URI: java.lang.String scheme>"},{"step":84,"from":"1093655104","to":"sdaReg175","type":"create","field":"<java.net.URI: boolean opaque>"},{"step":85,"from":"sdaReg0","to":"sdaReg176","type":"model"},{"step":86,"from":"sdaReg176","to":"1093655104","type":"store","field":"<java.net.URI: java.lang.String schemeSpecificPart>"},{"step":87,"from":"sdaReg0","to":"sdaReg181","type":"model"},{"step":88,"from":"sdaReg0","to":"sdaReg183","type":"model"},{"step":89,"from":"sdaReg0","to":"sdaReg185","type":"model"},{"step":90,"from":"sdaReg0","to":"sdaReg187","type":"model"},{"step":91,"from":"sdaReg0","to":"sdaReg189","type":"model"},{"step":92,"from":"sdaReg0","to":"sdaReg191","type":"model"},{"step":93,"from":"sdaReg0","to":"sdaReg193","type":"model"},{"step":94,"from":"sdaReg0","to":"sdaReg195","type":"model"},{"step":95,"from":"sdaReg0","to":"sdaReg197","type":"model"},{"step":96,"from":"sdaReg0","to":"sdaReg199","type":"model"},{"step":97,"from":"sdaReg0","to":"sdaReg201","type":"model"},{"step":98,"from":"sdaReg0","to":"sdaReg203","type":"model"},{"step":99,"from":"sdaReg0","to":"sdaReg205","type":"model"},{"step":100,"from":"sdaReg0","to":"sdaReg207","type":"model"},{"step":101,"from":"sdaReg0","to":"sdaReg209","type":"model"},{"step":102,"from":"sdaReg0","to":"sdaReg211","type":"model"},{"step":103,"from":"sdaReg0","to":"sdaReg213","type":"model"},{"step":104,"from":"sdaReg0","to":"sdaReg215","type":"model"},{"step":105,"from":"sdaReg0","to":"sdaReg217","type":"model"},{"step":106,"from":"sdaReg0","to":"sdaReg219","type":"model"},{"step":107,"from":"sdaReg0","to":"sdaReg221","type":"model"},{"step":108,"from":"sdaReg0","to":"sdaReg223","type":"model"},{"step":109,"from":"sdaReg0","to":"sdaReg225","type":"model"},{"step":110,"from":"sdaReg0","to":"sdaReg227","type":"model"},{"step":111,"from":"sdaReg0","to":"sdaReg229","type":"model"},{"step":112,"from":"sdaReg0","to":"sdaReg231","type":"model"},{"step":113,"from":"sdaReg0","to":"sdaReg233","type":"model"},{"step":114,"from":"sdaReg0","to":"sdaReg235","type":"model"},{"step":115,"from":"static.<java.net.URI: libcore.net.UriCodec AUTHORITY_ENCODER>","to":"1085536376","type":"load","field":"<java.net.URI: libcore.net.UriCodec AUTHORITY_ENCODER>"},{"step":116,"from":"sdaReg0","to":"sdaReg241","type":"model"},{"step":117,"from":"sdaReg0","to":"sdaReg242","type":"model"},{"step":118,"from":"sdaReg0","to":"sdaReg243","type":"model"},{"step":119,"from":"sdaReg0","to":"sdaReg244","type":"model"},{"step":120,"from":"sdaReg0","to":"sdaReg245","type":"model"},{"step":121,"from":"sdaReg0","to":"sdaReg246","type":"model"},{"step":122,"from":"sdaReg0","to":"sdaReg247","type":"model"},{"step":123,"from":"sdaReg0","to":"sdaReg248","type":"model"},{"step":124,"from":"sdaReg0","to":"sdaReg249","type":"model"},{"step":125,"from":"sdaReg0","to":"sdaReg256","type":"model"},{"step":126,"from":"sdaReg0","to":"sdaReg257","type":"model"},{"step":127,"from":"sdaReg0","to":"sdaReg258","type":"model"},{"step":128,"from":"sdaReg0","to":"sdaReg259","type":"model"},{"step":129,"from":"sdaReg0","to":"sdaReg260","type":"model"},{"step":130,"from":"sdaReg0","to":"sdaReg261","type":"model"},{"step":131,"from":"sdaReg0","to":"sdaReg262","type":"model"},{"step":132,"from":"sdaReg0","to":"sdaReg263","type":"model"},{"step":133,"from":"sdaReg0","to":"sdaReg264","type":"model"},{"step":134,"from":"1085536376","to":"1085536376.<java.net.URI$PartEncoder: java.lang.String extraLegalCharacters>","type":"load","field":"<java.net.URI$PartEncoder: java.lang.String extraLegalCharacters>"},{"step":135,"from":"sdaReg0","to":"sdaReg272","type":"model"},{"step":136,"from":"sdaReg0","to":"sdaReg273","type":"model"},{"step":137,"from":"sdaReg0","to":"sdaReg274","type":"model"},{"step":138,"from":"sdaReg0","to":"sdaReg275","type":"model"},{"step":139,"from":"sdaReg0","to":"sdaReg276","type":"model"},{"step":140,"from":"sdaReg0","to":"sdaReg283","type":"model"},{"step":141,"from":"sdaReg0","to":"sdaReg284","type":"model"},{"step":142,"from":"sdaReg0","to":"sdaReg285","type":"model"},{"step":143,"from":"sdaReg0","to":"sdaReg286","type":"model"},{"step":144,"from":"sdaReg0","to":"sdaReg287","type":"model"},{"step":145,"from":"sdaReg287","to":"1093655104","type":"store","field":"<java.net.URI: java.lang.String authority>"},{"step":146,"from":"sdaReg0","to":"sdaReg290","type":"model"},{"step":147,"from":"sdaReg0","to":"sdaReg292","type":"model"},{"step":148,"from":"sdaReg0","to":"sdaReg294","type":"model"},{"step":149,"from":"sdaReg0","to":"sdaReg296","type":"model"},{"step":150,"from":"sdaReg0","to":"sdaReg298","type":"model"},{"step":151,"from":"sdaReg0","to":"sdaReg300","type":"model"},{"step":152,"from":"sdaReg0","to":"sdaReg302","type":"model"},{"step":153,"from":"sdaReg0","to":"sdaReg304","type":"model"},{"step":154,"from":"sdaReg0","to":"sdaReg306","type":"model"},{"step":155,"from":"sdaReg0","to":"sdaReg308","type":"model"},{"step":156,"from":"sdaReg0","to":"sdaReg310","type":"model"},{"step":157,"from":"sdaReg0","to":"sdaReg312","type":"model"},{"step":158,"from":"sdaReg0","to":"sdaReg314","type":"model"},{"step":159,"from":"sdaReg0","to":"sdaReg316","type":"model"},{"step":160,"from":"sdaReg0","to":"sdaReg318","type":"model"},{"step":161,"from":"sdaReg0","to":"sdaReg320","type":"model"},{"step":162,"from":"static.<java.net.URI: libcore.net.UriCodec PATH_ENCODER>","to":"1085474672","type":"load","field":"<java.net.URI: libcore.net.UriCodec PATH_ENCODER>"},{"step":163,"from":"sdaReg0","to":"sdaReg325","type":"model"},{"step":164,"from":"1085474672","to":"1085474672.<java.net.URI$PartEncoder: java.lang.String extraLegalCharacters>","type":"load","field":"<java.net.URI$PartEncoder: java.lang.String extraLegalCharacters>"},{"step":165,"from":"sdaReg0","to":"sdaReg333","type":"model"},{"step":166,"from":"sdaReg0","to":"sdaReg334","type":"model"},{"step":167,"from":"sdaReg0","to":"sdaReg335","type":"model"},{"step":168,"from":"sdaReg0","to":"sdaReg336","type":"model"},{"step":169,"from":"sdaReg0","to":"sdaReg337","type":"model"},{"step":170,"from":"sdaReg0","to":"sdaReg338","type":"model"},{"step":171,"from":"sdaReg0","to":"sdaReg339","type":"model"},{"step":172,"from":"sdaReg0","to":"sdaReg340","type":"model"},{"step":173,"from":"sdaReg0","to":"sdaReg341","type":"model"},{"step":174,"from":"sdaReg0","to":"sdaReg342","type":"model"},{"step":175,"from":"1085474672","to":"1085474672.<java.net.URI$PartEncoder: java.lang.String extraLegalCharacters>","type":"load","field":"<java.net.URI$PartEncoder: java.lang.String extraLegalCharacters>"},{"step":176,"from":"sdaReg0","to":"sdaReg350","type":"model"},{"step":177,"from":"sdaReg0","to":"sdaReg351","type":"model"},{"step":178,"from":"sdaReg0","to":"sdaReg352","type":"model"},{"step":179,"from":"sdaReg0","to":"sdaReg353","type":"model"},{"step":180,"from":"sdaReg0","to":"sdaReg354","type":"model"},{"step":181,"from":"sdaReg354","to":"1093655104","type":"store","field":"<java.net.URI: java.lang.String path>"},{"step":182,"from":"static.<java.net.URI: libcore.net.UriCodec ALL_LEGAL_ENCODER>","to":"1085538000","type":"load","field":"<java.net.URI: libcore.net.UriCodec ALL_LEGAL_ENCODER>"},{"step":183,"from":"sdaReg0","to":"sdaReg359","type":"model"},{"step":184,"from":"sdaReg0","to":"sdaReg360","type":"model"},{"step":185,"from":"sdaReg0","to":"sdaReg361","type":"model"},{"step":186,"from":"sdaReg0","to":"sdaReg362","type":"model"},{"step":187,"from":"sdaReg0","to":"sdaReg363","type":"model"},{"step":188,"from":"sdaReg0","to":"sdaReg364","type":"model"},{"step":189,"from":"sdaReg364","to":"1093655104","type":"store","field":"<java.net.URI: java.lang.String query>"},{"step":190,"from":"sdaReg369","to":"sdaReg375","type":"model"},{"step":191,"from":"sdaReg369","to":"sdaReg377","type":"model"},{"step":192,"from":"sdaReg369","to":"sdaReg379","type":"model"},{"step":193,"from":"sdaReg369","to":"sdaReg381","type":"model"},{"step":194,"from":"sdaReg369","to":"sdaReg383","type":"model"},{"step":195,"from":"sdaReg369","to":"sdaReg385","type":"model"},{"step":196,"from":"sdaReg369","to":"sdaReg387","type":"model"},{"step":197,"from":"sdaReg369","to":"sdaReg389","type":"model"},{"step":198,"from":"sdaReg369","to":"sdaReg391","type":"model"},{"step":199,"from":"sdaReg369","to":"sdaReg393","type":"model"},{"step":200,"from":"sdaReg369","to":"sdaReg395","type":"model"},{"step":201,"from":"sdaReg369","to":"sdaReg397","type":"model"},{"step":202,"from":"sdaReg369","to":"sdaReg399","type":"model"},{"step":203,"from":"sdaReg369","to":"sdaReg401","type":"model"},{"step":204,"from":"sdaReg369","to":"sdaReg403","type":"model"},{"step":205,"from":"sdaReg369","to":"sdaReg405","type":"model"},{"step":206,"from":"sdaReg369","to":"sdaReg407","type":"model"},{"step":207,"from":"sdaReg410","to":"sdaReg411","type":"model"},{"step":208,"from":"sdaReg410","to":"sdaReg414","type":"model"},{"step":209,"from":"sdaReg410","to":"sdaReg418","type":"model"},{"step":210,"from":"sdaReg418","to":"sdaReg419","type":"model"},{"step":211,"from":"sdaReg414","to":"sdaReg425","type":"model"},{"step":212,"from":"sdaReg414","to":"sdaReg430","type":"model"},{"step":213,"from":"sdaReg414","to":"sdaReg432","type":"model"},{"step":214,"from":"sdaReg414","to":"sdaReg434","type":"model"},{"step":215,"from":"sdaReg414","to":"sdaReg436","type":"model"},{"step":216,"from":"sdaReg414","to":"1093297072","type":"model"},{"step":217,"from":"1093297072","to":"1093297072.arrayIdx_int:0","type":"load","field":"arrayIdx_int:0"},{"step":218,"from":"sdaReg369","to":"1093655104","type":"store","field":"<java.net.URI: java.lang.String userInfo>"},{"step":219,"from":"sdaReg414","to":"1093655104","type":"store","field":"<java.net.URI: java.lang.String host>"},{"step":220,"from":"sdaReg419","to":"1093655104","type":"store","field":"<java.net.URI: int port>"},{"step":221,"from":"1093655104","to":"sdaReg447","type":"create","field":"<java.net.URI: boolean serverAuthority>"}],"parameters":[{"id":"1093655104","name":"this","klass":"java.net.URI"},{"id":"sdaReg0","name":"arg#1","klass":"string"}],"returns":[{"id":"1093655104","name":"return","klass":"java.net.URI"}],"colors":{"heapLocToColor":{"sdaReg191":[1, 162],"sdaReg294":[1, 249],"sdaReg190":[161],"sdaReg293":[248],"sdaReg193":[1, 164],"sdaReg296":[1, 251],"sdaReg192":[163],"sdaReg295":[250],"sdaReg298":[1, 253],"sdaReg297":[252],"sdaReg299":[254],"sdaReg199":[1, 170],"sdaReg198":[169],"sdaReg195":[1, 166],"sdaReg290":[1, 245],"sdaReg194":[165],"sdaReg197":[1, 168],"sdaReg292":[1, 247],"sdaReg196":[167],"sdaReg291":[246],"sdaReg170":[1, 147],"sdaReg172":[1, 148],"sdaReg174":[149],"sdaReg177":[151],"sdaReg176":[1, 150],"sdaReg182":[153],"sdaReg181":[152, 1],"sdaReg186":[157],"sdaReg185":[1, 156],"sdaReg184":[155],"sdaReg183":[1, 154],"sdaReg189":[1, 160],"sdaReg188":[159],"sdaReg187":[1, 158],"sdaReg68":[60],"sdaReg69":[1, 61],"sdaReg66":[58],"sdaReg67":[1, 59],"sdaReg64":[56],"sdaReg65":[1, 57],"sdaReg62":[54],"sdaReg63":[1, 55],"sdaReg72":[64],"sdaReg71":[1, 63],"sdaReg70":[62],"sdaReg77":[1, 69],"sdaReg78":[70],"sdaReg79":[1, 71],"sdaReg73":[1, 65],"sdaReg74":[66],"sdaReg75":[1, 67],"sdaReg76":[68],"sdaReg81":[1, 73],"sdaReg80":[72],"sdaReg83":[1, 75],"sdaReg82":[74],"1093655104":[0],"sdaReg86":[78],"sdaReg87":[1, 79],"sdaReg84":[76],"sdaReg85":[1, 77],"sdaReg88":[80],"sdaReg89":[1, 81],"sdaReg90":[82],"sdaReg94":[86],"sdaReg93":[85, 1],"sdaReg92":[84],"sdaReg91":[1, 83],"1085474672.<java.net.URI$PartEncoder: java.lang.String extraLegalCharacters>":[277],"sdaReg95":[1, 87],"sdaReg96":[88],"sdaReg97":[1, 89],"sdaReg98":[90],"sdaReg99":[1, 91],"1085536376":[209],"static.<java.net.URI: libcore.net.UriCodec PATH_ENCODER>":[277],"1093297072":[343, 364, 346],"1085538000":[116],"1093297072.arrayIdx_int:0":[343, 364, 346],"sdaReg429":[355],"sdaReg426":[0],"sdaReg425":[343, 354, 346],"sdaReg424":[353],"sdaReg423":[352],"sdaReg422":[351],"sdaReg326":[277],"sdaReg325":[1, 278],"sdaReg328":[279],"sdaReg13":[1, 5],"sdaReg14":[6],"sdaReg11":[1, 3],"sdaReg12":[4],"sdaReg321":[276],"sdaReg322":[277],"sdaReg320":[275, 1],"sdaReg420":[350],"sdaReg421":[0],"sdaReg19":[1, 11],"sdaReg17":[1, 9],"sdaReg18":[10],"sdaReg15":[1, 7],"sdaReg16":[8],"sdaReg416":[347],"sdaReg415":[347],"sdaReg418":[343, 348],"sdaReg417":[343, 344],"sdaReg412":[345],"sdaReg411":[343, 344],"sdaReg414":[343, 346],"sdaReg313":[268],"sdaReg312":[1, 267],"sdaReg315":[270],"sdaReg314":[1, 269],"sdaReg317":[272],"sdaReg316":[1, 271],"sdaReg419":[349],"sdaReg319":[274],"sdaReg318":[1, 273],"sdaReg310":[1, 265],"sdaReg311":[266],"sdaReg410":[343],"sdaReg444":[367],"sdaReg309":[264],"sdaReg308":[1, 263],"sdaReg307":[262],"sdaReg306":[1, 261],"sdaReg305":[260],"sdaReg304":[1, 259],"sdaReg303":[258],"sdaReg302":[1, 257],"sdaReg301":[256],"sdaReg300":[1, 255],"sdaReg442":[365],"sdaReg443":[366],"sdaReg434":[343, 360, 346],"sdaReg433":[359],"sdaReg436":[343, 346, 362],"sdaReg435":[361],"sdaReg438":[343, 364, 346],"sdaReg437":[363],"sdaReg439":[343, 364, 346],"sdaReg430":[343, 356, 346],"sdaReg431":[357],"sdaReg432":[343, 358, 346],"sdaReg60":[52],"sdaReg61":[1, 53],"sdaReg59":[51, 1],"sdaReg58":[50],"sdaReg57":[1, 49],"sdaReg56":[48],"sdaReg55":[1, 47],"sdaReg54":[46],"sdaReg53":[1, 45],"sdaReg52":[44],"sdaReg51":[1, 43],"sdaReg50":[42],"static.<java.net.URI: libcore.net.UriCodec ALL_LEGAL_ENCODER>":[116],"sdaReg49":[1, 41],"sdaReg48":[40],"sdaReg45":[1, 37],"sdaReg44":[36],"sdaReg47":[1, 39],"sdaReg46":[38],"sdaReg41":[1, 33],"sdaReg40":[32],"sdaReg43":[1, 35],"sdaReg42":[34],"sdaReg408":[342],"sdaReg409":[306],"sdaReg402":[336],"sdaReg403":[307, 337],"static.<java.net.URI: libcore.net.UriCodec AUTHORITY_ENCODER>":[209],"sdaReg400":[334],"sdaReg401":[307, 335],"sdaReg200":[171],"sdaReg406":[340],"sdaReg201":[1, 172],"sdaReg407":[307, 341],"sdaReg404":[338],"sdaReg405":[307, 339],"sdaReg205":[1, 176],"sdaReg204":[175],"sdaReg39":[1, 31],"sdaReg203":[1, 174],"sdaReg38":[30],"1085474672":[277],"sdaReg202":[173],"sdaReg37":[1, 29],"sdaReg209":[1, 180],"sdaReg208":[179],"sdaReg207":[1, 178],"sdaReg206":[177],"sdaReg32":[24],"1085536376.<java.net.URI$PartEncoder: java.lang.String extraLegalCharacters>":[209],"sdaReg31":[1, 23],"sdaReg30":[22],"sdaReg36":[28],"sdaReg35":[1, 27],"sdaReg34":[26],"sdaReg33":[1, 25],"sdaReg7":[2],"sdaReg5":[0],"sdaReg27":[1, 19],"sdaReg26":[18],"sdaReg29":[1, 21],"sdaReg28":[20],"sdaReg1":[0],"sdaReg21":[1, 13],"sdaReg0":[1],"sdaReg20":[12],"sdaReg23":[1, 15],"sdaReg22":[14],"sdaReg25":[17, 1],"sdaReg24":[16],"sdaReg125":[117],"sdaReg126":[116],"sdaReg129":[1, 118],"sdaReg228":[199],"sdaReg229":[1, 200],"sdaReg224":[195],"sdaReg225":[1, 196],"sdaReg226":[197],"sdaReg227":[1, 198],"sdaReg221":[1, 192],"sdaReg220":[191],"sdaReg223":[1, 194],"sdaReg222":[193],"sdaReg120":[112],"sdaReg122":[114],"sdaReg121":[1, 113],"sdaReg123":[115],"sdaReg116":[108],"sdaReg394":[328],"sdaReg117":[1, 109],"sdaReg395":[307, 329],"sdaReg114":[106],"sdaReg392":[326],"sdaReg115":[1, 107],"sdaReg393":[327, 307],"sdaReg398":[332],"sdaReg399":[307, 333],"sdaReg118":[110],"sdaReg396":[330],"sdaReg119":[1, 111],"sdaReg397":[307, 331],"sdaReg219":[1, 190],"sdaReg217":[1, 188],"sdaReg218":[189],"sdaReg215":[186, 1],"sdaReg390":[324],"sdaReg216":[187],"sdaReg391":[307, 325],"sdaReg213":[1, 184],"sdaReg214":[185],"sdaReg212":[183],"sdaReg211":[1, 182],"sdaReg210":[181],"sdaReg113":[1, 105],"sdaReg112":[104],"sdaReg111":[1, 103],"sdaReg110":[102],"sdaReg107":[1, 99],"sdaReg385":[307, 319],"sdaReg108":[100],"sdaReg386":[320],"sdaReg109":[1, 101],"sdaReg387":[307, 321],"sdaReg388":[322],"sdaReg103":[1, 95],"sdaReg381":[307, 315],"sdaReg104":[96],"sdaReg382":[316],"sdaReg105":[1, 97],"sdaReg383":[307, 317],"sdaReg106":[98],"sdaReg384":[318],"sdaReg246":[1, 215],"sdaReg247":[1, 216],"sdaReg248":[1, 217],"sdaReg249":[1, 218],"sdaReg380":[314],"sdaReg241":[1, 210],"sdaReg243":[1, 212],"sdaReg242":[1, 211],"sdaReg245":[1, 214],"sdaReg244":[1, 213],"sdaReg100":[92],"sdaReg102":[94],"sdaReg101":[1, 93],"sdaReg389":[307, 323],"sdaReg376":[310],"sdaReg377":[307, 311],"sdaReg374":[308],"sdaReg375":[307, 309],"sdaReg370":[0],"sdaReg237":[208],"sdaReg238":[209],"sdaReg235":[1, 206],"sdaReg236":[207],"sdaReg230":[201],"sdaReg234":[205],"sdaReg233":[1, 204],"sdaReg232":[203],"sdaReg231":[1, 202],"sdaReg379":[307, 313],"sdaReg378":[312],"sdaReg269":[231],"sdaReg360":[1, 301],"sdaReg362":[1, 303],"sdaReg361":[1, 302],"sdaReg364":[305, 1],"sdaReg363":[1, 304],"sdaReg365":[0],"sdaReg367":[306],"sdaReg162":[0],"sdaReg368":[306],"sdaReg369":[307],"sdaReg164":[1, 144],"sdaReg166":[1, 145],"sdaReg168":[1, 146],"sdaReg264":[1, 229],"sdaReg265":[209],"sdaReg267":[230],"sdaReg260":[1, 225],"sdaReg261":[1, 226],"sdaReg262":[1, 227],"sdaReg160":[143],"sdaReg263":[1, 228],"sdaReg259":[1, 224],"sdaReg258":[1, 223],"sdaReg257":[1, 222],"sdaReg351":[1, 296],"sdaReg350":[1, 295],"sdaReg159":[1, 142],"sdaReg158":[141],"sdaReg354":[1, 299],"sdaReg353":[1, 298],"sdaReg352":[1, 297],"sdaReg152":[135],"sdaReg153":[1, 136],"sdaReg359":[1, 300],"sdaReg150":[133],"sdaReg356":[116],"sdaReg151":[1, 134],"sdaReg156":[139],"sdaReg157":[1, 140],"sdaReg154":[137],"sdaReg155":[1, 138],"sdaReg256":[1, 221],"sdaReg254":[220],"sdaReg252":[219],"sdaReg250":[209],"sdaReg342":[1, 291],"sdaReg341":[1, 290],"sdaReg343":[277],"sdaReg340":[1, 289],"sdaReg149":[1, 132],"sdaReg143":[129],"sdaReg144":[1, 130],"sdaReg145":[131],"sdaReg345":[292],"sdaReg140":[1, 126],"sdaReg141":[127],"sdaReg347":[293],"sdaReg142":[1, 128],"sdaReg281":[239],"sdaReg348":[294],"sdaReg283":[1, 240],"sdaReg284":[1, 241],"sdaReg285":[1, 242],"sdaReg286":[1, 243],"sdaReg287":[1, 244],"sdaReg279":[238],"sdaReg333":[1, 282],"sdaReg331":[281],"sdaReg330":[280],"sdaReg139":[125],"sdaReg138":[1, 124],"sdaReg137":[123],"sdaReg136":[1, 122],"sdaReg132":[1, 121],"sdaReg338":[1, 287],"sdaReg339":[288, 1],"sdaReg130":[119, 1],"sdaReg336":[1, 285],"sdaReg131":[1, 120],"sdaReg270":[232],"sdaReg337":[1, 286],"sdaReg334":[1, 283],"sdaReg335":[1, 284],"sdaReg273":[1, 234],"sdaReg274":[1, 235],"sdaReg272":[1, 233],"sdaReg277":[209],"sdaReg275":[1, 236],"sdaReg276":[1, 237]},"colorToColor":{"305":[0],"343":[0, 349],"0":[368],"1":[0],"307":[0],"349":[0],"348":[349],"346":[0],"244":[0],"299":[0],"148":[0],"121":[0],"150":[0]},"colorToLabel":{"0":"this","1":"arg#1","116":"<java.net.URI: libcore.net.UriCodec ALL_LEGAL_ENCODER>","209":"<java.net.URI: libcore.net.UriCodec AUTHORITY_ENCODER>","277":"<java.net.URI: libcore.net.UriCodec PATH_ENCODER>","368":"return"}}}

Generated Model
	this->return
	arg#1->this
	arg#1->return

