Scanning method <java.net.URI: void <init>(java.lang.String)>

All seen event types: LoadStaticRecord, BinaryOperationRecord, SimpleAssignmentRecord, MethodReturnRecord, MethodCallRecord, LoadInstanceRecord, MethodStartRecord, MethodEndRecord, IfRecord, StoreInstanceRecord, 
Ignored event types: IfRecord, 

JSON Encoded Analysis Data (for visualization):{"heapEdges":[{"step":0,"from":"1093565376","to":"sdaReg2","type":"create","field":"<java.net.URI: int port>"},{"step":1,"from":"1093565376","to":"sdaReg3","type":"create","field":"<java.net.URI: boolean serverAuthority>"},{"step":2,"from":"1093565376","to":"sdaReg4","type":"create","field":"<java.net.URI: int hash>"},{"step":3,"from":"sdaReg0","to":"1093565376","type":"store","field":"<java.net.URI: java.lang.String string>"},{"step":4,"from":"sdaReg0","to":"sdaReg11","type":"model"},{"step":5,"from":"sdaReg0","to":"sdaReg17","type":"model"},{"step":6,"from":"sdaReg0","to":"sdaReg22","type":"model"},{"step":7,"from":"1093565376","to":"sdaReg24","type":"create","field":"<java.net.URI: boolean absolute>"},{"step":8,"from":"1093565376","to":"sdaReg26","type":"create","field":"<java.net.URI: boolean opaque>"},{"step":9,"from":"sdaReg0","to":"sdaReg27","type":"model"},{"step":10,"from":"sdaReg27","to":"1093565376","type":"store","field":"<java.net.URI: java.lang.String schemeSpecificPart>"},{"step":11,"from":"sdaReg0","to":"sdaReg32","type":"model"},{"step":12,"from":"static.<java.net.URI: libcore.net.UriCodec PATH_ENCODER>","to":"1085474672","type":"load","field":"<java.net.URI: libcore.net.UriCodec PATH_ENCODER>"},{"step":13,"from":"sdaReg0","to":"sdaReg37","type":"model"},{"step":14,"from":"sdaReg0","to":"sdaReg38","type":"model"},{"step":15,"from":"sdaReg38","to":"1093565376","type":"store","field":"<java.net.URI: java.lang.String path>"},{"step":16,"from":"1093565376","to":"1093565376.<java.net.URI: java.lang.String authority>","type":"load","field":"<java.net.URI: java.lang.String authority>"}],"parameters":[{"id":"1093565376","name":"this","klass":"java.net.URI"},{"id":"sdaReg0","name":"arg#1","klass":"string"}],"returns":[{"id":"1093565376","name":"return","klass":"java.net.URI"}],"colors":{"heapLocToColor":{"sdaReg7":[2],"sdaReg5":[0],"1093565376":[0],"sdaReg13":[5],"sdaReg27":[1, 10],"sdaReg39":[0],"1093565376.<java.net.URI: java.lang.String authority>":[0],"sdaReg38":[1, 16],"1085474672":[14],"sdaReg11":[1, 3],"sdaReg37":[1, 15],"static.<java.net.URI: libcore.net.UriCodec PATH_ENCODER>":[14],"sdaReg28":[11],"sdaReg12":[4],"sdaReg32":[1, 12],"sdaReg1":[0],"sdaReg0":[1],"sdaReg17":[1, 6],"sdaReg23":[9],"sdaReg18":[7],"sdaReg22":[1, 8],"sdaReg34":[14],"sdaReg33":[13]},"colorToColor":{"0":[17],"16":[0],"1":[0],"10":[0]},"colorToLabel":{"0":"this","1":"arg#1","14":"<java.net.URI: libcore.net.UriCodec PATH_ENCODER>","17":"return"}}}

Generated Model
	this->return
	arg#1->this
	arg#1->return

