Scanning method <java.net.URI: void <init>(java.lang.String)>

All seen event types: LoadStaticRecord, BinaryOperationRecord, SimpleAssignmentRecord, MethodReturnRecord, MethodCallRecord, ArrayLengthRecord, LoadInstanceRecord, MethodStartRecord, LoadArrayRecord, MethodEndRecord, IfRecord, StoreInstanceRecord, 
Ignored event types: IfRecord, 

JSON Encoded Analysis Data (for visualization):{"heapEdges":[{"step":0,"from":"1093654800","to":"sdaReg2","type":"create","field":"<java.net.URI: int port>"},{"step":1,"from":"1093654800","to":"sdaReg3","type":"create","field":"<java.net.URI: boolean serverAuthority>"},{"step":2,"from":"1093654800","to":"sdaReg4","type":"create","field":"<java.net.URI: int hash>"},{"step":3,"from":"sdaReg0","to":"1093654800","type":"store","field":"<java.net.URI: java.lang.String string>"},{"step":4,"from":"sdaReg0","to":"sdaReg11","type":"model"},{"step":5,"from":"sdaReg0","to":"sdaReg13","type":"model"},{"step":6,"from":"sdaReg0","to":"sdaReg15","type":"model"},{"step":7,"from":"sdaReg0","to":"sdaReg17","type":"model"},{"step":8,"from":"sdaReg0","to":"sdaReg19","type":"model"},{"step":9,"from":"sdaReg0","to":"sdaReg21","type":"model"},{"step":10,"from":"sdaReg0","to":"sdaReg23","type":"model"},{"step":11,"from":"sdaReg0","to":"sdaReg25","type":"model"},{"step":12,"from":"sdaReg0","to":"sdaReg27","type":"model"},{"step":13,"from":"sdaReg0","to":"sdaReg29","type":"model"},{"step":14,"from":"sdaReg0","to":"sdaReg31","type":"model"},{"step":15,"from":"sdaReg0","to":"sdaReg33","type":"model"},{"step":16,"from":"sdaReg0","to":"sdaReg35","type":"model"},{"step":17,"from":"sdaReg0","to":"sdaReg37","type":"model"},{"step":18,"from":"sdaReg0","to":"sdaReg39","type":"model"},{"step":19,"from":"sdaReg0","to":"sdaReg41","type":"model"},{"step":20,"from":"sdaReg0","to":"sdaReg43","type":"model"},{"step":21,"from":"sdaReg0","to":"sdaReg45","type":"model"},{"step":22,"from":"sdaReg0","to":"sdaReg47","type":"model"},{"step":23,"from":"sdaReg0","to":"sdaReg49","type":"model"},{"step":24,"from":"sdaReg0","to":"sdaReg51","type":"model"},{"step":25,"from":"sdaReg0","to":"sdaReg53","type":"model"},{"step":26,"from":"sdaReg0","to":"sdaReg55","type":"model"},{"step":27,"from":"sdaReg0","to":"sdaReg57","type":"model"},{"step":28,"from":"sdaReg0","to":"sdaReg59","type":"model"},{"step":29,"from":"sdaReg0","to":"sdaReg65","type":"model"},{"step":30,"from":"sdaReg0","to":"sdaReg67","type":"model"},{"step":31,"from":"sdaReg0","to":"sdaReg69","type":"model"},{"step":32,"from":"sdaReg0","to":"sdaReg71","type":"model"},{"step":33,"from":"sdaReg0","to":"sdaReg73","type":"model"},{"step":34,"from":"sdaReg0","to":"sdaReg78","type":"model"},{"step":35,"from":"sdaReg0","to":"sdaReg80","type":"model"},{"step":36,"from":"sdaReg0","to":"sdaReg82","type":"model"},{"step":37,"from":"sdaReg0","to":"sdaReg84","type":"model"},{"step":38,"from":"sdaReg0","to":"sdaReg86","type":"model"},{"step":39,"from":"sdaReg0","to":"sdaReg88","type":"model"},{"step":40,"from":"1093654800","to":"sdaReg90","type":"create","field":"<java.net.URI: boolean absolute>"},{"step":41,"from":"sdaReg0","to":"sdaReg93","type":"model"},{"step":42,"from":"sdaReg0","to":"sdaReg95","type":"model"},{"step":43,"from":"sdaReg0","to":"sdaReg97","type":"model"},{"step":44,"from":"sdaReg0","to":"sdaReg99","type":"model"},{"step":45,"from":"sdaReg0","to":"sdaReg101","type":"model"},{"step":46,"from":"sdaReg101","to":"1093654800","type":"store","field":"<java.net.URI: java.lang.String scheme>"},{"step":47,"from":"1093654800","to":"sdaReg104","type":"create","field":"<java.net.URI: boolean opaque>"},{"step":48,"from":"sdaReg0","to":"sdaReg105","type":"model"},{"step":49,"from":"sdaReg105","to":"1093654800","type":"store","field":"<java.net.URI: java.lang.String schemeSpecificPart>"},{"step":50,"from":"sdaReg0","to":"sdaReg110","type":"model"},{"step":51,"from":"sdaReg0","to":"sdaReg112","type":"model"},{"step":52,"from":"sdaReg0","to":"sdaReg114","type":"model"},{"step":53,"from":"sdaReg0","to":"sdaReg116","type":"model"},{"step":54,"from":"sdaReg0","to":"sdaReg118","type":"model"},{"step":55,"from":"static.<java.net.URI: libcore.net.UriCodec AUTHORITY_ENCODER>","to":"1085536376","type":"load","field":"<java.net.URI: libcore.net.UriCodec AUTHORITY_ENCODER>"},{"step":56,"from":"sdaReg0","to":"sdaReg124","type":"model"},{"step":57,"from":"sdaReg0","to":"sdaReg125","type":"model"},{"step":58,"from":"sdaReg0","to":"sdaReg126","type":"model"},{"step":59,"from":"sdaReg0","to":"sdaReg127","type":"model"},{"step":60,"from":"sdaReg0","to":"sdaReg128","type":"model"},{"step":61,"from":"sdaReg128","to":"1093654800","type":"store","field":"<java.net.URI: java.lang.String authority>"},{"step":62,"from":"sdaReg0","to":"sdaReg131","type":"model"},{"step":63,"from":"sdaReg0","to":"sdaReg133","type":"model"},{"step":64,"from":"sdaReg0","to":"sdaReg135","type":"model"},{"step":65,"from":"sdaReg0","to":"sdaReg137","type":"model"},{"step":66,"from":"sdaReg0","to":"sdaReg139","type":"model"},{"step":67,"from":"sdaReg0","to":"sdaReg141","type":"model"},{"step":68,"from":"static.<java.net.URI: libcore.net.UriCodec PATH_ENCODER>","to":"1085474672","type":"load","field":"<java.net.URI: libcore.net.UriCodec PATH_ENCODER>"},{"step":69,"from":"sdaReg0","to":"sdaReg146","type":"model"},{"step":70,"from":"1085474672","to":"1085474672.<java.net.URI$PartEncoder: java.lang.String extraLegalCharacters>","type":"load","field":"<java.net.URI$PartEncoder: java.lang.String extraLegalCharacters>"},{"step":71,"from":"sdaReg0","to":"sdaReg154","type":"model"},{"step":72,"from":"sdaReg0","to":"sdaReg155","type":"model"},{"step":73,"from":"sdaReg0","to":"sdaReg156","type":"model"},{"step":74,"from":"sdaReg0","to":"sdaReg157","type":"model"},{"step":75,"from":"sdaReg0","to":"sdaReg158","type":"model"},{"step":76,"from":"sdaReg158","to":"1093654800","type":"store","field":"<java.net.URI: java.lang.String path>"},{"step":77,"from":"static.<java.net.URI: libcore.net.UriCodec ALL_LEGAL_ENCODER>","to":"1085538000","type":"load","field":"<java.net.URI: libcore.net.UriCodec ALL_LEGAL_ENCODER>"},{"step":78,"from":"sdaReg0","to":"sdaReg163","type":"model"},{"step":79,"from":"sdaReg0","to":"sdaReg164","type":"model"},{"step":80,"from":"sdaReg0","to":"sdaReg165","type":"model"},{"step":81,"from":"sdaReg0","to":"sdaReg166","type":"model"},{"step":82,"from":"sdaReg0","to":"sdaReg167","type":"model"},{"step":83,"from":"sdaReg0","to":"sdaReg168","type":"model"},{"step":84,"from":"1085538000","to":"1085538000.<java.net.URI$PartEncoder: java.lang.String extraLegalCharacters>","type":"load","field":"<java.net.URI$PartEncoder: java.lang.String extraLegalCharacters>"},{"step":85,"from":"sdaReg0","to":"sdaReg176","type":"model"},{"step":86,"from":"sdaReg0","to":"sdaReg177","type":"model"},{"step":87,"from":"sdaReg0","to":"sdaReg178","type":"model"},{"step":88,"from":"sdaReg178","to":"1093654800","type":"store","field":"<java.net.URI: java.lang.String query>"},{"step":89,"from":"sdaReg186","to":"sdaReg192","type":"model"},{"step":90,"from":"sdaReg186","to":"sdaReg197","type":"model"},{"step":91,"from":"sdaReg186","to":"sdaReg199","type":"model"},{"step":92,"from":"sdaReg186","to":"sdaReg201","type":"model"},{"step":93,"from":"sdaReg186","to":"sdaReg203","type":"model"},{"step":94,"from":"sdaReg186","to":"1093329904","type":"model"},{"step":95,"from":"1093329904","to":"1093329904.arrayIdx_int:0","type":"load","field":"arrayIdx_int:0"},{"step":96,"from":"sdaReg180","to":"1093654800","type":"store","field":"<java.net.URI: java.lang.String userInfo>"},{"step":97,"from":"sdaReg186","to":"1093654800","type":"store","field":"<java.net.URI: java.lang.String host>"},{"step":98,"from":"sdaReg185","to":"1093654800","type":"store","field":"<java.net.URI: int port>"},{"step":99,"from":"1093654800","to":"sdaReg214","type":"create","field":"<java.net.URI: boolean serverAuthority>"}],"parameters":[{"id":"1093654800","name":"this","klass":"java.net.URI"},{"id":"sdaReg0","name":"arg#1","klass":"string"}],"returns":[{"id":"1093654800","name":"return","klass":"java.net.URI"}],"colors":{"heapLocToColor":{"sdaReg191":[142],"sdaReg125":[1, 97],"sdaReg190":[141],"sdaReg126":[1, 98],"sdaReg193":[0],"sdaReg127":[1, 99],"sdaReg192":[143],"sdaReg128":[1, 100],"sdaReg199":[147],"sdaReg68":[57],"sdaReg198":[146],"sdaReg69":[1, 58],"sdaReg66":[55],"sdaReg67":[1, 56],"sdaReg65":[1, 54],"sdaReg197":[145],"sdaReg196":[144],"sdaReg13":[1, 5],"sdaReg72":[61],"sdaReg14":[6],"sdaReg71":[1, 60],"sdaReg11":[1, 3],"sdaReg70":[59],"sdaReg12":[4],"sdaReg120":[94],"sdaReg19":[1, 11],"sdaReg17":[1, 9],"sdaReg121":[95],"sdaReg18":[10],"sdaReg124":[1, 96],"sdaReg15":[1, 7],"sdaReg16":[8],"sdaReg116":[1, 90],"sdaReg117":[91],"sdaReg114":[1, 88],"sdaReg115":[89],"sdaReg118":[1, 92],"sdaReg119":[93],"sdaReg78":[1, 64],"sdaReg79":[65],"sdaReg73":[1, 62],"sdaReg74":[63],"sdaReg81":[67],"sdaReg211":[156],"sdaReg80":[1, 66],"sdaReg210":[155],"sdaReg83":[69],"sdaReg82":[68, 1],"1093329904":[153],"sdaReg113":[87],"sdaReg112":[1, 86],"sdaReg111":[85],"sdaReg110":[1, 84],"sdaReg103":[81],"sdaReg171":[130],"sdaReg105":[1, 82],"sdaReg106":[83],"sdaReg173":[131],"sdaReg86":[1, 72],"sdaReg87":[73],"sdaReg84":[1, 70],"sdaReg174":[132],"sdaReg85":[71],"sdaReg177":[1, 134],"sdaReg176":[1, 133],"sdaReg179":[0],"sdaReg88":[1, 74],"sdaReg178":[1, 135],"sdaReg89":[75],"sdaReg93":[1, 76],"sdaReg91":[0],"sdaReg101":[1, 80],"sdaReg181":[136],"1085474672.<java.net.URI$PartEncoder: java.lang.String extraLegalCharacters>":[113],"sdaReg95":[1, 77],"sdaReg184":[138],"sdaReg97":[1, 78],"sdaReg183":[137],"1085536376":[95],"sdaReg99":[1, 79],"sdaReg189":[140],"sdaReg188":[0],"sdaReg187":[139],"1085538000.<java.net.URI$PartEncoder: java.lang.String extraLegalCharacters>":[123],"static.<java.net.URI: libcore.net.UriCodec PATH_ENCODER>":[113],"sdaReg60":[52],"sdaReg61":[53],"1093329904.arrayIdx_int:0":[153],"sdaReg169":[123],"sdaReg163":[1, 124],"sdaReg164":[1, 125],"sdaReg165":[1, 126],"sdaReg166":[1, 127],"sdaReg167":[1, 128],"sdaReg168":[1, 129],"sdaReg59":[51, 1],"sdaReg58":[50],"sdaReg57":[1, 49],"sdaReg56":[48],"sdaReg55":[1, 47],"sdaReg54":[46],"sdaReg53":[1, 45],"sdaReg52":[44],"sdaReg160":[123],"sdaReg51":[1, 43],"sdaReg50":[42],"sdaReg158":[1, 122],"static.<java.net.URI: libcore.net.UriCodec ALL_LEGAL_ENCODER>":[123],"sdaReg152":[117],"sdaReg151":[116],"sdaReg156":[1, 120],"sdaReg49":[1, 41],"sdaReg157":[1, 121],"sdaReg48":[40],"sdaReg154":[1, 118],"sdaReg155":[119, 1],"sdaReg45":[1, 37],"sdaReg44":[36],"sdaReg47":[1, 39],"sdaReg46":[38],"sdaReg41":[1, 33],"sdaReg40":[32],"sdaReg43":[1, 35],"sdaReg42":[34],"static.<java.net.URI: libcore.net.UriCodec AUTHORITY_ENCODER>":[95],"sdaReg200":[148],"sdaReg201":[149],"sdaReg147":[113],"sdaReg149":[115],"sdaReg205":[153],"sdaReg143":[113],"sdaReg204":[152],"sdaReg39":[1, 31],"sdaReg203":[151],"1085474672":[113],"sdaReg38":[30],"sdaReg202":[150],"sdaReg146":[1, 114],"sdaReg37":[1, 29],"1093654800":[0],"sdaReg209":[154],"sdaReg140":[110],"sdaReg141":[1, 111],"sdaReg206":[153],"sdaReg142":[112],"1085538000":[123],"sdaReg32":[24],"sdaReg31":[1, 23],"sdaReg30":[22],"sdaReg36":[28],"sdaReg35":[1, 27],"sdaReg34":[26],"sdaReg33":[1, 25],"sdaReg7":[2],"sdaReg5":[0],"sdaReg139":[1, 109],"sdaReg138":[108],"sdaReg137":[1, 107],"sdaReg136":[106],"sdaReg134":[104],"sdaReg27":[1, 19],"sdaReg135":[1, 105],"sdaReg26":[18],"sdaReg132":[102],"sdaReg29":[1, 21],"sdaReg133":[1, 103],"sdaReg28":[20],"sdaReg131":[1, 101],"sdaReg1":[0],"sdaReg21":[1, 13],"sdaReg0":[1],"sdaReg20":[12],"sdaReg23":[1, 15],"sdaReg22":[14],"sdaReg25":[17, 1],"sdaReg24":[16]},"colorToColor":{"0":[157],"1":[0],"100":[0],"80":[0],"82":[0],"122":[0],"135":[0]},"colorToLabel":{"0":"this","1":"arg#1","95":"<java.net.URI: libcore.net.UriCodec AUTHORITY_ENCODER>","113":"<java.net.URI: libcore.net.UriCodec PATH_ENCODER>","123":"<java.net.URI: libcore.net.UriCodec ALL_LEGAL_ENCODER>","157":"return"}}}

Generated Model
	this->return
	arg#1->this
	arg#1->return

