Scanning method <java.net.URI: void <init>(java.lang.String)>

All seen event types: LoadStaticRecord, BinaryOperationRecord, SimpleAssignmentRecord, MethodReturnRecord, MethodCallRecord, LoadInstanceRecord, MethodStartRecord, MethodEndRecord, IfRecord, StoreInstanceRecord, 
Ignored event types: IfRecord, 

JSON Encoded Analysis Data (for visualization):{"heapEdges":[{"step":0,"from":"1093672248","to":"sdaReg2","type":"create","field":"<java.net.URI: int port>"},{"step":1,"from":"1093672248","to":"sdaReg3","type":"create","field":"<java.net.URI: boolean serverAuthority>"},{"step":2,"from":"1093672248","to":"sdaReg4","type":"create","field":"<java.net.URI: int hash>"},{"step":3,"from":"sdaReg0","to":"1093672248","type":"store","field":"<java.net.URI: java.lang.String string>"},{"step":4,"from":"sdaReg0","to":"sdaReg11","type":"model"},{"step":5,"from":"sdaReg0","to":"sdaReg13","type":"model"},{"step":6,"from":"sdaReg0","to":"sdaReg15","type":"model"},{"step":7,"from":"sdaReg0","to":"sdaReg17","type":"model"},{"step":8,"from":"sdaReg0","to":"sdaReg19","type":"model"},{"step":9,"from":"sdaReg0","to":"sdaReg21","type":"model"},{"step":10,"from":"sdaReg0","to":"sdaReg23","type":"model"},{"step":11,"from":"sdaReg0","to":"sdaReg25","type":"model"},{"step":12,"from":"sdaReg0","to":"sdaReg27","type":"model"},{"step":13,"from":"sdaReg0","to":"sdaReg29","type":"model"},{"step":14,"from":"sdaReg0","to":"sdaReg31","type":"model"},{"step":15,"from":"sdaReg0","to":"sdaReg33","type":"model"},{"step":16,"from":"sdaReg0","to":"sdaReg35","type":"model"},{"step":17,"from":"sdaReg0","to":"sdaReg37","type":"model"},{"step":18,"from":"sdaReg0","to":"sdaReg39","type":"model"},{"step":19,"from":"sdaReg0","to":"sdaReg45","type":"model"},{"step":20,"from":"sdaReg0","to":"sdaReg47","type":"model"},{"step":21,"from":"sdaReg0","to":"sdaReg49","type":"model"},{"step":22,"from":"sdaReg0","to":"sdaReg51","type":"model"},{"step":23,"from":"sdaReg0","to":"sdaReg53","type":"model"},{"step":24,"from":"sdaReg0","to":"sdaReg58","type":"model"},{"step":25,"from":"sdaReg0","to":"sdaReg60","type":"model"},{"step":26,"from":"sdaReg0","to":"sdaReg62","type":"model"},{"step":27,"from":"sdaReg0","to":"sdaReg64","type":"model"},{"step":28,"from":"sdaReg0","to":"sdaReg66","type":"model"},{"step":29,"from":"sdaReg0","to":"sdaReg68","type":"model"},{"step":30,"from":"1093672248","to":"sdaReg70","type":"create","field":"<java.net.URI: boolean absolute>"},{"step":31,"from":"sdaReg0","to":"sdaReg73","type":"model"},{"step":32,"from":"sdaReg0","to":"sdaReg75","type":"model"},{"step":33,"from":"sdaReg0","to":"sdaReg77","type":"model"},{"step":34,"from":"sdaReg0","to":"sdaReg79","type":"model"},{"step":35,"from":"sdaReg0","to":"sdaReg81","type":"model"},{"step":36,"from":"sdaReg81","to":"1093672248","type":"store","field":"<java.net.URI: java.lang.String scheme>"},{"step":37,"from":"1093672248","to":"sdaReg84","type":"create","field":"<java.net.URI: boolean opaque>"},{"step":38,"from":"sdaReg0","to":"sdaReg85","type":"model"},{"step":39,"from":"sdaReg85","to":"1093672248","type":"store","field":"<java.net.URI: java.lang.String schemeSpecificPart>"},{"step":40,"from":"sdaReg0","to":"sdaReg90","type":"model"},{"step":41,"from":"sdaReg0","to":"sdaReg92","type":"model"},{"step":42,"from":"sdaReg0","to":"sdaReg94","type":"model"},{"step":43,"from":"sdaReg0","to":"sdaReg96","type":"model"},{"step":44,"from":"sdaReg0","to":"sdaReg98","type":"model"},{"step":45,"from":"sdaReg0","to":"sdaReg100","type":"model"},{"step":46,"from":"sdaReg0","to":"sdaReg102","type":"model"},{"step":47,"from":"sdaReg0","to":"sdaReg104","type":"model"},{"step":48,"from":"static.<java.net.URI: libcore.net.UriCodec AUTHORITY_ENCODER>","to":"1085536376","type":"load","field":"<java.net.URI: libcore.net.UriCodec AUTHORITY_ENCODER>"},{"step":49,"from":"sdaReg0","to":"sdaReg110","type":"model"},{"step":50,"from":"sdaReg0","to":"sdaReg111","type":"model"},{"step":51,"from":"sdaReg0","to":"sdaReg112","type":"model"},{"step":52,"from":"sdaReg0","to":"sdaReg113","type":"model"},{"step":53,"from":"sdaReg0","to":"sdaReg114","type":"model"},{"step":54,"from":"sdaReg0","to":"sdaReg121","type":"model"},{"step":55,"from":"sdaReg0","to":"sdaReg126","type":"model"},{"step":56,"from":"sdaReg0","to":"sdaReg127","type":"model"},{"step":57,"from":"sdaReg127","to":"1093672248","type":"store","field":"<java.net.URI: java.lang.String authority>"},{"step":58,"from":"sdaReg0","to":"sdaReg130","type":"model"},{"step":59,"from":"static.<java.net.URI: libcore.net.UriCodec PATH_ENCODER>","to":"1085474672","type":"load","field":"<java.net.URI: libcore.net.UriCodec PATH_ENCODER>"},{"step":60,"from":"sdaReg0","to":"sdaReg135","type":"model"},{"step":61,"from":"1085474672","to":"1085474672.<java.net.URI$PartEncoder: java.lang.String extraLegalCharacters>","type":"load","field":"<java.net.URI$PartEncoder: java.lang.String extraLegalCharacters>"},{"step":62,"from":"sdaReg0","to":"sdaReg143","type":"model"},{"step":63,"from":"sdaReg143","to":"1093672248","type":"store","field":"<java.net.URI: java.lang.String path>"},{"step":64,"from":"sdaReg155","to":"sdaReg156","type":"model"}],"parameters":[{"id":"1093672248","name":"this","klass":"java.net.URI"},{"id":"sdaReg0","name":"arg#1","klass":"string"}],"returns":[{"id":"1093672248","name":"return","klass":"java.net.URI"}],"colors":{"heapLocToColor":{"sdaReg126":[1, 91],"sdaReg127":[1, 92],"sdaReg68":[1, 54],"sdaReg69":[55],"sdaReg66":[1, 52],"sdaReg67":[53],"1093672248":[0],"sdaReg64":[1, 50],"sdaReg65":[51],"sdaReg62":[1, 48],"sdaReg63":[49],"sdaReg13":[1, 5],"sdaReg14":[6],"sdaReg71":[0],"sdaReg11":[1, 3],"sdaReg12":[4],"sdaReg19":[1, 11],"sdaReg17":[1, 9],"sdaReg122":[81],"sdaReg18":[10],"sdaReg121":[1, 89],"sdaReg124":[90],"sdaReg15":[1, 7],"sdaReg16":[8],"sdaReg117":[87],"sdaReg114":[1, 86],"sdaReg115":[81],"sdaReg119":[88],"sdaReg77":[1, 58],"sdaReg79":[1, 59],"sdaReg73":[1, 56],"sdaReg75":[1, 57],"sdaReg81":[1, 60],"sdaReg83":[61],"sdaReg113":[85, 1],"sdaReg112":[1, 84],"sdaReg111":[1, 83],"sdaReg110":[1, 82],"sdaReg107":[81],"sdaReg103":[77],"sdaReg104":[1, 78],"sdaReg105":[79],"sdaReg106":[80],"sdaReg86":[63],"sdaReg85":[1, 62],"sdaReg90":[1, 64],"sdaReg94":[68, 1],"sdaReg93":[67],"sdaReg92":[1, 66],"sdaReg91":[65],"sdaReg100":[1, 74],"sdaReg102":[1, 76],"sdaReg101":[75],"1085474672.<java.net.URI$PartEncoder: java.lang.String extraLegalCharacters>":[95],"sdaReg95":[69],"sdaReg96":[1, 70],"sdaReg97":[71],"sdaReg98":[1, 72],"sdaReg99":[73],"1085536376":[81],"static.<java.net.URI: libcore.net.UriCodec PATH_ENCODER>":[95],"sdaReg60":[1, 46],"sdaReg61":[47],"sdaReg59":[45],"sdaReg58":[1, 44],"sdaReg54":[43],"sdaReg53":[1, 42],"sdaReg52":[41],"sdaReg51":[1, 40],"sdaReg50":[39],"sdaReg152":[105],"sdaReg153":[105],"sdaReg151":[104],"sdaReg156":[107],"sdaReg49":[1, 38],"sdaReg48":[37],"sdaReg154":[102],"sdaReg155":[106],"sdaReg45":[34, 1],"sdaReg47":[1, 36],"sdaReg46":[35],"sdaReg41":[33],"sdaReg40":[32],"static.<java.net.URI: libcore.net.UriCodec AUTHORITY_ENCODER>":[81],"sdaReg148":[102],"sdaReg149":[103],"sdaReg143":[1, 100],"sdaReg144":[0],"sdaReg39":[1, 31],"1085474672":[95],"sdaReg38":[30],"sdaReg146":[101],"sdaReg37":[1, 29],"sdaReg140":[98],"sdaReg141":[99],"sdaReg32":[24],"sdaReg31":[1, 23],"sdaReg30":[22],"sdaReg36":[28],"sdaReg35":[1, 27],"sdaReg34":[26],"sdaReg33":[1, 25],"sdaReg7":[2],"sdaReg5":[0],"sdaReg138":[97],"sdaReg136":[95],"sdaReg27":[1, 19],"sdaReg135":[1, 96],"sdaReg26":[18],"sdaReg132":[95],"sdaReg29":[1, 21],"sdaReg28":[20],"sdaReg130":[1, 93],"sdaReg131":[94],"sdaReg1":[0],"sdaReg21":[1, 13],"sdaReg0":[1],"sdaReg20":[12],"sdaReg23":[1, 15],"sdaReg22":[14],"sdaReg25":[17, 1],"sdaReg24":[16]},"colorToColor":{"0":[108],"1":[0],"100":[0],"92":[0],"106":[107],"62":[0],"60":[0]},"colorToLabel":{"0":"this","1":"arg#1","81":"<java.net.URI: libcore.net.UriCodec AUTHORITY_ENCODER>","95":"<java.net.URI: libcore.net.UriCodec PATH_ENCODER>","108":"return"}}}

Generated Model
	this->return
	arg#1->this
	arg#1->return

