Scanning method <java.net.URI: void <init>(java.lang.String)>

All seen event types: LoadStaticRecord, BinaryOperationRecord, SimpleAssignmentRecord, MethodReturnRecord, MethodCallRecord, ArrayLengthRecord, LoadInstanceRecord, MethodStartRecord, LoadArrayRecord, MethodEndRecord, IfRecord, StoreInstanceRecord, 
Ignored event types: IfRecord, 

JSON Encoded Analysis Data (for visualization):{"heapEdges":[{"step":0,"from":"1093637576","to":"sdaReg2","type":"create","field":"<java.net.URI: int port>"},{"step":1,"from":"1093637576","to":"sdaReg3","type":"create","field":"<java.net.URI: boolean serverAuthority>"},{"step":2,"from":"1093637576","to":"sdaReg4","type":"create","field":"<java.net.URI: int hash>"},{"step":3,"from":"sdaReg0","to":"1093637576","type":"store","field":"<java.net.URI: java.lang.String string>"},{"step":4,"from":"sdaReg0","to":"sdaReg11","type":"model"},{"step":5,"from":"sdaReg0","to":"sdaReg13","type":"model"},{"step":6,"from":"sdaReg0","to":"sdaReg15","type":"model"},{"step":7,"from":"sdaReg0","to":"sdaReg17","type":"model"},{"step":8,"from":"sdaReg0","to":"sdaReg19","type":"model"},{"step":9,"from":"sdaReg0","to":"sdaReg21","type":"model"},{"step":10,"from":"sdaReg0","to":"sdaReg23","type":"model"},{"step":11,"from":"sdaReg0","to":"sdaReg25","type":"model"},{"step":12,"from":"sdaReg0","to":"sdaReg27","type":"model"},{"step":13,"from":"sdaReg0","to":"sdaReg29","type":"model"},{"step":14,"from":"sdaReg0","to":"sdaReg31","type":"model"},{"step":15,"from":"sdaReg0","to":"sdaReg37","type":"model"},{"step":16,"from":"sdaReg0","to":"sdaReg39","type":"model"},{"step":17,"from":"sdaReg0","to":"sdaReg41","type":"model"},{"step":18,"from":"sdaReg0","to":"sdaReg43","type":"model"},{"step":19,"from":"sdaReg0","to":"sdaReg45","type":"model"},{"step":20,"from":"sdaReg0","to":"sdaReg50","type":"model"},{"step":21,"from":"sdaReg0","to":"sdaReg52","type":"model"},{"step":22,"from":"sdaReg0","to":"sdaReg54","type":"model"},{"step":23,"from":"sdaReg0","to":"sdaReg56","type":"model"},{"step":24,"from":"sdaReg0","to":"sdaReg58","type":"model"},{"step":25,"from":"sdaReg0","to":"sdaReg60","type":"model"},{"step":26,"from":"1093637576","to":"sdaReg62","type":"create","field":"<java.net.URI: boolean absolute>"},{"step":27,"from":"sdaReg0","to":"sdaReg65","type":"model"},{"step":28,"from":"sdaReg0","to":"sdaReg67","type":"model"},{"step":29,"from":"sdaReg0","to":"sdaReg69","type":"model"},{"step":30,"from":"sdaReg0","to":"sdaReg71","type":"model"},{"step":31,"from":"sdaReg0","to":"sdaReg73","type":"model"},{"step":32,"from":"sdaReg73","to":"1093637576","type":"store","field":"<java.net.URI: java.lang.String scheme>"},{"step":33,"from":"1093637576","to":"sdaReg76","type":"create","field":"<java.net.URI: boolean opaque>"},{"step":34,"from":"sdaReg0","to":"sdaReg77","type":"model"},{"step":35,"from":"sdaReg77","to":"1093637576","type":"store","field":"<java.net.URI: java.lang.String schemeSpecificPart>"},{"step":36,"from":"sdaReg0","to":"sdaReg82","type":"model"},{"step":37,"from":"sdaReg0","to":"sdaReg84","type":"model"},{"step":38,"from":"sdaReg0","to":"sdaReg86","type":"model"},{"step":39,"from":"sdaReg0","to":"sdaReg88","type":"model"},{"step":40,"from":"static.<java.net.URI: libcore.net.UriCodec AUTHORITY_ENCODER>","to":"1085536376","type":"load","field":"<java.net.URI: libcore.net.UriCodec AUTHORITY_ENCODER>"},{"step":41,"from":"sdaReg0","to":"sdaReg94","type":"model"},{"step":42,"from":"sdaReg0","to":"sdaReg95","type":"model"},{"step":43,"from":"sdaReg0","to":"sdaReg96","type":"model"},{"step":44,"from":"sdaReg0","to":"sdaReg97","type":"model"},{"step":45,"from":"sdaReg0","to":"sdaReg98","type":"model"},{"step":46,"from":"sdaReg98","to":"1093637576","type":"store","field":"<java.net.URI: java.lang.String authority>"},{"step":47,"from":"static.<java.net.URI: libcore.net.UriCodec PATH_ENCODER>","to":"1085474672","type":"load","field":"<java.net.URI: libcore.net.UriCodec PATH_ENCODER>"},{"step":48,"from":"sdaReg0","to":"sdaReg104","type":"model"},{"step":49,"from":"sdaReg104","to":"1093637576","type":"store","field":"<java.net.URI: java.lang.String path>"},{"step":50,"from":"sdaReg112","to":"sdaReg118","type":"model"},{"step":51,"from":"sdaReg112","to":"sdaReg123","type":"model"},{"step":52,"from":"sdaReg112","to":"sdaReg125","type":"model"},{"step":53,"from":"sdaReg112","to":"sdaReg127","type":"model"},{"step":54,"from":"sdaReg112","to":"sdaReg129","type":"model"},{"step":55,"from":"sdaReg112","to":"1093684584","type":"model"},{"step":56,"from":"1093684584","to":"1093684584.arrayIdx_int:0","type":"load","field":"arrayIdx_int:0"},{"step":57,"from":"sdaReg106","to":"1093637576","type":"store","field":"<java.net.URI: java.lang.String userInfo>"},{"step":58,"from":"sdaReg112","to":"1093637576","type":"store","field":"<java.net.URI: java.lang.String host>"},{"step":59,"from":"sdaReg111","to":"1093637576","type":"store","field":"<java.net.URI: int port>"},{"step":60,"from":"1093637576","to":"sdaReg140","type":"create","field":"<java.net.URI: boolean serverAuthority>"}],"parameters":[{"id":"1093637576","name":"this","klass":"java.net.URI"},{"id":"sdaReg0","name":"arg#1","klass":"string"}],"returns":[{"id":"1093637576","name":"return","klass":"java.net.URI"}],"colors":{"heapLocToColor":{"sdaReg125":[84],"sdaReg126":[85],"sdaReg127":[86],"sdaReg128":[87],"sdaReg129":[88],"sdaReg69":[1, 50],"sdaReg67":[1, 49],"1093637576":[0],"sdaReg65":[1, 48],"sdaReg63":[0],"sdaReg13":[1, 5],"sdaReg14":[6],"sdaReg71":[51, 1],"sdaReg11":[1, 3],"sdaReg12":[4],"sdaReg19":[1, 11],"sdaReg17":[1, 9],"sdaReg122":[81],"sdaReg18":[10],"sdaReg15":[1, 7],"sdaReg124":[83],"sdaReg16":[8],"sdaReg123":[82],"sdaReg116":[78],"sdaReg117":[79],"sdaReg114":[0],"sdaReg115":[77],"sdaReg118":[80],"sdaReg119":[0],"sdaReg77":[1, 54],"sdaReg78":[55],"sdaReg73":[1, 52],"sdaReg75":[53],"sdaReg83":[57],"sdaReg82":[1, 56],"sdaReg113":[76],"sdaReg110":[75],"1093684584":[90],"sdaReg107":[73],"sdaReg109":[74],"sdaReg103":[2],"sdaReg104":[1, 72],"sdaReg105":[0],"sdaReg86":[1, 60],"sdaReg87":[61],"sdaReg84":[1, 58],"sdaReg85":[59],"sdaReg88":[1, 62],"sdaReg89":[63],"sdaReg90":[64],"sdaReg94":[1, 66],"sdaReg91":[65],"sdaReg100":[2],"sdaReg101":[71],"sdaReg95":[1, 67],"sdaReg96":[68, 1],"sdaReg97":[1, 69],"sdaReg98":[1, 70],"1085536376":[65],"static.<java.net.URI: libcore.net.UriCodec PATH_ENCODER>":[71],"1093684584.arrayIdx_int:0":[90],"sdaReg60":[1, 46],"sdaReg61":[47],"sdaReg59":[45],"sdaReg58":[1, 44],"sdaReg57":[43],"sdaReg56":[1, 42],"sdaReg55":[41],"sdaReg54":[1, 40],"sdaReg53":[39],"sdaReg52":[1, 38],"sdaReg51":[37],"sdaReg50":[1, 36],"sdaReg45":[34, 1],"sdaReg44":[33],"sdaReg46":[35],"sdaReg41":[1, 30],"sdaReg40":[29],"sdaReg43":[1, 32],"sdaReg42":[31],"static.<java.net.URI: libcore.net.UriCodec AUTHORITY_ENCODER>":[65],"sdaReg39":[1, 28],"sdaReg38":[27],"1085474672":[71],"sdaReg37":[1, 26],"sdaReg32":[24],"sdaReg31":[1, 23],"sdaReg30":[22],"sdaReg33":[25],"sdaReg7":[2],"sdaReg5":[0],"sdaReg137":[93],"sdaReg136":[92],"sdaReg27":[1, 19],"sdaReg135":[91],"sdaReg26":[18],"sdaReg132":[90],"sdaReg29":[1, 21],"sdaReg28":[20],"sdaReg130":[89],"sdaReg131":[90],"sdaReg1":[0],"sdaReg21":[1, 13],"sdaReg0":[1],"sdaReg20":[12],"sdaReg23":[1, 15],"sdaReg22":[14],"sdaReg25":[17, 1],"sdaReg24":[16]},"colorToColor":{"0":[94],"1":[0],"70":[0],"54":[0],"52":[0],"72":[0]},"colorToLabel":{"0":"this","1":"arg#1","65":"<java.net.URI: libcore.net.UriCodec AUTHORITY_ENCODER>","71":"<java.net.URI: libcore.net.UriCodec PATH_ENCODER>","94":"return"}}}

Generated Model
	this->return
	arg#1->this
	arg#1->return

