Scanning method <java.net.URI: void <init>(java.lang.String)>

All seen event types: LoadStaticRecord, BinaryOperationRecord, SimpleAssignmentRecord, MethodReturnRecord, MethodCallRecord, ArrayLengthRecord, LoadInstanceRecord, MethodStartRecord, LoadArrayRecord, MethodEndRecord, IfRecord, StoreInstanceRecord, 
Ignored event types: IfRecord, 

JSON Encoded Analysis Data (for visualization):{"heapEdges":[{"step":0,"from":"1093686152","to":"sdaReg2","type":"create","field":"<java.net.URI: int port>"},{"step":1,"from":"1093686152","to":"sdaReg3","type":"create","field":"<java.net.URI: boolean serverAuthority>"},{"step":2,"from":"1093686152","to":"sdaReg4","type":"create","field":"<java.net.URI: int hash>"},{"step":3,"from":"sdaReg0","to":"1093686152","type":"store","field":"<java.net.URI: java.lang.String string>"},{"step":4,"from":"sdaReg0","to":"sdaReg11","type":"model"},{"step":5,"from":"sdaReg0","to":"sdaReg13","type":"model"},{"step":6,"from":"sdaReg0","to":"sdaReg15","type":"model"},{"step":7,"from":"sdaReg0","to":"sdaReg17","type":"model"},{"step":8,"from":"sdaReg0","to":"sdaReg19","type":"model"},{"step":9,"from":"sdaReg0","to":"sdaReg21","type":"model"},{"step":10,"from":"sdaReg0","to":"sdaReg23","type":"model"},{"step":11,"from":"sdaReg0","to":"sdaReg25","type":"model"},{"step":12,"from":"sdaReg0","to":"sdaReg27","type":"model"},{"step":13,"from":"sdaReg0","to":"sdaReg29","type":"model"},{"step":14,"from":"sdaReg0","to":"sdaReg31","type":"model"},{"step":15,"from":"sdaReg0","to":"sdaReg33","type":"model"},{"step":16,"from":"sdaReg0","to":"sdaReg35","type":"model"},{"step":17,"from":"sdaReg0","to":"sdaReg37","type":"model"},{"step":18,"from":"sdaReg0","to":"sdaReg39","type":"model"},{"step":19,"from":"sdaReg0","to":"sdaReg41","type":"model"},{"step":20,"from":"sdaReg0","to":"sdaReg43","type":"model"},{"step":21,"from":"sdaReg0","to":"sdaReg45","type":"model"},{"step":22,"from":"sdaReg0","to":"sdaReg47","type":"model"},{"step":23,"from":"sdaReg0","to":"sdaReg49","type":"model"},{"step":24,"from":"sdaReg0","to":"sdaReg51","type":"model"},{"step":25,"from":"sdaReg0","to":"sdaReg53","type":"model"},{"step":26,"from":"sdaReg0","to":"sdaReg55","type":"model"},{"step":27,"from":"sdaReg0","to":"sdaReg57","type":"model"},{"step":28,"from":"sdaReg0","to":"sdaReg59","type":"model"},{"step":29,"from":"static.<java.net.URI: libcore.net.UriCodec ALL_LEGAL_ENCODER>","to":"1085538000","type":"load","field":"<java.net.URI: libcore.net.UriCodec ALL_LEGAL_ENCODER>"},{"step":30,"from":"sdaReg0","to":"sdaReg67","type":"model"},{"step":31,"from":"sdaReg0","to":"sdaReg68","type":"model"},{"step":32,"from":"sdaReg0","to":"sdaReg69","type":"model"},{"step":33,"from":"sdaReg0","to":"sdaReg70","type":"model"},{"step":34,"from":"sdaReg0","to":"sdaReg71","type":"model"},{"step":35,"from":"sdaReg0","to":"sdaReg72","type":"model"},{"step":36,"from":"sdaReg0","to":"sdaReg73","type":"model"},{"step":37,"from":"sdaReg0","to":"sdaReg74","type":"model"},{"step":38,"from":"sdaReg0","to":"sdaReg75","type":"model"},{"step":39,"from":"sdaReg75","to":"1093686152","type":"store","field":"<java.net.URI: java.lang.String fragment>"},{"step":40,"from":"sdaReg0","to":"sdaReg79","type":"model"},{"step":41,"from":"sdaReg0","to":"sdaReg81","type":"model"},{"step":42,"from":"sdaReg0","to":"sdaReg83","type":"model"},{"step":43,"from":"sdaReg0","to":"sdaReg85","type":"model"},{"step":44,"from":"sdaReg0","to":"sdaReg87","type":"model"},{"step":45,"from":"sdaReg0","to":"sdaReg92","type":"model"},{"step":46,"from":"sdaReg0","to":"sdaReg94","type":"model"},{"step":47,"from":"sdaReg0","to":"sdaReg96","type":"model"},{"step":48,"from":"sdaReg0","to":"sdaReg98","type":"model"},{"step":49,"from":"sdaReg0","to":"sdaReg100","type":"model"},{"step":50,"from":"sdaReg0","to":"sdaReg102","type":"model"},{"step":51,"from":"1093686152","to":"sdaReg104","type":"create","field":"<java.net.URI: boolean absolute>"},{"step":52,"from":"sdaReg0","to":"sdaReg107","type":"model"},{"step":53,"from":"sdaReg0","to":"sdaReg109","type":"model"},{"step":54,"from":"sdaReg0","to":"sdaReg111","type":"model"},{"step":55,"from":"sdaReg0","to":"sdaReg113","type":"model"},{"step":56,"from":"sdaReg0","to":"sdaReg115","type":"model"},{"step":57,"from":"sdaReg115","to":"1093686152","type":"store","field":"<java.net.URI: java.lang.String scheme>"},{"step":58,"from":"1093686152","to":"sdaReg118","type":"create","field":"<java.net.URI: boolean opaque>"},{"step":59,"from":"sdaReg0","to":"sdaReg119","type":"model"},{"step":60,"from":"sdaReg119","to":"1093686152","type":"store","field":"<java.net.URI: java.lang.String schemeSpecificPart>"},{"step":61,"from":"sdaReg0","to":"sdaReg124","type":"model"},{"step":62,"from":"sdaReg0","to":"sdaReg126","type":"model"},{"step":63,"from":"sdaReg0","to":"sdaReg128","type":"model"},{"step":64,"from":"sdaReg0","to":"sdaReg130","type":"model"},{"step":65,"from":"sdaReg0","to":"sdaReg132","type":"model"},{"step":66,"from":"static.<java.net.URI: libcore.net.UriCodec AUTHORITY_ENCODER>","to":"1085536376","type":"load","field":"<java.net.URI: libcore.net.UriCodec AUTHORITY_ENCODER>"},{"step":67,"from":"sdaReg0","to":"sdaReg138","type":"model"},{"step":68,"from":"sdaReg0","to":"sdaReg139","type":"model"},{"step":69,"from":"sdaReg0","to":"sdaReg140","type":"model"},{"step":70,"from":"sdaReg0","to":"sdaReg141","type":"model"},{"step":71,"from":"sdaReg0","to":"sdaReg142","type":"model"},{"step":72,"from":"sdaReg142","to":"1093686152","type":"store","field":"<java.net.URI: java.lang.String authority>"},{"step":73,"from":"sdaReg0","to":"sdaReg145","type":"model"},{"step":74,"from":"sdaReg0","to":"sdaReg147","type":"model"},{"step":75,"from":"sdaReg0","to":"sdaReg149","type":"model"},{"step":76,"from":"sdaReg0","to":"sdaReg151","type":"model"},{"step":77,"from":"sdaReg0","to":"sdaReg153","type":"model"},{"step":78,"from":"sdaReg0","to":"sdaReg155","type":"model"},{"step":79,"from":"static.<java.net.URI: libcore.net.UriCodec PATH_ENCODER>","to":"1085474672","type":"load","field":"<java.net.URI: libcore.net.UriCodec PATH_ENCODER>"},{"step":80,"from":"sdaReg0","to":"sdaReg160","type":"model"},{"step":81,"from":"1085474672","to":"1085474672.<java.net.URI$PartEncoder: java.lang.String extraLegalCharacters>","type":"load","field":"<java.net.URI$PartEncoder: java.lang.String extraLegalCharacters>"},{"step":82,"from":"sdaReg0","to":"sdaReg168","type":"model"},{"step":83,"from":"sdaReg0","to":"sdaReg169","type":"model"},{"step":84,"from":"sdaReg0","to":"sdaReg170","type":"model"},{"step":85,"from":"sdaReg0","to":"sdaReg171","type":"model"},{"step":86,"from":"sdaReg0","to":"sdaReg172","type":"model"},{"step":87,"from":"sdaReg172","to":"1093686152","type":"store","field":"<java.net.URI: java.lang.String path>"},{"step":88,"from":"static.<java.net.URI: libcore.net.UriCodec ALL_LEGAL_ENCODER>","to":"1085538000","type":"load","field":"<java.net.URI: libcore.net.UriCodec ALL_LEGAL_ENCODER>"},{"step":89,"from":"sdaReg0","to":"sdaReg177","type":"model"},{"step":90,"from":"sdaReg0","to":"sdaReg178","type":"model"},{"step":91,"from":"sdaReg0","to":"sdaReg179","type":"model"},{"step":92,"from":"sdaReg0","to":"sdaReg180","type":"model"},{"step":93,"from":"sdaReg0","to":"sdaReg181","type":"model"},{"step":94,"from":"sdaReg0","to":"sdaReg182","type":"model"},{"step":95,"from":"1085538000","to":"1085538000.<java.net.URI$PartEncoder: java.lang.String extraLegalCharacters>","type":"load","field":"<java.net.URI$PartEncoder: java.lang.String extraLegalCharacters>"},{"step":96,"from":"sdaReg0","to":"sdaReg190","type":"model"},{"step":97,"from":"sdaReg0","to":"sdaReg191","type":"model"},{"step":98,"from":"sdaReg191","to":"1093686152","type":"store","field":"<java.net.URI: java.lang.String query>"},{"step":99,"from":"sdaReg199","to":"sdaReg205","type":"model"},{"step":100,"from":"sdaReg199","to":"sdaReg210","type":"model"},{"step":101,"from":"sdaReg199","to":"sdaReg212","type":"model"},{"step":102,"from":"sdaReg199","to":"sdaReg214","type":"model"},{"step":103,"from":"sdaReg199","to":"sdaReg216","type":"model"},{"step":104,"from":"sdaReg199","to":"1093312856","type":"model"},{"step":105,"from":"1093312856","to":"1093312856.arrayIdx_int:0","type":"load","field":"arrayIdx_int:0"},{"step":106,"from":"sdaReg193","to":"1093686152","type":"store","field":"<java.net.URI: java.lang.String userInfo>"},{"step":107,"from":"sdaReg199","to":"1093686152","type":"store","field":"<java.net.URI: java.lang.String host>"},{"step":108,"from":"sdaReg198","to":"1093686152","type":"store","field":"<java.net.URI: int port>"},{"step":109,"from":"1093686152","to":"sdaReg227","type":"create","field":"<java.net.URI: boolean serverAuthority>"}],"parameters":[{"id":"1093686152","name":"this","klass":"java.net.URI"},{"id":"sdaReg0","name":"arg#1","klass":"string"}],"returns":[{"id":"1093686152","name":"return","klass":"java.net.URI"}],"colors":{"heapLocToColor":{"sdaReg191":[1, 144],"sdaReg125":[96],"sdaReg190":[1, 143],"sdaReg126":[1, 97],"sdaReg127":[98],"sdaReg192":[0],"sdaReg128":[1, 99],"sdaReg129":[100],"sdaReg68":[1, 57],"sdaReg69":[1, 58],"sdaReg67":[1, 56],"sdaReg224":[165],"sdaReg64":[54],"sdaReg194":[145],"sdaReg197":[147],"sdaReg196":[146],"sdaReg63":[55],"sdaReg13":[1, 5],"sdaReg72":[1, 61],"sdaReg14":[6],"sdaReg71":[1, 60],"sdaReg223":[164],"sdaReg11":[1, 3],"sdaReg70":[1, 59],"sdaReg222":[163],"sdaReg12":[4],"sdaReg120":[94],"sdaReg19":[1, 11],"sdaReg17":[1, 9],"sdaReg18":[10],"sdaReg124":[1, 95],"sdaReg15":[1, 7],"sdaReg16":[8],"sdaReg117":[92],"sdaReg115":[1, 91],"sdaReg119":[1, 93],"sdaReg219":[162],"sdaReg217":[161],"sdaReg79":[1, 65],"sdaReg218":[162],"sdaReg215":[159],"sdaReg73":[1, 62],"sdaReg216":[160],"sdaReg74":[1, 63],"sdaReg213":[157],"sdaReg75":[1, 64],"sdaReg214":[158],"sdaReg212":[156],"sdaReg81":[1, 67],"sdaReg211":[155],"sdaReg80":[66],"sdaReg210":[154],"sdaReg83":[1, 69],"sdaReg82":[68],"sdaReg113":[1, 90],"sdaReg111":[1, 89],"sdaReg107":[1, 87],"sdaReg109":[1, 88],"sdaReg103":[86],"sdaReg171":[1, 132],"sdaReg105":[0],"sdaReg170":[1, 131],"sdaReg86":[72],"sdaReg172":[1, 133],"sdaReg87":[1, 73],"sdaReg84":[70],"sdaReg174":[54],"sdaReg85":[1, 71],"sdaReg177":[1, 134],"sdaReg179":[1, 136],"sdaReg88":[74],"sdaReg178":[1, 135],"sdaReg94":[1, 77],"sdaReg93":[76],"sdaReg92":[1, 75],"sdaReg100":[1, 83],"sdaReg102":[85, 1],"sdaReg101":[84],"sdaReg182":[1, 139],"1093686152":[0],"sdaReg181":[1, 138],"sdaReg180":[137, 1],"1085474672.<java.net.URI$PartEncoder: java.lang.String extraLegalCharacters>":[124],"sdaReg95":[78],"sdaReg185":[140],"sdaReg96":[1, 79],"sdaReg97":[80],"sdaReg183":[54],"sdaReg98":[1, 81],"1085536376":[106],"sdaReg99":[82],"sdaReg188":[142],"1085538000.<java.net.URI$PartEncoder: java.lang.String extraLegalCharacters>":[54],"sdaReg187":[141],"static.<java.net.URI: libcore.net.UriCodec PATH_ENCODER>":[124],"1093312856":[162],"sdaReg60":[52],"sdaReg61":[53],"sdaReg169":[1, 130],"sdaReg161":[124],"sdaReg163":[126],"sdaReg165":[127],"sdaReg166":[128],"sdaReg168":[1, 129],"sdaReg59":[51, 1],"sdaReg58":[50],"sdaReg57":[1, 49],"sdaReg56":[48],"sdaReg55":[1, 47],"sdaReg54":[46],"sdaReg53":[1, 45],"sdaReg52":[44],"sdaReg160":[1, 125],"sdaReg51":[1, 43],"sdaReg50":[42],"static.<java.net.URI: libcore.net.UriCodec ALL_LEGAL_ENCODER>":[54],"sdaReg152":[119],"sdaReg153":[1, 120],"sdaReg150":[117],"sdaReg151":[1, 118],"1093312856.arrayIdx_int:0":[162],"sdaReg156":[123],"sdaReg49":[1, 41],"sdaReg157":[124],"sdaReg48":[40],"sdaReg154":[121],"sdaReg155":[1, 122],"sdaReg45":[1, 37],"sdaReg44":[36],"sdaReg47":[1, 39],"sdaReg46":[38],"sdaReg41":[1, 33],"sdaReg40":[32],"sdaReg43":[1, 35],"sdaReg42":[34],"static.<java.net.URI: libcore.net.UriCodec AUTHORITY_ENCODER>":[106],"sdaReg200":[148],"sdaReg148":[115],"sdaReg201":[0],"sdaReg147":[1, 114],"sdaReg149":[1, 116],"sdaReg205":[152],"sdaReg204":[151],"sdaReg39":[1, 31],"sdaReg203":[150],"1085474672":[124],"sdaReg145":[1, 112],"sdaReg38":[30],"sdaReg202":[149],"sdaReg146":[113],"sdaReg37":[1, 29],"sdaReg209":[153],"sdaReg140":[1, 109],"sdaReg141":[1, 110],"sdaReg206":[0],"sdaReg142":[1, 111],"sdaReg32":[24],"1085538000":[54],"sdaReg31":[1, 23],"sdaReg30":[22],"sdaReg36":[28],"sdaReg35":[1, 27],"sdaReg34":[26],"sdaReg33":[1, 25],"sdaReg7":[2],"sdaReg5":[0],"sdaReg139":[1, 108],"sdaReg138":[1, 107],"sdaReg134":[105],"sdaReg27":[1, 19],"sdaReg135":[106],"sdaReg26":[18],"sdaReg132":[1, 103],"sdaReg29":[1, 21],"sdaReg133":[104],"sdaReg28":[20],"sdaReg130":[1, 101],"sdaReg131":[102],"sdaReg1":[0],"sdaReg21":[1, 13],"sdaReg0":[1],"sdaReg20":[12],"sdaReg23":[1, 15],"sdaReg22":[14],"sdaReg25":[17, 1],"sdaReg24":[16]},"colorToColor":{"0":[166],"1":[0],"64":[0],"144":[0],"93":[0],"111":[0],"133":[0],"91":[0]},"colorToLabel":{"0":"this","1":"arg#1","54":"<java.net.URI: libcore.net.UriCodec ALL_LEGAL_ENCODER>","106":"<java.net.URI: libcore.net.UriCodec AUTHORITY_ENCODER>","124":"<java.net.URI: libcore.net.UriCodec PATH_ENCODER>","166":"return"}}}

Generated Model
	this->return
	arg#1->this
	arg#1->return

