Scanning method <java.net.URI: void <init>(java.lang.String)>

All seen event types: LoadStaticRecord, BinaryOperationRecord, SimpleAssignmentRecord, MethodReturnRecord, MethodCallRecord, LoadInstanceRecord, MethodStartRecord, MethodEndRecord, IfRecord, StoreInstanceRecord, 
Ignored event types: IfRecord, 

JSON Encoded Analysis Data (for visualization):{"heapEdges":[{"step":0,"from":"1093667288","to":"sdaReg2","type":"create","field":"<java.net.URI: int port>"},{"step":1,"from":"1093667288","to":"sdaReg3","type":"create","field":"<java.net.URI: boolean serverAuthority>"},{"step":2,"from":"1093667288","to":"sdaReg4","type":"create","field":"<java.net.URI: int hash>"},{"step":3,"from":"sdaReg0","to":"1093667288","type":"store","field":"<java.net.URI: java.lang.String string>"},{"step":4,"from":"sdaReg0","to":"sdaReg11","type":"model"},{"step":5,"from":"sdaReg0","to":"sdaReg13","type":"model"},{"step":6,"from":"sdaReg0","to":"sdaReg15","type":"model"},{"step":7,"from":"sdaReg0","to":"sdaReg17","type":"model"},{"step":8,"from":"sdaReg0","to":"sdaReg19","type":"model"},{"step":9,"from":"sdaReg0","to":"sdaReg25","type":"model"},{"step":10,"from":"sdaReg0","to":"sdaReg27","type":"model"},{"step":11,"from":"sdaReg0","to":"sdaReg29","type":"model"},{"step":12,"from":"sdaReg0","to":"sdaReg31","type":"model"},{"step":13,"from":"sdaReg0","to":"sdaReg33","type":"model"},{"step":14,"from":"sdaReg0","to":"sdaReg38","type":"model"},{"step":15,"from":"1093667288","to":"sdaReg40","type":"create","field":"<java.net.URI: boolean absolute>"},{"step":16,"from":"1093667288","to":"sdaReg42","type":"create","field":"<java.net.URI: boolean opaque>"},{"step":17,"from":"sdaReg0","to":"sdaReg43","type":"model"},{"step":18,"from":"sdaReg43","to":"1093667288","type":"store","field":"<java.net.URI: java.lang.String schemeSpecificPart>"},{"step":19,"from":"sdaReg0","to":"sdaReg48","type":"model"},{"step":20,"from":"sdaReg0","to":"sdaReg50","type":"model"},{"step":21,"from":"sdaReg0","to":"sdaReg52","type":"model"},{"step":22,"from":"sdaReg0","to":"sdaReg54","type":"model"},{"step":23,"from":"sdaReg0","to":"sdaReg56","type":"model"},{"step":24,"from":"static.<java.net.URI: libcore.net.UriCodec PATH_ENCODER>","to":"1085474672","type":"load","field":"<java.net.URI: libcore.net.UriCodec PATH_ENCODER>"},{"step":25,"from":"sdaReg0","to":"sdaReg61","type":"model"},{"step":26,"from":"1085474672","to":"1085474672.<java.net.URI$PartEncoder: java.lang.String extraLegalCharacters>","type":"load","field":"<java.net.URI$PartEncoder: java.lang.String extraLegalCharacters>"},{"step":27,"from":"sdaReg0","to":"sdaReg69","type":"model"},{"step":28,"from":"sdaReg0","to":"sdaReg74","type":"model"},{"step":29,"from":"sdaReg0","to":"sdaReg79","type":"model"},{"step":30,"from":"1085474672","to":"1085474672.<java.net.URI$PartEncoder: java.lang.String extraLegalCharacters>","type":"load","field":"<java.net.URI$PartEncoder: java.lang.String extraLegalCharacters>"},{"step":31,"from":"sdaReg0","to":"sdaReg87","type":"model"},{"step":32,"from":"sdaReg0","to":"sdaReg88","type":"model"},{"step":33,"from":"sdaReg88","to":"1093667288","type":"store","field":"<java.net.URI: java.lang.String path>"},{"step":34,"from":"1093667288","to":"1093667288.<java.net.URI: java.lang.String authority>","type":"load","field":"<java.net.URI: java.lang.String authority>"}],"parameters":[{"id":"1093667288","name":"this","klass":"java.net.URI"},{"id":"sdaReg0","name":"arg#1","klass":"string"}],"returns":[{"id":"1093667288","name":"return","klass":"java.net.URI"}],"colors":{"heapLocToColor":{"sdaReg61":[1, 39],"sdaReg69":[1, 43],"sdaReg66":[41],"sdaReg67":[42],"sdaReg64":[40],"sdaReg62":[38],"sdaReg72":[44],"sdaReg13":[1, 5],"sdaReg14":[6],"sdaReg70":[38],"sdaReg11":[1, 3],"sdaReg12":[4],"sdaReg58":[38],"sdaReg57":[37],"sdaReg19":[1, 11],"sdaReg56":[1, 36],"sdaReg55":[35],"sdaReg17":[1, 9],"sdaReg54":[34, 1],"sdaReg18":[10],"sdaReg53":[33],"sdaReg15":[1, 7],"sdaReg52":[1, 32],"sdaReg16":[8],"sdaReg51":[31],"sdaReg50":[1, 30],"sdaReg77":[46],"sdaReg79":[1, 47],"sdaReg74":[1, 45],"sdaReg75":[38],"sdaReg80":[38],"sdaReg82":[48],"sdaReg49":[29],"sdaReg48":[1, 28],"sdaReg44":[27],"sdaReg43":[1, 26],"1093667288.<java.net.URI: java.lang.String authority>":[0],"sdaReg87":[51, 1],"sdaReg84":[49],"sdaReg85":[50],"sdaReg88":[1, 52],"sdaReg89":[0],"sdaReg39":[25],"sdaReg38":[1, 24],"1085474672":[38],"sdaReg32":[21],"sdaReg31":[1, 20],"sdaReg30":[19],"sdaReg34":[23],"sdaReg33":[1, 22],"sdaReg7":[2],"1085474672.<java.net.URI$PartEncoder: java.lang.String extraLegalCharacters>":[38],"sdaReg5":[0],"1093667288":[0],"sdaReg27":[1, 16],"sdaReg26":[15],"sdaReg29":[1, 18],"sdaReg28":[17],"static.<java.net.URI: libcore.net.UriCodec PATH_ENCODER>":[38],"sdaReg21":[13],"sdaReg1":[0],"sdaReg20":[12],"sdaReg0":[1],"sdaReg25":[1, 14]},"colorToColor":{"0":[53],"1":[0],"52":[0],"26":[0]},"colorToLabel":{"0":"this","1":"arg#1","38":"<java.net.URI: libcore.net.UriCodec PATH_ENCODER>","53":"return"}}}

Generated Model
	this->return
	arg#1->this
	arg#1->return

