Scanning method <java.io.CharArrayWriter: void write(java.lang.String,int,int)>

All seen event types: SimpleAssignmentRecord, ExitMonitorRecord, LoadInstanceRecord, MethodStartRecord, IfRecord, StoreInstanceRecord, NewArrayRecord, BinaryOperationRecord, MethodCallRecord, MethodReturnRecord, EnterMonitorRecord, ArrayLengthRecord, MethodEndRecord, 
Ignored event types: ExitMonitorRecord, EnterMonitorRecord, IfRecord, 

JSON Encoded Analysis Data (for visualization):{"heapEdges":[{"step":0,"from":"1093660032","to":"1093660056","type":"load","field":"<java.io.Writer: java.lang.Object lock>"},{"step":1,"from":"1093660032","to":"1093660032.<java.io.CharArrayWriter: int count>","type":"load","field":"<java.io.CharArrayWriter: int count>"},{"step":2,"from":"1093660032","to":"1093660056","type":"load","field":"<java.io.CharArrayWriter: char[] buf>"},{"step":3,"from":"1093660032","to":"1093660056","type":"load","field":"<java.io.CharArrayWriter: char[] buf>"},{"step":4,"from":"1093660032","to":"1093660032.<java.io.CharArrayWriter: int count>","type":"load","field":"<java.io.CharArrayWriter: int count>"},{"step":5,"from":"sdaReg11","to":"sdaReg12","type":"model"},{"step":6,"from":"sdaReg11","to":"sdaReg13","type":"model"},{"step":7,"from":"sdaReg12","to":"sdaReg11","type":"model"},{"step":8,"from":"sdaReg12","to":"sdaReg13","type":"model"},{"step":9,"from":"1093660032","to":"1093660056","type":"load","field":"<java.io.CharArrayWriter: char[] buf>"},{"step":10,"from":"1093660032","to":"1093660032.<java.io.CharArrayWriter: int count>","type":"load","field":"<java.io.CharArrayWriter: int count>"},{"step":11,"from":"1093660056","to":"1093660336","type":"model"},{"step":12,"from":"1093660032","to":"1093660336","type":"create","field":"<java.io.CharArrayWriter: char[] buf>"},{"step":13,"from":"1093660032","to":"1093660032.<java.io.CharArrayWriter: int count>","type":"load","field":"<java.io.CharArrayWriter: int count>"},{"step":14,"from":"sdaReg0","to":"1093660336","type":"model"},{"step":15,"from":"1093660032","to":"1093660032.<java.io.CharArrayWriter: int count>","type":"load","field":"<java.io.CharArrayWriter: int count>"},{"step":16,"from":"sdaReg15","to":"1093660032","type":"store","field":"<java.io.CharArrayWriter: int count>"}],"parameters":[{"id":"1093660032","name":"this","klass":"java.io.CharArrayWriter"},{"id":"sdaReg0","name":"arg#1","klass":"string"},{"id":"sdaReg1","name":"arg#2","klass":"int"},{"id":"sdaReg2","name":"arg#3","klass":"int"}],"returns":[{"id":null,"name":"return","klass":null}],"colors":{"heapLocToColor":{"1093660056":[0],"sdaReg8":[0, 3],"sdaReg7":[0],"sdaReg4":[4],"1093660032.<java.io.CharArrayWriter: int count>":[0],"sdaReg5":[3, 4],"sdaReg13":[5],"sdaReg14":[2, 3],"sdaReg12":[0, 3],"1093660336":[1, 6],"1093660032.<java.io.CharArrayWriter: char[] buf>":[0],"1093660032":[0],"sdaReg3":[2, 3],"sdaReg2":[3],"sdaReg1":[2],"sdaReg0":[1],"sdaReg15":[0, 3]},"colorToColor":{"0":[0, 5, 6],"3":[0, 5],"6":[0]},"colorToLabel":{"0":"this","1":"arg#1","2":"arg#2","3":"arg#3","7":"return"}}}

Generated Model
	arg#3->this

