Scanning method <android.os.Bundle: java.util.ArrayList getStringArrayList(java.lang.String)>

All seen event types: StoreArrayRecord, SimpleAssignmentRecord, ExitMonitorRecord, MethodStartRecord, LoadInstanceRecord, IfRecord, NewObjectRecord, StoreInstanceRecord, LoadStaticRecord, NewArrayRecord, BinaryOperationRecord, MethodCallRecord, MethodReturnRecord, SwitchRecord, EnterMonitorRecord, ArrayLengthRecord, CastRecord, LoadArrayRecord, MethodEndRecord, 
Ignored event types: ExitMonitorRecord, SwitchRecord, EnterMonitorRecord, IfRecord, 

JSON Encoded Analysis Data (for visualization):{"heapEdges":[{"step":0,"from":"1093707288","to":"1093455336","type":"load","field":"<android.os.Bundle: android.os.Parcel mParcelledData>"},{"step":1,"from":"1093707288","to":"1093455336","type":"load","field":"<android.os.Bundle: android.os.Parcel mParcelledData>"},{"step":2,"from":"1093455336","to":"sdaReg2","type":"model"},{"step":3,"from":"static.<java.util.HashMap: java.util.Map$Entry[] EMPTY_TABLE>","to":"1083997920","type":"load","field":"<java.util.HashMap: java.util.Map$Entry[] EMPTY_TABLE>"},{"step":4,"from":"1083997920","to":"1093816856","type":"store","field":"<java.util.HashMap: java.util.HashMap$HashMapEntry[] table>"},{"step":5,"from":"1093816856","to":"sdaReg9","type":"create","field":"<java.util.HashMap: int threshold>"},{"step":6,"from":"1093707288","to":"1093816856","type":"create","field":"<android.os.Bundle: java.util.Map mMap>"},{"step":7,"from":"1093707288","to":"1093455336","type":"load","field":"<android.os.Bundle: android.os.Parcel mParcelledData>"},{"step":8,"from":"1093455336","to":"sdaReg16","type":"model"},{"step":9,"from":"1093455336","to":"sdaReg17","type":"model"},{"step":10,"from":"1093455336","to":"sdaReg21","type":"model"},{"step":11,"from":"1093455336","to":"sdaReg24","type":"model"},{"step":12,"from":"1093762232","to":"1093944216","type":"create","field":"<java.util.ArrayList: java.lang.Object[] array>"},{"step":13,"from":"1093455336","to":"sdaReg38","type":"model"},{"step":14,"from":"1093455336","to":"sdaReg39","type":"model"},{"step":15,"from":"1093762232","to":"1093762232.<java.util.ArrayList: int size>","type":"load","field":"<java.util.ArrayList: int size>"},{"step":16,"from":"1093955464","to":"1093944216","type":"store","field":"arrayIdx_int:0"},{"step":17,"from":"sdaReg44","to":"1093762232","type":"store","field":"<java.util.ArrayList: int size>"},{"step":18,"from":"1093762232","to":"1093762232.<java.util.AbstractList: int modCount>","type":"load","field":"<java.util.AbstractList: int modCount>"},{"step":19,"from":"sdaReg45","to":"1093762232","type":"store","field":"<java.util.AbstractList: int modCount>"},{"step":20,"from":"1093455336","to":"sdaReg49","type":"model"},{"step":21,"from":"1093455336","to":"sdaReg50","type":"model"},{"step":22,"from":"1093556360","to":"1093944216","type":"store","field":"arrayIdx_int:1"},{"step":23,"from":"sdaReg55","to":"1093762232","type":"store","field":"<java.util.ArrayList: int size>"},{"step":24,"from":"sdaReg56","to":"1093762232","type":"store","field":"<java.util.AbstractList: int modCount>"},{"step":25,"from":"1093455336","to":"sdaReg60","type":"model"},{"step":26,"from":"1093455336","to":"sdaReg61","type":"model"},{"step":27,"from":"1093640344","to":"1093944216","type":"store","field":"arrayIdx_int:2"},{"step":28,"from":"sdaReg66","to":"1093762232","type":"store","field":"<java.util.ArrayList: int size>"},{"step":29,"from":"sdaReg67","to":"1093762232","type":"store","field":"<java.util.AbstractList: int modCount>"},{"step":30,"from":"1093816856","to":"1093816856.<java.util.HashMap: int modCount>","type":"load","field":"<java.util.HashMap: int modCount>"},{"step":31,"from":"sdaReg86","to":"1093816856","type":"store","field":"<java.util.HashMap: int modCount>"},{"step":32,"from":"1093816856","to":"1093816856.<java.util.HashMap: int size>","type":"load","field":"<java.util.HashMap: int size>"},{"step":33,"from":"sdaReg87","to":"1093816856","type":"store","field":"<java.util.HashMap: int size>"},{"step":34,"from":"1093816856","to":"1093642136","type":"create","field":"<java.util.HashMap: java.util.HashMap$HashMapEntry[] table>"},{"step":35,"from":"sdaReg95","to":"1093816856","type":"store","field":"<java.util.HashMap: int threshold>"},{"step":36,"from":"1093700336","to":"1093642176","type":"store","field":"<java.util.HashMap$HashMapEntry: java.lang.Object key>"},{"step":37,"from":"1093642176","to":"1093762232","type":"create","field":"<java.util.HashMap$HashMapEntry: java.lang.Object value>"},{"step":38,"from":"sdaReg82","to":"1093642176","type":"store","field":"<java.util.HashMap$HashMapEntry: int hash>"},{"step":39,"from":"1093642136","to":"1093642176","type":"create","field":"arrayIdx_int:2"},{"step":40,"from":"1093707288","to":"1093455336","type":"load","field":"<android.os.Bundle: android.os.Parcel mParcelledData>"},{"step":41,"from":"1093455336","to":"1093455336.<android.os.Parcel: int mOwnObject>","type":"load","field":"<android.os.Parcel: int mOwnObject>"},{"step":42,"from":"static.<android.os.Parcel: android.os.Parcel[] sOwnedPool>","to":"1084044960","type":"load","field":"<android.os.Parcel: android.os.Parcel[] sOwnedPool>"},{"step":43,"from":"1093455336","to":"1084044960","type":"store","field":"arrayIdx_int:0"},{"step":44,"from":"1093707288","to":"sdaReg114","type":"create","field":"<android.os.Bundle: android.os.Parcel mParcelledData>"}],"parameters":[{"id":"1093707288","name":"this","klass":"android.os.Bundle"},{"id":"sdaReg0","name":"arg#1","klass":"string"}],"returns":[{"id":"1093762232","name":"return","klass":"java.util.ArrayList"}],"colors":{"heapLocToColor":{"sdaReg127":[21],"sdaReg128":[22],"sdaReg129":[9],"1084044960":[20],"1093707288.<android.os.Bundle: android.os.Parcel mParcelledData>":[0],"sdaReg69":[9],"1093642136":[18],"sdaReg63":[9],"sdaReg14":[0],"sdaReg71":[3],"sdaReg11":[0],"sdaReg70":[9],"sdaReg12":[3],"sdaReg10":[3],"sdaReg19":[0],"sdaReg120":[21],"sdaReg17":[0, 6],"sdaReg122":[21],"sdaReg121":[21],"sdaReg124":[21],"sdaReg123":[21],"sdaReg16":[0, 5],"sdaReg116":[21],"sdaReg117":[21],"sdaReg115":[3],"1093816856.<java.util.HashMap: int size>":[3],"sdaReg118":[21],"sdaReg119":[21],"sdaReg77":[17],"sdaReg78":[17],"sdaReg79":[17],"sdaReg73":[9],"sdaReg74":[17],"sdaReg75":[17],"sdaReg76":[17],"sdaReg81":[17],"sdaReg80":[17],"sdaReg82":[17],"sdaReg112":[20],"sdaReg111":[20],"sdaReg110":[0],"sdaReg108":[19],"sdaReg109":[19],"sdaReg103":[9],"sdaReg104":[19],"sdaReg106":[9],"sdaReg86":[3],"sdaReg87":[3],"sdaReg85":[17],"sdaReg88":[3],"sdaReg91":[3],"static.<java.util.HashMap: java.util.Map$Entry[] EMPTY_TABLE>":[4],"sdaReg101":[3],"1093762232":[9],"sdaReg96":[18],"sdaReg98":[18],"1093762232.<java.util.ArrayList: int size>":[9],"sdaReg60":[0, 15],"sdaReg61":[0, 16],"1093642176":[19],"1093707288":[0],"sdaReg58":[0],"1083997920":[4],"sdaReg52":[9],"sdaReg50":[0, 14],"1093816856.<java.util.HashMap: int modCount>":[3],"1093816856":[3],"1093455336.<android.os.Parcel: int mOwnObject>":[0],"sdaReg49":[0, 13],"sdaReg45":[9],"sdaReg44":[9],"sdaReg47":[0],"sdaReg41":[9],"static.<android.os.Parcel: android.os.Parcel[] sOwnedPool>":[20],"1093762232.<java.util.AbstractList: int modCount>":[9],"sdaReg39":[0, 12],"1093455336":[0],"sdaReg38":[0, 11],"sdaReg32":[9],"sdaReg31":[9],"1093944216":[10],"sdaReg30":[9],"sdaReg36":[0],"sdaReg34":[9],"sdaReg33":[0],"sdaReg8":[4],"sdaReg6":[3],"sdaReg7":[4],"sdaReg4":[3],"sdaReg5":[3],"sdaReg27":[9],"sdaReg26":[9],"sdaReg29":[9],"sdaReg28":[9],"sdaReg130":[9],"sdaReg3":[3],"sdaReg2":[0, 2],"sdaReg1":[0],"sdaReg21":[0, 7],"sdaReg0":[1],"sdaReg22":[0],"sdaReg25":[9],"sdaReg24":[0, 8]},"colorToColor":{"0":[20],"17":[19],"19":[18],"18":[3],"3":[0, 3],"4":[3],"9":[19, 23, 9],"10":[9]},"colorToLabel":{"0":"this","1":"arg#1","4":"<java.util.HashMap: java.util.Map$Entry[] EMPTY_TABLE>","20":"<android.os.Parcel: android.os.Parcel[] sOwnedPool>","23":"return"}}}

Generated Model
	this-><android.os.Parcel: android.os.Parcel[] sOwnedPool>

