Scanning method <java.io.PrintStream: void <init>(java.io.OutputStream)>

All seen event types: MethodReturnRecord, MethodCallRecord, IfRecord, 
Ignored event types: IfRecord, 

JSON Encoded Analysis Data (for visualization):{"heapEdges":[{"step":0,"from":"1093356400","to":"1093678504","type":"model"},{"step":1,"from":"1093356400","to":"1093678504","type":"model"}],"parameters":[{"id":"1093678504","name":"this","klass":"java.io.PrintStream"},{"id":"1093356400","name":"arg#1","klass":"java.io.OutputStream"}],"returns":[{"id":"1093678504","name":"return","klass":"java.io.PrintStream"}],"colors":{"heapLocToColor":{"1093356400":[1],"1093678504":[0],"sdaReg0":[0]},"colorToColor":{"0":[2],"1":[0]},"colorToLabel":{"0":"this","1":"arg#1","2":"return"}}}

Generated Model
	this->return
	arg#1->this
	arg#1->return

