Scanning method <android.os.Bundle: short[] getShortArray(java.lang.String)>

All seen event types: BinaryOperationRecord, MethodReturnRecord, MethodCallRecord, CastRecord, ArrayLengthRecord, LoadInstanceRecord, MethodStartRecord, LoadArrayRecord, MethodEndRecord, IfRecord, 
Ignored event types: IfRecord, 

JSON Encoded Analysis Data (for visualization):{"heapEdges":[{"step":0,"from":"1093425040","to":"1093726656","type":"load","field":"<android.os.Bundle: java.util.Map mMap>"},{"step":1,"from":"1093726656","to":"1093508256","type":"load","field":"<java.util.HashMap: java.util.HashMap$HashMapEntry[] table>"},{"step":2,"from":"1093508256","to":"1093853824","type":"load","field":"arrayIdx_int:2"},{"step":3,"from":"1093853824","to":"1093529992","type":"load","field":"<java.util.HashMap$HashMapEntry: java.lang.Object key>"},{"step":4,"from":"1093853824","to":"1094062936","type":"load","field":"<java.util.HashMap$HashMapEntry: java.lang.Object value>"}],"parameters":[{"id":"1093425040","name":"this","klass":"android.os.Bundle"},{"id":"sdaReg0","name":"arg#1","klass":"string"}],"returns":[{"id":"1094062936","name":"return","klass":"short[]"}],"colors":{"heapLocToColor":{"sdaReg8":[2],"1093425040":[0],"sdaReg9":[2],"sdaReg6":[2],"sdaReg7":[2],"sdaReg4":[2],"1093726656":[0],"sdaReg5":[2],"1093529992":[0],"1093508256":[0],"sdaReg14":[2],"sdaReg11":[2],"sdaReg10":[2],"sdaReg3":[2],"1093853824":[0],"sdaReg2":[0],"sdaReg1":[0],"sdaReg0":[1],"sdaReg17":[0],"1094062936":[0],"sdaReg15":[0],"sdaReg16":[0]},"colorToColor":{"0":[3]},"colorToLabel":{"0":"this","1":"arg#1","3":"return"}}}

Generated Model
	this->return

