Scanning method <java.nio.ByteBuffer: java.nio.ByteBuffer wrap(byte[])>

All seen event types: LoadStaticRecord, BinaryOperationRecord, MethodReturnRecord, MethodCallRecord, ArrayLengthRecord, MethodStartRecord, MethodEndRecord, IfRecord, StoreInstanceRecord, NewObjectRecord, 
Ignored event types: IfRecord, 

JSON Encoded Analysis Data (for visualization):{"heapEdges":[{"step":0,"from":"1098519224","to":"sdaReg15","type":"create","field":"<java.nio.Buffer: int mark>"},{"step":1,"from":"1098519224","to":"sdaReg16","type":"create","field":"<java.nio.Buffer: int position>"},{"step":2,"from":"1098519224","to":"sdaReg12","type":"create","field":"<java.nio.Buffer: int _elementSizeShift>"},{"step":3,"from":"sdaReg4","to":"1098519224","type":"store","field":"<java.nio.Buffer: int limit>"},{"step":4,"from":"sdaReg4","to":"1098519224","type":"store","field":"<java.nio.Buffer: int capacity>"},{"step":5,"from":"static.<java.nio.ByteOrder: java.nio.ByteOrder BIG_ENDIAN>","to":"1084339448","type":"load","field":"<java.nio.ByteOrder: java.nio.ByteOrder BIG_ENDIAN>"},{"step":6,"from":"1084339448","to":"1098519224","type":"store","field":"<java.nio.ByteBuffer: java.nio.ByteOrder order>"},{"step":7,"from":"1098519176","to":"1098519224","type":"store","field":"<java.nio.HeapByteBuffer: byte[] backingArray>"},{"step":8,"from":"1098519224","to":"sdaReg7","type":"create","field":"<java.nio.HeapByteBuffer: int offset>"}],"parameters":[{"id":"1098519176","name":"arg#0","klass":"byte[]"}],"returns":[{"id":"1098519224","name":"return","klass":"java.nio.ByteBuffer"}],"colors":{"heapLocToColor":{"sdaReg8":[1],"sdaReg9":[1],"sdaReg6":[0],"sdaReg5":[1],"1098519176":[0],"sdaReg14":[1],"sdaReg11":[1],"1084339448":[2],"1098519224":[1],"sdaReg3":[0],"sdaReg2":[1],"sdaReg19":[1],"sdaReg1":[0],"sdaReg0":[1],"sdaReg23":[1],"static.<java.nio.ByteOrder: java.nio.ByteOrder BIG_ENDIAN>":[2],"sdaReg17":[1],"sdaReg22":[1],"sdaReg18":[1],"sdaReg24":[1]},"colorToColor":{"0":[1],"1":[3],"2":[1]},"colorToLabel":{"0":"arg#0","2":"<java.nio.ByteOrder: java.nio.ByteOrder BIG_ENDIAN>","3":"return"}}}

Generated Model
	arg#0->return

