Scanning method <java.net.InetAddress: java.net.InetAddress disallowDeprecatedFormats(java.lang.String,java.net.InetAddress)>

All seen event types: LoadStaticRecord, MethodReturnRecord, MethodCallRecord, IfRecord, InstanceOfRecord, 
Ignored event types: IfRecord, 

JSON Encoded Analysis Data (for visualization):{"heapEdges":[{"step":0,"from":"static.<libcore.io.Libcore: libcore.io.Os os>","to":"1083982784","type":"load","field":"<libcore.io.Libcore: libcore.io.Os os>"},{"step":1,"from":"static.<libcore.io.OsConstants: int AF_INET>","to":"static.<libcore.io.OsConstants: int AF_INET>","type":"load","field":"<libcore.io.OsConstants: int AF_INET>"},{"step":2,"from":"sdaReg0","to":"1093661560","type":"model"},{"step":3,"from":"static.<libcore.io.OsConstants: int AF_INET>","to":"1093661560","type":"model"}],"parameters":[{"id":"sdaReg0","name":"arg#0","klass":"string"},{"id":"1093660904","name":"arg#1","klass":"java.net.InetAddress"}],"returns":[{"id":"1093661560","name":"return","klass":"java.net.InetAddress"}],"colors":{"heapLocToColor":{"static.<libcore.io.OsConstants: int AF_INET>":[4],"1093660904":[1],"1093661560":[5],"sdaReg3":[5],"sdaReg2":[2],"1083982784":[3],"sdaReg0":[0],"static.<libcore.io.Libcore: libcore.io.Os os>":[3]},"colorToColor":{"0":[5],"4":[5],"5":[6]},"colorToLabel":{"0":"arg#0","1":"arg#1","3":"<libcore.io.Libcore: libcore.io.Os os>","4":"<libcore.io.OsConstants: int AF_INET>","6":"return"}}}

Generated Model
	arg#0->return

