Scanning method <java.io.ObjectInputStream: void checkReadPrimitiveTypes()>

All seen event types: BinaryOperationRecord, SimpleAssignmentRecord, SwitchRecord, MethodReturnRecord, MethodCallRecord, CastRecord, MethodStartRecord, LoadInstanceRecord, LoadArrayRecord, MethodEndRecord, IfRecord, StoreInstanceRecord, 
Ignored event types: SwitchRecord, IfRecord, 

JSON Encoded Analysis Data (for visualization):{"heapEdges":[{"step":0,"from":"1093381560","to":"1093381896","type":"load","field":"<java.io.ObjectInputStream: java.io.InputStream primitiveData>"},{"step":1,"from":"1093381560","to":"1093340944","type":"load","field":"<java.io.ObjectInputStream: java.io.DataInputStream input>"},{"step":2,"from":"1093381560","to":"1093381896","type":"load","field":"<java.io.ObjectInputStream: java.io.InputStream primitiveData>"},{"step":3,"from":"1093381896","to":"1093381896.<java.io.ByteArrayInputStream: int count>","type":"load","field":"<java.io.ByteArrayInputStream: int count>"},{"step":4,"from":"1093381896","to":"1093381896.<java.io.ByteArrayInputStream: int pos>","type":"load","field":"<java.io.ByteArrayInputStream: int pos>"},{"step":5,"from":"1093381560","to":"1093381560.<java.io.ObjectInputStream: boolean hasPushbackTC>","type":"load","field":"<java.io.ObjectInputStream: boolean hasPushbackTC>"},{"step":6,"from":"1093381560","to":"1093340944","type":"load","field":"<java.io.ObjectInputStream: java.io.DataInputStream input>"},{"step":7,"from":"1093340944","to":"1093381648","type":"load","field":"<java.io.FilterInputStream: java.io.InputStream in>"},{"step":8,"from":"1093381648","to":"1093381648.<java.io.ByteArrayInputStream: int pos>","type":"load","field":"<java.io.ByteArrayInputStream: int pos>"},{"step":9,"from":"1093381648","to":"1093381648.<java.io.ByteArrayInputStream: int count>","type":"load","field":"<java.io.ByteArrayInputStream: int count>"},{"step":10,"from":"1093381648","to":"1093381680","type":"load","field":"<java.io.ByteArrayInputStream: byte[] buf>"},{"step":11,"from":"1093381648","to":"1093381648.<java.io.ByteArrayInputStream: int pos>","type":"load","field":"<java.io.ByteArrayInputStream: int pos>"},{"step":12,"from":"sdaReg5","to":"1093381648","type":"store","field":"<java.io.ByteArrayInputStream: int pos>"},{"step":13,"from":"1093381680","to":"1093381680.arrayIdx_int:4","type":"load","field":"arrayIdx_int:4"},{"step":14,"from":"sdaReg7","to":"1093381560","type":"store","field":"<java.io.ObjectInputStream: byte pushbackTC>"},{"step":15,"from":"1093381560","to":"sdaReg9","type":"create","field":"<java.io.ObjectInputStream: boolean hasPushbackTC>"}],"parameters":[{"id":"1093381560","name":"this","klass":"java.io.ObjectInputStream"}],"returns":[{"id":null,"name":"return","klass":null}],"colors":{"heapLocToColor":{"1093381648.<java.io.ByteArrayInputStream: int count>":[0],"1093381896.<java.io.ByteArrayInputStream: int pos>":[0],"sdaReg8":[0],"1093381648":[0],"sdaReg6":[0],"1093340944":[0],"sdaReg7":[0],"sdaReg4":[0],"sdaReg5":[0],"1093381896.<java.io.ByteArrayInputStream: int count>":[0],"1093381680.arrayIdx_int:4":[0],"1093381896":[0],"1093381560":[0],"1093381680":[0],"1093381648.<java.io.ByteArrayInputStream: int pos>":[0],"sdaReg3":[0],"1093381560.<java.io.ObjectInputStream: java.io.DataInputStream input>":[0],"1093381560.<java.io.ObjectInputStream: java.io.InputStream primitiveData>":[0],"sdaReg1":[0],"sdaReg0":[0],"1093381560.<java.io.ObjectInputStream: boolean hasPushbackTC>":[0]},"colorToColor":{"0":[0]},"colorToLabel":{"0":"this","1":"return"}}}

Generated Model

