Scanning method <java.io.ObjectInputStream: void checkReadPrimitiveTypes()>

All seen event types: BinaryOperationRecord, MethodReturnRecord, MethodCallRecord, MethodStartRecord, LoadInstanceRecord, MethodEndRecord, IfRecord, 
Ignored event types: IfRecord, 

JSON Encoded Analysis Data (for visualization):{"heapEdges":[{"step":0,"from":"1093467248","to":"1093599944","type":"load","field":"<java.io.ObjectInputStream: java.io.InputStream primitiveData>"},{"step":1,"from":"1093467248","to":"1093443304","type":"load","field":"<java.io.ObjectInputStream: java.io.DataInputStream input>"},{"step":2,"from":"1093467248","to":"1093599944","type":"load","field":"<java.io.ObjectInputStream: java.io.InputStream primitiveData>"},{"step":3,"from":"1093599944","to":"1093599944.<java.io.ByteArrayInputStream: int count>","type":"load","field":"<java.io.ByteArrayInputStream: int count>"},{"step":4,"from":"1093599944","to":"1093599944.<java.io.ByteArrayInputStream: int pos>","type":"load","field":"<java.io.ByteArrayInputStream: int pos>"}],"parameters":[{"id":"1093467248","name":"this","klass":"java.io.ObjectInputStream"}],"returns":[{"id":null,"name":"return","klass":null}],"colors":{"heapLocToColor":{"1093599944.<java.io.ByteArrayInputStream: int pos>":[0],"1093467248.<java.io.ObjectInputStream: java.io.InputStream primitiveData>":[0],"1093467248":[0],"1093599944":[0],"1093599944.<java.io.ByteArrayInputStream: int count>":[0],"1093443304":[0],"sdaReg1":[0],"sdaReg0":[0]},"colorToColor":{},"colorToLabel":{"0":"this","1":"return"}}}

Generated Model

