Scanning method <android.location.Address: java.lang.String getUrl()>

All seen event types: LoadInstanceRecord, 
Ignored event types: 

JSON Encoded Analysis Data (for visualization):{"heapEdges":[{"step":0,"from":"1093510712","to":"1093510712.<android.location.Address: java.lang.String mUrl>","type":"load","field":"<android.location.Address: java.lang.String mUrl>"}],"parameters":[{"id":"1093510712","name":"this","klass":"android.location.Address"}],"returns":[{"id":"1093510712.<android.location.Address: java.lang.String mUrl>","name":"return","klass":"string"}],"colors":{"heapLocToColor":{"1093510712":[0],"1093510712.<android.location.Address: java.lang.String mUrl>":[0]},"colorToColor":{"0":[1]},"colorToLabel":{"0":"this","1":"return"}}}

Generated Model
	this->return

