Scanning method <java.util.Arrays: void fill(java.lang.Object[],int,int,java.lang.Object)>

All seen event types: BinaryOperationRecord, StoreArrayRecord, SimpleAssignmentRecord, MethodReturnRecord, MethodCallRecord, MethodStartRecord, ArrayLengthRecord, MethodEndRecord, IfRecord, 
Ignored event types: IfRecord, 

JSON Encoded Analysis Data (for visualization):{"heapEdges":[],"parameters":[{"id":"1094129696","name":"arg#0","klass":"java.lang.Object[]"},{"id":"sdaReg0","name":"arg#1","klass":"int"},{"id":"sdaReg1","name":"arg#2","klass":"int"},{"id":"0","name":"arg#3","klass":"java.lang.Object"}],"returns":[{"id":null,"name":"return","klass":null}],"colors":{"heapLocToColor":{"0":[3],"1094129696":[0],"sdaReg3":[1],"sdaReg1":[2],"sdaReg0":[1]},"colorToColor":{},"colorToLabel":{"0":"arg#0","1":"arg#1","2":"arg#2","3":"arg#3","4":"return"}}}

Generated Model

