Scanning method <java.io.ObjectInputStream: java.lang.Object readNewString(boolean)>

All seen event types: StoreArrayRecord, SimpleAssignmentRecord, LoadInstanceRecord, MethodStartRecord, IfRecord, StoreInstanceRecord, NewObjectRecord, LoadStaticRecord, NewArrayRecord, BinaryOperationRecord, MethodCallRecord, MethodReturnRecord, ArrayLengthRecord, CastRecord, LoadArrayRecord, MethodEndRecord, 
Ignored event types: IfRecord, 

JSON Encoded Analysis Data (for visualization):{"heapEdges":[{"step":0,"from":"1093467432","to":"1093497528","type":"load","field":"<java.io.ObjectInputStream: java.io.DataInputStream input>"},{"step":1,"from":"1093497528","to":"1093266320","type":"load","field":"<java.io.FilterInputStream: java.io.InputStream in>"},{"step":2,"from":"1093497528","to":"1093666736","type":"load","field":"<java.io.DataInputStream: byte[] scratch>"},{"step":3,"from":"1093266320","to":"1093666736","type":"model"},{"step":4,"from":"1093497528","to":"1093666736","type":"load","field":"<java.io.DataInputStream: byte[] scratch>"},{"step":5,"from":"static.<java.nio.ByteOrder: java.nio.ByteOrder BIG_ENDIAN>","to":"1084339448","type":"load","field":"<java.nio.ByteOrder: java.nio.ByteOrder BIG_ENDIAN>"},{"step":6,"from":"1093666736","to":"sdaReg4","type":"model"},{"step":7,"from":"1093497528","to":"1093266320","type":"load","field":"<java.io.FilterInputStream: java.io.InputStream in>"},{"step":8,"from":"1093266320","to":"1094814840","type":"model"},{"step":9,"from":"1094814840","to":"1094814840.arrayIdx_int:0","type":"load","field":"arrayIdx_int:0"},{"step":10,"from":"sdaReg18","to":"1094533360","type":"store","field":"arrayIdx_int:0"},{"step":11,"from":"1094814840","to":"1094814840.arrayIdx_int:1","type":"load","field":"arrayIdx_int:1"},{"step":12,"from":"sdaReg18","to":"1094533360","type":"store","field":"arrayIdx_int:1"},{"step":13,"from":"1094814840","to":"1094814840.arrayIdx_int:2","type":"load","field":"arrayIdx_int:2"},{"step":14,"from":"sdaReg18","to":"1094533360","type":"store","field":"arrayIdx_int:2"},{"step":15,"from":"1094814840","to":"1094814840.arrayIdx_int:3","type":"load","field":"arrayIdx_int:3"},{"step":16,"from":"sdaReg18","to":"1094533360","type":"store","field":"arrayIdx_int:3"},{"step":17,"from":"1094814840","to":"1094814840.arrayIdx_int:4","type":"load","field":"arrayIdx_int:4"},{"step":18,"from":"sdaReg18","to":"1094533360","type":"store","field":"arrayIdx_int:4"},{"step":19,"from":"1094814840","to":"1094814840.arrayIdx_int:5","type":"load","field":"arrayIdx_int:5"},{"step":20,"from":"sdaReg18","to":"1094533360","type":"store","field":"arrayIdx_int:5"},{"step":21,"from":"1094814840","to":"1094814840.arrayIdx_int:6","type":"load","field":"arrayIdx_int:6"},{"step":22,"from":"sdaReg18","to":"1094533360","type":"store","field":"arrayIdx_int:6"},{"step":23,"from":"1094814840","to":"1094814840.arrayIdx_int:7","type":"load","field":"arrayIdx_int:7"},{"step":24,"from":"sdaReg18","to":"1094533360","type":"store","field":"arrayIdx_int:7"},{"step":25,"from":"1094814840","to":"1094814840.arrayIdx_int:8","type":"load","field":"arrayIdx_int:8"},{"step":26,"from":"sdaReg18","to":"1094533360","type":"store","field":"arrayIdx_int:8"},{"step":27,"from":"1094814840","to":"1094814840.arrayIdx_int:9","type":"load","field":"arrayIdx_int:9"},{"step":28,"from":"sdaReg18","to":"1094533360","type":"store","field":"arrayIdx_int:9"},{"step":29,"from":"1094814840","to":"1094814840.arrayIdx_int:10","type":"load","field":"arrayIdx_int:10"},{"step":30,"from":"sdaReg18","to":"1094533360","type":"store","field":"arrayIdx_int:10"},{"step":31,"from":"1094814840","to":"1094814840.arrayIdx_int:11","type":"load","field":"arrayIdx_int:11"},{"step":32,"from":"sdaReg18","to":"1094533360","type":"store","field":"arrayIdx_int:11"},{"step":33,"from":"1094814840","to":"1094814840.arrayIdx_int:12","type":"load","field":"arrayIdx_int:12"},{"step":34,"from":"sdaReg18","to":"1094533360","type":"store","field":"arrayIdx_int:12"},{"step":35,"from":"1094814840","to":"1094814840.arrayIdx_int:13","type":"load","field":"arrayIdx_int:13"},{"step":36,"from":"sdaReg18","to":"1094533360","type":"store","field":"arrayIdx_int:13"},{"step":37,"from":"1094814840","to":"1094814840.arrayIdx_int:14","type":"load","field":"arrayIdx_int:14"},{"step":38,"from":"sdaReg18","to":"1094533360","type":"store","field":"arrayIdx_int:14"},{"step":39,"from":"1094814840","to":"1094814840.arrayIdx_int:15","type":"load","field":"arrayIdx_int:15"},{"step":40,"from":"sdaReg18","to":"1094533360","type":"store","field":"arrayIdx_int:15"},{"step":41,"from":"1094814840","to":"1094814840.arrayIdx_int:16","type":"load","field":"arrayIdx_int:16"},{"step":42,"from":"sdaReg18","to":"1094533360","type":"store","field":"arrayIdx_int:16"},{"step":43,"from":"1094814840","to":"1094814840.arrayIdx_int:17","type":"load","field":"arrayIdx_int:17"},{"step":44,"from":"sdaReg18","to":"1094533360","type":"store","field":"arrayIdx_int:17"},{"step":45,"from":"1094533360","to":"sdaReg19","type":"model"},{"step":46,"from":"1093467432","to":"1093467432.<java.io.ObjectInputStream: boolean enableResolve>","type":"load","field":"<java.io.ObjectInputStream: boolean enableResolve>"},{"step":47,"from":"1093467432","to":"1093467432.<java.io.ObjectInputStream: int nextHandle>","type":"load","field":"<java.io.ObjectInputStream: int nextHandle>"},{"step":48,"from":"sdaReg22","to":"1093467432","type":"store","field":"<java.io.ObjectInputStream: int nextHandle>"},{"step":49,"from":"1093467432","to":"1093668752","type":"load","field":"<java.io.ObjectInputStream: java.util.ArrayList objectsRead>"},{"step":50,"from":"1093668752","to":"1093668752.<java.util.ArrayList: int size>","type":"load","field":"<java.util.ArrayList: int size>"},{"step":51,"from":"1093467432","to":"1093668752","type":"load","field":"<java.io.ObjectInputStream: java.util.ArrayList objectsRead>"},{"step":52,"from":"1093668752","to":"1093583760","type":"load","field":"<java.util.ArrayList: java.lang.Object[] array>"},{"step":53,"from":"1093668752","to":"1093668752.<java.util.ArrayList: int size>","type":"load","field":"<java.util.ArrayList: int size>"},{"step":54,"from":"1093363640","to":"1093583760","type":"store","field":"arrayIdx_int:1"},{"step":55,"from":"sdaReg30","to":"1093668752","type":"store","field":"<java.util.ArrayList: int size>"},{"step":56,"from":"1093668752","to":"1093668752.<java.util.AbstractList: int modCount>","type":"load","field":"<java.util.AbstractList: int modCount>"},{"step":57,"from":"sdaReg31","to":"1093668752","type":"store","field":"<java.util.AbstractList: int modCount>"}],"parameters":[{"id":"1093467432","name":"this","klass":"java.io.ObjectInputStream"},{"id":"sdaReg0","name":"arg#1","klass":"boolean"}],"returns":[{"id":"1093363640","name":"return","klass":"java.lang.Object"}],"colors":{"heapLocToColor":{"1093467432.<java.io.ObjectInputStream: java.util.ArrayList objectsRead>":[0],"1093668752.<java.util.AbstractList: int modCount>":[0],"1093666736":[0],"1093497528.<java.io.DataInputStream: byte[] scratch>":[0],"sdaReg11":[4],"sdaReg12":[5],"1094814840":[4],"sdaReg19":[6],"static.<java.nio.ByteOrder: java.nio.ByteOrder BIG_ENDIAN>":[2],"sdaReg18":[4],"1093467432.<java.io.ObjectInputStream: int nextHandle>":[0],"1093266320":[0],"1093497528.<java.io.FilterInputStream: java.io.InputStream in>":[0],"1093467432.<java.io.ObjectInputStream: boolean enableResolve>":[0],"1094533360":[5],"1094814840.arrayIdx_int:17":[4],"1094814840.arrayIdx_int:16":[4],"1094814840.arrayIdx_int:12":[4],"1094814840.arrayIdx_int:13":[4],"1094814840.arrayIdx_int:14":[4],"1094814840.arrayIdx_int:15":[4],"1093497528":[0],"1094814840.arrayIdx_int:10":[4],"1094814840.arrayIdx_int:11":[4],"sdaReg31":[0],"sdaReg30":[0],"1094814840.arrayIdx_int:4":[4],"1094814840.arrayIdx_int:3":[4],"sdaReg8":[0],"1094814840.arrayIdx_int:6":[4],"sdaReg9":[4],"1094814840.arrayIdx_int:5":[4],"sdaReg6":[0],"1094814840.arrayIdx_int:8":[4],"sdaReg7":[0],"1094814840.arrayIdx_int:7":[4],"1093668752.<java.util.ArrayList: int size>":[0],"sdaReg4":[3],"sdaReg5":[3],"1094814840.arrayIdx_int:9":[4],"1093583760":[0],"1094814840.arrayIdx_int:0":[4],"1094814840.arrayIdx_int:2":[4],"1094814840.arrayIdx_int:1":[4],"sdaReg27":[0],"1093668752":[0],"sdaReg26":[0],"1084339448":[2],"sdaReg3":[0],"1093467432":[0],"sdaReg2":[0],"sdaReg1":[0],"sdaReg21":[0],"sdaReg0":[1],"sdaReg23":[0],"sdaReg22":[0],"sdaReg25":[0]},"colorToColor":{"0":[0, 3, 4],"4":[5],"5":[6]},"colorToLabel":{"0":"this","1":"arg#1","2":"<java.nio.ByteOrder: java.nio.ByteOrder BIG_ENDIAN>","7":"return"}}}

Generated Model

