Scanning method <java.util.Formatter: java.lang.CharSequence transform(java.util.Formatter$FormatToken,java.lang.Object)>

All seen event types: SimpleAssignmentRecord, SwitchRecord, MethodReturnRecord, MethodCallRecord, LoadInstanceRecord, MethodStartRecord, MethodEndRecord, IfRecord, InstanceOfRecord, StoreInstanceRecord, 
Ignored event types: SwitchRecord, IfRecord, 

JSON Encoded Analysis Data (for visualization):{"heapEdges":[{"step":0,"from":"1093383488","to":"1093309104","type":"store","field":"<java.util.Formatter: java.util.Formatter$FormatToken formatToken>"},{"step":1,"from":"1093542872","to":"1093309104","type":"store","field":"<java.util.Formatter: java.lang.Object arg>"},{"step":2,"from":"1093383488","to":"1093383488.<java.util.Formatter$FormatToken: boolean flagComma>","type":"load","field":"<java.util.Formatter$FormatToken: boolean flagComma>"},{"step":3,"from":"1093383488","to":"1093383488.<java.util.Formatter$FormatToken: boolean flagMinus>","type":"load","field":"<java.util.Formatter$FormatToken: boolean flagMinus>"},{"step":4,"from":"1093383488","to":"1093383488.<java.util.Formatter$FormatToken: boolean flagParenthesis>","type":"load","field":"<java.util.Formatter$FormatToken: boolean flagParenthesis>"},{"step":5,"from":"1093383488","to":"1093383488.<java.util.Formatter$FormatToken: boolean flagPlus>","type":"load","field":"<java.util.Formatter$FormatToken: boolean flagPlus>"},{"step":6,"from":"1093383488","to":"1093383488.<java.util.Formatter$FormatToken: boolean flagSharp>","type":"load","field":"<java.util.Formatter$FormatToken: boolean flagSharp>"},{"step":7,"from":"1093383488","to":"1093383488.<java.util.Formatter$FormatToken: boolean flagSpace>","type":"load","field":"<java.util.Formatter$FormatToken: boolean flagSpace>"},{"step":8,"from":"1093383488","to":"1093383488.<java.util.Formatter$FormatToken: boolean flagZero>","type":"load","field":"<java.util.Formatter$FormatToken: boolean flagZero>"},{"step":9,"from":"1093383488","to":"1093383488.<java.util.Formatter$FormatToken: int width>","type":"load","field":"<java.util.Formatter$FormatToken: int width>"},{"step":10,"from":"1093383488","to":"1093383488.<java.util.Formatter$FormatToken: int precision>","type":"load","field":"<java.util.Formatter$FormatToken: int precision>"},{"step":11,"from":"1093383488","to":"1093383488.<java.util.Formatter$FormatToken: char conversionType>","type":"load","field":"<java.util.Formatter$FormatToken: char conversionType>"},{"step":12,"from":"1093542872","to":"sdaReg4","type":"model"}],"parameters":[{"id":"1093309104","name":"this","klass":"java.util.Formatter"},{"id":"1093383488","name":"arg#1","klass":"java.util.Formatter$FormatToken"},{"id":"1093542872","name":"arg#2","klass":"java.lang.Object"}],"returns":[{"id":"1093542872","name":"return","klass":"java.lang.CharSequence"}],"colors":{"heapLocToColor":{"1093542872":[2],"1093383488.<java.util.Formatter$FormatToken: boolean flagMinus>":[1],"sdaReg4":[2, 3],"1093383488.<java.util.Formatter$FormatToken: boolean flagSharp>":[1],"1093383488.<java.util.Formatter$FormatToken: boolean flagParenthesis>":[1],"1093383488.<java.util.Formatter$FormatToken: boolean flagPlus>":[1],"1093383488.<java.util.Formatter$FormatToken: boolean flagSpace>":[1],"1093383488.<java.util.Formatter$FormatToken: boolean flagComma>":[1],"1093383488.<java.util.Formatter$FormatToken: int width>":[1],"1093383488.<java.util.Formatter$FormatToken: int precision>":[1],"sdaReg2":[1],"1093309104":[0],"1093383488.<java.util.Formatter$FormatToken: boolean flagZero>":[1],"sdaReg0":[1],"1093383488.<java.util.Formatter$FormatToken: char conversionType>":[1],"1093383488":[1]},"colorToColor":{"1":[0],"2":[0, 4]},"colorToLabel":{"0":"this","1":"arg#1","2":"arg#2","4":"return"}}}

Generated Model
	arg#2->this
	arg#2->return
	arg#1->this

