Scanning method <java.io.ObjectInputStream: void defaultReadObject()>

All seen event types: StoreArrayRecord, SimpleAssignmentRecord, LoadInstanceRecord, MethodStartRecord, IfRecord, NewObjectRecord, StoreInstanceRecord, InstanceOfRecord, NewArrayRecord, LoadStaticRecord, BinaryOperationRecord, SwitchRecord, MethodCallRecord, MethodReturnRecord, ArrayLengthRecord, CastRecord, LoadArrayRecord, MethodEndRecord, 
Ignored event types: SwitchRecord, IfRecord, 

JSON Encoded Analysis Data (for visualization):{"heapEdges":[{"step":0,"from":"1093467432","to":"1093445584","type":"load","field":"<java.io.ObjectInputStream: java.lang.Object currentObject>"},{"step":1,"from":"1093467432","to":"1093445584","type":"load","field":"<java.io.ObjectInputStream: java.lang.Object currentObject>"},{"step":2,"from":"1093467432","to":"1093438208","type":"load","field":"<java.io.ObjectInputStream: java.io.ObjectStreamClass currentClass>"},{"step":3,"from":"1093438208","to":"1093281424","type":"model"},{"step":4,"from":"1093438208","to":"1093316416","type":"model"},{"step":5,"from":"1093281424","to":"1093281448","type":"load","field":"arrayIdx_int:0"},{"step":6,"from":"1093438208","to":"1093281448","type":"model"},{"step":7,"from":"1093438208","to":"1095754920","type":"model"},{"step":8,"from":"1093281448","to":"1093438208","type":"model"},{"step":9,"from":"1093281448","to":"1095754920","type":"model"},{"step":10,"from":"1093281448","to":"1093294072","type":"load","field":"<java.io.ObjectStreamField: java.lang.Object type>"},{"step":11,"from":"1093281448","to":"1093294072","type":"load","field":"<java.io.ObjectStreamField: java.lang.Object type>"},{"step":12,"from":"1093294072","to":"1083912376","type":"model"},{"step":13,"from":"static.<java.lang.Byte: java.lang.Class TYPE>","to":"1083909112","type":"load","field":"<java.lang.Byte: java.lang.Class TYPE>"},{"step":14,"from":"static.<java.lang.Character: java.lang.Class TYPE>","to":"1083909448","type":"load","field":"<java.lang.Character: java.lang.Class TYPE>"},{"step":15,"from":"static.<java.lang.Double: java.lang.Class TYPE>","to":"1083910120","type":"load","field":"<java.lang.Double: java.lang.Class TYPE>"},{"step":16,"from":"static.<java.lang.Float: java.lang.Class TYPE>","to":"1083909952","type":"load","field":"<java.lang.Float: java.lang.Class TYPE>"},{"step":17,"from":"static.<java.lang.Integer: java.lang.Class TYPE>","to":"1083909616","type":"load","field":"<java.lang.Integer: java.lang.Class TYPE>"},{"step":18,"from":"static.<java.lang.Long: java.lang.Class TYPE>","to":"1083909784","type":"load","field":"<java.lang.Long: java.lang.Class TYPE>"},{"step":19,"from":"static.<java.lang.Short: java.lang.Class TYPE>","to":"1083909280","type":"load","field":"<java.lang.Short: java.lang.Class TYPE>"},{"step":20,"from":"static.<java.lang.Boolean: java.lang.Class TYPE>","to":"1083908944","type":"load","field":"<java.lang.Boolean: java.lang.Class TYPE>"},{"step":21,"from":"1093281448","to":"1093281448.<java.io.ObjectStreamField: boolean unshared>","type":"load","field":"<java.io.ObjectStreamField: boolean unshared>"},{"step":22,"from":"1093467432","to":"1093666648","type":"load","field":"<java.io.ObjectInputStream: java.io.InputStream primitiveData>"},{"step":23,"from":"1093467432","to":"1093497528","type":"load","field":"<java.io.ObjectInputStream: java.io.DataInputStream input>"},{"step":24,"from":"1093467432","to":"1093467432.<java.io.ObjectInputStream: boolean subclassOverridingImplementation>","type":"load","field":"<java.io.ObjectInputStream: boolean subclassOverridingImplementation>"},{"step":25,"from":"1093467432","to":"1093467432.<java.io.ObjectInputStream: int nestedLevels>","type":"load","field":"<java.io.ObjectInputStream: int nestedLevels>"},{"step":26,"from":"sdaReg23","to":"1093467432","type":"store","field":"<java.io.ObjectInputStream: int nestedLevels>"},{"step":27,"from":"1093467432","to":"1093666648","type":"load","field":"<java.io.ObjectInputStream: java.io.InputStream primitiveData>"},{"step":28,"from":"1093467432","to":"1093497528","type":"load","field":"<java.io.ObjectInputStream: java.io.DataInputStream input>"},{"step":29,"from":"1093467432","to":"1093666648","type":"load","field":"<java.io.ObjectInputStream: java.io.InputStream primitiveData>"},{"step":30,"from":"1093666648","to":"1093666648.<java.io.ByteArrayInputStream: int count>","type":"load","field":"<java.io.ByteArrayInputStream: int count>"},{"step":31,"from":"1093666648","to":"1093666648.<java.io.ByteArrayInputStream: int pos>","type":"load","field":"<java.io.ByteArrayInputStream: int pos>"},{"step":32,"from":"1093467432","to":"1093467432.<java.io.ObjectInputStream: boolean hasPushbackTC>","type":"load","field":"<java.io.ObjectInputStream: boolean hasPushbackTC>"},{"step":33,"from":"1093467432","to":"1093497528","type":"load","field":"<java.io.ObjectInputStream: java.io.DataInputStream input>"},{"step":34,"from":"1093497528","to":"1093266320","type":"load","field":"<java.io.FilterInputStream: java.io.InputStream in>"},{"step":35,"from":"1093266320","to":"1093266320.<java.io.PipedInputStream: boolean isConnected>","type":"load","field":"<java.io.PipedInputStream: boolean isConnected>"},{"step":36,"from":"1093266320","to":"1093271696","type":"load","field":"<java.io.PipedInputStream: byte[] buffer>"},{"step":37,"from":"1093266320","to":"1093451856","type":"create","field":"<java.io.PipedInputStream: java.lang.Thread lastReader>"},{"step":38,"from":"1093266320","to":"1093266320.<java.io.PipedInputStream: int in>","type":"load","field":"<java.io.PipedInputStream: int in>"},{"step":39,"from":"1093266320","to":"1093271696","type":"load","field":"<java.io.PipedInputStream: byte[] buffer>"},{"step":40,"from":"1093266320","to":"1093266320.<java.io.PipedInputStream: int out>","type":"load","field":"<java.io.PipedInputStream: int out>"},{"step":41,"from":"sdaReg33","to":"1093266320","type":"store","field":"<java.io.PipedInputStream: int out>"},{"step":42,"from":"1093271696","to":"1093271696.arrayIdx_int:105","type":"load","field":"arrayIdx_int:105"},{"step":43,"from":"1093266320","to":"1093271696","type":"load","field":"<java.io.PipedInputStream: byte[] buffer>"},{"step":44,"from":"1093266320","to":"1093266320.<java.io.PipedInputStream: int in>","type":"load","field":"<java.io.PipedInputStream: int in>"},{"step":45,"from":"sdaReg36","to":"1093467432","type":"store","field":"<java.io.ObjectInputStream: byte pushbackTC>"},{"step":46,"from":"1093467432","to":"sdaReg38","type":"create","field":"<java.io.ObjectInputStream: boolean hasPushbackTC>"},{"step":47,"from":"1093467432","to":"1093666648","type":"load","field":"<java.io.ObjectInputStream: java.io.InputStream primitiveData>"},{"step":48,"from":"1093666648","to":"1093666648.<java.io.ByteArrayInputStream: int count>","type":"load","field":"<java.io.ByteArrayInputStream: int count>"},{"step":49,"from":"1093666648","to":"1093666648.<java.io.ByteArrayInputStream: int pos>","type":"load","field":"<java.io.ByteArrayInputStream: int pos>"},{"step":50,"from":"1093467432","to":"sdaReg42","type":"create","field":"<java.io.ObjectInputStream: boolean hasPushbackTC>"},{"step":51,"from":"1093467432","to":"1093497528","type":"load","field":"<java.io.ObjectInputStream: java.io.DataInputStream input>"},{"step":52,"from":"1093497528","to":"1093266320","type":"load","field":"<java.io.FilterInputStream: java.io.InputStream in>"},{"step":53,"from":"1093497528","to":"1093666736","type":"load","field":"<java.io.DataInputStream: byte[] scratch>"},{"step":54,"from":"1093266320","to":"1093666736","type":"model"},{"step":55,"from":"1093497528","to":"1093666736","type":"load","field":"<java.io.DataInputStream: byte[] scratch>"},{"step":56,"from":"static.<java.nio.ByteOrder: java.nio.ByteOrder BIG_ENDIAN>","to":"1084339448","type":"load","field":"<java.nio.ByteOrder: java.nio.ByteOrder BIG_ENDIAN>"},{"step":57,"from":"1093666736","to":"sdaReg48","type":"model"},{"step":58,"from":"1093497528","to":"1093266320","type":"load","field":"<java.io.FilterInputStream: java.io.InputStream in>"},{"step":59,"from":"1093266320","to":"1095920608","type":"model"},{"step":60,"from":"1095920608","to":"1095920608.arrayIdx_int:0","type":"load","field":"arrayIdx_int:0"},{"step":61,"from":"sdaReg62","to":"1095971360","type":"store","field":"arrayIdx_int:0"},{"step":62,"from":"1095920608","to":"1095920608.arrayIdx_int:1","type":"load","field":"arrayIdx_int:1"},{"step":63,"from":"sdaReg62","to":"1095971360","type":"store","field":"arrayIdx_int:1"},{"step":64,"from":"1095920608","to":"1095920608.arrayIdx_int:2","type":"load","field":"arrayIdx_int:2"},{"step":65,"from":"sdaReg62","to":"1095971360","type":"store","field":"arrayIdx_int:2"},{"step":66,"from":"1095920608","to":"1095920608.arrayIdx_int:3","type":"load","field":"arrayIdx_int:3"},{"step":67,"from":"sdaReg62","to":"1095971360","type":"store","field":"arrayIdx_int:3"},{"step":68,"from":"1095920608","to":"1095920608.arrayIdx_int:4","type":"load","field":"arrayIdx_int:4"},{"step":69,"from":"sdaReg62","to":"1095971360","type":"store","field":"arrayIdx_int:4"},{"step":70,"from":"1095920608","to":"1095920608.arrayIdx_int:5","type":"load","field":"arrayIdx_int:5"},{"step":71,"from":"sdaReg62","to":"1095971360","type":"store","field":"arrayIdx_int:5"},{"step":72,"from":"1095920608","to":"1095920608.arrayIdx_int:6","type":"load","field":"arrayIdx_int:6"},{"step":73,"from":"sdaReg62","to":"1095971360","type":"store","field":"arrayIdx_int:6"},{"step":74,"from":"1095920608","to":"1095920608.arrayIdx_int:7","type":"load","field":"arrayIdx_int:7"},{"step":75,"from":"sdaReg62","to":"1095971360","type":"store","field":"arrayIdx_int:7"},{"step":76,"from":"1095920608","to":"1095920608.arrayIdx_int:8","type":"load","field":"arrayIdx_int:8"},{"step":77,"from":"sdaReg62","to":"1095971360","type":"store","field":"arrayIdx_int:8"},{"step":78,"from":"1095920608","to":"1095920608.arrayIdx_int:9","type":"load","field":"arrayIdx_int:9"},{"step":79,"from":"sdaReg62","to":"1095971360","type":"store","field":"arrayIdx_int:9"},{"step":80,"from":"1095920608","to":"1095920608.arrayIdx_int:10","type":"load","field":"arrayIdx_int:10"},{"step":81,"from":"sdaReg62","to":"1095971360","type":"store","field":"arrayIdx_int:10"},{"step":82,"from":"1095971360","to":"sdaReg63","type":"model"},{"step":83,"from":"1093467432","to":"1093467432.<java.io.ObjectInputStream: boolean enableResolve>","type":"load","field":"<java.io.ObjectInputStream: boolean enableResolve>"},{"step":84,"from":"1093467432","to":"1093467432.<java.io.ObjectInputStream: int nextHandle>","type":"load","field":"<java.io.ObjectInputStream: int nextHandle>"},{"step":85,"from":"sdaReg66","to":"1093467432","type":"store","field":"<java.io.ObjectInputStream: int nextHandle>"},{"step":86,"from":"1093467432","to":"1093668752","type":"load","field":"<java.io.ObjectInputStream: java.util.ArrayList objectsRead>"},{"step":87,"from":"1093668752","to":"1093668752.<java.util.ArrayList: int size>","type":"load","field":"<java.util.ArrayList: int size>"},{"step":88,"from":"1093467432","to":"1093668752","type":"load","field":"<java.io.ObjectInputStream: java.util.ArrayList objectsRead>"},{"step":89,"from":"1093668752","to":"1093583760","type":"load","field":"<java.util.ArrayList: java.lang.Object[] array>"},{"step":90,"from":"1093668752","to":"1093668752.<java.util.ArrayList: int size>","type":"load","field":"<java.util.ArrayList: int size>"},{"step":91,"from":"1095991696","to":"1093583760","type":"store","field":"arrayIdx_int:3"},{"step":92,"from":"sdaReg74","to":"1093668752","type":"store","field":"<java.util.ArrayList: int size>"},{"step":93,"from":"1093668752","to":"1093668752.<java.util.AbstractList: int modCount>","type":"load","field":"<java.util.AbstractList: int modCount>"},{"step":94,"from":"sdaReg75","to":"1093668752","type":"store","field":"<java.util.AbstractList: int modCount>"},{"step":95,"from":"sdaReg79","to":"1093467432","type":"store","field":"<java.io.ObjectInputStream: int nestedLevels>"},{"step":96,"from":"1093281448","to":"1093281448.<java.io.ObjectStreamField: java.lang.String name>","type":"load","field":"<java.io.ObjectStreamField: java.lang.String name>"},{"step":97,"from":"1093438208","to":"1093281448.<java.io.ObjectStreamField: java.lang.String name>","type":"model"},{"step":98,"from":"1093438208","to":"1093281448","type":"model"},{"step":99,"from":"1093281448.<java.io.ObjectStreamField: java.lang.String name>","to":"1093438208","type":"model"},{"step":100,"from":"1093281448.<java.io.ObjectStreamField: java.lang.String name>","to":"1093281448","type":"model"},{"step":101,"from":"1093281448","to":"1093294072","type":"load","field":"<java.io.ObjectStreamField: java.lang.Object type>"},{"step":102,"from":"1093281448","to":"1093294072","type":"load","field":"<java.io.ObjectStreamField: java.lang.Object type>"},{"step":103,"from":"1093294072","to":"1083912376","type":"model"},{"step":104,"from":"1095991696","to":"1083912376","type":"model"},{"step":105,"from":"1083912376","to":"sdaReg92","type":"model"},{"step":106,"from":"1083912376","to":"sdaReg92","type":"model"},{"step":107,"from":"1095754920","to":"1093445584","type":"model"},{"step":108,"from":"1095754920","to":"1095991696","type":"model"},{"step":109,"from":"1093445584","to":"1095754920","type":"model"},{"step":110,"from":"1093445584","to":"1095991696","type":"model"},{"step":111,"from":"1095991696","to":"1095754920","type":"model"},{"step":112,"from":"1095991696","to":"1093445584","type":"model"}],"parameters":[{"id":"1093467432","name":"this","klass":"java.io.ObjectInputStream"}],"returns":[{"id":null,"name":"return","klass":null}],"colors":{"heapLocToColor":{"sdaReg69":[0],"sdaReg66":[0],"sdaReg67":[0],"sdaReg65":[0],"sdaReg62":[16],"sdaReg63":[18],"sdaReg13":[0, 1],"1093497528.<java.io.DataInputStream: byte[] scratch>":[0],"sdaReg71":[0],"sdaReg14":[0, 1, 4],"sdaReg70":[0],"sdaReg11":[0, 1],"sdaReg10":[0, 3],"1093281448.<java.io.ObjectStreamField: java.lang.String name>":[0, 1],"1093467432.<java.io.ObjectInputStream: java.lang.Object currentObject>":[0],"sdaReg19":[0],"sdaReg17":[0, 1],"1095991696":[0, 3],"sdaReg18":[0],"sdaReg15":[0, 1, 4],"sdaReg16":[0, 1, 4],"1093467432.<java.io.ObjectInputStream: int nextHandle>":[0],"1093281448.<java.io.ObjectStreamField: java.lang.Object type>":[0, 1],"1083909280":[11],"sdaReg74":[0],"sdaReg75":[0],"static.<java.lang.Boolean: java.lang.Class TYPE>":[12],"sdaReg83":[0, 1],"1093467432.<java.io.ObjectInputStream: boolean subclassOverridingImplementation>":[0],"1093497528.<java.io.FilterInputStream: java.io.InputStream in>":[0],"1093467432.<java.io.ObjectInputStream: boolean enableResolve>":[0],"1093266320.<java.io.PipedInputStream: byte[] buffer>":[0],"1093445584":[0, 3],"1093467432.<java.io.ObjectInputStream: java.io.DataInputStream input>":[0],"static.<java.lang.Character: java.lang.Class TYPE>":[6],"1093467432.<java.io.ObjectInputStream: int nestedLevels>":[0],"sdaReg87":[0, 1],"sdaReg84":[0, 1],"sdaReg85":[0, 1],"sdaReg88":[0, 1, 4],"sdaReg89":[0, 1, 4],"sdaReg90":[0, 1, 4],"1083909616":[9],"1093497528":[0],"1095920608":[16],"sdaReg92":[0, 1, 19, 4],"sdaReg91":[0, 1, 4],"1093271696.arrayIdx_int:105":[0],"1095754920":[0, 3],"1093271696":[0],"1084339448":[14],"1093281448.<java.io.ObjectStreamField: boolean unshared>":[0, 1],"1093666648.<java.io.ByteArrayInputStream: int pos>":[0],"1093294072":[0, 1],"static.<java.lang.Float: java.lang.Class TYPE>":[8],"1083909784":[10],"1093467432.<java.io.ObjectInputStream: java.util.ArrayList objectsRead>":[0],"1093668752.<java.util.AbstractList: int modCount>":[0],"1093666736":[0],"static.<java.lang.Byte: java.lang.Class TYPE>":[5],"1093666648.<java.io.ByteArrayInputStream: int count>":[0],"1083909112":[5],"1093266320.<java.io.PipedInputStream: boolean isConnected>":[0],"1093281448":[0, 1],"sdaReg56":[17],"sdaReg55":[16],"1093438208":[0],"static.<java.nio.ByteOrder: java.nio.ByteOrder BIG_ENDIAN>":[14],"sdaReg53":[16],"sdaReg52":[0],"static.<java.lang.Double: java.lang.Class TYPE>":[7],"sdaReg51":[0],"sdaReg50":[0],"1095920608.arrayIdx_int:10":[16],"1093451856":[13],"1093266320":[0],"1093266320.<java.io.PipedInputStream: int in>":[0],"sdaReg49":[15],"sdaReg48":[15],"1093467432.<java.io.ObjectInputStream: java.io.InputStream primitiveData>":[0],"sdaReg45":[0],"sdaReg44":[0],"1083910120":[7],"sdaReg47":[0],"1093666648":[0],"sdaReg46":[0],"sdaReg41":[0],"1083909448":[6],"sdaReg40":[0],"static.<java.lang.Long: java.lang.Class TYPE>":[10],"1093467432.<java.io.ObjectInputStream: boolean hasPushbackTC>":[0],"1093281424":[0, 1],"sdaReg39":[0],"1083909952":[8],"sdaReg37":[0],"1093266320.<java.io.PipedInputStream: int out>":[0],"sdaReg31":[13],"sdaReg30":[0],"sdaReg36":[0],"1095971360":[17],"sdaReg34":[0],"sdaReg33":[0],"1095920608.arrayIdx_int:0":[16],"1095920608.arrayIdx_int:1":[16],"sdaReg6":[0, 2],"sdaReg7":[0, 1],"1093668752.<java.util.ArrayList: int size>":[0],"sdaReg4":[0, 1],"sdaReg5":[0, 1],"1095920608.arrayIdx_int:8":[16],"1093583760":[0],"1095920608.arrayIdx_int:9":[16],"1095920608.arrayIdx_int:6":[16],"1095920608.arrayIdx_int:7":[16],"static.<java.lang.Short: java.lang.Class TYPE>":[11],"1095920608.arrayIdx_int:4":[16],"1095920608.arrayIdx_int:5":[16],"1095920608.arrayIdx_int:2":[16],"1095920608.arrayIdx_int:3":[16],"1093668752":[0],"sdaReg27":[0],"sdaReg26":[0],"sdaReg29":[0],"static.<java.lang.Integer: java.lang.Class TYPE>":[9],"sdaReg3":[0, 1],"sdaReg2":[0],"1093467432":[0],"1083908944":[12],"sdaReg1":[0],"1093316416":[0, 2],"sdaReg0":[0],"1083912376":[0, 1, 4],"sdaReg23":[0],"sdaReg25":[0],"sdaReg24":[0]},"colorToColor":{"17":[18],"0":[0, 1, 16, 19, 3, 4, 15],"16":[17],"1":[0, 1, 19, 3, 4],"3":[0, 3],"4":[0, 1, 19, 4],"13":[0]},"colorToLabel":{"0":"this","5":"<java.lang.Byte: java.lang.Class TYPE>","6":"<java.lang.Character: java.lang.Class TYPE>","7":"<java.lang.Double: java.lang.Class TYPE>","8":"<java.lang.Float: java.lang.Class TYPE>","9":"<java.lang.Integer: java.lang.Class TYPE>","10":"<java.lang.Long: java.lang.Class TYPE>","11":"<java.lang.Short: java.lang.Class TYPE>","12":"<java.lang.Boolean: java.lang.Class TYPE>","14":"<java.nio.ByteOrder: java.nio.ByteOrder BIG_ENDIAN>","20":"return"}}}

Generated Model

