Scanning method <java.util.ArrayList: void add(int,java.lang.Object)>

All seen event types: BinaryOperationRecord, StoreArrayRecord, MethodReturnRecord, MethodCallRecord, ArrayLengthRecord, LoadInstanceRecord, IfRecord, StoreInstanceRecord, 
Ignored event types: IfRecord, 

JSON Encoded Analysis Data (for visualization):{"heapEdges":[{"step":0,"from":"1093369392","to":"1093622096","type":"load","field":"<java.util.ArrayList: java.lang.Object[] array>"},{"step":1,"from":"1093369392","to":"1093369392.<java.util.ArrayList: int size>","type":"load","field":"<java.util.ArrayList: int size>"},{"step":2,"from":"sdaReg4","to":"1093369392","type":"store","field":"<java.util.ArrayList: int size>"},{"step":3,"from":"1093369392","to":"1093369392.<java.util.AbstractList: int modCount>","type":"load","field":"<java.util.AbstractList: int modCount>"},{"step":4,"from":"sdaReg5","to":"1093369392","type":"store","field":"<java.util.AbstractList: int modCount>"}],"parameters":[{"id":"1093369392","name":"this","klass":"java.util.ArrayList"},{"id":"sdaReg0","name":"arg#1","klass":"int"},{"id":"0","name":"arg#2","klass":"java.lang.Object"}],"returns":[{"id":null,"name":"return","klass":null}],"colors":{"heapLocToColor":{"0":[2],"1093369392.<java.util.AbstractList: int modCount>":[0],"sdaReg4":[0],"sdaReg5":[0],"sdaReg3":[0, 1],"sdaReg2":[1],"1093369392.<java.util.ArrayList: int size>":[0],"sdaReg0":[1],"1093369392":[0],"1093622096":[0]},"colorToColor":{"0":[0]},"colorToLabel":{"0":"this","1":"arg#1","2":"arg#2","3":"return"}}}

Generated Model

