Scanning method <java.io.ObjectInputStream: void <init>()>

All seen event types: LoadStaticRecord, MethodReturnRecord, MethodCallRecord, CastRecord, LoadInstanceRecord, ArrayLengthRecord, MethodStartRecord, MethodEndRecord, StoreInstanceRecord, NewObjectRecord, 
Ignored event types: 

JSON Encoded Analysis Data (for visualization):{"heapEdges":[{"step":0,"from":"static.<libcore.util.EmptyArray: byte[] BYTE>","to":"1083993968","type":"load","field":"<libcore.util.EmptyArray: byte[] BYTE>"},{"step":1,"from":"1095272400","to":"sdaReg8","type":"create","field":"<java.io.ByteArrayInputStream: int mark>"},{"step":2,"from":"1083993968","to":"1095272400","type":"store","field":"<java.io.ByteArrayInputStream: byte[] buf>"},{"step":3,"from":"sdaReg9","to":"1095272400","type":"store","field":"<java.io.ByteArrayInputStream: int count>"},{"step":4,"from":"1093539720","to":"1095272400","type":"create","field":"<java.io.ObjectInputStream: java.io.InputStream emptyStream>"},{"step":5,"from":"1095272400","to":"1093539720","type":"store","field":"<java.io.ObjectInputStream: java.io.InputStream primitiveData>"},{"step":6,"from":"1093539720","to":"sdaReg11","type":"create","field":"<java.io.ObjectInputStream: boolean mustResolve>"},{"step":7,"from":"1093539720","to":"sdaReg12","type":"create","field":"<java.io.ObjectInputStream: int descriptorHandle>"},{"step":8,"from":"static.<java.util.HashMap: java.util.Map$Entry[] EMPTY_TABLE>","to":"1083997920","type":"load","field":"<java.util.HashMap: java.util.Map$Entry[] EMPTY_TABLE>"},{"step":9,"from":"1083997920","to":"1095272432","type":"store","field":"<java.util.HashMap: java.util.HashMap$HashMapEntry[] table>"},{"step":10,"from":"1095272432","to":"sdaReg19","type":"create","field":"<java.util.HashMap: int threshold>"},{"step":11,"from":"1093539720","to":"1095272432","type":"create","field":"<java.io.ObjectInputStream: java.util.HashMap cachedSuperclasses>"},{"step":12,"from":"1093539720","to":"sdaReg21","type":"create","field":"<java.io.ObjectInputStream: boolean subclassOverridingImplementation>"}],"parameters":[{"id":"1093539720","name":"this","klass":"java.io.ObjectInputStream"}],"returns":[{"id":"1093539720","name":"return","klass":"java.io.ObjectInputStream"}],"colors":{"heapLocToColor":{"1095272400":[1],"sdaReg6":[1],"sdaReg7":[1],"sdaReg4":[2],"1093539720":[0],"sdaReg5":[1],"static.<libcore.util.EmptyArray: byte[] BYTE>":[2],"sdaReg13":[3],"sdaReg14":[3],"sdaReg10":[1],"sdaReg3":[1],"sdaReg2":[0],"1083997920":[4],"static.<java.util.HashMap: java.util.Map$Entry[] EMPTY_TABLE>":[4],"sdaReg1":[0],"1083993968":[2],"sdaReg20":[3],"sdaReg0":[0],"sdaReg17":[4],"1095272432":[3],"sdaReg18":[4],"sdaReg15":[3],"sdaReg16":[3]},"colorToColor":{"0":[5],"1":[0],"2":[1],"3":[0],"4":[3]},"colorToLabel":{"0":"this","2":"<libcore.util.EmptyArray: byte[] BYTE>","4":"<java.util.HashMap: java.util.Map$Entry[] EMPTY_TABLE>","5":"return"}}}

Generated Model
	this->return

