Scanning method <android.os.Message: android.os.Message obtain(android.os.Handler,int,int,int)>

All seen event types: SimpleAssignmentRecord, ExitMonitorRecord, MethodStartRecord, LoadInstanceRecord, IfRecord, StoreInstanceRecord, LoadStaticRecord, BinaryOperationRecord, StoreStaticRecord, MethodCallRecord, MethodReturnRecord, EnterMonitorRecord, MethodEndRecord, 
Ignored event types: ExitMonitorRecord, EnterMonitorRecord, IfRecord, 

JSON Encoded Analysis Data (for visualization):{"heapEdges":[{"step":0,"from":"static.<android.os.Message: java.lang.Object sPoolSync>","to":"1085010160","type":"load","field":"<android.os.Message: java.lang.Object sPoolSync>"},{"step":1,"from":"static.<android.os.Message: android.os.Message sPool>","to":"1093446488","type":"load","field":"<android.os.Message: android.os.Message sPool>"},{"step":2,"from":"static.<android.os.Message: android.os.Message sPool>","to":"1093446488","type":"load","field":"<android.os.Message: android.os.Message sPool>"},{"step":3,"from":"1093446488","to":"sdaReg4","type":"create","field":"<android.os.Message: android.os.Message next>"},{"step":4,"from":"static.<android.os.Message: int sPoolSize>","to":"static.<android.os.Message: int sPoolSize>","type":"load","field":"<android.os.Message: int sPoolSize>"},{"step":5,"from":"sdaReg5","to":"static.<android.os.Message: int sPoolSize>","type":"store","field":"<android.os.Message: int sPoolSize>"},{"step":6,"from":"1093546584","to":"1093446488","type":"store","field":"<android.os.Message: android.os.Handler target>"},{"step":7,"from":"sdaReg0","to":"1093446488","type":"store","field":"<android.os.Message: int what>"},{"step":8,"from":"sdaReg1","to":"1093446488","type":"store","field":"<android.os.Message: int arg1>"},{"step":9,"from":"sdaReg2","to":"1093446488","type":"store","field":"<android.os.Message: int arg2>"}],"parameters":[{"id":"1093546584","name":"arg#0","klass":"android.os.Handler"},{"id":"sdaReg0","name":"arg#1","klass":"int"},{"id":"sdaReg1","name":"arg#2","klass":"int"},{"id":"sdaReg2","name":"arg#3","klass":"int"}],"returns":[{"id":"1093446488","name":"return","klass":"android.os.Message"}],"colors":{"heapLocToColor":{"1093446488":[5],"1085010160":[4],"sdaReg6":[5],"sdaReg5":[6],"sdaReg3":[4],"static.<android.os.Message: java.lang.Object sPoolSync>":[4],"sdaReg2":[3],"1093546584":[0],"sdaReg1":[2],"static.<android.os.Message: int sPoolSize>":[6],"static.<android.os.Message: android.os.Message sPool>":[5],"sdaReg0":[1]},"colorToColor":{"0":[5],"1":[5],"2":[5],"3":[5],"5":[7],"6":[6]},"colorToLabel":{"0":"arg#0","1":"arg#1","2":"arg#2","3":"arg#3","4":"<android.os.Message: java.lang.Object sPoolSync>","5":"<android.os.Message: android.os.Message sPool>","6":"<android.os.Message: int sPoolSize>","7":"return"}}}

Generated Model
	arg#3->return
	arg#3-><android.os.Message: android.os.Message sPool>
	arg#2->return
	arg#2-><android.os.Message: android.os.Message sPool>
	arg#1->return
	arg#1-><android.os.Message: android.os.Message sPool>
	arg#0->return
	arg#0-><android.os.Message: android.os.Message sPool>

