Scanning method <java.util.LinkedList: void <init>()>

All seen event types: MethodReturnRecord, MethodCallRecord, LoadInstanceRecord, MethodStartRecord, MethodEndRecord, NewObjectRecord, StoreInstanceRecord, 
Ignored event types: 

JSON Encoded Analysis Data (for visualization):{"heapEdges":[{"step":0,"from":"1093410688","to":"sdaReg7","type":"create","field":"<java.util.LinkedList: int size>"},{"step":1,"from":"1093410688","to":"1093555712","type":"create","field":"<java.util.LinkedList: java.util.LinkedList$Link voidLink>"},{"step":2,"from":"1093555712","to":"1093555712","type":"store","field":"<java.util.LinkedList$Link: java.util.LinkedList$Link previous>"},{"step":3,"from":"1093555712","to":"1093555712","type":"store","field":"<java.util.LinkedList$Link: java.util.LinkedList$Link next>"}],"parameters":[{"id":"1093410688","name":"this","klass":"java.util.LinkedList"}],"returns":[{"id":"1093410688","name":"return","klass":"java.util.LinkedList"}],"colors":{"heapLocToColor":{"1093410688":[0],"sdaReg8":[1],"sdaReg9":[1],"1093555712":[1],"sdaReg6":[0],"sdaReg10":[1],"sdaReg4":[0],"sdaReg5":[0],"sdaReg3":[0],"sdaReg2":[0],"sdaReg1":[0],"sdaReg0":[0]},"colorToColor":{"0":[2],"1":[0, 1]},"colorToLabel":{"0":"this","2":"return"}}}

Generated Model
	this->return

