Scanning method <java.io.RandomAccessFile: void <init>(java.io.File,java.lang.String)>

All seen event types: LoadStaticRecord, NewArrayRecord, MethodReturnRecord, MethodCallRecord, LoadInstanceRecord, IfRecord, StoreInstanceRecord, 
Ignored event types: IfRecord, 

JSON Encoded Analysis Data (for visualization):{"heapEdges":[{"step":0,"from":"1093588360","to":"sdaReg2","type":"create","field":"<java.io.RandomAccessFile: boolean syncMetadata>"},{"step":1,"from":"1093588360","to":"1083966016","type":"create","field":"<java.io.RandomAccessFile: dalvik.system.CloseGuard guard>"},{"step":2,"from":"1093588360","to":"1093588888","type":"create","field":"<java.io.RandomAccessFile: byte[] scratch>"},{"step":3,"from":"static.<libcore.io.OsConstants: int O_RDONLY>","to":"static.<libcore.io.OsConstants: int O_RDONLY>","type":"load","field":"<libcore.io.OsConstants: int O_RDONLY>"},{"step":4,"from":"static.<libcore.io.OsConstants: int O_RDONLY>","to":"1093588360","type":"store","field":"<java.io.RandomAccessFile: int mode>"},{"step":5,"from":"1093588648","to":"sdaReg5","type":"model"},{"step":6,"from":"sdaReg5","to":"1093578824","type":"model"},{"step":7,"from":"1093588360","to":"1093578824","type":"create","field":"<java.io.RandomAccessFile: java.io.FileDescriptor fd>"}],"parameters":[{"id":"1093588360","name":"this","klass":"java.io.RandomAccessFile"},{"id":"1093588648","name":"arg#1","klass":"java.io.File"},{"id":"sdaReg0","name":"arg#2","klass":"string"}],"returns":[{"id":"1093588360","name":"return","klass":"java.io.RandomAccessFile"}],"colors":{"heapLocToColor":{"1093578824":[8],"sdaReg6":[8],"sdaReg4":[5],"sdaReg5":[1, 7],"1093588360":[0],"sdaReg3":[3],"1093588648":[1],"sdaReg1":[0],"1093588888":[4],"sdaReg0":[2],"1083966016":[3],"static.<libcore.io.OsConstants: int O_RDONLY>":[6]},"colorToColor":{"0":[9],"1":[8],"3":[0],"4":[0],"6":[0],"7":[8],"8":[0]},"colorToLabel":{"0":"this","1":"arg#1","2":"arg#2","6":"<libcore.io.OsConstants: int O_RDONLY>","9":"return"}}}

Generated Model
	this->return
	arg#1->this
	arg#1->return

