Scanning method <java.io.BufferedWriter: void <init>(java.io.Writer)>

All seen event types: NewArrayRecord, MethodReturnRecord, MethodCallRecord, MethodStartRecord, MethodEndRecord, IfRecord, StoreInstanceRecord, 
Ignored event types: IfRecord, 

JSON Encoded Analysis Data (for visualization):{"heapEdges":[{"step":0,"from":"1093604872","to":"1093649360","type":"store","field":"<java.io.Writer: java.lang.Object lock>"},{"step":1,"from":"1093604872","to":"1093649360","type":"store","field":"<java.io.BufferedWriter: java.io.Writer out>"},{"step":2,"from":"1093649360","to":"1093649392","type":"create","field":"<java.io.BufferedWriter: char[] buf>"}],"parameters":[{"id":"1093649360","name":"this","klass":"java.io.BufferedWriter"},{"id":"1093604872","name":"arg#1","klass":"java.io.Writer"}],"returns":[{"id":"1093649360","name":"return","klass":"java.io.BufferedWriter"}],"colors":{"heapLocToColor":{"1093649392":[2],"sdaReg6":[0],"sdaReg7":[0],"sdaReg4":[1],"sdaReg5":[0],"sdaReg3":[0],"1093649360":[0],"sdaReg1":[1],"1093604872":[1],"sdaReg0":[0]},"colorToColor":{"0":[3],"1":[0],"2":[0]},"colorToLabel":{"0":"this","1":"arg#1","3":"return"}}}

Generated Model
	this->return
	arg#1->this
	arg#1->return

