Scanning method <java.net.InetAddress: java.net.InetAddress[] getAllByNameImpl(java.lang.String)>

All seen event types: CaughtExceptionRecord, StoreArrayRecord, SimpleAssignmentRecord, MethodStartRecord, LoadInstanceRecord, IfRecord, NewObjectRecord, StoreInstanceRecord, NewArrayRecord, LoadStaticRecord, BinaryOperationRecord, MethodCallRecord, MethodReturnRecord, CastRecord, ArrayLengthRecord, LoadArrayRecord, MethodEndRecord, 
Ignored event types: IfRecord, 

JSON Encoded Analysis Data (for visualization):{"heapEdges":[{"step":0,"from":"static.<libcore.io.OsConstants: int AI_NUMERICHOST>","to":"static.<libcore.io.OsConstants: int AI_NUMERICHOST>","type":"load","field":"<libcore.io.OsConstants: int AI_NUMERICHOST>"},{"step":1,"from":"static.<libcore.io.OsConstants: int AI_NUMERICHOST>","to":"1093705368","type":"store","field":"<libcore.io.StructAddrinfo: int ai_flags>"},{"step":2,"from":"static.<libcore.io.Libcore: libcore.io.Os os>","to":"1083982784","type":"load","field":"<libcore.io.Libcore: libcore.io.Os os>"},{"step":3,"from":"static.<java.net.InetAddress: java.net.AddressCache addressCache>","to":"1085715264","type":"load","field":"<java.net.InetAddress: java.net.AddressCache addressCache>"},{"step":4,"from":"1085715264","to":"1085715280","type":"load","field":"<java.net.AddressCache: libcore.util.BasicLruCache cache>"},{"step":5,"from":"1085715280","to":"1085715304","type":"load","field":"<libcore.util.BasicLruCache: java.util.LinkedHashMap map>"},{"step":6,"from":"1085715304","to":"1083997920","type":"load","field":"<java.util.HashMap: java.util.HashMap$HashMapEntry[] table>"},{"step":7,"from":"static.<libcore.io.OsConstants: int AI_ADDRCONFIG>","to":"static.<libcore.io.OsConstants: int AI_ADDRCONFIG>","type":"load","field":"<libcore.io.OsConstants: int AI_ADDRCONFIG>"},{"step":8,"from":"static.<libcore.io.OsConstants: int AI_ADDRCONFIG>","to":"1093264376","type":"store","field":"<libcore.io.StructAddrinfo: int ai_flags>"},{"step":9,"from":"static.<libcore.io.OsConstants: int AF_UNSPEC>","to":"static.<libcore.io.OsConstants: int AF_UNSPEC>","type":"load","field":"<libcore.io.OsConstants: int AF_UNSPEC>"},{"step":10,"from":"static.<libcore.io.OsConstants: int AF_UNSPEC>","to":"1093264376","type":"store","field":"<libcore.io.StructAddrinfo: int ai_family>"},{"step":11,"from":"static.<libcore.io.OsConstants: int SOCK_STREAM>","to":"static.<libcore.io.OsConstants: int SOCK_STREAM>","type":"load","field":"<libcore.io.OsConstants: int SOCK_STREAM>"},{"step":12,"from":"static.<libcore.io.OsConstants: int SOCK_STREAM>","to":"1093264376","type":"store","field":"<libcore.io.StructAddrinfo: int ai_socktype>"},{"step":13,"from":"static.<libcore.io.Libcore: libcore.io.Os os>","to":"1083982784","type":"load","field":"<libcore.io.Libcore: libcore.io.Os os>"},{"step":14,"from":"1093264376","to":"1093561832","type":"model"},{"step":15,"from":"sdaReg0","to":"1093561832","type":"model"},{"step":16,"from":"1093561832","to":"1093487672","type":"load","field":"arrayIdx_int:0"},{"step":17,"from":"sdaReg0","to":"1093487672","type":"store","field":"<java.net.InetAddress: java.lang.String hostName>"},{"step":18,"from":"static.<java.net.InetAddress: java.net.AddressCache addressCache>","to":"1085715264","type":"load","field":"<java.net.InetAddress: java.net.AddressCache addressCache>"},{"step":19,"from":"1085715264","to":"1085715280","type":"load","field":"<java.net.AddressCache: libcore.util.BasicLruCache cache>"},{"step":20,"from":"1093293856","to":"1093561832","type":"create","field":"<java.net.AddressCache$AddressCacheEntry: java.lang.Object value>"},{"step":21,"from":"sdaReg50","to":"1093293856","type":"store","field":"<java.net.AddressCache$AddressCacheEntry: long expiryNanos>"},{"step":22,"from":"1085715280","to":"1085715304","type":"load","field":"<libcore.util.BasicLruCache: java.util.LinkedHashMap map>"},{"step":23,"from":"1085715304","to":"1083997920","type":"load","field":"<java.util.HashMap: java.util.HashMap$HashMapEntry[] table>"},{"step":24,"from":"1085715304","to":"1085715304.<java.util.HashMap: int modCount>","type":"load","field":"<java.util.HashMap: int modCount>"},{"step":25,"from":"sdaReg72","to":"1085715304","type":"store","field":"<java.util.HashMap: int modCount>"},{"step":26,"from":"1085715304","to":"1085715304.<java.util.HashMap: int size>","type":"load","field":"<java.util.HashMap: int size>"},{"step":27,"from":"sdaReg73","to":"1085715304","type":"store","field":"<java.util.HashMap: int size>"},{"step":28,"from":"1085715304","to":"1085715304.<java.util.HashMap: int threshold>","type":"load","field":"<java.util.HashMap: int threshold>"},{"step":29,"from":"1085715304","to":"1083997920","type":"load","field":"<java.util.HashMap: java.util.HashMap$HashMapEntry[] table>"},{"step":30,"from":"1085715304","to":"1093288040","type":"create","field":"<java.util.HashMap: java.util.HashMap$HashMapEntry[] table>"},{"step":31,"from":"sdaReg81","to":"1085715304","type":"store","field":"<java.util.HashMap: int threshold>"},{"step":32,"from":"1085715304","to":"1085715368","type":"load","field":"<java.util.LinkedHashMap: java.util.LinkedHashMap$LinkedEntry header>"},{"step":33,"from":"1085715368","to":"1085715368","type":"load","field":"<java.util.LinkedHashMap$LinkedEntry: java.util.LinkedHashMap$LinkedEntry nxt>"},{"step":34,"from":"1085715368","to":"1085715368","type":"load","field":"<java.util.LinkedHashMap$LinkedEntry: java.util.LinkedHashMap$LinkedEntry prv>"},{"step":35,"from":"1085716032","to":"1093287768","type":"store","field":"<java.util.HashMap$HashMapEntry: java.lang.Object key>"},{"step":36,"from":"1093287768","to":"1093293856","type":"create","field":"<java.util.HashMap$HashMapEntry: java.lang.Object value>"},{"step":37,"from":"sdaReg68","to":"1093287768","type":"store","field":"<java.util.HashMap$HashMapEntry: int hash>"},{"step":38,"from":"1085715368","to":"1093287768","type":"store","field":"<java.util.LinkedHashMap$LinkedEntry: java.util.LinkedHashMap$LinkedEntry nxt>"},{"step":39,"from":"1085715368","to":"1093287768","type":"store","field":"<java.util.LinkedHashMap$LinkedEntry: java.util.LinkedHashMap$LinkedEntry prv>"},{"step":40,"from":"1085715368","to":"1093287768","type":"create","field":"<java.util.LinkedHashMap$LinkedEntry: java.util.LinkedHashMap$LinkedEntry prv>"},{"step":41,"from":"1093287768","to":"1085715368","type":"store","field":"<java.util.LinkedHashMap$LinkedEntry: java.util.LinkedHashMap$LinkedEntry nxt>"},{"step":42,"from":"1093287768","to":"1093288040","type":"store","field":"arrayIdx_int:2"},{"step":43,"from":"1085715280","to":"1085715280.<libcore.util.BasicLruCache: int maxSize>","type":"load","field":"<libcore.util.BasicLruCache: int maxSize>"},{"step":44,"from":"1085715280","to":"1085715304","type":"load","field":"<libcore.util.BasicLruCache: java.util.LinkedHashMap map>"},{"step":45,"from":"1093561832","to":"1093274624","type":"model"}],"parameters":[{"id":"sdaReg0","name":"arg#0","klass":"string"}],"returns":[{"id":"1093274624","name":"return","klass":"java.net.InetAddress[]"}],"colors":{"heapLocToColor":{"static.<libcore.io.OsConstants: int AF_UNSPEC>":[11],"1085715304.<java.util.HashMap: int threshold>":[7],"1085715264.<java.net.AddressCache: libcore.util.BasicLruCache cache>":[7],"sdaReg68":[16],"sdaReg66":[16],"sdaReg67":[16],"sdaReg64":[16],"sdaReg65":[16],"sdaReg62":[16],"sdaReg63":[16],"sdaReg13":[7],"sdaReg72":[7],"sdaReg71":[16],"sdaReg11":[7],"1093274624":[19, 13],"sdaReg12":[7],"sdaReg10":[6],"sdaReg19":[8],"sdaReg17":[8],"sdaReg18":[8],"sdaReg15":[8],"sdaReg16":[8],"1093705368":[3],"sdaReg77":[7],"sdaReg73":[7],"1093561832":[13],"sdaReg74":[7],"sdaReg82":[17],"1085715280.<libcore.util.BasicLruCache: int maxSize>":[7],"1093293856":[15],"sdaReg110":[19, 13],"1093288040":[17],"sdaReg108":[13],"sdaReg109":[19, 13],"1085715368.<java.util.LinkedHashMap$LinkedEntry: java.util.LinkedHashMap$LinkedEntry nxt>":[7],"sdaReg103":[18],"sdaReg105":[7],"sdaReg106":[7],"sdaReg87":[7],"1085715304.<java.util.HashMap: int modCount>":[7],"sdaReg84":[17],"sdaReg89":[15],"static.<libcore.io.OsConstants: int AI_ADDRCONFIG>":[10],"1085715264":[7],"sdaReg90":[18],"sdaReg94":[7],"sdaReg92":[15],"sdaReg100":[18],"sdaReg102":[18],"1085715368":[7],"sdaReg101":[18],"1085715304.<java.util.HashMap: int size>":[7],"sdaReg95":[7],"sdaReg96":[18],"1085715368.<java.util.LinkedHashMap$LinkedEntry: java.util.LinkedHashMap$LinkedEntry prv>":[7],"sdaReg98":[15],"1085715304":[7],"sdaReg60":[16],"sdaReg61":[16],"1085715280":[7],"1093487672":[13],"1083982784":[5],"1085715304.<java.util.HashMap: java.util.HashMap$HashMapEntry[] table>":[7],"1084337336":[6],"sdaReg59":[15],"sdaReg57":[7],"1083997920":[7],"sdaReg56":[15],"sdaReg55":[7],"sdaReg54":[15],"sdaReg53":[15],"sdaReg52":[13],"sdaReg51":[15],"sdaReg50":[14],"1093264376":[9],"1085715280.<libcore.util.BasicLruCache: java.util.LinkedHashMap map>":[7],"sdaReg49":[14],"sdaReg41":[13],"sdaReg40":[7],"sdaReg43":[13],"sdaReg42":[7],"static.<libcore.io.Libcore: libcore.io.Os os>":[5],"sdaReg37":[13],"static.<libcore.io.OsConstants: int AI_NUMERICHOST>":[4],"1093287768":[18],"sdaReg36":[13],"sdaReg35":[9],"sdaReg34":[9],"static.<java.net.InetAddress: java.net.AddressCache addressCache>":[7],"sdaReg4":[3],"static.<libcore.io.OsConstants: int SOCK_STREAM>":[12],"sdaReg26":[8],"sdaReg28":[7],"sdaReg3":[3],"sdaReg2":[2],"sdaReg1":[1],"sdaReg21":[8],"sdaReg0":[0],"sdaReg20":[8],"sdaReg23":[8],"sdaReg22":[8]},"colorToColor":{"0":[13],"4":[3],"7":[18, 7],"9":[13],"10":[9],"11":[9],"12":[9],"13":[20, 15],"14":[15],"15":[18],"17":[7],"16":[18],"19":[20],"18":[17, 7]},"colorToLabel":{"0":"arg#0","4":"<libcore.io.OsConstants: int AI_NUMERICHOST>","5":"<libcore.io.Libcore: libcore.io.Os os>","7":"<java.net.InetAddress: java.net.AddressCache addressCache>","10":"<libcore.io.OsConstants: int AI_ADDRCONFIG>","11":"<libcore.io.OsConstants: int AF_UNSPEC>","12":"<libcore.io.OsConstants: int SOCK_STREAM>","20":"return"}}}

Generated Model
	arg#0->return
	arg#0-><java.net.InetAddress: java.net.AddressCache addressCache>

