Scanning method <java.net.InetAddress: java.net.InetAddress getByAddress(java.lang.String,byte[],int)>

All seen event types: LoadStaticRecord, MethodReturnRecord, MethodCallRecord, MethodStartRecord, CastRecord, ArrayLengthRecord, MethodEndRecord, IfRecord, StoreInstanceRecord, NewObjectRecord, 
Ignored event types: IfRecord, 

JSON Encoded Analysis Data (for visualization):{"heapEdges":[{"step":0,"from":"1093279440","to":"1093295976","type":"model"},{"step":1,"from":"static.<libcore.io.OsConstants: int AF_INET>","to":"static.<libcore.io.OsConstants: int AF_INET>","type":"load","field":"<libcore.io.OsConstants: int AF_INET>"},{"step":2,"from":"static.<libcore.io.OsConstants: int AF_INET>","to":"1093522160","type":"store","field":"<java.net.InetAddress: int family>"},{"step":3,"from":"1093522160","to":"1093295976","type":"create","field":"<java.net.InetAddress: byte[] ipaddress>"},{"step":4,"from":"sdaReg0","to":"1093522160","type":"store","field":"<java.net.InetAddress: java.lang.String hostName>"}],"parameters":[{"id":"sdaReg0","name":"arg#0","klass":"string"},{"id":"1093279440","name":"arg#1","klass":"byte[]"},{"id":"sdaReg1","name":"arg#2","klass":"int"}],"returns":[{"id":"1093522160","name":"return","klass":"java.net.InetAddress"}],"colors":{"heapLocToColor":{"sdaReg8":[1, 4],"sdaReg9":[3],"sdaReg6":[1, 4],"sdaReg7":[3],"sdaReg4":[1, 4],"sdaReg5":[3],"1093295976":[1, 4],"1093279440":[1],"sdaReg11":[3],"static.<libcore.io.OsConstants: int AF_INET>":[5],"sdaReg10":[3],"sdaReg3":[1, 4],"sdaReg1":[2],"1093522160":[3],"sdaReg0":[0]},"colorToColor":{"0":[3],"1":[3],"3":[6],"4":[3],"5":[3]},"colorToLabel":{"0":"arg#0","1":"arg#1","2":"arg#2","5":"<libcore.io.OsConstants: int AF_INET>","6":"return"}}}

Generated Model
	arg#1->return
	arg#0->return

