Scanning method <android.os.Message: android.os.Message obtain(android.os.Handler,int,java.lang.Object)>

All seen event types: SimpleAssignmentRecord, ExitMonitorRecord, MethodStartRecord, LoadInstanceRecord, IfRecord, StoreInstanceRecord, LoadStaticRecord, BinaryOperationRecord, StoreStaticRecord, MethodCallRecord, MethodReturnRecord, EnterMonitorRecord, MethodEndRecord, 
Ignored event types: ExitMonitorRecord, EnterMonitorRecord, IfRecord, 

JSON Encoded Analysis Data (for visualization):{"heapEdges":[{"step":0,"from":"static.<android.os.Message: java.lang.Object sPoolSync>","to":"1085010160","type":"load","field":"<android.os.Message: java.lang.Object sPoolSync>"},{"step":1,"from":"static.<android.os.Message: android.os.Message sPool>","to":"1093461392","type":"load","field":"<android.os.Message: android.os.Message sPool>"},{"step":2,"from":"static.<android.os.Message: android.os.Message sPool>","to":"1093461392","type":"load","field":"<android.os.Message: android.os.Message sPool>"},{"step":3,"from":"1093461392","to":"sdaReg2","type":"create","field":"<android.os.Message: android.os.Message next>"},{"step":4,"from":"static.<android.os.Message: int sPoolSize>","to":"static.<android.os.Message: int sPoolSize>","type":"load","field":"<android.os.Message: int sPoolSize>"},{"step":5,"from":"sdaReg3","to":"static.<android.os.Message: int sPoolSize>","type":"store","field":"<android.os.Message: int sPoolSize>"},{"step":6,"from":"1093560400","to":"1093461392","type":"store","field":"<android.os.Message: android.os.Handler target>"},{"step":7,"from":"sdaReg0","to":"1093461392","type":"store","field":"<android.os.Message: int what>"},{"step":8,"from":"1093596664","to":"1093461392","type":"store","field":"<android.os.Message: java.lang.Object obj>"}],"parameters":[{"id":"1093560400","name":"arg#0","klass":"android.os.Handler"},{"id":"sdaReg0","name":"arg#1","klass":"int"},{"id":"1093596664","name":"arg#2","klass":"java.lang.Object"}],"returns":[{"id":"1093461392","name":"return","klass":"android.os.Message"}],"colors":{"heapLocToColor":{"1085010160":[3],"1093560400":[0],"sdaReg4":[4],"sdaReg3":[5],"static.<android.os.Message: java.lang.Object sPoolSync>":[3],"sdaReg1":[3],"static.<android.os.Message: int sPoolSize>":[5],"static.<android.os.Message: android.os.Message sPool>":[4],"1093596664":[2],"sdaReg0":[1],"1093461392":[4]},"colorToColor":{"0":[4],"1":[4],"2":[4],"4":[6],"5":[5]},"colorToLabel":{"0":"arg#0","1":"arg#1","2":"arg#2","3":"<android.os.Message: java.lang.Object sPoolSync>","4":"<android.os.Message: android.os.Message sPool>","5":"<android.os.Message: int sPoolSize>","6":"return"}}}

Generated Model
	arg#2->return
	arg#2-><android.os.Message: android.os.Message sPool>
	arg#1->return
	arg#1-><android.os.Message: android.os.Message sPool>
	arg#0->return
	arg#0-><android.os.Message: android.os.Message sPool>

