Scanning method <java.util.Formatter: void <init>(java.lang.Appendable,java.util.Locale)>

All seen event types: MethodReturnRecord, MethodCallRecord, IfRecord, StoreInstanceRecord, 
Ignored event types: IfRecord, 

JSON Encoded Analysis Data (for visualization):{"heapEdges":[{"step":0,"from":"1094135840","to":"sdaReg1","type":"create","field":"<java.util.Formatter: boolean closed>"},{"step":1,"from":"1094135880","to":"1094135840","type":"store","field":"<java.util.Formatter: java.lang.Appendable out>"},{"step":2,"from":"1093256352","to":"1094135840","type":"store","field":"<java.util.Formatter: java.util.Locale locale>"}],"parameters":[{"id":"1094135840","name":"this","klass":"java.util.Formatter"},{"id":"1094135880","name":"arg#1","klass":"java.lang.Appendable"},{"id":"1093256352","name":"arg#2","klass":"java.util.Locale"}],"returns":[{"id":"1094135840","name":"return","klass":"java.util.Formatter"}],"colors":{"heapLocToColor":{"1094135880":[1],"sdaReg0":[0],"1094135840":[0],"1093256352":[2]},"colorToColor":{"0":[3],"1":[0],"2":[0]},"colorToLabel":{"0":"this","1":"arg#1","2":"arg#2","3":"return"}}}

Generated Model
	this->return
	arg#2->this
	arg#2->return
	arg#1->this
	arg#1->return

