Scanning method <java.net.URL: java.lang.String getQuery()>

All seen event types: LoadInstanceRecord, 
Ignored event types: 

JSON Encoded Analysis Data (for visualization):{"heapEdges":[{"step":0,"from":"1093662488","to":"1093662488.<java.net.URL: java.lang.String query>","type":"load","field":"<java.net.URL: java.lang.String query>"}],"parameters":[{"id":"1093662488","name":"this","klass":"java.net.URL"}],"returns":[{"id":"1093662488.<java.net.URL: java.lang.String query>","name":"return","klass":"string"}],"colors":{"heapLocToColor":{"1093662488":[0],"1093662488.<java.net.URL: java.lang.String query>":[0]},"colorToColor":{"0":[1]},"colorToLabel":{"0":"this","1":"return"}}}

Generated Model
	this->return

