Scanning method <java.util.ArrayList: boolean add(java.lang.Object)>

All seen event types: BinaryOperationRecord, StoreArrayRecord, ArrayLengthRecord, LoadInstanceRecord, IfRecord, StoreInstanceRecord, 
Ignored event types: IfRecord, 

JSON Encoded Analysis Data (for visualization):{"heapEdges":[{"step":0,"from":"1093432520","to":"1093685176","type":"load","field":"<java.util.ArrayList: java.lang.Object[] array>"},{"step":1,"from":"1093432520","to":"1093432520.<java.util.ArrayList: int size>","type":"load","field":"<java.util.ArrayList: int size>"},{"step":2,"from":"1093395664","to":"1093685176","type":"store","field":"arrayIdx_int:38"},{"step":3,"from":"sdaReg1","to":"1093432520","type":"store","field":"<java.util.ArrayList: int size>"},{"step":4,"from":"1093432520","to":"1093432520.<java.util.AbstractList: int modCount>","type":"load","field":"<java.util.AbstractList: int modCount>"},{"step":5,"from":"sdaReg2","to":"1093432520","type":"store","field":"<java.util.AbstractList: int modCount>"}],"parameters":[{"id":"1093432520","name":"this","klass":"java.util.ArrayList"},{"id":"1093395664","name":"arg#1","klass":"java.lang.Object"}],"returns":[{"id":null,"name":"return","klass":"boolean"}],"colors":{"heapLocToColor":{"1093432520.<java.util.AbstractList: int modCount>":[0],"1093685176":[0],"1093432520":[0],"sdaReg2":[0],"sdaReg1":[0],"1093395664":[1],"1093432520.<java.util.ArrayList: int size>":[0]},"colorToColor":{"0":[0],"1":[0]},"colorToLabel":{"0":"this","1":"arg#1","2":"return"}}}

Generated Model
	arg#1->this

