Scanning method <java.io.PrintWriter: void write(char[])>

All seen event types: SimpleAssignmentRecord, MethodReturnRecord, ExitMonitorRecord, MethodCallRecord, EnterMonitorRecord, LoadInstanceRecord, MethodStartRecord, ArrayLengthRecord, MethodEndRecord, IfRecord, StoreInstanceRecord, 
Ignored event types: ExitMonitorRecord, EnterMonitorRecord, IfRecord, 

JSON Encoded Analysis Data (for visualization):{"heapEdges":[{"step":0,"from":"1093602280","to":"1093602312","type":"load","field":"<java.io.Writer: java.lang.Object lock>"},{"step":1,"from":"1093602280","to":"1093602312","type":"load","field":"<java.io.Writer: java.lang.Object lock>"},{"step":2,"from":"1093602280","to":"sdaReg9","type":"create","field":"<java.io.PrintWriter: boolean ioError>"}],"parameters":[{"id":"1093602280","name":"this","klass":"java.io.PrintWriter"},{"id":"1093677656","name":"arg#1","klass":"char[]"}],"returns":[{"id":null,"name":"return","klass":null}],"colors":{"heapLocToColor":{"1093602280.<java.io.Writer: java.lang.Object lock>":[0],"sdaReg8":[0],"1093602312":[0],"sdaReg7":[0],"1093602280":[0],"sdaReg4":[0],"sdaReg5":[1],"sdaReg2":[1],"sdaReg1":[0],"1093677656":[1]},"colorToColor":{},"colorToLabel":{"0":"this","1":"arg#1","2":"return"}}}

Generated Model

