Scanning method <java.io.FileOutputStream: void <init>(java.io.FileDescriptor)>

All seen event types: LoadStaticRecord, MethodReturnRecord, MethodCallRecord, MethodStartRecord, LoadInstanceRecord, MethodEndRecord, IfRecord, NewObjectRecord, StoreInstanceRecord, 
Ignored event types: IfRecord, 

JSON Encoded Analysis Data (for visualization):{"heapEdges":[{"step":0,"from":"1093512168","to":"1083966016","type":"create","field":"<java.io.FileOutputStream: dalvik.system.CloseGuard guard>"},{"step":1,"from":"1093482904","to":"1093512168","type":"store","field":"<java.io.FileOutputStream: java.io.FileDescriptor fd>"},{"step":2,"from":"1093512168","to":"sdaReg2","type":"create","field":"<java.io.FileOutputStream: boolean shouldClose>"},{"step":3,"from":"static.<libcore.io.OsConstants: int O_WRONLY>","to":"static.<libcore.io.OsConstants: int O_WRONLY>","type":"load","field":"<libcore.io.OsConstants: int O_WRONLY>"},{"step":4,"from":"static.<libcore.io.OsConstants: int O_WRONLY>","to":"1093512168","type":"store","field":"<java.io.FileOutputStream: int mode>"},{"step":5,"from":"1093512240","to":"sdaReg12","type":"create","field":"<java.nio.channels.spi.AbstractInterruptibleChannel: boolean closed>"},{"step":6,"from":"1093512240","to":"sdaReg13","type":"create","field":"<java.nio.channels.spi.AbstractInterruptibleChannel: boolean interrupted>"},{"step":7,"from":"1093497496","to":"1093512240","type":"create","field":"<java.nio.channels.spi.AbstractInterruptibleChannel$1: java.nio.channels.spi.AbstractInterruptibleChannel this$0>"},{"step":8,"from":"1093512240","to":"1093497496","type":"create","field":"<java.nio.channels.spi.AbstractInterruptibleChannel: java.lang.Runnable interruptAndCloseRunnable>"},{"step":9,"from":"static.<java.nio.FileChannelImpl: java.util.Comparator LOCK_COMPARATOR>","to":"1083968440","type":"load","field":"<java.nio.FileChannelImpl: java.util.Comparator LOCK_COMPARATOR>"},{"step":10,"from":"1093512280","to":"sdaReg32","type":"create","field":"<java.util.TreeMap: int size>"},{"step":11,"from":"1093512280","to":"sdaReg33","type":"create","field":"<java.util.TreeMap: int modCount>"},{"step":12,"from":"1083968440","to":"1093512280","type":"store","field":"<java.util.TreeMap: java.util.Comparator comparator>"},{"step":13,"from":"1093497952","to":"1093512280","type":"create","field":"<java.util.TreeSet: java.util.NavigableMap backingMap>"},{"step":14,"from":"1093512240","to":"1093497952","type":"create","field":"<java.nio.FileChannelImpl: java.util.SortedSet locks>"},{"step":15,"from":"1093482904","to":"1093512240","type":"store","field":"<java.nio.FileChannelImpl: java.io.FileDescriptor fd>"},{"step":16,"from":"1093512168","to":"1093512240","type":"store","field":"<java.nio.FileChannelImpl: java.lang.Object stream>"},{"step":17,"from":"sdaReg5","to":"1093512240","type":"store","field":"<java.nio.FileChannelImpl: int mode>"},{"step":18,"from":"1093512240","to":"1093512168","type":"store","field":"<java.io.FileOutputStream: java.nio.channels.FileChannel channel>"}],"parameters":[{"id":"1093512168","name":"this","klass":"java.io.FileOutputStream"},{"id":"1093482904","name":"arg#1","klass":"java.io.FileDescriptor"}],"returns":[{"id":"1093512168","name":"return","klass":"java.io.FileOutputStream"}],"colors":{"heapLocToColor":{"1083968440":[7],"1093512280":[8],"1093482904":[1],"1093512168":[0],"sdaReg14":[5],"sdaReg11":[4],"sdaReg37":[4],"sdaReg10":[4],"1093497496":[5],"1093497952":[6],"sdaReg31":[8],"1093512240":[4],"sdaReg30":[8],"sdaReg19":[4],"sdaReg36":[4],"sdaReg17":[5],"sdaReg35":[6],"1083966016":[2],"sdaReg18":[4],"sdaReg34":[8],"sdaReg15":[4],"sdaReg16":[5],"sdaReg8":[1],"sdaReg9":[4],"sdaReg6":[4],"static.<libcore.io.OsConstants: int O_WRONLY>":[3],"sdaReg7":[0],"sdaReg4":[1],"sdaReg27":[8],"sdaReg26":[6],"sdaReg29":[8],"sdaReg28":[7],"sdaReg3":[0],"sdaReg21":[7],"sdaReg1":[2],"sdaReg20":[6],"sdaReg0":[0],"sdaReg23":[6],"static.<java.nio.FileChannelImpl: java.util.Comparator LOCK_COMPARATOR>":[7],"sdaReg22":[6],"sdaReg25":[6],"sdaReg24":[6]},"colorToColor":{"0":[4, 9],"1":[0, 4],"2":[0],"3":[0],"4":[0, 5],"5":[4],"6":[4],"7":[8],"8":[6]},"colorToLabel":{"0":"this","1":"arg#1","3":"<libcore.io.OsConstants: int O_WRONLY>","7":"<java.nio.FileChannelImpl: java.util.Comparator LOCK_COMPARATOR>","9":"return"}}}

Generated Model
	this->return
	arg#1->this
	arg#1->return

