Scanning method <android.location.Location: float getAccuracy()>

All seen event types: LoadInstanceRecord, 
Ignored event types: 

JSON Encoded Analysis Data (for visualization):{"heapEdges":[{"step":0,"from":"1093843408","to":"1093843408.<android.location.Location: float mAccuracy>","type":"load","field":"<android.location.Location: float mAccuracy>"}],"parameters":[{"id":"1093843408","name":"this","klass":"android.location.Location"}],"returns":[{"id":"1093843408.<android.location.Location: float mAccuracy>","name":"return","klass":"float"}],"colors":{"heapLocToColor":{"1093843408.<android.location.Location: float mAccuracy>":[0],"1093843408":[0]},"colorToColor":{"0":[1]},"colorToLabel":{"0":"this","1":"return"}}}

Generated Model
	this->return

