Scanning method <java.util.AbstractCollection: boolean containsAll(java.util.Collection)>

All seen event types: BinaryOperationRecord, SimpleAssignmentRecord, MethodReturnRecord, MethodCallRecord, ArrayLengthRecord, LoadInstanceRecord, MethodStartRecord, LoadArrayRecord, MethodEndRecord, IfRecord, StoreInstanceRecord, NewObjectRecord, 
Ignored event types: IfRecord, 

JSON Encoded Analysis Data (for visualization):{"heapEdges":[{"step":0,"from":"1093333840","to":"1093524728","type":"load","field":"<java.util.HashSet: java.util.HashMap backingMap>"},{"step":1,"from":"1093524728","to":"1093412848","type":"store","field":"<java.util.HashMap$KeySet: java.util.HashMap this$0>"},{"step":2,"from":"1093524728","to":"1093412848","type":"create","field":"<java.util.HashMap: java.util.Set keySet>"},{"step":3,"from":"1093524728","to":"1093458360","type":"store","field":"<java.util.HashMap$KeyIterator: java.util.HashMap this$0>"},{"step":4,"from":"1093524728","to":"1093458360","type":"store","field":"<java.util.HashMap$HashIterator: java.util.HashMap this$0>"},{"step":5,"from":"1093524728","to":"1093524728.<java.util.HashMap: int modCount>","type":"load","field":"<java.util.HashMap: int modCount>"},{"step":6,"from":"1093524728.<java.util.HashMap: int modCount>","to":"1093458360","type":"store","field":"<java.util.HashMap$HashIterator: int expectedModCount>"},{"step":7,"from":"1093524728","to":"1093497232","type":"load","field":"<java.util.HashMap: java.util.HashMap$HashMapEntry[] table>"},{"step":8,"from":"1093458360","to":"1093458360.<java.util.HashMap$HashIterator: int nextIndex>","type":"load","field":"<java.util.HashMap$HashIterator: int nextIndex>"},{"step":9,"from":"1093458360","to":"1093458360.<java.util.HashMap$HashIterator: int nextIndex>","type":"load","field":"<java.util.HashMap$HashIterator: int nextIndex>"},{"step":10,"from":"sdaReg26","to":"1093458360","type":"store","field":"<java.util.HashMap$HashIterator: int nextIndex>"},{"step":11,"from":"1093497232","to":"1093462872","type":"load","field":"arrayIdx_int:0"},{"step":12,"from":"1093462872","to":"1093458360","type":"store","field":"<java.util.HashMap$HashIterator: java.util.HashMap$HashMapEntry nextEntry>"},{"step":13,"from":"1093524728","to":"1093524728.<java.util.HashMap: int modCount>","type":"load","field":"<java.util.HashMap: int modCount>"},{"step":14,"from":"1093524728","to":"1093497232","type":"load","field":"<java.util.HashMap: java.util.HashMap$HashMapEntry[] table>"},{"step":15,"from":"1093462872","to":"1093497272","type":"load","field":"<java.util.HashMap$HashMapEntry: java.util.HashMap$HashMapEntry next>"},{"step":16,"from":"1093497272","to":"1093458360","type":"store","field":"<java.util.HashMap$HashIterator: java.util.HashMap$HashMapEntry nextEntry>"},{"step":17,"from":"1093462872","to":"1093458360","type":"store","field":"<java.util.HashMap$HashIterator: java.util.HashMap$HashMapEntry lastEntryReturned>"},{"step":18,"from":"1093462872","to":"1093467616","type":"load","field":"<java.util.HashMap$HashMapEntry: java.lang.Object key>"},{"step":19,"from":"1093519824","to":"1094129696","type":"load","field":"<java.util.ArrayList: java.lang.Object[] array>"},{"step":20,"from":"1093519824","to":"1093519824.<java.util.ArrayList: int size>","type":"load","field":"<java.util.ArrayList: int size>"},{"step":21,"from":"1094129696","to":"1093852672","type":"load","field":"arrayIdx_int:0"},{"step":22,"from":"1094129696","to":"1094178736","type":"load","field":"arrayIdx_int:1"},{"step":23,"from":"1094129696","to":"1094032064","type":"load","field":"arrayIdx_int:2"},{"step":24,"from":"1094129696","to":"1094193096","type":"load","field":"arrayIdx_int:3"},{"step":25,"from":"1094129696","to":"1093854368","type":"load","field":"arrayIdx_int:4"},{"step":26,"from":"1094129696","to":"1093571160","type":"load","field":"arrayIdx_int:5"},{"step":27,"from":"1094129696","to":"1093259736","type":"load","field":"arrayIdx_int:6"},{"step":28,"from":"1094129696","to":"1093229088","type":"load","field":"arrayIdx_int:7"},{"step":29,"from":"1094129696","to":"1094295272","type":"load","field":"arrayIdx_int:8"},{"step":30,"from":"1094129696","to":"1093748960","type":"load","field":"arrayIdx_int:9"},{"step":31,"from":"1094129696","to":"1093798120","type":"load","field":"arrayIdx_int:10"},{"step":32,"from":"1094129696","to":"1093750272","type":"load","field":"arrayIdx_int:11"},{"step":33,"from":"1094129696","to":"1093306400","type":"load","field":"arrayIdx_int:12"},{"step":34,"from":"1094129696","to":"1093431536","type":"load","field":"arrayIdx_int:13"},{"step":35,"from":"1094129696","to":"1093475704","type":"load","field":"arrayIdx_int:14"},{"step":36,"from":"1094129696","to":"1093342360","type":"load","field":"arrayIdx_int:15"},{"step":37,"from":"1094129696","to":"1093464024","type":"load","field":"arrayIdx_int:16"},{"step":38,"from":"1094129696","to":"1093474640","type":"load","field":"arrayIdx_int:17"},{"step":39,"from":"1094129696","to":"1093571344","type":"load","field":"arrayIdx_int:18"},{"step":40,"from":"1094129696","to":"1093594080","type":"load","field":"arrayIdx_int:19"},{"step":41,"from":"1094129696","to":"1093319400","type":"load","field":"arrayIdx_int:20"},{"step":42,"from":"1094129696","to":"1093336024","type":"load","field":"arrayIdx_int:21"},{"step":43,"from":"1094129696","to":"1093336536","type":"load","field":"arrayIdx_int:22"},{"step":44,"from":"1094129696","to":"1093254744","type":"load","field":"arrayIdx_int:23"},{"step":45,"from":"1094129696","to":"1093789280","type":"load","field":"arrayIdx_int:24"},{"step":46,"from":"1094129696","to":"1093447440","type":"load","field":"arrayIdx_int:25"},{"step":47,"from":"1093524728","to":"1093524728.<java.util.HashMap: int modCount>","type":"load","field":"<java.util.HashMap: int modCount>"},{"step":48,"from":"1093524728","to":"1093497232","type":"load","field":"<java.util.HashMap: java.util.HashMap$HashMapEntry[] table>"},{"step":49,"from":"sdaReg74","to":"1093458360","type":"store","field":"<java.util.HashMap$HashIterator: int nextIndex>"},{"step":50,"from":"1093497232","to":"1093461336","type":"load","field":"arrayIdx_int:1"},{"step":51,"from":"1093461336","to":"1093458360","type":"store","field":"<java.util.HashMap$HashIterator: java.util.HashMap$HashMapEntry nextEntry>"},{"step":52,"from":"1093497272","to":"1093458360","type":"store","field":"<java.util.HashMap$HashIterator: java.util.HashMap$HashMapEntry lastEntryReturned>"},{"step":53,"from":"1093497272","to":"1093505792","type":"load","field":"<java.util.HashMap$HashMapEntry: java.lang.Object key>"},{"step":54,"from":"1093519824","to":"1094129696","type":"load","field":"<java.util.ArrayList: java.lang.Object[] array>"},{"step":55,"from":"1093519824","to":"1093519824.<java.util.ArrayList: int size>","type":"load","field":"<java.util.ArrayList: int size>"},{"step":56,"from":"1094129696","to":"1093852672","type":"load","field":"arrayIdx_int:0"},{"step":57,"from":"1093524728","to":"1093524728.<java.util.HashMap: int modCount>","type":"load","field":"<java.util.HashMap: int modCount>"},{"step":58,"from":"1093524728","to":"1093497232","type":"load","field":"<java.util.HashMap: java.util.HashMap$HashMapEntry[] table>"},{"step":59,"from":"sdaReg87","to":"1093458360","type":"store","field":"<java.util.HashMap$HashIterator: int nextIndex>"},{"step":60,"from":"sdaReg87","to":"1093458360","type":"store","field":"<java.util.HashMap$HashIterator: int nextIndex>"},{"step":61,"from":"1093461336","to":"1093458360","type":"store","field":"<java.util.HashMap$HashIterator: java.util.HashMap$HashMapEntry lastEntryReturned>"},{"step":62,"from":"1093461336","to":"1093402152","type":"load","field":"<java.util.HashMap$HashMapEntry: java.lang.Object key>"},{"step":63,"from":"1093519824","to":"1094129696","type":"load","field":"<java.util.ArrayList: java.lang.Object[] array>"},{"step":64,"from":"1093519824","to":"1093519824.<java.util.ArrayList: int size>","type":"load","field":"<java.util.ArrayList: int size>"},{"step":65,"from":"1094129696","to":"1093852672","type":"load","field":"arrayIdx_int:0"},{"step":66,"from":"1094129696","to":"1094178736","type":"load","field":"arrayIdx_int:1"},{"step":67,"from":"1094129696","to":"1094032064","type":"load","field":"arrayIdx_int:2"},{"step":68,"from":"1094129696","to":"1094193096","type":"load","field":"arrayIdx_int:3"},{"step":69,"from":"1094129696","to":"1093854368","type":"load","field":"arrayIdx_int:4"},{"step":70,"from":"1094129696","to":"1093571160","type":"load","field":"arrayIdx_int:5"},{"step":71,"from":"1094129696","to":"1093259736","type":"load","field":"arrayIdx_int:6"},{"step":72,"from":"1094129696","to":"1093229088","type":"load","field":"arrayIdx_int:7"},{"step":73,"from":"1094129696","to":"1094295272","type":"load","field":"arrayIdx_int:8"},{"step":74,"from":"1094129696","to":"1093748960","type":"load","field":"arrayIdx_int:9"},{"step":75,"from":"1094129696","to":"1093798120","type":"load","field":"arrayIdx_int:10"},{"step":76,"from":"1094129696","to":"1093750272","type":"load","field":"arrayIdx_int:11"},{"step":77,"from":"1094129696","to":"1093306400","type":"load","field":"arrayIdx_int:12"},{"step":78,"from":"1094129696","to":"1093431536","type":"load","field":"arrayIdx_int:13"},{"step":79,"from":"1094129696","to":"1093475704","type":"load","field":"arrayIdx_int:14"},{"step":80,"from":"1094129696","to":"1093342360","type":"load","field":"arrayIdx_int:15"},{"step":81,"from":"1094129696","to":"1093464024","type":"load","field":"arrayIdx_int:16"},{"step":82,"from":"1094129696","to":"1093474640","type":"load","field":"arrayIdx_int:17"},{"step":83,"from":"1094129696","to":"1093571344","type":"load","field":"arrayIdx_int:18"},{"step":84,"from":"1094129696","to":"1093594080","type":"load","field":"arrayIdx_int:19"},{"step":85,"from":"1094129696","to":"1093319400","type":"load","field":"arrayIdx_int:20"},{"step":86,"from":"1094129696","to":"1093336024","type":"load","field":"arrayIdx_int:21"},{"step":87,"from":"1094129696","to":"1093336536","type":"load","field":"arrayIdx_int:22"},{"step":88,"from":"1094129696","to":"1093254744","type":"load","field":"arrayIdx_int:23"},{"step":89,"from":"1094129696","to":"1093789280","type":"load","field":"arrayIdx_int:24"},{"step":90,"from":"1094129696","to":"1093447440","type":"load","field":"arrayIdx_int:25"},{"step":91,"from":"1094129696","to":"1093472464","type":"load","field":"arrayIdx_int:26"},{"step":92,"from":"1094129696","to":"1093250392","type":"load","field":"arrayIdx_int:27"},{"step":93,"from":"1094129696","to":"1093288432","type":"load","field":"arrayIdx_int:28"},{"step":94,"from":"1094129696","to":"1093327392","type":"load","field":"arrayIdx_int:29"},{"step":95,"from":"1094129696","to":"1093340760","type":"load","field":"arrayIdx_int:30"},{"step":96,"from":"1094129696","to":"1093351976","type":"load","field":"arrayIdx_int:31"},{"step":97,"from":"1094129696","to":"1093437704","type":"load","field":"arrayIdx_int:32"},{"step":98,"from":"1094129696","to":"1093441328","type":"load","field":"arrayIdx_int:33"},{"step":99,"from":"1094129696","to":"1093355656","type":"load","field":"arrayIdx_int:34"},{"step":100,"from":"1094129696","to":"1093335456","type":"load","field":"arrayIdx_int:35"},{"step":101,"from":"1094129696","to":"1093297184","type":"load","field":"arrayIdx_int:36"},{"step":102,"from":"1094129696","to":"1093309728","type":"load","field":"arrayIdx_int:37"},{"step":103,"from":"1094129696","to":"1093356848","type":"load","field":"arrayIdx_int:38"},{"step":104,"from":"1094129696","to":"1093356456","type":"load","field":"arrayIdx_int:39"},{"step":105,"from":"1094129696","to":"1093375120","type":"load","field":"arrayIdx_int:40"},{"step":106,"from":"1094129696","to":"1093458456","type":"load","field":"arrayIdx_int:41"},{"step":107,"from":"1094129696","to":"1094472424","type":"load","field":"arrayIdx_int:42"},{"step":108,"from":"1094129696","to":"1093284216","type":"load","field":"arrayIdx_int:43"},{"step":109,"from":"1094129696","to":"1093309160","type":"load","field":"arrayIdx_int:44"},{"step":110,"from":"1094129696","to":"1093343376","type":"load","field":"arrayIdx_int:45"},{"step":111,"from":"1094129696","to":"1093348216","type":"load","field":"arrayIdx_int:46"},{"step":112,"from":"1094129696","to":"1093349608","type":"load","field":"arrayIdx_int:47"},{"step":113,"from":"1094129696","to":"1093432024","type":"load","field":"arrayIdx_int:48"},{"step":114,"from":"1094129696","to":"1093514912","type":"load","field":"arrayIdx_int:49"},{"step":115,"from":"1094129696","to":"1093517776","type":"load","field":"arrayIdx_int:50"},{"step":116,"from":"1094129696","to":"1093522768","type":"load","field":"arrayIdx_int:51"},{"step":117,"from":"1094129696","to":"1093719400","type":"load","field":"arrayIdx_int:52"},{"step":118,"from":"1094129696","to":"1094062752","type":"load","field":"arrayIdx_int:53"},{"step":119,"from":"1094129696","to":"1094168576","type":"load","field":"arrayIdx_int:54"},{"step":120,"from":"1094129696","to":"1093256176","type":"load","field":"arrayIdx_int:55"},{"step":121,"from":"1094129696","to":"1093269216","type":"load","field":"arrayIdx_int:56"},{"step":122,"from":"1094129696","to":"1093283520","type":"load","field":"arrayIdx_int:57"},{"step":123,"from":"1094129696","to":"1093364232","type":"load","field":"arrayIdx_int:58"},{"step":124,"from":"1094129696","to":"1093379064","type":"load","field":"arrayIdx_int:59"},{"step":125,"from":"1094129696","to":"1093388184","type":"load","field":"arrayIdx_int:60"},{"step":126,"from":"1094129696","to":"1093392608","type":"load","field":"arrayIdx_int:61"},{"step":127,"from":"1094129696","to":"1093403480","type":"load","field":"arrayIdx_int:62"},{"step":128,"from":"1094129696","to":"1093427368","type":"load","field":"arrayIdx_int:63"},{"step":129,"from":"1094129696","to":"1093494376","type":"load","field":"arrayIdx_int:64"},{"step":130,"from":"1094129696","to":"1093507584","type":"load","field":"arrayIdx_int:65"},{"step":131,"from":"1094129696","to":"1093515616","type":"load","field":"arrayIdx_int:66"},{"step":132,"from":"1094129696","to":"1093292720","type":"load","field":"arrayIdx_int:67"},{"step":133,"from":"1094129696","to":"1093294536","type":"load","field":"arrayIdx_int:68"},{"step":134,"from":"1094129696","to":"1093355232","type":"load","field":"arrayIdx_int:69"},{"step":135,"from":"1094129696","to":"1093363904","type":"load","field":"arrayIdx_int:70"},{"step":136,"from":"1094129696","to":"1093370496","type":"load","field":"arrayIdx_int:71"},{"step":137,"from":"1094129696","to":"1093371152","type":"load","field":"arrayIdx_int:72"},{"step":138,"from":"1094129696","to":"1093383784","type":"load","field":"arrayIdx_int:73"},{"step":139,"from":"1094129696","to":"1093398912","type":"load","field":"arrayIdx_int:74"},{"step":140,"from":"1094129696","to":"1093400864","type":"load","field":"arrayIdx_int:75"},{"step":141,"from":"1094129696","to":"1093425680","type":"load","field":"arrayIdx_int:76"},{"step":142,"from":"1094129696","to":"1093492424","type":"load","field":"arrayIdx_int:77"},{"step":143,"from":"1094129696","to":"1093499016","type":"load","field":"arrayIdx_int:78"},{"step":144,"from":"1094129696","to":"1093524480","type":"load","field":"arrayIdx_int:79"},{"step":145,"from":"1094129696","to":"1093530040","type":"load","field":"arrayIdx_int:80"},{"step":146,"from":"1094129696","to":"1093571744","type":"load","field":"arrayIdx_int:81"},{"step":147,"from":"1094129696","to":"1093572512","type":"load","field":"arrayIdx_int:82"},{"step":148,"from":"1094129696","to":"1093573104","type":"load","field":"arrayIdx_int:83"},{"step":149,"from":"1094129696","to":"1093574168","type":"load","field":"arrayIdx_int:84"},{"step":150,"from":"1094129696","to":"1093218856","type":"load","field":"arrayIdx_int:85"},{"step":151,"from":"1094129696","to":"1093260328","type":"load","field":"arrayIdx_int:86"},{"step":152,"from":"1094129696","to":"1093284704","type":"load","field":"arrayIdx_int:87"},{"step":153,"from":"1094129696","to":"1093290848","type":"load","field":"arrayIdx_int:88"},{"step":154,"from":"1094129696","to":"1093293032","type":"load","field":"arrayIdx_int:89"},{"step":155,"from":"1094129696","to":"1093325376","type":"load","field":"arrayIdx_int:90"},{"step":156,"from":"1094129696","to":"1093375472","type":"load","field":"arrayIdx_int:91"},{"step":157,"from":"1094129696","to":"1093377976","type":"load","field":"arrayIdx_int:92"},{"step":158,"from":"1094129696","to":"1093382184","type":"load","field":"arrayIdx_int:93"},{"step":159,"from":"1094129696","to":"1093383472","type":"load","field":"arrayIdx_int:94"},{"step":160,"from":"1094129696","to":"1093396616","type":"load","field":"arrayIdx_int:95"},{"step":161,"from":"1094129696","to":"1093397624","type":"load","field":"arrayIdx_int:96"},{"step":162,"from":"1094129696","to":"1093412864","type":"load","field":"arrayIdx_int:97"},{"step":163,"from":"1094129696","to":"1093410536","type":"load","field":"arrayIdx_int:98"},{"step":164,"from":"1094129696","to":"1093420608","type":"load","field":"arrayIdx_int:99"}],"parameters":[{"id":"1093519824","name":"this","klass":"java.util.AbstractCollection"},{"id":"1093333840","name":"arg#1","klass":"java.util.Collection"}],"returns":[{"id":null,"name":"return","klass":"boolean"}],"colors":{"heapLocToColor":{"sdaReg191":[127],"sdaReg190":[126],"sdaReg193":[129],"sdaReg192":[128],"sdaReg194":[130],"1093494376":[0],"1093571344":[0],"sdaReg196":[3],"sdaReg13":[2],"sdaReg14":[2],"1093375472":[0],"sdaReg11":[2],"sdaReg12":[2],"1093467616":[1],"sdaReg10":[2],"sdaReg19":[3],"sdaReg17":[3],"sdaReg18":[1],"sdaReg15":[2],"sdaReg16":[1],"1093383784":[0],"1093427368":[0],"1094472424":[0],"1093383472":[0],"1093458360":[3],"1093377976":[0],"1093497272":[1],"sdaReg171":[107],"sdaReg170":[106],"sdaReg173":[109],"1093254744":[0],"sdaReg172":[108],"sdaReg175":[111],"sdaReg174":[110],"sdaReg177":[113],"1094168576":[0],"sdaReg176":[112],"sdaReg179":[115],"sdaReg178":[114],"1093464024":[0],"1093382184":[0],"1093447440":[0],"1093789280":[0],"sdaReg182":[118],"sdaReg181":[117],"1093571744":[0],"sdaReg180":[116],"sdaReg186":[122],"sdaReg185":[121],"sdaReg184":[120],"sdaReg183":[119],"1094193096":[0],"sdaReg189":[125],"sdaReg188":[124],"1093852672":[0],"sdaReg187":[123],"1093594080":[0],"1093458360.<java.util.HashMap$HashIterator: int nextIndex>":[3],"1093398912":[0],"1093854368":[0],"1093293032":[0],"sdaReg60":[22],"sdaReg61":[23],"1093458456":[0],"1093475704":[0],"1093284704":[0],"1093420608":[0],"1093748960":[0],"1094062752":[0],"1093309728":[0],"1093432024":[0],"sdaReg59":[21],"1093260328":[0],"1093507584":[0],"sdaReg58":[20],"sdaReg57":[19],"1093336536":[0],"sdaReg56":[18],"sdaReg55":[17],"sdaReg54":[16],"1093530040":[0],"sdaReg53":[15],"sdaReg52":[14],"sdaReg51":[13],"sdaReg50":[12],"1093403480":[0],"1093355656":[0],"sdaReg49":[11],"sdaReg48":[10],"sdaReg45":[7],"1093719400":[0],"sdaReg44":[6],"1093340760":[0],"sdaReg47":[9],"sdaReg46":[8],"sdaReg40":[1],"sdaReg43":[5],"sdaReg42":[4],"1093342360":[0],"1093497232":[1],"1093517776":[0],"1093524728.<java.util.HashMap: int modCount>":[1],"1093574168":[0],"1093364232":[0],"sdaReg39":[0],"sdaReg38":[1],"sdaReg37":[1],"1093524480":[0],"sdaReg32":[3],"1093474640":[0],"sdaReg31":[3],"1093515616":[0],"1093522768":[0],"sdaReg30":[3],"1093396616":[0],"sdaReg36":[3],"sdaReg35":[3],"sdaReg33":[3],"1093571160":[0],"1094032064":[0],"sdaReg8":[2],"sdaReg9":[2],"sdaReg6":[2],"sdaReg7":[2],"sdaReg4":[2],"sdaReg5":[1],"1093519824.<java.util.ArrayList: java.lang.Object[] array>":[0],"sdaReg27":[3],"1093229088":[0],"sdaReg26":[3],"1093256176":[0],"sdaReg29":[3],"sdaReg28":[3],"sdaReg3":[1],"1093524728":[1],"sdaReg2":[2],"sdaReg1":[1],"sdaReg21":[3],"sdaReg0":[1],"sdaReg20":[1],"sdaReg23":[3],"sdaReg22":[1],"1093499016":[0],"1093363904":[0],"1093388184":[0],"sdaReg125":[61],"sdaReg126":[62],"1093294536":[0],"sdaReg127":[63],"1093349608":[0],"sdaReg128":[64],"sdaReg129":[65],"sdaReg69":[3],"1093572512":[0],"sdaReg66":[28],"sdaReg67":[29],"sdaReg64":[26],"sdaReg65":[27],"sdaReg62":[24],"sdaReg63":[25],"sdaReg72":[3],"sdaReg71":[3],"1093437704":[0],"1093306400":[0],"1093514912":[0],"1093524728.<java.util.HashMap: java.util.HashMap$HashMapEntry[] table>":[1],"1093392608":[0],"1093798120":[0],"sdaReg120":[56],"sdaReg122":[58],"sdaReg121":[57],"sdaReg124":[60],"sdaReg123":[59],"1093462872":[1],"sdaReg116":[52],"sdaReg117":[53],"sdaReg114":[50],"sdaReg115":[51],"sdaReg118":[54],"1094129696":[0],"sdaReg119":[55],"1093288432":[0],"sdaReg77":[0],"sdaReg78":[1],"1093379064":[0],"sdaReg75":[1],"sdaReg76":[1],"sdaReg80":[30],"sdaReg82":[3],"1093292720":[0],"sdaReg113":[49],"sdaReg112":[48],"sdaReg111":[47],"sdaReg110":[46],"sdaReg107":[43],"sdaReg108":[44],"sdaReg109":[45],"sdaReg103":[39],"sdaReg104":[40],"1093412864":[0],"sdaReg105":[41],"sdaReg106":[42],"1093371152":[0],"sdaReg84":[3],"sdaReg85":[3],"sdaReg90":[1],"1093461336":[1],"1094129696.arrayIdx_int:0":[0],"1094129696.arrayIdx_int:2":[0],"sdaReg93":[1],"1094129696.arrayIdx_int:1":[0],"1093355232":[0],"sdaReg92":[0],"1094129696.arrayIdx_int:4":[0],"sdaReg91":[1],"1094129696.arrayIdx_int:3":[0],"sdaReg100":[36],"1094129696.arrayIdx_int:6":[0],"1093375120":[0],"1094129696.arrayIdx_int:5":[0],"sdaReg102":[38],"1094129696.arrayIdx_int:8":[0],"sdaReg101":[37],"1094129696.arrayIdx_int:7":[0],"1094129696.arrayIdx_int:9":[0],"sdaReg95":[31],"1093284216":[0],"sdaReg96":[32],"sdaReg97":[33],"sdaReg98":[34],"sdaReg99":[35],"1093573104":[0],"1093319400":[0],"1093412848":[2],"1093218856":[0],"1094129696.arrayIdx_int:24":[0],"1094129696.arrayIdx_int:23":[0],"1094129696.arrayIdx_int:22":[0],"1093410536":[0],"1093269216":[0],"1093348216":[0],"1094129696.arrayIdx_int:21":[0],"1094295272":[0],"1094129696.arrayIdx_int:20":[0],"sdaReg169":[105],"sdaReg161":[97],"sdaReg162":[98],"sdaReg163":[99],"sdaReg164":[100],"sdaReg165":[101],"1093519824":[0],"sdaReg166":[102],"sdaReg167":[103],"sdaReg168":[104],"1093400864":[0],"1094129696.arrayIdx_int:25":[0],"1093325376":[0],"sdaReg160":[96],"1093297184":[0],"1093356848":[0],"sdaReg159":[95],"sdaReg158":[94],"sdaReg152":[88],"sdaReg153":[89],"sdaReg150":[86],"sdaReg151":[87],"1093425680":[0],"sdaReg156":[92],"sdaReg157":[93],"sdaReg154":[90],"sdaReg155":[91],"1093402152":[1],"1093351976":[0],"1093333840":[1],"1093327392":[0],"1093519824.<java.util.ArrayList: int size>":[0],"1093356456":[0],"sdaReg148":[84],"sdaReg147":[83],"sdaReg149":[85],"sdaReg143":[79],"sdaReg144":[80],"sdaReg145":[81],"1094178736":[0],"sdaReg146":[82],"sdaReg140":[76],"sdaReg141":[77],"sdaReg142":[78],"1093750272":[0],"1093505792":[1],"1093441328":[0],"1093492424":[0],"1093290848":[0],"1094129696.arrayIdx_int:11":[0],"1094129696.arrayIdx_int:10":[0],"1094129696.arrayIdx_int:13":[0],"1094129696.arrayIdx_int:12":[0],"1093283520":[0],"1093259736":[0],"sdaReg139":[75],"sdaReg138":[74],"1093343376":[0],"sdaReg137":[73],"sdaReg136":[72],"1093431536":[0],"1093472464":[0],"sdaReg134":[70],"sdaReg135":[71],"sdaReg132":[68],"sdaReg133":[69],"1093336024":[0],"1093370496":[0],"sdaReg130":[66],"sdaReg131":[67],"1093250392":[0],"1094129696.arrayIdx_int:14":[0],"1093397624":[0],"1093309160":[0],"1094129696.arrayIdx_int:15":[0],"1094129696.arrayIdx_int:16":[0],"1094129696.arrayIdx_int:17":[0],"1094129696.arrayIdx_int:18":[0],"1094129696.arrayIdx_int:19":[0],"1093335456":[0]},"colorToColor":{"1":[2, 3],"2":[1],"3":[3]},"colorToLabel":{"0":"this","1":"arg#1","131":"return"}}}

Generated Model

