Scanning method <java.net.URL: void <init>(java.lang.String)>

All seen event types: StoreArrayRecord, SimpleAssignmentRecord, MethodStartRecord, LoadInstanceRecord, IfRecord, NewObjectRecord, StoreInstanceRecord, LoadStaticRecord, BinaryOperationRecord, SwitchRecord, MethodCallRecord, MethodReturnRecord, CastRecord, ArrayLengthRecord, LoadArrayRecord, MethodEndRecord, 
Ignored event types: SwitchRecord, IfRecord, 

JSON Encoded Analysis Data (for visualization):{"heapEdges":[{"step":0,"from":"1093674256","to":"sdaReg5","type":"create","field":"<java.net.URL: int port>"},{"step":1,"from":"sdaReg0","to":"sdaReg6","type":"model"},{"step":2,"from":"sdaReg6","to":"sdaReg7","type":"model"},{"step":3,"from":"sdaReg6","to":"sdaReg9","type":"model"},{"step":4,"from":"sdaReg6","to":"sdaReg11","type":"model"},{"step":5,"from":"sdaReg6","to":"sdaReg13","type":"model"},{"step":6,"from":"sdaReg6","to":"sdaReg15","type":"model"},{"step":7,"from":"sdaReg6","to":"sdaReg17","type":"model"},{"step":8,"from":"static.<java.util.Locale: java.util.Locale US>","to":"1084317688","type":"load","field":"<java.util.Locale: java.util.Locale US>"},{"step":9,"from":"sdaReg17","to":"1084317688","type":"model"},{"step":10,"from":"sdaReg17","to":"sdaReg18","type":"model"},{"step":11,"from":"1084317688","to":"sdaReg17","type":"model"},{"step":12,"from":"1084317688","to":"sdaReg18","type":"model"},{"step":13,"from":"sdaReg18","to":"1093674256","type":"store","field":"<java.net.URL: java.lang.String protocol>"},{"step":14,"from":"static.<java.net.URL: java.util.Hashtable streamHandlers>","to":"1084315112","type":"load","field":"<java.net.URL: java.util.Hashtable streamHandlers>"},{"step":15,"from":"1084315112","to":"1084321912","type":"load","field":"<java.util.Hashtable: java.util.Hashtable$HashtableEntry[] table>"},{"step":16,"from":"1093440880","to":"1093266984","type":"model"},{"step":17,"from":"1093674256","to":"1093267128","type":"create","field":"<java.net.URL: java.net.URLStreamHandler streamHandler>"},{"step":18,"from":"static.<java.net.URL: java.util.Hashtable streamHandlers>","to":"1084315112","type":"load","field":"<java.net.URL: java.util.Hashtable streamHandlers>"},{"step":19,"from":"1084315112","to":"1084321912","type":"load","field":"<java.util.Hashtable: java.util.Hashtable$HashtableEntry[] table>"},{"step":20,"from":"1084315112","to":"1084315112.<java.util.Hashtable: int modCount>","type":"load","field":"<java.util.Hashtable: int modCount>"},{"step":21,"from":"sdaReg66","to":"1084315112","type":"store","field":"<java.util.Hashtable: int modCount>"},{"step":22,"from":"1084315112","to":"1084315112.<java.util.Hashtable: int size>","type":"load","field":"<java.util.Hashtable: int size>"},{"step":23,"from":"sdaReg67","to":"1084315112","type":"store","field":"<java.util.Hashtable: int size>"},{"step":24,"from":"1084315112","to":"1084315112.<java.util.Hashtable: int threshold>","type":"load","field":"<java.util.Hashtable: int threshold>"},{"step":25,"from":"1093695504","to":"1093281024","type":"store","field":"<java.util.Hashtable$HashtableEntry: java.lang.Object key>"},{"step":26,"from":"1093267128","to":"1093281024","type":"store","field":"<java.util.Hashtable$HashtableEntry: java.lang.Object value>"},{"step":27,"from":"sdaReg61","to":"1093281024","type":"store","field":"<java.util.Hashtable$HashtableEntry: int hash>"},{"step":28,"from":"1084321912","to":"1093281024","type":"create","field":"arrayIdx_int:1"},{"step":29,"from":"sdaReg6","to":"sdaReg21","type":"model"},{"step":30,"from":"sdaReg6","to":"sdaReg78","type":"model"},{"step":31,"from":"sdaReg21","to":"sdaReg6","type":"model"},{"step":32,"from":"sdaReg21","to":"sdaReg78","type":"model"},{"step":33,"from":"sdaReg6","to":"sdaReg82","type":"model"},{"step":34,"from":"sdaReg80","to":"sdaReg82","type":"model"},{"step":35,"from":"sdaReg80","to":"sdaReg83","type":"model"},{"step":36,"from":"sdaReg82","to":"sdaReg80","type":"model"},{"step":37,"from":"sdaReg82","to":"sdaReg83","type":"model"},{"step":38,"from":"sdaReg6","to":"sdaReg84","type":"model"},{"step":39,"from":"sdaReg80","to":"sdaReg84","type":"model"},{"step":40,"from":"sdaReg80","to":"sdaReg85","type":"model"},{"step":41,"from":"sdaReg84","to":"sdaReg80","type":"model"},{"step":42,"from":"sdaReg84","to":"sdaReg85","type":"model"},{"step":43,"from":"sdaReg6","to":"sdaReg86","type":"model"},{"step":44,"from":"sdaReg80","to":"sdaReg86","type":"model"},{"step":45,"from":"sdaReg80","to":"sdaReg87","type":"model"},{"step":46,"from":"sdaReg86","to":"sdaReg80","type":"model"},{"step":47,"from":"sdaReg86","to":"sdaReg87","type":"model"},{"step":48,"from":"sdaReg6","to":"sdaReg88","type":"model"},{"step":49,"from":"sdaReg80","to":"sdaReg88","type":"model"},{"step":50,"from":"sdaReg80","to":"sdaReg89","type":"model"},{"step":51,"from":"sdaReg88","to":"sdaReg80","type":"model"},{"step":52,"from":"sdaReg88","to":"sdaReg89","type":"model"},{"step":53,"from":"sdaReg6","to":"sdaReg90","type":"model"},{"step":54,"from":"sdaReg80","to":"sdaReg90","type":"model"},{"step":55,"from":"sdaReg80","to":"sdaReg91","type":"model"},{"step":56,"from":"sdaReg90","to":"sdaReg80","type":"model"},{"step":57,"from":"sdaReg90","to":"sdaReg91","type":"model"},{"step":58,"from":"sdaReg6","to":"sdaReg92","type":"model"},{"step":59,"from":"sdaReg80","to":"sdaReg92","type":"model"},{"step":60,"from":"sdaReg80","to":"sdaReg93","type":"model"},{"step":61,"from":"sdaReg92","to":"sdaReg80","type":"model"},{"step":62,"from":"sdaReg92","to":"sdaReg93","type":"model"},{"step":63,"from":"sdaReg6","to":"sdaReg94","type":"model"},{"step":64,"from":"sdaReg80","to":"sdaReg94","type":"model"},{"step":65,"from":"sdaReg80","to":"sdaReg95","type":"model"},{"step":66,"from":"sdaReg94","to":"sdaReg80","type":"model"},{"step":67,"from":"sdaReg94","to":"sdaReg95","type":"model"},{"step":68,"from":"sdaReg6","to":"sdaReg96","type":"model"},{"step":69,"from":"sdaReg80","to":"sdaReg96","type":"model"},{"step":70,"from":"sdaReg80","to":"sdaReg97","type":"model"},{"step":71,"from":"sdaReg96","to":"sdaReg80","type":"model"},{"step":72,"from":"sdaReg96","to":"sdaReg97","type":"model"},{"step":73,"from":"sdaReg6","to":"sdaReg98","type":"model"},{"step":74,"from":"sdaReg80","to":"sdaReg98","type":"model"},{"step":75,"from":"sdaReg80","to":"sdaReg99","type":"model"},{"step":76,"from":"sdaReg98","to":"sdaReg80","type":"model"},{"step":77,"from":"sdaReg98","to":"sdaReg99","type":"model"},{"step":78,"from":"sdaReg6","to":"sdaReg100","type":"model"},{"step":79,"from":"sdaReg80","to":"sdaReg100","type":"model"},{"step":80,"from":"sdaReg80","to":"sdaReg101","type":"model"},{"step":81,"from":"sdaReg100","to":"sdaReg80","type":"model"},{"step":82,"from":"sdaReg100","to":"sdaReg101","type":"model"},{"step":83,"from":"sdaReg6","to":"sdaReg102","type":"model"},{"step":84,"from":"sdaReg6","to":"sdaReg105","type":"model"},{"step":85,"from":"sdaReg103","to":"sdaReg105","type":"model"},{"step":86,"from":"sdaReg103","to":"sdaReg106","type":"model"},{"step":87,"from":"sdaReg105","to":"sdaReg103","type":"model"},{"step":88,"from":"sdaReg105","to":"sdaReg106","type":"model"},{"step":89,"from":"sdaReg6","to":"sdaReg107","type":"model"},{"step":90,"from":"sdaReg103","to":"sdaReg107","type":"model"},{"step":91,"from":"sdaReg103","to":"sdaReg108","type":"model"},{"step":92,"from":"sdaReg107","to":"sdaReg103","type":"model"},{"step":93,"from":"sdaReg107","to":"sdaReg108","type":"model"},{"step":94,"from":"sdaReg6","to":"sdaReg109","type":"model"},{"step":95,"from":"sdaReg103","to":"sdaReg109","type":"model"},{"step":96,"from":"sdaReg103","to":"sdaReg110","type":"model"},{"step":97,"from":"sdaReg109","to":"sdaReg103","type":"model"},{"step":98,"from":"sdaReg109","to":"sdaReg110","type":"model"},{"step":99,"from":"sdaReg6","to":"sdaReg111","type":"model"},{"step":100,"from":"sdaReg103","to":"sdaReg111","type":"model"},{"step":101,"from":"sdaReg103","to":"sdaReg112","type":"model"},{"step":102,"from":"sdaReg111","to":"sdaReg103","type":"model"},{"step":103,"from":"sdaReg111","to":"sdaReg112","type":"model"},{"step":104,"from":"sdaReg6","to":"sdaReg113","type":"model"},{"step":105,"from":"sdaReg103","to":"sdaReg113","type":"model"},{"step":106,"from":"sdaReg103","to":"sdaReg114","type":"model"},{"step":107,"from":"sdaReg113","to":"sdaReg103","type":"model"},{"step":108,"from":"sdaReg113","to":"sdaReg114","type":"model"},{"step":109,"from":"sdaReg6","to":"sdaReg115","type":"model"},{"step":110,"from":"sdaReg103","to":"sdaReg115","type":"model"},{"step":111,"from":"sdaReg103","to":"sdaReg116","type":"model"},{"step":112,"from":"sdaReg115","to":"sdaReg103","type":"model"},{"step":113,"from":"sdaReg115","to":"sdaReg116","type":"model"},{"step":114,"from":"sdaReg6","to":"sdaReg117","type":"model"},{"step":115,"from":"sdaReg103","to":"sdaReg117","type":"model"},{"step":116,"from":"sdaReg103","to":"sdaReg118","type":"model"},{"step":117,"from":"sdaReg117","to":"sdaReg103","type":"model"},{"step":118,"from":"sdaReg117","to":"sdaReg118","type":"model"},{"step":119,"from":"sdaReg6","to":"sdaReg119","type":"model"},{"step":120,"from":"sdaReg103","to":"sdaReg119","type":"model"},{"step":121,"from":"sdaReg103","to":"sdaReg120","type":"model"},{"step":122,"from":"sdaReg119","to":"sdaReg103","type":"model"},{"step":123,"from":"sdaReg119","to":"sdaReg120","type":"model"},{"step":124,"from":"sdaReg6","to":"sdaReg121","type":"model"},{"step":125,"from":"sdaReg103","to":"sdaReg121","type":"model"},{"step":126,"from":"sdaReg103","to":"sdaReg122","type":"model"},{"step":127,"from":"sdaReg121","to":"sdaReg103","type":"model"},{"step":128,"from":"sdaReg121","to":"sdaReg122","type":"model"},{"step":129,"from":"sdaReg6","to":"sdaReg128","type":"model"},{"step":130,"from":"sdaReg126","to":"sdaReg128","type":"model"},{"step":131,"from":"sdaReg126","to":"sdaReg129","type":"model"},{"step":132,"from":"sdaReg128","to":"sdaReg126","type":"model"},{"step":133,"from":"sdaReg128","to":"sdaReg129","type":"model"},{"step":134,"from":"sdaReg6","to":"sdaReg130","type":"model"},{"step":135,"from":"sdaReg126","to":"sdaReg130","type":"model"},{"step":136,"from":"sdaReg126","to":"sdaReg131","type":"model"},{"step":137,"from":"sdaReg130","to":"sdaReg126","type":"model"},{"step":138,"from":"sdaReg130","to":"sdaReg131","type":"model"},{"step":139,"from":"sdaReg6","to":"sdaReg132","type":"model"},{"step":140,"from":"sdaReg126","to":"sdaReg132","type":"model"},{"step":141,"from":"sdaReg126","to":"sdaReg133","type":"model"},{"step":142,"from":"sdaReg132","to":"sdaReg126","type":"model"},{"step":143,"from":"sdaReg132","to":"sdaReg133","type":"model"},{"step":144,"from":"sdaReg6","to":"sdaReg134","type":"model"},{"step":145,"from":"sdaReg126","to":"sdaReg134","type":"model"},{"step":146,"from":"sdaReg126","to":"sdaReg135","type":"model"},{"step":147,"from":"sdaReg134","to":"sdaReg126","type":"model"},{"step":148,"from":"sdaReg134","to":"sdaReg135","type":"model"},{"step":149,"from":"sdaReg6","to":"sdaReg136","type":"model"},{"step":150,"from":"sdaReg126","to":"sdaReg136","type":"model"},{"step":151,"from":"sdaReg126","to":"sdaReg137","type":"model"},{"step":152,"from":"sdaReg136","to":"sdaReg126","type":"model"},{"step":153,"from":"sdaReg136","to":"sdaReg137","type":"model"},{"step":154,"from":"sdaReg6","to":"sdaReg138","type":"model"},{"step":155,"from":"sdaReg126","to":"sdaReg138","type":"model"},{"step":156,"from":"sdaReg126","to":"sdaReg139","type":"model"},{"step":157,"from":"sdaReg138","to":"sdaReg126","type":"model"},{"step":158,"from":"sdaReg138","to":"sdaReg139","type":"model"},{"step":159,"from":"sdaReg6","to":"sdaReg140","type":"model"},{"step":160,"from":"sdaReg126","to":"sdaReg140","type":"model"},{"step":161,"from":"sdaReg126","to":"sdaReg141","type":"model"},{"step":162,"from":"sdaReg140","to":"sdaReg126","type":"model"},{"step":163,"from":"sdaReg140","to":"sdaReg141","type":"model"},{"step":164,"from":"sdaReg6","to":"sdaReg142","type":"model"},{"step":165,"from":"sdaReg126","to":"sdaReg142","type":"model"},{"step":166,"from":"sdaReg126","to":"sdaReg143","type":"model"},{"step":167,"from":"sdaReg142","to":"sdaReg126","type":"model"},{"step":168,"from":"sdaReg142","to":"sdaReg143","type":"model"},{"step":169,"from":"sdaReg6","to":"sdaReg144","type":"model"},{"step":170,"from":"sdaReg126","to":"sdaReg144","type":"model"},{"step":171,"from":"sdaReg126","to":"sdaReg145","type":"model"},{"step":172,"from":"sdaReg144","to":"sdaReg126","type":"model"},{"step":173,"from":"sdaReg144","to":"sdaReg145","type":"model"},{"step":174,"from":"sdaReg6","to":"sdaReg148","type":"model"},{"step":175,"from":"sdaReg146","to":"sdaReg148","type":"model"},{"step":176,"from":"sdaReg146","to":"sdaReg149","type":"model"},{"step":177,"from":"sdaReg148","to":"sdaReg146","type":"model"},{"step":178,"from":"sdaReg148","to":"sdaReg149","type":"model"},{"step":179,"from":"sdaReg6","to":"sdaReg150","type":"model"},{"step":180,"from":"sdaReg146","to":"sdaReg150","type":"model"},{"step":181,"from":"sdaReg146","to":"sdaReg151","type":"model"},{"step":182,"from":"sdaReg150","to":"sdaReg146","type":"model"},{"step":183,"from":"sdaReg150","to":"sdaReg151","type":"model"},{"step":184,"from":"sdaReg6","to":"sdaReg152","type":"model"},{"step":185,"from":"sdaReg146","to":"sdaReg152","type":"model"},{"step":186,"from":"sdaReg146","to":"sdaReg153","type":"model"},{"step":187,"from":"sdaReg152","to":"sdaReg146","type":"model"},{"step":188,"from":"sdaReg152","to":"sdaReg153","type":"model"},{"step":189,"from":"sdaReg6","to":"sdaReg154","type":"model"},{"step":190,"from":"sdaReg146","to":"sdaReg154","type":"model"},{"step":191,"from":"sdaReg146","to":"sdaReg155","type":"model"},{"step":192,"from":"sdaReg154","to":"sdaReg146","type":"model"},{"step":193,"from":"sdaReg154","to":"sdaReg155","type":"model"},{"step":194,"from":"sdaReg6","to":"sdaReg156","type":"model"},{"step":195,"from":"sdaReg146","to":"sdaReg156","type":"model"},{"step":196,"from":"sdaReg146","to":"sdaReg157","type":"model"},{"step":197,"from":"sdaReg156","to":"sdaReg146","type":"model"},{"step":198,"from":"sdaReg156","to":"sdaReg157","type":"model"},{"step":199,"from":"sdaReg6","to":"sdaReg158","type":"model"},{"step":200,"from":"sdaReg146","to":"sdaReg158","type":"model"},{"step":201,"from":"sdaReg146","to":"sdaReg159","type":"model"},{"step":202,"from":"sdaReg158","to":"sdaReg146","type":"model"},{"step":203,"from":"sdaReg158","to":"sdaReg159","type":"model"},{"step":204,"from":"sdaReg6","to":"sdaReg160","type":"model"},{"step":205,"from":"sdaReg146","to":"sdaReg160","type":"model"},{"step":206,"from":"sdaReg146","to":"sdaReg161","type":"model"},{"step":207,"from":"sdaReg160","to":"sdaReg146","type":"model"},{"step":208,"from":"sdaReg160","to":"sdaReg161","type":"model"},{"step":209,"from":"sdaReg6","to":"sdaReg162","type":"model"},{"step":210,"from":"sdaReg146","to":"sdaReg162","type":"model"},{"step":211,"from":"sdaReg146","to":"sdaReg163","type":"model"},{"step":212,"from":"sdaReg162","to":"sdaReg146","type":"model"},{"step":213,"from":"sdaReg162","to":"sdaReg163","type":"model"},{"step":214,"from":"sdaReg6","to":"sdaReg164","type":"model"},{"step":215,"from":"sdaReg146","to":"sdaReg164","type":"model"},{"step":216,"from":"sdaReg146","to":"sdaReg165","type":"model"},{"step":217,"from":"sdaReg164","to":"sdaReg146","type":"model"},{"step":218,"from":"sdaReg164","to":"sdaReg165","type":"model"},{"step":219,"from":"sdaReg6","to":"sdaReg166","type":"model"},{"step":220,"from":"sdaReg6","to":"sdaReg172","type":"model"},{"step":221,"from":"sdaReg6","to":"sdaReg175","type":"model"},{"step":222,"from":"sdaReg173","to":"sdaReg175","type":"model"},{"step":223,"from":"sdaReg173","to":"sdaReg176","type":"model"},{"step":224,"from":"sdaReg175","to":"sdaReg173","type":"model"},{"step":225,"from":"sdaReg175","to":"sdaReg176","type":"model"},{"step":226,"from":"sdaReg6","to":"sdaReg177","type":"model"},{"step":227,"from":"sdaReg173","to":"sdaReg177","type":"model"},{"step":228,"from":"sdaReg173","to":"sdaReg178","type":"model"},{"step":229,"from":"sdaReg177","to":"sdaReg173","type":"model"},{"step":230,"from":"sdaReg177","to":"sdaReg178","type":"model"},{"step":231,"from":"sdaReg6","to":"sdaReg179","type":"model"},{"step":232,"from":"sdaReg173","to":"sdaReg179","type":"model"},{"step":233,"from":"sdaReg173","to":"sdaReg180","type":"model"},{"step":234,"from":"sdaReg179","to":"sdaReg173","type":"model"},{"step":235,"from":"sdaReg179","to":"sdaReg180","type":"model"},{"step":236,"from":"sdaReg6","to":"sdaReg181","type":"model"},{"step":237,"from":"sdaReg173","to":"sdaReg181","type":"model"},{"step":238,"from":"sdaReg173","to":"sdaReg182","type":"model"},{"step":239,"from":"sdaReg181","to":"sdaReg173","type":"model"},{"step":240,"from":"sdaReg181","to":"sdaReg182","type":"model"},{"step":241,"from":"sdaReg6","to":"sdaReg183","type":"model"},{"step":242,"from":"sdaReg173","to":"sdaReg183","type":"model"},{"step":243,"from":"sdaReg173","to":"sdaReg184","type":"model"},{"step":244,"from":"sdaReg183","to":"sdaReg173","type":"model"},{"step":245,"from":"sdaReg183","to":"sdaReg184","type":"model"},{"step":246,"from":"sdaReg6","to":"sdaReg185","type":"model"},{"step":247,"from":"sdaReg185","to":"sdaReg186","type":"model"},{"step":248,"from":"sdaReg185","to":"sdaReg193","type":"model"},{"step":249,"from":"sdaReg185","to":"sdaReg199","type":"model"},{"step":250,"from":"sdaReg185","to":"sdaReg202","type":"model"},{"step":251,"from":"sdaReg185","to":"sdaReg205","type":"model"},{"step":252,"from":"sdaReg6","to":"sdaReg209","type":"model"},{"step":253,"from":"sdaReg6","to":"sdaReg212","type":"model"},{"step":254,"from":"sdaReg210","to":"sdaReg212","type":"model"},{"step":255,"from":"sdaReg210","to":"sdaReg213","type":"model"},{"step":256,"from":"sdaReg212","to":"sdaReg210","type":"model"},{"step":257,"from":"sdaReg212","to":"sdaReg213","type":"model"},{"step":258,"from":"sdaReg6","to":"sdaReg214","type":"model"},{"step":259,"from":"sdaReg210","to":"sdaReg214","type":"model"},{"step":260,"from":"sdaReg210","to":"sdaReg215","type":"model"},{"step":261,"from":"sdaReg214","to":"sdaReg210","type":"model"},{"step":262,"from":"sdaReg214","to":"sdaReg215","type":"model"},{"step":263,"from":"sdaReg6","to":"sdaReg216","type":"model"},{"step":264,"from":"sdaReg210","to":"sdaReg216","type":"model"},{"step":265,"from":"sdaReg210","to":"sdaReg217","type":"model"},{"step":266,"from":"sdaReg216","to":"sdaReg210","type":"model"},{"step":267,"from":"sdaReg216","to":"sdaReg217","type":"model"},{"step":268,"from":"sdaReg6","to":"sdaReg218","type":"model"},{"step":269,"from":"sdaReg210","to":"sdaReg218","type":"model"},{"step":270,"from":"sdaReg210","to":"sdaReg219","type":"model"},{"step":271,"from":"sdaReg218","to":"sdaReg210","type":"model"},{"step":272,"from":"sdaReg218","to":"sdaReg219","type":"model"},{"step":273,"from":"sdaReg6","to":"sdaReg220","type":"model"},{"step":274,"from":"sdaReg210","to":"sdaReg220","type":"model"},{"step":275,"from":"sdaReg210","to":"sdaReg221","type":"model"},{"step":276,"from":"sdaReg220","to":"sdaReg210","type":"model"},{"step":277,"from":"sdaReg220","to":"sdaReg221","type":"model"},{"step":278,"from":"sdaReg6","to":"sdaReg222","type":"model"},{"step":279,"from":"sdaReg210","to":"sdaReg222","type":"model"},{"step":280,"from":"sdaReg210","to":"sdaReg223","type":"model"},{"step":281,"from":"sdaReg222","to":"sdaReg210","type":"model"},{"step":282,"from":"sdaReg222","to":"sdaReg223","type":"model"},{"step":283,"from":"sdaReg6","to":"sdaReg224","type":"model"},{"step":284,"from":"sdaReg210","to":"sdaReg224","type":"model"},{"step":285,"from":"sdaReg210","to":"sdaReg225","type":"model"},{"step":286,"from":"sdaReg224","to":"sdaReg210","type":"model"},{"step":287,"from":"sdaReg224","to":"sdaReg225","type":"model"},{"step":288,"from":"sdaReg6","to":"sdaReg226","type":"model"},{"step":289,"from":"sdaReg210","to":"sdaReg226","type":"model"},{"step":290,"from":"sdaReg210","to":"sdaReg227","type":"model"},{"step":291,"from":"sdaReg226","to":"sdaReg210","type":"model"},{"step":292,"from":"sdaReg226","to":"sdaReg227","type":"model"},{"step":293,"from":"sdaReg6","to":"sdaReg228","type":"model"},{"step":294,"from":"sdaReg210","to":"sdaReg228","type":"model"},{"step":295,"from":"sdaReg210","to":"sdaReg229","type":"model"},{"step":296,"from":"sdaReg228","to":"sdaReg210","type":"model"},{"step":297,"from":"sdaReg228","to":"sdaReg229","type":"model"},{"step":298,"from":"sdaReg6","to":"sdaReg231","type":"model"},{"step":299,"from":"sdaReg6","to":"sdaReg232","type":"model"},{"step":300,"from":"sdaReg6","to":"sdaReg234","type":"model"},{"step":301,"from":"sdaReg102","to":"sdaReg235","type":"model"},{"step":302,"from":"sdaReg185","to":"sdaReg236","type":"model"},{"step":303,"from":"sdaReg185","to":"sdaReg237","type":"model"},{"step":304,"from":"sdaReg231","to":"sdaReg244","type":"model"},{"step":305,"from":"sdaReg243","to":"1093298688","type":"model"},{"step":306,"from":"sdaReg243","to":"1093298688","type":"model"},{"step":307,"from":"sdaReg231","to":"1093298688","type":"model"},{"step":308,"from":"sdaReg231","to":"1093298688","type":"model"},{"step":309,"from":"1093298688","to":"sdaReg249","type":"model"},{"step":310,"from":"sdaReg166","to":"1093674256","type":"store","field":"<java.net.URL: java.lang.String host>"},{"step":311,"from":"sdaReg249","to":"1093674256","type":"store","field":"<java.net.URL: java.lang.String file>"},{"step":312,"from":"sdaReg77","to":"1093674256","type":"store","field":"<java.net.URL: int port>"},{"step":313,"from":"sdaReg234","to":"1093674256","type":"store","field":"<java.net.URL: java.lang.String ref>"},{"step":314,"from":"1093674256","to":"sdaReg251","type":"create","field":"<java.net.URL: int hashCode>"},{"step":315,"from":"sdaReg255","to":"1093674256","type":"store","field":"<java.net.URL: java.lang.String authority>"},{"step":316,"from":"1093674256","to":"sdaReg258","type":"create","field":"<java.net.URL: java.lang.String userInfo>"},{"step":317,"from":"sdaReg261","to":"sdaReg262","type":"model"},{"step":318,"from":"sdaReg262","to":"1093674256","type":"store","field":"<java.net.URL: java.lang.String query>"},{"step":319,"from":"sdaReg263","to":"1093674256","type":"store","field":"<java.net.URL: java.lang.String path>"},{"step":320,"from":"sdaReg102","to":"1093674256","type":"store","field":"<java.net.URL: java.lang.String authority>"},{"step":321,"from":"sdaReg123","to":"1093674256","type":"store","field":"<java.net.URL: java.lang.String userInfo>"},{"step":322,"from":"sdaReg185","to":"1093674256","type":"store","field":"<java.net.URL: java.lang.String path>"},{"step":323,"from":"sdaReg231","to":"1093674256","type":"store","field":"<java.net.URL: java.lang.String query>"}],"parameters":[{"id":"1093674256","name":"this","klass":"java.net.URL"},{"id":"sdaReg0","name":"arg#1","klass":"string"}],"returns":[{"id":"1093674256","name":"return","klass":"java.net.URL"}],"colors":{"heapLocToColor":{"sdaReg191":[115],"1084315112.<java.util.Hashtable: int modCount>":[12],"sdaReg193":[1, 2, 117, 113],"sdaReg192":[116],"sdaReg199":[1, 2, 113, 120],"sdaReg198":[119],"sdaReg197":[118],"sdaReg13":[1, 2, 6],"sdaReg11":[1, 2, 5],"sdaReg19":[11],"sdaReg17":[1, 2, 8],"sdaReg18":[1, 2, 8, 10],"sdaReg15":[1, 2, 7],"1093298688":[156],"1084315112":[12],"static.<java.net.URL: java.util.Hashtable streamHandlers>":[12],"sdaReg171":[1, 2, 24, 11],"sdaReg172":[102, 1, 2],"sdaReg175":[1, 103, 2],"sdaReg174":[1, 2, 11],"sdaReg177":[1, 2, 105],"sdaReg176":[104],"sdaReg179":[1, 2, 107],"sdaReg178":[106],"sdaReg182":[110],"sdaReg181":[1, 2, 109],"sdaReg180":[108],"sdaReg186":[1, 2, 114, 113],"sdaReg185":[1, 2, 113],"sdaReg184":[112],"sdaReg183":[1, 2, 111],"static.<java.net.URL: java.net.URLStreamHandlerFactory streamHandlerFactory>":[14],"1093267128":[21],"sdaReg60":[22],"sdaReg61":[22],"1084315112.<java.util.Hashtable: int threshold>":[12],"sdaReg59":[22],"sdaReg58":[22],"sdaReg57":[22],"sdaReg56":[22],"sdaReg55":[22],"sdaReg54":[22],"sdaReg53":[22],"sdaReg52":[21],"sdaReg50":[12],"1084317688":[1, 2, 8, 9],"sdaReg49":[21],"sdaReg48":[21],"sdaReg45":[21],"sdaReg44":[20],"sdaReg47":[21],"sdaReg46":[21],"sdaReg41":[17, 16],"sdaReg40":[16],"sdaReg43":[19],"sdaReg42":[18],"sdaReg200":[121],"sdaReg201":[122],"sdaReg205":[1, 2, 113, 126],"sdaReg39":[15],"sdaReg204":[125],"sdaReg203":[124],"sdaReg202":[1, 2, 113, 123],"sdaReg209":[1, 2, 130],"sdaReg208":[129],"sdaReg207":[128],"sdaReg206":[127],"sdaReg32":[13],"sdaReg31":[13],"sdaReg30":[13],"sdaReg36":[13],"sdaReg33":[13],"sdaReg9":[1, 2, 4],"sdaReg6":[1, 2],"sdaReg7":[1, 2, 3],"sdaReg4":[0],"sdaReg27":[13],"sdaReg26":[13],"sdaReg29":[13],"sdaReg28":[13],"static.<java.util.Locale: java.util.Locale US>":[9],"sdaReg2":[0],"sdaReg21":[1, 2, 11],"sdaReg20":[11],"sdaReg0":[1],"sdaReg23":[12],"sdaReg22":[0],"sdaReg25":[13],"sdaReg125":[1, 2, 11],"sdaReg127":[1, 2, 11],"sdaReg128":[1, 2, 65],"1093281024":[23],"sdaReg129":[66],"sdaReg228":[1, 2, 147],"sdaReg68":[23],"sdaReg229":[148],"sdaReg66":[12],"sdaReg67":[12],"sdaReg224":[1, 2, 143],"sdaReg64":[22],"sdaReg225":[144],"sdaReg226":[1, 2, 145],"sdaReg227":[146],"sdaReg221":[140],"sdaReg72":[23],"sdaReg220":[1, 2, 139],"sdaReg223":[142],"sdaReg70":[21],"sdaReg222":[1, 2, 141],"sdaReg120":[62],"sdaReg122":[64],"sdaReg121":[1, 2, 63],"sdaReg124":[1, 2, 11],"sdaReg116":[58],"sdaReg117":[1, 2, 59],"sdaReg114":[56],"sdaReg115":[1, 2, 57],"sdaReg118":[60],"sdaReg119":[1, 2, 61],"sdaReg219":[138],"sdaReg78":[1, 2, 25],"1084315112.<java.util.Hashtable: int size>":[12],"sdaReg217":[136],"sdaReg79":[1, 2, 11],"sdaReg218":[137, 1, 2],"sdaReg215":[134],"sdaReg73":[23],"sdaReg216":[1, 2, 135],"sdaReg74":[24],"sdaReg75":[21],"sdaReg213":[132],"sdaReg76":[0],"sdaReg214":[1, 2, 133],"sdaReg81":[1, 2, 11],"sdaReg212":[1, 2, 131],"1084321912":[12],"sdaReg211":[1, 2, 24, 11],"sdaReg83":[27],"sdaReg82":[1, 2, 26],"sdaReg113":[1, 2, 55],"sdaReg112":[54],"sdaReg111":[1, 2, 53],"sdaReg110":[52],"sdaReg107":[1, 2, 49],"sdaReg108":[50],"sdaReg109":[51, 1, 2],"sdaReg104":[1, 2, 11],"sdaReg105":[1, 2, 47],"sdaReg106":[48],"sdaReg246":[156],"sdaReg86":[1, 2, 30],"sdaReg247":[156],"sdaReg87":[31],"sdaReg248":[156],"sdaReg84":[1, 2, 28],"sdaReg249":[156, 157],"sdaReg85":[29],"sdaReg88":[1, 2, 32],"sdaReg89":[33],"sdaReg90":[34, 1, 2],"sdaReg241":[0],"1084315112.<java.util.Hashtable: java.util.Hashtable$HashtableEntry[] table>":[12],"sdaReg240":[21],"sdaReg243":[1, 2, 113],"sdaReg94":[1, 2, 38],"sdaReg242":[0],"sdaReg93":[37],"sdaReg245":[156],"sdaReg92":[1, 2, 36],"sdaReg244":[1, 2, 155, 149],"sdaReg91":[35],"sdaReg100":[1, 2, 44],"sdaReg102":[1, 2, 46],"sdaReg101":[45],"sdaReg237":[1, 2, 154, 113],"sdaReg95":[39],"sdaReg238":[0],"sdaReg96":[1, 2, 40],"sdaReg235":[152, 1, 2, 46],"sdaReg97":[41],"sdaReg236":[1, 153, 2, 113],"sdaReg98":[1, 2, 42],"sdaReg99":[43],"sdaReg230":[1, 2, 11],"sdaReg234":[1, 2, 151],"sdaReg233":[1, 2, 11],"sdaReg232":[1, 2, 150],"sdaReg231":[1, 2, 149],"sdaReg161":[96],"sdaReg162":[1, 2, 97],"sdaReg163":[98],"sdaReg164":[1, 2, 99],"sdaReg165":[100],"sdaReg166":[1, 2, 101],"sdaReg167":[1, 2, 11],"sdaReg264":[0],"sdaReg260":[160],"sdaReg261":[160],"sdaReg262":[161],"sdaReg263":[162],"sdaReg160":[1, 2, 95],"sdaReg259":[160],"sdaReg257":[159],"sdaReg159":[94],"sdaReg158":[1, 2, 93],"sdaReg152":[1, 2, 87],"sdaReg153":[88],"sdaReg150":[85, 1, 2],"sdaReg151":[86],"sdaReg156":[1, 2, 91],"sdaReg157":[92],"sdaReg154":[1, 2, 89],"sdaReg155":[90],"sdaReg256":[159],"sdaReg254":[158],"sdaReg252":[0],"sdaReg250":[0],"1093674256":[0],"sdaReg148":[1, 2, 83],"sdaReg147":[1, 2, 11],"sdaReg149":[84],"sdaReg143":[80],"sdaReg144":[1, 2, 81],"sdaReg145":[82],"sdaReg140":[1, 2, 77],"1093440880":[16],"sdaReg141":[78],"sdaReg142":[1, 2, 79],"sdaReg139":[76],"sdaReg138":[1, 2, 75],"sdaReg137":[74],"sdaReg136":[1, 2, 73],"sdaReg134":[1, 2, 71],"sdaReg135":[72],"sdaReg132":[1, 69, 2],"sdaReg133":[70],"sdaReg130":[1, 2, 67],"sdaReg131":[68],"1093266984":[17, 16]},"colorToColor":{"0":[163],"137":[138],"1":[0, 136, 1, 2, 138, 140, 142, 8, 10, 132, 134, 156, 144, 25, 146, 27, 148, 29, 31, 35, 33, 39, 37, 43, 41, 45, 50, 48, 54, 52, 58, 56, 62, 60, 68, 70, 64, 66, 76, 78, 72, 74, 84, 86, 80, 82, 92, 94, 88, 90, 100, 98, 96, 110, 108, 106, 104, 112],"139":[140],"2":[0, 136, 1, 2, 138, 140, 142, 8, 10, 132, 134, 156, 144, 25, 146, 27, 148, 29, 31, 35, 33, 39, 37, 43, 41, 45, 50, 48, 54, 52, 58, 56, 62, 60, 68, 70, 64, 66, 76, 78, 72, 74, 84, 86, 80, 82, 92, 94, 88, 90, 100, 98, 96, 110, 108, 106, 104, 112],"141":[142],"143":[144],"8":[0, 1, 2, 8, 10],"9":[1, 2, 8, 10],"131":[132],"10":[0],"11":[1, 2, 25],"133":[134],"12":[12],"135":[136],"156":[0],"21":[0, 23],"157":[0],"23":[12],"22":[23],"145":[146],"147":[148],"26":[27],"149":[0, 156],"28":[29],"151":[0],"30":[31],"34":[35],"32":[33],"38":[39],"36":[37],"42":[43],"162":[0],"161":[0],"40":[41],"160":[161],"46":[0],"47":[48],"44":[45],"51":[52],"49":[50],"55":[56],"53":[54],"59":[60],"57":[58],"63":[64],"61":[62],"69":[70],"71":[72],"65":[66],"67":[68],"77":[78],"79":[80],"73":[74],"75":[76],"85":[86],"87":[88],"81":[82],"83":[84],"93":[94],"95":[96],"89":[90],"91":[92],"103":[104],"101":[0],"99":[100],"97":[98],"111":[112],"109":[110],"107":[108],"105":[106],"113":[0, 156]},"colorToLabel":{"0":"this","1":"arg#1","9":"<java.util.Locale: java.util.Locale US>","12":"<java.net.URL: java.util.Hashtable streamHandlers>","14":"<java.net.URL: java.net.URLStreamHandlerFactory streamHandlerFactory>","163":"return"}}}

Generated Model
	this->return
	arg#1->this
	arg#1->return

