Scanning method <java.net.URL: void <init>(java.lang.String)>

All seen event types: StoreArrayRecord, SimpleAssignmentRecord, MethodStartRecord, LoadInstanceRecord, IfRecord, NewObjectRecord, StoreInstanceRecord, LoadStaticRecord, BinaryOperationRecord, MethodCallRecord, MethodReturnRecord, CastRecord, ArrayLengthRecord, LoadArrayRecord, MethodEndRecord, 
Ignored event types: IfRecord, 

JSON Encoded Analysis Data (for visualization):{"heapEdges":[{"step":0,"from":"1093655432","to":"sdaReg5","type":"create","field":"<java.net.URL: int port>"},{"step":1,"from":"sdaReg0","to":"sdaReg6","type":"model"},{"step":2,"from":"sdaReg6","to":"sdaReg7","type":"model"},{"step":3,"from":"sdaReg6","to":"sdaReg9","type":"model"},{"step":4,"from":"sdaReg6","to":"sdaReg11","type":"model"},{"step":5,"from":"sdaReg6","to":"sdaReg13","type":"model"},{"step":6,"from":"sdaReg6","to":"sdaReg15","type":"model"},{"step":7,"from":"sdaReg6","to":"sdaReg17","type":"model"},{"step":8,"from":"static.<java.util.Locale: java.util.Locale US>","to":"1084317688","type":"load","field":"<java.util.Locale: java.util.Locale US>"},{"step":9,"from":"sdaReg17","to":"1084317688","type":"model"},{"step":10,"from":"sdaReg17","to":"sdaReg18","type":"model"},{"step":11,"from":"1084317688","to":"sdaReg17","type":"model"},{"step":12,"from":"1084317688","to":"sdaReg18","type":"model"},{"step":13,"from":"sdaReg18","to":"1093655432","type":"store","field":"<java.net.URL: java.lang.String protocol>"},{"step":14,"from":"static.<java.net.URL: java.util.Hashtable streamHandlers>","to":"1084315112","type":"load","field":"<java.net.URL: java.util.Hashtable streamHandlers>"},{"step":15,"from":"1084315112","to":"1084321912","type":"load","field":"<java.util.Hashtable: java.util.Hashtable$HashtableEntry[] table>"},{"step":16,"from":"1093474848","to":"1093270592","type":"model"},{"step":17,"from":"1093655432","to":"1093657448","type":"create","field":"<java.net.URL: java.net.URLStreamHandler streamHandler>"},{"step":18,"from":"static.<java.net.URL: java.util.Hashtable streamHandlers>","to":"1084315112","type":"load","field":"<java.net.URL: java.util.Hashtable streamHandlers>"},{"step":19,"from":"1084315112","to":"1084321912","type":"load","field":"<java.util.Hashtable: java.util.Hashtable$HashtableEntry[] table>"},{"step":20,"from":"1084315112","to":"1084315112.<java.util.Hashtable: int modCount>","type":"load","field":"<java.util.Hashtable: int modCount>"},{"step":21,"from":"sdaReg66","to":"1084315112","type":"store","field":"<java.util.Hashtable: int modCount>"},{"step":22,"from":"1084315112","to":"1084315112.<java.util.Hashtable: int size>","type":"load","field":"<java.util.Hashtable: int size>"},{"step":23,"from":"sdaReg67","to":"1084315112","type":"store","field":"<java.util.Hashtable: int size>"},{"step":24,"from":"1084315112","to":"1084315112.<java.util.Hashtable: int threshold>","type":"load","field":"<java.util.Hashtable: int threshold>"},{"step":25,"from":"1093656256","to":"1093657528","type":"store","field":"<java.util.Hashtable$HashtableEntry: java.lang.Object key>"},{"step":26,"from":"1093657448","to":"1093657528","type":"store","field":"<java.util.Hashtable$HashtableEntry: java.lang.Object value>"},{"step":27,"from":"sdaReg61","to":"1093657528","type":"store","field":"<java.util.Hashtable$HashtableEntry: int hash>"},{"step":28,"from":"1084321912","to":"1093657528","type":"create","field":"arrayIdx_int:1"},{"step":29,"from":"sdaReg6","to":"sdaReg21","type":"model"},{"step":30,"from":"sdaReg6","to":"sdaReg78","type":"model"},{"step":31,"from":"sdaReg21","to":"sdaReg6","type":"model"},{"step":32,"from":"sdaReg21","to":"sdaReg78","type":"model"},{"step":33,"from":"sdaReg6","to":"sdaReg82","type":"model"},{"step":34,"from":"sdaReg80","to":"sdaReg82","type":"model"},{"step":35,"from":"sdaReg80","to":"sdaReg83","type":"model"},{"step":36,"from":"sdaReg82","to":"sdaReg80","type":"model"},{"step":37,"from":"sdaReg82","to":"sdaReg83","type":"model"},{"step":38,"from":"sdaReg6","to":"sdaReg84","type":"model"},{"step":39,"from":"sdaReg80","to":"sdaReg84","type":"model"},{"step":40,"from":"sdaReg80","to":"sdaReg85","type":"model"},{"step":41,"from":"sdaReg84","to":"sdaReg80","type":"model"},{"step":42,"from":"sdaReg84","to":"sdaReg85","type":"model"},{"step":43,"from":"sdaReg6","to":"sdaReg86","type":"model"},{"step":44,"from":"sdaReg80","to":"sdaReg86","type":"model"},{"step":45,"from":"sdaReg80","to":"sdaReg87","type":"model"},{"step":46,"from":"sdaReg86","to":"sdaReg80","type":"model"},{"step":47,"from":"sdaReg86","to":"sdaReg87","type":"model"},{"step":48,"from":"sdaReg6","to":"sdaReg88","type":"model"},{"step":49,"from":"sdaReg80","to":"sdaReg88","type":"model"},{"step":50,"from":"sdaReg80","to":"sdaReg89","type":"model"},{"step":51,"from":"sdaReg88","to":"sdaReg80","type":"model"},{"step":52,"from":"sdaReg88","to":"sdaReg89","type":"model"},{"step":53,"from":"sdaReg6","to":"sdaReg90","type":"model"},{"step":54,"from":"sdaReg80","to":"sdaReg90","type":"model"},{"step":55,"from":"sdaReg80","to":"sdaReg91","type":"model"},{"step":56,"from":"sdaReg90","to":"sdaReg80","type":"model"},{"step":57,"from":"sdaReg90","to":"sdaReg91","type":"model"},{"step":58,"from":"sdaReg6","to":"sdaReg92","type":"model"},{"step":59,"from":"sdaReg80","to":"sdaReg92","type":"model"},{"step":60,"from":"sdaReg80","to":"sdaReg93","type":"model"},{"step":61,"from":"sdaReg92","to":"sdaReg80","type":"model"},{"step":62,"from":"sdaReg92","to":"sdaReg93","type":"model"},{"step":63,"from":"sdaReg6","to":"sdaReg94","type":"model"},{"step":64,"from":"sdaReg80","to":"sdaReg94","type":"model"},{"step":65,"from":"sdaReg80","to":"sdaReg95","type":"model"},{"step":66,"from":"sdaReg94","to":"sdaReg80","type":"model"},{"step":67,"from":"sdaReg94","to":"sdaReg95","type":"model"},{"step":68,"from":"sdaReg6","to":"sdaReg96","type":"model"},{"step":69,"from":"sdaReg80","to":"sdaReg96","type":"model"},{"step":70,"from":"sdaReg80","to":"sdaReg97","type":"model"},{"step":71,"from":"sdaReg96","to":"sdaReg80","type":"model"},{"step":72,"from":"sdaReg96","to":"sdaReg97","type":"model"},{"step":73,"from":"sdaReg6","to":"sdaReg98","type":"model"},{"step":74,"from":"sdaReg80","to":"sdaReg98","type":"model"},{"step":75,"from":"sdaReg80","to":"sdaReg99","type":"model"},{"step":76,"from":"sdaReg98","to":"sdaReg80","type":"model"},{"step":77,"from":"sdaReg98","to":"sdaReg99","type":"model"},{"step":78,"from":"sdaReg6","to":"sdaReg100","type":"model"},{"step":79,"from":"sdaReg80","to":"sdaReg100","type":"model"},{"step":80,"from":"sdaReg80","to":"sdaReg101","type":"model"},{"step":81,"from":"sdaReg100","to":"sdaReg80","type":"model"},{"step":82,"from":"sdaReg100","to":"sdaReg101","type":"model"},{"step":83,"from":"sdaReg6","to":"sdaReg102","type":"model"},{"step":84,"from":"sdaReg80","to":"sdaReg102","type":"model"},{"step":85,"from":"sdaReg80","to":"sdaReg103","type":"model"},{"step":86,"from":"sdaReg102","to":"sdaReg80","type":"model"},{"step":87,"from":"sdaReg102","to":"sdaReg103","type":"model"},{"step":88,"from":"sdaReg6","to":"sdaReg104","type":"model"},{"step":89,"from":"sdaReg80","to":"sdaReg104","type":"model"},{"step":90,"from":"sdaReg80","to":"sdaReg105","type":"model"},{"step":91,"from":"sdaReg104","to":"sdaReg80","type":"model"},{"step":92,"from":"sdaReg104","to":"sdaReg105","type":"model"},{"step":93,"from":"sdaReg6","to":"sdaReg106","type":"model"},{"step":94,"from":"sdaReg80","to":"sdaReg106","type":"model"},{"step":95,"from":"sdaReg80","to":"sdaReg107","type":"model"},{"step":96,"from":"sdaReg106","to":"sdaReg80","type":"model"},{"step":97,"from":"sdaReg106","to":"sdaReg107","type":"model"},{"step":98,"from":"sdaReg6","to":"sdaReg108","type":"model"},{"step":99,"from":"sdaReg80","to":"sdaReg108","type":"model"},{"step":100,"from":"sdaReg80","to":"sdaReg109","type":"model"},{"step":101,"from":"sdaReg108","to":"sdaReg80","type":"model"},{"step":102,"from":"sdaReg108","to":"sdaReg109","type":"model"},{"step":103,"from":"sdaReg6","to":"sdaReg110","type":"model"},{"step":104,"from":"sdaReg6","to":"sdaReg113","type":"model"},{"step":105,"from":"sdaReg111","to":"sdaReg113","type":"model"},{"step":106,"from":"sdaReg111","to":"sdaReg114","type":"model"},{"step":107,"from":"sdaReg113","to":"sdaReg111","type":"model"},{"step":108,"from":"sdaReg113","to":"sdaReg114","type":"model"},{"step":109,"from":"sdaReg6","to":"sdaReg115","type":"model"},{"step":110,"from":"sdaReg111","to":"sdaReg115","type":"model"},{"step":111,"from":"sdaReg111","to":"sdaReg116","type":"model"},{"step":112,"from":"sdaReg115","to":"sdaReg111","type":"model"},{"step":113,"from":"sdaReg115","to":"sdaReg116","type":"model"},{"step":114,"from":"sdaReg6","to":"sdaReg117","type":"model"},{"step":115,"from":"sdaReg111","to":"sdaReg117","type":"model"},{"step":116,"from":"sdaReg111","to":"sdaReg118","type":"model"},{"step":117,"from":"sdaReg117","to":"sdaReg111","type":"model"},{"step":118,"from":"sdaReg117","to":"sdaReg118","type":"model"},{"step":119,"from":"sdaReg6","to":"sdaReg119","type":"model"},{"step":120,"from":"sdaReg111","to":"sdaReg119","type":"model"},{"step":121,"from":"sdaReg111","to":"sdaReg120","type":"model"},{"step":122,"from":"sdaReg119","to":"sdaReg111","type":"model"},{"step":123,"from":"sdaReg119","to":"sdaReg120","type":"model"},{"step":124,"from":"sdaReg6","to":"sdaReg121","type":"model"},{"step":125,"from":"sdaReg111","to":"sdaReg121","type":"model"},{"step":126,"from":"sdaReg111","to":"sdaReg122","type":"model"},{"step":127,"from":"sdaReg121","to":"sdaReg111","type":"model"},{"step":128,"from":"sdaReg121","to":"sdaReg122","type":"model"},{"step":129,"from":"sdaReg6","to":"sdaReg123","type":"model"},{"step":130,"from":"sdaReg6","to":"sdaReg128","type":"model"},{"step":131,"from":"sdaReg126","to":"sdaReg128","type":"model"},{"step":132,"from":"sdaReg126","to":"sdaReg129","type":"model"},{"step":133,"from":"sdaReg128","to":"sdaReg126","type":"model"},{"step":134,"from":"sdaReg128","to":"sdaReg129","type":"model"},{"step":135,"from":"sdaReg6","to":"sdaReg130","type":"model"},{"step":136,"from":"sdaReg126","to":"sdaReg130","type":"model"},{"step":137,"from":"sdaReg126","to":"sdaReg131","type":"model"},{"step":138,"from":"sdaReg130","to":"sdaReg126","type":"model"},{"step":139,"from":"sdaReg130","to":"sdaReg131","type":"model"},{"step":140,"from":"sdaReg6","to":"sdaReg132","type":"model"},{"step":141,"from":"sdaReg126","to":"sdaReg132","type":"model"},{"step":142,"from":"sdaReg126","to":"sdaReg133","type":"model"},{"step":143,"from":"sdaReg132","to":"sdaReg126","type":"model"},{"step":144,"from":"sdaReg132","to":"sdaReg133","type":"model"},{"step":145,"from":"sdaReg6","to":"sdaReg134","type":"model"},{"step":146,"from":"sdaReg126","to":"sdaReg134","type":"model"},{"step":147,"from":"sdaReg126","to":"sdaReg135","type":"model"},{"step":148,"from":"sdaReg134","to":"sdaReg126","type":"model"},{"step":149,"from":"sdaReg134","to":"sdaReg135","type":"model"},{"step":150,"from":"sdaReg6","to":"sdaReg136","type":"model"},{"step":151,"from":"sdaReg126","to":"sdaReg136","type":"model"},{"step":152,"from":"sdaReg126","to":"sdaReg137","type":"model"},{"step":153,"from":"sdaReg136","to":"sdaReg126","type":"model"},{"step":154,"from":"sdaReg136","to":"sdaReg137","type":"model"},{"step":155,"from":"sdaReg6","to":"sdaReg138","type":"model"},{"step":156,"from":"sdaReg126","to":"sdaReg138","type":"model"},{"step":157,"from":"sdaReg126","to":"sdaReg139","type":"model"},{"step":158,"from":"sdaReg138","to":"sdaReg126","type":"model"},{"step":159,"from":"sdaReg138","to":"sdaReg139","type":"model"},{"step":160,"from":"sdaReg6","to":"sdaReg140","type":"model"},{"step":161,"from":"sdaReg126","to":"sdaReg140","type":"model"},{"step":162,"from":"sdaReg126","to":"sdaReg141","type":"model"},{"step":163,"from":"sdaReg140","to":"sdaReg126","type":"model"},{"step":164,"from":"sdaReg140","to":"sdaReg141","type":"model"},{"step":165,"from":"sdaReg6","to":"sdaReg142","type":"model"},{"step":166,"from":"sdaReg126","to":"sdaReg142","type":"model"},{"step":167,"from":"sdaReg126","to":"sdaReg143","type":"model"},{"step":168,"from":"sdaReg142","to":"sdaReg126","type":"model"},{"step":169,"from":"sdaReg142","to":"sdaReg143","type":"model"},{"step":170,"from":"sdaReg6","to":"sdaReg144","type":"model"},{"step":171,"from":"sdaReg126","to":"sdaReg144","type":"model"},{"step":172,"from":"sdaReg126","to":"sdaReg145","type":"model"},{"step":173,"from":"sdaReg144","to":"sdaReg126","type":"model"},{"step":174,"from":"sdaReg144","to":"sdaReg145","type":"model"},{"step":175,"from":"sdaReg6","to":"sdaReg148","type":"model"},{"step":176,"from":"sdaReg146","to":"sdaReg148","type":"model"},{"step":177,"from":"sdaReg146","to":"sdaReg149","type":"model"},{"step":178,"from":"sdaReg148","to":"sdaReg146","type":"model"},{"step":179,"from":"sdaReg148","to":"sdaReg149","type":"model"},{"step":180,"from":"sdaReg6","to":"sdaReg150","type":"model"},{"step":181,"from":"sdaReg146","to":"sdaReg150","type":"model"},{"step":182,"from":"sdaReg146","to":"sdaReg151","type":"model"},{"step":183,"from":"sdaReg150","to":"sdaReg146","type":"model"},{"step":184,"from":"sdaReg150","to":"sdaReg151","type":"model"},{"step":185,"from":"sdaReg6","to":"sdaReg152","type":"model"},{"step":186,"from":"sdaReg146","to":"sdaReg152","type":"model"},{"step":187,"from":"sdaReg146","to":"sdaReg153","type":"model"},{"step":188,"from":"sdaReg152","to":"sdaReg146","type":"model"},{"step":189,"from":"sdaReg152","to":"sdaReg153","type":"model"},{"step":190,"from":"sdaReg6","to":"sdaReg154","type":"model"},{"step":191,"from":"sdaReg146","to":"sdaReg154","type":"model"},{"step":192,"from":"sdaReg146","to":"sdaReg155","type":"model"},{"step":193,"from":"sdaReg154","to":"sdaReg146","type":"model"},{"step":194,"from":"sdaReg154","to":"sdaReg155","type":"model"},{"step":195,"from":"sdaReg6","to":"sdaReg156","type":"model"},{"step":196,"from":"sdaReg146","to":"sdaReg156","type":"model"},{"step":197,"from":"sdaReg146","to":"sdaReg157","type":"model"},{"step":198,"from":"sdaReg156","to":"sdaReg146","type":"model"},{"step":199,"from":"sdaReg156","to":"sdaReg157","type":"model"},{"step":200,"from":"sdaReg6","to":"sdaReg158","type":"model"},{"step":201,"from":"sdaReg6","to":"sdaReg160","type":"model"},{"step":202,"from":"sdaReg160","to":"sdaReg161","type":"model"},{"step":203,"from":"sdaReg110","to":"sdaReg166","type":"model"},{"step":204,"from":"sdaReg162","to":"sdaReg167","type":"model"},{"step":205,"from":"sdaReg158","to":"1093655432","type":"store","field":"<java.net.URL: java.lang.String host>"},{"step":206,"from":"sdaReg173","to":"1093655432","type":"store","field":"<java.net.URL: java.lang.String file>"},{"step":207,"from":"sdaReg161","to":"1093655432","type":"store","field":"<java.net.URL: int port>"},{"step":208,"from":"sdaReg164","to":"1093655432","type":"store","field":"<java.net.URL: java.lang.String ref>"},{"step":209,"from":"1093655432","to":"sdaReg175","type":"create","field":"<java.net.URL: int hashCode>"},{"step":210,"from":"sdaReg179","to":"1093655432","type":"store","field":"<java.net.URL: java.lang.String authority>"},{"step":211,"from":"1093500840","to":"sdaReg184","type":"model"},{"step":212,"from":"sdaReg184","to":"1093655432","type":"store","field":"<java.net.URL: java.lang.String authority>"},{"step":213,"from":"1093655432","to":"sdaReg187","type":"create","field":"<java.net.URL: java.lang.String userInfo>"},{"step":214,"from":"1093655432","to":"sdaReg190","type":"create","field":"<java.net.URL: java.lang.String query>"},{"step":215,"from":"sdaReg191","to":"1093655432","type":"store","field":"<java.net.URL: java.lang.String path>"},{"step":216,"from":"sdaReg110","to":"1093655432","type":"store","field":"<java.net.URL: java.lang.String authority>"},{"step":217,"from":"sdaReg123","to":"1093655432","type":"store","field":"<java.net.URL: java.lang.String userInfo>"},{"step":218,"from":"sdaReg162","to":"1093655432","type":"store","field":"<java.net.URL: java.lang.String path>"},{"step":219,"from":"sdaReg163","to":"1093655432","type":"store","field":"<java.net.URL: java.lang.String query>"}],"parameters":[{"id":"1093655432","name":"this","klass":"java.net.URL"},{"id":"sdaReg0","name":"arg#1","klass":"string"}],"returns":[{"id":"1093655432","name":"return","klass":"java.net.URL"}],"colors":{"heapLocToColor":{"sdaReg125":[1, 2, 11],"1084315112.<java.util.Hashtable: int modCount>":[12],"sdaReg127":[1, 2, 11],"sdaReg192":[0],"sdaReg128":[1, 2, 66],"sdaReg129":[67],"sdaReg68":[23],"sdaReg66":[12],"sdaReg67":[12],"sdaReg64":[22],"sdaReg13":[1, 2, 6],"sdaReg72":[23],"sdaReg11":[1, 2, 5],"sdaReg70":[21],"sdaReg120":[62],"sdaReg19":[11],"sdaReg122":[64],"sdaReg17":[1, 2, 8],"sdaReg121":[1, 2, 63],"sdaReg18":[1, 2, 8, 10],"sdaReg124":[1, 2, 11],"sdaReg15":[1, 2, 7],"sdaReg123":[1, 2, 65],"sdaReg116":[58],"sdaReg117":[1, 2, 59],"sdaReg114":[56],"sdaReg115":[1, 2, 57],"sdaReg118":[60],"sdaReg119":[1, 2, 61],"1084315112.<java.util.Hashtable: int size>":[12],"sdaReg78":[1, 2, 25],"sdaReg79":[1, 2, 11],"sdaReg73":[23],"sdaReg74":[24],"sdaReg75":[21],"sdaReg76":[0],"sdaReg81":[1, 2, 11],"1084321912":[12],"sdaReg83":[27],"sdaReg82":[1, 2, 26],"sdaReg113":[1, 2, 55],"1093657448":[21],"sdaReg112":[1, 2, 11],"1093270592":[17, 16],"1084315112":[12],"sdaReg110":[1, 2, 54],"sdaReg107":[51],"static.<java.net.URL: java.util.Hashtable streamHandlers>":[12],"sdaReg108":[1, 2, 52],"sdaReg109":[53],"sdaReg103":[47],"sdaReg104":[1, 2, 48],"sdaReg171":[0],"sdaReg105":[49],"sdaReg170":[21],"sdaReg106":[1, 50, 2],"sdaReg86":[1, 2, 30],"sdaReg172":[0],"sdaReg87":[31],"sdaReg84":[1, 2, 28],"sdaReg174":[0],"sdaReg85":[29],"sdaReg176":[0],"sdaReg88":[1, 2, 32],"sdaReg178":[99],"sdaReg89":[33],"sdaReg90":[34, 1, 2],"1084315112.<java.util.Hashtable: java.util.Hashtable$HashtableEntry[] table>":[12],"sdaReg94":[1, 2, 38],"sdaReg93":[37],"sdaReg92":[1, 2, 36],"sdaReg91":[35],"sdaReg100":[1, 2, 44],"sdaReg102":[1, 2, 46],"sdaReg101":[45],"sdaReg182":[100],"sdaReg181":[100],"sdaReg180":[100],"sdaReg186":[102],"sdaReg95":[39],"sdaReg185":[102],"sdaReg96":[1, 2, 40],"sdaReg184":[100, 101],"sdaReg97":[41],"sdaReg183":[100],"sdaReg98":[1, 2, 42],"sdaReg99":[43],"sdaReg189":[103],"sdaReg188":[103],"static.<java.net.URL: java.net.URLStreamHandlerFactory streamHandlerFactory>":[14],"sdaReg60":[22],"sdaReg61":[22],"1093657528":[23],"1084315112.<java.util.Hashtable: int threshold>":[12],"1093655432":[0],"sdaReg161":[96],"sdaReg165":[24],"sdaReg166":[1, 2, 54, 97],"sdaReg167":[98],"sdaReg168":[0],"sdaReg59":[22],"sdaReg58":[22],"sdaReg57":[22],"sdaReg56":[22],"sdaReg55":[22],"sdaReg54":[22],"sdaReg53":[22],"sdaReg52":[21],"sdaReg160":[1, 2, 95],"sdaReg50":[12],"1084317688":[1, 2, 8, 9],"sdaReg159":[1, 2, 11],"sdaReg158":[1, 2, 94],"sdaReg152":[1, 2, 88],"sdaReg153":[89],"sdaReg150":[1, 2, 86],"sdaReg151":[87],"sdaReg156":[1, 2, 92],"sdaReg49":[21],"sdaReg157":[93],"sdaReg48":[21],"sdaReg154":[1, 2, 90],"sdaReg155":[91],"sdaReg45":[21],"sdaReg44":[20],"sdaReg47":[21],"sdaReg46":[21],"sdaReg41":[17, 16],"sdaReg40":[16],"sdaReg43":[19],"sdaReg42":[18],"1093474848":[16],"sdaReg148":[1, 84, 2],"sdaReg147":[1, 2, 11],"sdaReg149":[85],"sdaReg143":[81],"sdaReg144":[1, 2, 82],"sdaReg39":[15],"sdaReg145":[83],"sdaReg140":[1, 2, 78],"sdaReg141":[79],"sdaReg142":[1, 2, 80],"sdaReg32":[13],"sdaReg31":[13],"sdaReg30":[13],"sdaReg36":[13],"sdaReg33":[13],"sdaReg9":[1, 2, 4],"sdaReg6":[1, 2],"1093500840":[100],"sdaReg7":[1, 2, 3],"sdaReg4":[0],"sdaReg139":[77],"sdaReg138":[1, 2, 76],"sdaReg137":[75],"sdaReg136":[1, 2, 74],"sdaReg134":[1, 2, 72],"sdaReg27":[13],"sdaReg135":[73],"sdaReg26":[13],"sdaReg132":[1, 2, 70],"sdaReg29":[13],"sdaReg133":[71],"static.<java.util.Locale: java.util.Locale US>":[9],"sdaReg28":[13],"sdaReg130":[68, 1, 2],"sdaReg131":[69],"sdaReg2":[0],"sdaReg21":[1, 2, 11],"sdaReg0":[1],"sdaReg20":[11],"sdaReg23":[12],"sdaReg22":[0],"sdaReg25":[13]},"colorToColor":{"0":[104],"1":[0, 69, 1, 2, 71, 64, 67, 8, 77, 10, 79, 73, 75, 85, 87, 81, 83, 93, 25, 27, 89, 29, 91, 31, 35, 33, 39, 96, 37, 43, 41, 47, 45, 51, 49, 53, 58, 56, 62, 60],"2":[0, 69, 1, 2, 71, 64, 67, 8, 77, 10, 79, 73, 75, 85, 87, 81, 83, 93, 25, 27, 89, 29, 91, 31, 35, 33, 39, 96, 37, 43, 41, 47, 45, 51, 49, 53, 58, 56, 62, 60],"8":[0, 1, 2, 8, 10],"9":[1, 2, 8, 10],"10":[0],"11":[1, 2, 25],"12":[12],"21":[0, 23],"23":[12],"22":[23],"26":[27],"28":[29],"30":[31],"34":[35],"32":[33],"38":[39],"36":[37],"42":[43],"40":[41],"46":[47],"44":[45],"50":[51],"48":[49],"55":[56],"54":[0],"52":[53],"59":[60],"57":[58],"63":[64],"61":[62],"68":[69],"70":[71],"65":[0],"66":[67],"76":[77],"78":[79],"72":[73],"74":[75],"84":[85],"86":[87],"80":[81],"82":[83],"92":[93],"95":[96],"94":[0],"88":[89],"90":[91],"100":[0],"101":[0],"96":[0]},"colorToLabel":{"0":"this","1":"arg#1","9":"<java.util.Locale: java.util.Locale US>","12":"<java.net.URL: java.util.Hashtable streamHandlers>","14":"<java.net.URL: java.net.URLStreamHandlerFactory streamHandlerFactory>","104":"return"}}}

Generated Model
	this->return
	arg#1->this
	arg#1->return

