Scanning method <android.os.Bundle: void putString(java.lang.String,java.lang.String)>

All seen event types: BinaryOperationRecord, MethodReturnRecord, MethodCallRecord, ArrayLengthRecord, LoadInstanceRecord, MethodStartRecord, LoadArrayRecord, MethodEndRecord, IfRecord, StoreInstanceRecord, 
Ignored event types: IfRecord, 

JSON Encoded Analysis Data (for visualization):{"heapEdges":[{"step":0,"from":"1093904088","to":"1093909496","type":"load","field":"<android.os.Bundle: java.util.Map mMap>"},{"step":1,"from":"1093909496","to":"1093471328","type":"load","field":"<java.util.HashMap: java.util.HashMap$HashMapEntry[] table>"},{"step":2,"from":"1093471328","to":"1093572896","type":"load","field":"arrayIdx_int:2"},{"step":3,"from":"1093572896","to":"1093572896.<java.util.HashMap$HashMapEntry: int hash>","type":"load","field":"<java.util.HashMap$HashMapEntry: int hash>"},{"step":4,"from":"1093572896","to":"1084612152","type":"load","field":"<java.util.HashMap$HashMapEntry: java.lang.Object key>"},{"step":5,"from":"1093572896","to":"1093573688","type":"load","field":"<java.util.HashMap$HashMapEntry: java.lang.Object value>"},{"step":6,"from":"1083999368","to":"1093572896","type":"store","field":"<java.util.HashMap$HashMapEntry: java.lang.Object value>"}],"parameters":[{"id":"1093904088","name":"this","klass":"android.os.Bundle"},{"id":"sdaReg0","name":"arg#1","klass":"string"},{"id":"sdaReg1","name":"arg#2","klass":"string"}],"returns":[{"id":null,"name":"return","klass":null}],"colors":{"heapLocToColor":{"sdaReg8":[3],"sdaReg9":[3],"sdaReg6":[3],"sdaReg7":[3],"sdaReg4":[3],"sdaReg5":[3],"1093573688":[0],"1084612152":[0],"1093572896":[0],"sdaReg11":[3],"sdaReg12":[3],"1093904088":[0],"1093909496":[0],"sdaReg10":[3],"sdaReg3":[0],"1093471328":[0],"sdaReg2":[0],"sdaReg1":[2],"sdaReg0":[1],"sdaReg17":[0],"1093572896.<java.util.HashMap$HashMapEntry: int hash>":[0],"sdaReg18":[0],"sdaReg15":[3],"sdaReg16":[4]},"colorToColor":{},"colorToLabel":{"0":"this","1":"arg#1","2":"arg#2","5":"return"}}}

Generated Model

