Scanning method <java.util.TreeMap: void rotateLeft(java.util.TreeMap$Node)>

All seen event types: LoadStaticRecord, BinaryOperationRecord, SimpleAssignmentRecord, MethodReturnRecord, MethodCallRecord, MethodStartRecord, LoadInstanceRecord, MethodEndRecord, IfRecord, StoreInstanceRecord, 
Ignored event types: IfRecord, 

JSON Encoded Analysis Data (for visualization):{"heapEdges":[{"step":0,"from":"1093532984","to":"1093533024","type":"load","field":"<java.util.TreeMap$Node: java.util.TreeMap$Node right>"},{"step":1,"from":"1093533024","to":"1094089992","type":"load","field":"<java.util.TreeMap$Node: java.util.TreeMap$Node right>"},{"step":2,"from":"1093532984","to":"1093532944","type":"load","field":"<java.util.TreeMap$Node: java.util.TreeMap$Node parent>"},{"step":3,"from":"1093532984","to":"sdaReg3","type":"create","field":"<java.util.TreeMap$Node: java.util.TreeMap$Node parent>"},{"step":4,"from":"1093532944","to":"1093533024","type":"store","field":"<java.util.TreeMap$Node: java.util.TreeMap$Node parent>"},{"step":5,"from":"1093532944","to":"1094178240","type":"load","field":"<java.util.TreeMap$Node: java.util.TreeMap$Node left>"},{"step":6,"from":"static.<java.util.TreeMap: boolean $assertionsDisabled>","to":"static.<java.util.TreeMap: boolean $assertionsDisabled>","type":"load","field":"<java.util.TreeMap: boolean $assertionsDisabled>"},{"step":7,"from":"1093533024","to":"1093532944","type":"store","field":"<java.util.TreeMap$Node: java.util.TreeMap$Node right>"},{"step":8,"from":"1093532984","to":"1093533024","type":"store","field":"<java.util.TreeMap$Node: java.util.TreeMap$Node left>"},{"step":9,"from":"1093533024","to":"1093532984","type":"store","field":"<java.util.TreeMap$Node: java.util.TreeMap$Node parent>"},{"step":10,"from":"sdaReg4","to":"sdaReg5","type":"model"},{"step":11,"from":"sdaReg4","to":"sdaReg6","type":"model"},{"step":12,"from":"sdaReg5","to":"sdaReg4","type":"model"},{"step":13,"from":"sdaReg5","to":"sdaReg6","type":"model"},{"step":14,"from":"sdaReg7","to":"1093532984","type":"store","field":"<java.util.TreeMap$Node: int height>"},{"step":15,"from":"1094089992","to":"1094089992.<java.util.TreeMap$Node: int height>","type":"load","field":"<java.util.TreeMap$Node: int height>"},{"step":16,"from":"1094089992.<java.util.TreeMap$Node: int height>","to":"sdaReg8","type":"model"},{"step":17,"from":"sdaReg9","to":"1093533024","type":"store","field":"<java.util.TreeMap$Node: int height>"}],"parameters":[{"id":"1093233072","name":"this","klass":"java.util.TreeMap"},{"id":"1093532984","name":"arg#1","klass":"java.util.TreeMap$Node"}],"returns":[{"id":null,"name":"return","klass":null}],"colors":{"heapLocToColor":{"sdaReg8":[4],"sdaReg9":[4],"sdaReg6":[3],"sdaReg7":[3],"1094178240":[1],"1093233072":[0],"1093532944":[1],"static.<java.util.TreeMap: boolean $assertionsDisabled>":[2],"1093532984":[1],"sdaReg2":[1],"1094089992.<java.util.TreeMap$Node: int height>":[1],"sdaReg1":[1],"1093533024":[1],"sdaReg0":[0],"1094089992":[1]},"colorToColor":{"1":[1, 4],"3":[1],"4":[1]},"colorToLabel":{"0":"this","1":"arg#1","2":"<java.util.TreeMap: boolean $assertionsDisabled>","5":"return"}}}

Generated Model

