Scanning method <java.util.HashMap: void constructorPut(java.lang.Object,java.lang.Object)>

All seen event types: StoreArrayRecord, SimpleAssignmentRecord, MethodStartRecord, LoadInstanceRecord, IfRecord, NewObjectRecord, StoreInstanceRecord, BinaryOperationRecord, MethodCallRecord, MethodReturnRecord, ArrayLengthRecord, LoadArrayRecord, MethodEndRecord, 
Ignored event types: IfRecord, 

JSON Encoded Analysis Data (for visualization):{"heapEdges":[{"step":0,"from":"1093566272","to":"1093566328","type":"load","field":"<java.util.HashMap: java.util.HashMap$HashMapEntry[] table>"},{"step":1,"from":"1093560840","to":"1093564600","type":"store","field":"<java.util.HashMap$HashMapEntry: java.lang.Object key>"},{"step":2,"from":"1083976944","to":"1093564600","type":"store","field":"<java.util.HashMap$HashMapEntry: java.lang.Object value>"},{"step":3,"from":"sdaReg8","to":"1093564600","type":"store","field":"<java.util.HashMap$HashMapEntry: int hash>"},{"step":4,"from":"1093566328","to":"1093564600","type":"create","field":"arrayIdx_int:3"},{"step":5,"from":"1093566272","to":"1093566272.<java.util.HashMap: int size>","type":"load","field":"<java.util.HashMap: int size>"},{"step":6,"from":"sdaReg24","to":"1093566272","type":"store","field":"<java.util.HashMap: int size>"}],"parameters":[{"id":"1093566272","name":"this","klass":"java.util.HashMap"},{"id":"1093560840","name":"arg#1","klass":"java.lang.Object"},{"id":"1083976944","name":"arg#2","klass":"java.lang.Object"}],"returns":[{"id":null,"name":"return","klass":null}],"colors":{"heapLocToColor":{"1093564600":[4],"1093566272.<java.util.HashMap: int size>":[0],"sdaReg13":[0],"1083976944":[2],"sdaReg14":[1],"sdaReg11":[3],"sdaReg19":[2],"sdaReg17":[4],"sdaReg18":[1],"sdaReg15":[2],"sdaReg8":[3],"sdaReg6":[3],"sdaReg7":[3],"sdaReg4":[3],"sdaReg5":[3],"1093560840":[1],"1093566272":[0],"sdaReg3":[3],"sdaReg2":[3],"sdaReg1":[3],"sdaReg21":[4],"sdaReg0":[3],"sdaReg23":[4],"sdaReg22":[4],"sdaReg24":[0],"1093566328":[0]},"colorToColor":{"0":[0],"1":[4],"2":[4],"3":[4],"4":[0]},"colorToLabel":{"0":"this","1":"arg#1","2":"arg#2","5":"return"}}}

Generated Model
	arg#2->this
	arg#1->this

