Scanning method <java.util.HashMap: void constructorPut(java.lang.Object,java.lang.Object)>

All seen event types: StoreArrayRecord, SimpleAssignmentRecord, MethodStartRecord, LoadInstanceRecord, IfRecord, NewObjectRecord, StoreInstanceRecord, BinaryOperationRecord, MethodCallRecord, MethodReturnRecord, ArrayLengthRecord, LoadArrayRecord, MethodEndRecord, 
Ignored event types: IfRecord, 

JSON Encoded Analysis Data (for visualization):{"heapEdges":[{"step":0,"from":"1093580536","to":"1093580592","type":"load","field":"<java.util.HashMap: java.util.HashMap$HashMapEntry[] table>"},{"step":1,"from":"1084320408","to":"1093580672","type":"store","field":"<java.util.HashMap$HashMapEntry: java.lang.Object key>"},{"step":2,"from":"1093560112","to":"1093580672","type":"store","field":"<java.util.HashMap$HashMapEntry: java.lang.Object value>"},{"step":3,"from":"sdaReg8","to":"1093580672","type":"store","field":"<java.util.HashMap$HashMapEntry: int hash>"},{"step":4,"from":"1093580592","to":"1093580672","type":"create","field":"arrayIdx_int:0"},{"step":5,"from":"1093580536","to":"1093580536.<java.util.HashMap: int size>","type":"load","field":"<java.util.HashMap: int size>"},{"step":6,"from":"sdaReg24","to":"1093580536","type":"store","field":"<java.util.HashMap: int size>"}],"parameters":[{"id":"1093580536","name":"this","klass":"java.util.HashMap"},{"id":"1084320408","name":"arg#1","klass":"java.lang.Object"},{"id":"1093560112","name":"arg#2","klass":"java.lang.Object"}],"returns":[{"id":null,"name":"return","klass":null}],"colors":{"heapLocToColor":{"1093560112":[2],"1093580536":[0],"1093580536.<java.util.HashMap: int size>":[0],"1093580672":[4],"sdaReg13":[0],"sdaReg14":[1],"sdaReg11":[3],"sdaReg19":[2],"sdaReg17":[4],"sdaReg18":[1],"sdaReg15":[2],"sdaReg8":[3],"sdaReg6":[3],"sdaReg7":[3],"1084320408":[1],"sdaReg4":[3],"sdaReg5":[3],"sdaReg3":[3],"sdaReg2":[3],"sdaReg1":[3],"sdaReg21":[4],"sdaReg0":[3],"sdaReg23":[4],"sdaReg22":[4],"1093580592":[0],"sdaReg24":[0]},"colorToColor":{"0":[0],"1":[4],"2":[4],"3":[4],"4":[0]},"colorToLabel":{"0":"this","1":"arg#1","2":"arg#2","5":"return"}}}

Generated Model
	arg#2->this
	arg#1->this

