Scanning method <android.text.Html: void withinDiv(java.lang.StringBuilder,android.text.Spanned,int,int)>

All seen event types: LoadStaticRecord, BinaryOperationRecord, SimpleAssignmentRecord, MethodReturnRecord, MethodCallRecord, ArrayLengthRecord, CastRecord, LoadInstanceRecord, MethodStartRecord, LoadArrayRecord, MethodEndRecord, IfRecord, 
Ignored event types: IfRecord, 

JSON Encoded Analysis Data (for visualization):{"heapEdges":[{"step":0,"from":"1093859008","to":"1093859008.<android.text.SpannableStringInternal: int mSpanCount>","type":"load","field":"<android.text.SpannableStringInternal: int mSpanCount>"},{"step":1,"from":"1093859008","to":"1093984448","type":"load","field":"<android.text.SpannableStringInternal: java.lang.Object[] mSpans>"},{"step":2,"from":"1093859008","to":"1093984472","type":"load","field":"<android.text.SpannableStringInternal: int[] mSpanData>"},{"step":3,"from":"1093859008","to":"1093859008.<android.text.SpannableStringInternal: int mSpanCount>","type":"load","field":"<android.text.SpannableStringInternal: int mSpanCount>"},{"step":4,"from":"1093859008","to":"1093984448","type":"load","field":"<android.text.SpannableStringInternal: java.lang.Object[] mSpans>"},{"step":5,"from":"1093859008","to":"1093984472","type":"load","field":"<android.text.SpannableStringInternal: int[] mSpanData>"},{"step":6,"from":"1084853880","to":"sdaReg17","type":"model"},{"step":7,"from":"static.<com.android.internal.util.ArrayUtils: java.lang.Object[] sCache>","to":"1084375760","type":"load","field":"<com.android.internal.util.ArrayUtils: java.lang.Object[] sCache>"},{"step":8,"from":"1084375760","to":"1093867000","type":"load","field":"arrayIdx_int:37"},{"step":9,"from":"1093867000","to":"1094014728","type":"model"},{"step":10,"from":"1094014728","to":"1084853880","type":"model"},{"step":11,"from":"1093859008","to":"1093859008.<android.text.SpannableStringInternal: int mSpanCount>","type":"load","field":"<android.text.SpannableStringInternal: int mSpanCount>"},{"step":12,"from":"1093859008","to":"1093984448","type":"load","field":"<android.text.SpannableStringInternal: java.lang.Object[] mSpans>"},{"step":13,"from":"1093859008","to":"1093984472","type":"load","field":"<android.text.SpannableStringInternal: int[] mSpanData>"},{"step":14,"from":"1093859008","to":"1093859008.<android.text.SpannableStringInternal: int mSpanCount>","type":"load","field":"<android.text.SpannableStringInternal: int mSpanCount>"},{"step":15,"from":"1093859008","to":"1093984448","type":"load","field":"<android.text.SpannableStringInternal: java.lang.Object[] mSpans>"},{"step":16,"from":"1093859008","to":"1093984472","type":"load","field":"<android.text.SpannableStringInternal: int[] mSpanData>"},{"step":17,"from":"1084661656","to":"sdaReg59","type":"model"},{"step":18,"from":"static.<com.android.internal.util.ArrayUtils: java.lang.Object[] sCache>","to":"1084375760","type":"load","field":"<com.android.internal.util.ArrayUtils: java.lang.Object[] sCache>"},{"step":19,"from":"1084375760","to":"1093978752","type":"load","field":"arrayIdx_int:26"},{"step":20,"from":"1093978752","to":"1085374624","type":"model"},{"step":21,"from":"1085374624","to":"1084661656","type":"model"},{"step":22,"from":"1093859008","to":"1093859008.<android.text.SpannableStringInternal: java.lang.String mText>","type":"load","field":"<android.text.SpannableStringInternal: java.lang.String mText>"},{"step":23,"from":"1093859008.<android.text.SpannableStringInternal: java.lang.String mText>","to":"sdaReg78","type":"model"},{"step":24,"from":"sdaReg78","to":"1093992712","type":"model"},{"step":25,"from":"1093859008","to":"1093859008.<android.text.SpannableStringInternal: java.lang.String mText>","type":"load","field":"<android.text.SpannableStringInternal: java.lang.String mText>"},{"step":26,"from":"1093859008.<android.text.SpannableStringInternal: java.lang.String mText>","to":"sdaReg80","type":"model"},{"step":27,"from":"sdaReg80","to":"1093992712","type":"model"},{"step":28,"from":"1093859008","to":"1093859008.<android.text.SpannableStringInternal: java.lang.String mText>","type":"load","field":"<android.text.SpannableStringInternal: java.lang.String mText>"},{"step":29,"from":"1093859008.<android.text.SpannableStringInternal: java.lang.String mText>","to":"sdaReg82","type":"model"},{"step":30,"from":"sdaReg82","to":"1093992712","type":"model"},{"step":31,"from":"1093859008","to":"1093859008.<android.text.SpannableStringInternal: java.lang.String mText>","type":"load","field":"<android.text.SpannableStringInternal: java.lang.String mText>"},{"step":32,"from":"1093859008.<android.text.SpannableStringInternal: java.lang.String mText>","to":"sdaReg84","type":"model"},{"step":33,"from":"sdaReg84","to":"1093992712","type":"model"},{"step":34,"from":"1093859008","to":"1093859008.<android.text.SpannableStringInternal: java.lang.String mText>","type":"load","field":"<android.text.SpannableStringInternal: java.lang.String mText>"},{"step":35,"from":"1093859008.<android.text.SpannableStringInternal: java.lang.String mText>","to":"sdaReg86","type":"model"},{"step":36,"from":"sdaReg86","to":"1093992712","type":"model"},{"step":37,"from":"1093859008","to":"1093859008.<android.text.SpannableStringInternal: java.lang.String mText>","type":"load","field":"<android.text.SpannableStringInternal: java.lang.String mText>"},{"step":38,"from":"1093859008.<android.text.SpannableStringInternal: java.lang.String mText>","to":"sdaReg88","type":"model"},{"step":39,"from":"1093859008","to":"1093859008.<android.text.SpannableStringInternal: java.lang.String mText>","type":"load","field":"<android.text.SpannableStringInternal: java.lang.String mText>"},{"step":40,"from":"1093859008.<android.text.SpannableStringInternal: java.lang.String mText>","to":"sdaReg92","type":"model"},{"step":41,"from":"1093859008","to":"1093859008.<android.text.SpannableStringInternal: java.lang.String mText>","type":"load","field":"<android.text.SpannableStringInternal: java.lang.String mText>"},{"step":42,"from":"1093859008.<android.text.SpannableStringInternal: java.lang.String mText>","to":"sdaReg94","type":"model"},{"step":43,"from":"1093859008","to":"1093859008.<android.text.SpannableStringInternal: java.lang.String mText>","type":"load","field":"<android.text.SpannableStringInternal: java.lang.String mText>"},{"step":44,"from":"1093859008.<android.text.SpannableStringInternal: java.lang.String mText>","to":"sdaReg96","type":"model"},{"step":45,"from":"sdaReg96","to":"1093992712","type":"model"},{"step":46,"from":"1093859008","to":"1093859008.<android.text.SpannableStringInternal: java.lang.String mText>","type":"load","field":"<android.text.SpannableStringInternal: java.lang.String mText>"},{"step":47,"from":"1093859008.<android.text.SpannableStringInternal: java.lang.String mText>","to":"sdaReg98","type":"model"},{"step":48,"from":"sdaReg98","to":"1093992712","type":"model"},{"step":49,"from":"1093859008","to":"1093859008.<android.text.SpannableStringInternal: java.lang.String mText>","type":"load","field":"<android.text.SpannableStringInternal: java.lang.String mText>"},{"step":50,"from":"1093859008.<android.text.SpannableStringInternal: java.lang.String mText>","to":"sdaReg100","type":"model"},{"step":51,"from":"sdaReg100","to":"1093992712","type":"model"},{"step":52,"from":"1093859008","to":"1093859008.<android.text.SpannableStringInternal: java.lang.String mText>","type":"load","field":"<android.text.SpannableStringInternal: java.lang.String mText>"},{"step":53,"from":"1093859008.<android.text.SpannableStringInternal: java.lang.String mText>","to":"sdaReg102","type":"model"},{"step":54,"from":"sdaReg102","to":"1093992712","type":"model"},{"step":55,"from":"1093859008","to":"1093859008.<android.text.SpannableStringInternal: java.lang.String mText>","type":"load","field":"<android.text.SpannableStringInternal: java.lang.String mText>"},{"step":56,"from":"1093859008.<android.text.SpannableStringInternal: java.lang.String mText>","to":"sdaReg104","type":"model"},{"step":57,"from":"sdaReg104","to":"1093992712","type":"model"},{"step":58,"from":"sdaReg108","to":"1093992712","type":"model"}],"parameters":[{"id":"1093992712","name":"arg#0","klass":"java.lang.StringBuilder"},{"id":"1093859008","name":"arg#1","klass":"android.text.Spanned"},{"id":"sdaReg0","name":"arg#2","klass":"int"},{"id":"sdaReg1","name":"arg#3","klass":"int"}],"returns":[{"id":null,"name":"return","klass":null}],"colors":{"heapLocToColor":{"sdaReg60":[9],"sdaReg61":[9],"1084853880":[5, 6, 7],"1093859008.<android.text.SpannableStringInternal: int mSpanCount>":[1],"1094014728":[5, 6],"sdaReg68":[5],"sdaReg69":[5],"sdaReg67":[5],"sdaReg64":[5, 10, 11],"1093859008.<android.text.SpannableStringInternal: java.lang.String mText>":[1],"sdaReg62":[9],"sdaReg63":[5, 10],"sdaReg71":[5],"1093992712":[0],"sdaReg70":[5],"sdaReg10":[1],"sdaReg59":[9],"sdaReg19":[4],"1093867000":[5],"sdaReg17":[4],"sdaReg18":[4],"1093859008":[1],"sdaReg52":[1],"1093984448":[1],"sdaReg50":[1],"1093978752":[5],"1093859008.<android.text.SpannableStringInternal: int[] mSpanData>":[1],"sdaReg77":[1],"sdaReg78":[1, 12],"sdaReg79":[1],"sdaReg74":[0],"sdaReg75":[1],"1084661656":[5, 10, 11],"sdaReg76":[2],"sdaReg81":[1],"sdaReg80":[1, 13],"sdaReg83":[1],"sdaReg82":[1, 14],"sdaReg45":[1],"sdaReg44":[2, 3, 8],"sdaReg47":[1],"sdaReg43":[1],"sdaReg110":[5],"sdaReg42":[0],"1093984472":[1],"sdaReg103":[1],"sdaReg104":[1, 24],"sdaReg86":[1, 16],"static.<com.android.internal.util.ArrayUtils: java.lang.Object[] sCache>":[5],"sdaReg87":[1],"sdaReg84":[1, 15],"sdaReg85":[1],"1085374624":[5, 10],"sdaReg88":[17, 1],"sdaReg89":[2],"sdaReg90":[2],"sdaReg39":[3, 8],"sdaReg38":[2],"1084375760":[5],"sdaReg94":[1, 19],"sdaReg93":[1],"sdaReg92":[1, 18],"sdaReg91":[1],"sdaReg100":[1, 22],"sdaReg102":[1, 23],"sdaReg30":[5],"sdaReg101":[1],"sdaReg36":[3, 8],"sdaReg35":[2, 3, 8],"sdaReg34":[1],"sdaReg33":[0],"sdaReg8":[1],"sdaReg5":[1],"sdaReg95":[1],"sdaReg96":[1, 20],"sdaReg97":[1],"sdaReg98":[1, 21],"sdaReg99":[1],"sdaReg27":[5],"sdaReg26":[5],"sdaReg29":[5],"1093859008.<android.text.SpannableStringInternal: java.lang.Object[] mSpans>":[1],"sdaReg28":[5],"sdaReg3":[1],"sdaReg2":[2, 3],"sdaReg21":[5, 6],"sdaReg1":[3],"sdaReg20":[4],"sdaReg0":[2],"sdaReg22":[5, 6, 7],"sdaReg25":[5]},"colorToColor":{"16":[0],"1":[0],"21":[0],"20":[0],"23":[0],"22":[0],"24":[0],"12":[0],"13":[0],"14":[0],"15":[0]},"colorToLabel":{"0":"arg#0","1":"arg#1","2":"arg#2","3":"arg#3","5":"<com.android.internal.util.ArrayUtils: java.lang.Object[] sCache>","25":"return"}}}

Generated Model
	arg#1->arg#0

