Scanning method <java.io.ObjectInputStream: java.util.List cacheSuperclassesFor(java.lang.Class)>

All seen event types: LoadStaticRecord, SimpleAssignmentRecord, MethodReturnRecord, MethodCallRecord, LoadInstanceRecord, MethodStartRecord, IfRecord, MethodEndRecord, StoreInstanceRecord, NewObjectRecord, 
Ignored event types: IfRecord, 

JSON Encoded Analysis Data (for visualization):{"heapEdges":[{"step":0,"from":"static.<libcore.util.EmptyArray: java.lang.Object[] OBJECT>","to":"1083994088","type":"load","field":"<libcore.util.EmptyArray: java.lang.Object[] OBJECT>"},{"step":1,"from":"1083994088","to":"1094821288","type":"store","field":"<java.util.ArrayList: java.lang.Object[] array>"},{"step":2,"from":"1093458440","to":"1093398240","type":"model"},{"step":3,"from":"1094821288","to":"1093458440","type":"model"},{"step":4,"from":"1093458440","to":"1094821288","type":"model"},{"step":5,"from":"1093398240","to":"1093399144","type":"model"},{"step":6,"from":"1094821288","to":"1093398240","type":"model"},{"step":7,"from":"1093398240","to":"1094821288","type":"model"},{"step":8,"from":"1093399144","to":"1083910288","type":"model"},{"step":9,"from":"1094821288","to":"1093399144","type":"model"},{"step":10,"from":"1093399144","to":"1094821288","type":"model"},{"step":11,"from":"1083910288","to":"0","type":"model"},{"step":12,"from":"1093381560","to":"1093340888","type":"load","field":"<java.io.ObjectInputStream: java.util.HashMap cachedSuperclasses>"},{"step":13,"from":"1093340888","to":"1093458440","type":"model"},{"step":14,"from":"1093340888","to":"1094821288","type":"model"},{"step":15,"from":"1093458440","to":"1093340888","type":"model"},{"step":16,"from":"1093458440","to":"1094821288","type":"model"},{"step":17,"from":"1094821288","to":"1093340888","type":"model"},{"step":18,"from":"1094821288","to":"1093458440","type":"model"}],"parameters":[{"id":"1093381560","name":"this","klass":"java.io.ObjectInputStream"},{"id":"1093458440","name":"arg#1","klass":"com.android.cts.droidrecord.modelgen.ObjectInputStreamTest$C.class"}],"returns":[{"id":"1094821288","name":"return","klass":"java.util.List"}],"colors":{"heapLocToColor":{"sdaReg8":[1, 4, 5, 6, 7],"sdaReg9":[1, 4],"sdaReg6":[2],"sdaReg7":[2],"1093458440":[0, 1, 2],"sdaReg4":[2],"sdaReg5":[2],"static.<libcore.util.EmptyArray: java.lang.Object[] OBJECT>":[3],"1093399144":[1, 2, 4, 5],"1083910288":[1, 4, 5, 6],"1094821288":[0, 2],"sdaReg11":[1, 4, 5, 6],"sdaReg12":[1, 4, 5, 6, 7],"0":[1, 4, 5, 6, 7],"1083994088":[3],"sdaReg10":[1, 4, 5],"1093381560":[0],"sdaReg3":[2],"sdaReg2":[2],"1093398240":[1, 2, 4],"sdaReg1":[2],"1093340888":[0],"sdaReg0":[2]},"colorToColor":{"0":[0, 1, 2, 8],"1":[0, 2],"2":[0, 1, 2, 8],"3":[2],"4":[2],"5":[2]},"colorToLabel":{"0":"this","1":"arg#1","3":"<libcore.util.EmptyArray: java.lang.Object[] OBJECT>","8":"return"}}}

Generated Model
	this->return
	this->arg#1
	arg#1->this
	arg#1->return

