Scanning method <java.io.ObjectInputStream: java.util.List cacheSuperclassesFor(java.lang.Class)>

All seen event types: LoadStaticRecord, SimpleAssignmentRecord, MethodReturnRecord, MethodCallRecord, LoadInstanceRecord, MethodStartRecord, IfRecord, MethodEndRecord, StoreInstanceRecord, NewObjectRecord, 
Ignored event types: IfRecord, 

JSON Encoded Analysis Data (for visualization):{"heapEdges":[{"step":0,"from":"static.<libcore.util.EmptyArray: java.lang.Object[] OBJECT>","to":"1083994088","type":"load","field":"<libcore.util.EmptyArray: java.lang.Object[] OBJECT>"},{"step":1,"from":"1083994088","to":"1093332712","type":"store","field":"<java.util.ArrayList: java.lang.Object[] array>"},{"step":2,"from":"1093510072","to":"1083910288","type":"model"},{"step":3,"from":"1093332712","to":"1093510072","type":"model"},{"step":4,"from":"1093510072","to":"1093332712","type":"model"},{"step":5,"from":"1083910288","to":"0","type":"model"},{"step":6,"from":"1093240224","to":"1093388824","type":"load","field":"<java.io.ObjectInputStream: java.util.HashMap cachedSuperclasses>"},{"step":7,"from":"1093388824","to":"1093510072","type":"model"},{"step":8,"from":"1093388824","to":"1093332712","type":"model"},{"step":9,"from":"1093510072","to":"1093388824","type":"model"},{"step":10,"from":"1093510072","to":"1093332712","type":"model"},{"step":11,"from":"1093332712","to":"1093388824","type":"model"},{"step":12,"from":"1093332712","to":"1093510072","type":"model"}],"parameters":[{"id":"1093240224","name":"this","klass":"java.io.ObjectInputStream"},{"id":"1093510072","name":"arg#1","klass":"com.android.cts.droidrecord.modelgen.support.pkg2.TestClass.class"}],"returns":[{"id":"1093332712","name":"return","klass":"java.util.List"}],"colors":{"heapLocToColor":{"1093332712":[0, 2],"sdaReg8":[1, 4, 5],"sdaReg9":[1, 4],"1093240224":[0],"sdaReg6":[2],"sdaReg7":[2],"sdaReg4":[2],"sdaReg5":[2],"1093510072":[0, 1, 2],"static.<libcore.util.EmptyArray: java.lang.Object[] OBJECT>":[3],"1083910288":[1, 4],"0":[1, 4, 5],"1083994088":[3],"sdaReg10":[1, 4, 5],"sdaReg3":[2],"sdaReg2":[2],"1093388824":[0],"sdaReg1":[2],"sdaReg0":[2]},"colorToColor":{"0":[0, 1, 2, 6],"1":[0, 2],"2":[0, 1, 2, 6],"3":[2]},"colorToLabel":{"0":"this","1":"arg#1","3":"<libcore.util.EmptyArray: java.lang.Object[] OBJECT>","6":"return"}}}

Generated Model
	this->return
	this->arg#1
	arg#1->this
	arg#1->return

