Scanning method <java.net.URI: java.net.URI create(java.lang.String)>

All seen event types: LoadStaticRecord, SimpleAssignmentRecord, MethodReturnRecord, MethodCallRecord, LoadInstanceRecord, MethodStartRecord, MethodEndRecord, IfRecord, StoreInstanceRecord, NewObjectRecord, 
Ignored event types: IfRecord, 

JSON Encoded Analysis Data (for visualization):{"heapEdges":[{"step":0,"from":"1093404080","to":"sdaReg3","type":"create","field":"<java.net.URI: int port>"},{"step":1,"from":"1093404080","to":"sdaReg4","type":"create","field":"<java.net.URI: boolean serverAuthority>"},{"step":2,"from":"1093404080","to":"sdaReg5","type":"create","field":"<java.net.URI: int hash>"},{"step":3,"from":"sdaReg0","to":"1093404080","type":"store","field":"<java.net.URI: java.lang.String string>"},{"step":4,"from":"1093404080","to":"sdaReg19","type":"create","field":"<java.net.URI: boolean absolute>"},{"step":5,"from":"1093404080","to":"sdaReg21","type":"create","field":"<java.net.URI: boolean opaque>"},{"step":6,"from":"sdaReg0","to":"sdaReg22","type":"model"},{"step":7,"from":"sdaReg22","to":"1093404080","type":"store","field":"<java.net.URI: java.lang.String schemeSpecificPart>"},{"step":8,"from":"static.<java.net.URI: libcore.net.UriCodec PATH_ENCODER>","to":"1085474672","type":"load","field":"<java.net.URI: libcore.net.UriCodec PATH_ENCODER>"},{"step":9,"from":"sdaReg0","to":"sdaReg30","type":"model"},{"step":10,"from":"sdaReg30","to":"1093404080","type":"store","field":"<java.net.URI: java.lang.String path>"},{"step":11,"from":"1093404080","to":"1093404080.<java.net.URI: java.lang.String authority>","type":"load","field":"<java.net.URI: java.lang.String authority>"}],"parameters":[{"id":"sdaReg0","name":"arg#0","klass":"string"}],"returns":[{"id":"1093404080","name":"return","klass":"java.net.URI"}],"colors":{"heapLocToColor":{"sdaReg8":[2],"sdaReg6":[1],"1093404080.<java.net.URI: java.lang.String authority>":[1],"sdaReg27":[6],"1085474672":[6],"sdaReg12":[3],"static.<java.net.URI: libcore.net.UriCodec PATH_ENCODER>":[6],"1093404080":[1],"sdaReg32":[1],"sdaReg31":[1],"sdaReg2":[1],"sdaReg1":[1],"sdaReg30":[0, 7],"sdaReg0":[0],"sdaReg23":[5],"sdaReg22":[0, 4]},"colorToColor":{"0":[1],"1":[8],"4":[1],"7":[1]},"colorToLabel":{"0":"arg#0","6":"<java.net.URI: libcore.net.UriCodec PATH_ENCODER>","8":"return"}}}

Generated Model
	arg#0->return

