Scanning method <java.net.URI: java.net.URI create(java.lang.String)>

All seen event types: LoadStaticRecord, BinaryOperationRecord, SimpleAssignmentRecord, MethodReturnRecord, MethodCallRecord, LoadInstanceRecord, MethodStartRecord, MethodEndRecord, IfRecord, StoreInstanceRecord, NewObjectRecord, 
Ignored event types: IfRecord, 

JSON Encoded Analysis Data (for visualization):{"heapEdges":[{"step":0,"from":"1093256840","to":"sdaReg3","type":"create","field":"<java.net.URI: int port>"},{"step":1,"from":"1093256840","to":"sdaReg4","type":"create","field":"<java.net.URI: boolean serverAuthority>"},{"step":2,"from":"1093256840","to":"sdaReg5","type":"create","field":"<java.net.URI: int hash>"},{"step":3,"from":"sdaReg0","to":"1093256840","type":"store","field":"<java.net.URI: java.lang.String string>"},{"step":4,"from":"sdaReg0","to":"sdaReg12","type":"model"},{"step":5,"from":"sdaReg0","to":"sdaReg18","type":"model"},{"step":6,"from":"sdaReg0","to":"sdaReg23","type":"model"},{"step":7,"from":"1093256840","to":"sdaReg25","type":"create","field":"<java.net.URI: boolean absolute>"},{"step":8,"from":"1093256840","to":"sdaReg27","type":"create","field":"<java.net.URI: boolean opaque>"},{"step":9,"from":"sdaReg0","to":"sdaReg28","type":"model"},{"step":10,"from":"sdaReg28","to":"1093256840","type":"store","field":"<java.net.URI: java.lang.String schemeSpecificPart>"},{"step":11,"from":"sdaReg0","to":"sdaReg33","type":"model"},{"step":12,"from":"static.<java.net.URI: libcore.net.UriCodec PATH_ENCODER>","to":"1085474672","type":"load","field":"<java.net.URI: libcore.net.UriCodec PATH_ENCODER>"},{"step":13,"from":"sdaReg0","to":"sdaReg38","type":"model"},{"step":14,"from":"sdaReg0","to":"sdaReg43","type":"model"},{"step":15,"from":"sdaReg43","to":"1093256840","type":"store","field":"<java.net.URI: java.lang.String path>"},{"step":16,"from":"1093256840","to":"1093256840.<java.net.URI: java.lang.String authority>","type":"load","field":"<java.net.URI: java.lang.String authority>"}],"parameters":[{"id":"sdaReg0","name":"arg#0","klass":"string"}],"returns":[{"id":"1093256840","name":"return","klass":"java.net.URI"}],"colors":{"heapLocToColor":{"sdaReg13":[4],"sdaReg14":[5],"sdaReg39":[14],"1085474672":[14],"sdaReg38":[0, 15],"sdaReg12":[0, 3],"sdaReg19":[7],"sdaReg18":[0, 6],"sdaReg35":[14],"sdaReg34":[13],"sdaReg33":[0, 12],"sdaReg8":[2],"1093256840":[1],"sdaReg6":[1],"sdaReg29":[11],"sdaReg28":[0, 10],"static.<java.net.URI: libcore.net.UriCodec PATH_ENCODER>":[14],"sdaReg45":[1],"1093256840.<java.net.URI: java.lang.String authority>":[1],"sdaReg2":[1],"sdaReg44":[1],"sdaReg1":[1],"sdaReg0":[0],"sdaReg23":[0, 8],"sdaReg41":[16],"sdaReg43":[0, 17],"sdaReg24":[9]},"colorToColor":{"17":[1],"0":[1],"1":[18],"10":[1]},"colorToLabel":{"0":"arg#0","14":"<java.net.URI: libcore.net.UriCodec PATH_ENCODER>","18":"return"}}}

Generated Model
	arg#0->return

