Scanning method <java.net.URI: java.net.URI create(java.lang.String)>

All seen event types: SimpleAssignmentRecord, MethodStartRecord, LoadInstanceRecord, IfRecord, NewObjectRecord, StoreInstanceRecord, LoadStaticRecord, BinaryOperationRecord, MethodCallRecord, MethodReturnRecord, ArrayLengthRecord, LoadArrayRecord, MethodEndRecord, 
Ignored event types: IfRecord, 

JSON Encoded Analysis Data (for visualization):{"heapEdges":[{"step":0,"from":"1093313608","to":"sdaReg3","type":"create","field":"<java.net.URI: int port>"},{"step":1,"from":"1093313608","to":"sdaReg4","type":"create","field":"<java.net.URI: boolean serverAuthority>"},{"step":2,"from":"1093313608","to":"sdaReg5","type":"create","field":"<java.net.URI: int hash>"},{"step":3,"from":"sdaReg0","to":"1093313608","type":"store","field":"<java.net.URI: java.lang.String string>"},{"step":4,"from":"sdaReg0","to":"sdaReg12","type":"model"},{"step":5,"from":"sdaReg0","to":"sdaReg14","type":"model"},{"step":6,"from":"sdaReg0","to":"sdaReg16","type":"model"},{"step":7,"from":"sdaReg0","to":"sdaReg18","type":"model"},{"step":8,"from":"sdaReg0","to":"sdaReg20","type":"model"},{"step":9,"from":"sdaReg0","to":"sdaReg22","type":"model"},{"step":10,"from":"sdaReg0","to":"sdaReg24","type":"model"},{"step":11,"from":"sdaReg0","to":"sdaReg26","type":"model"},{"step":12,"from":"sdaReg0","to":"sdaReg28","type":"model"},{"step":13,"from":"sdaReg0","to":"sdaReg30","type":"model"},{"step":14,"from":"sdaReg0","to":"sdaReg32","type":"model"},{"step":15,"from":"sdaReg0","to":"sdaReg34","type":"model"},{"step":16,"from":"sdaReg0","to":"sdaReg36","type":"model"},{"step":17,"from":"sdaReg0","to":"sdaReg38","type":"model"},{"step":18,"from":"sdaReg0","to":"sdaReg40","type":"model"},{"step":19,"from":"sdaReg0","to":"sdaReg42","type":"model"},{"step":20,"from":"sdaReg0","to":"sdaReg44","type":"model"},{"step":21,"from":"sdaReg0","to":"sdaReg50","type":"model"},{"step":22,"from":"sdaReg0","to":"sdaReg52","type":"model"},{"step":23,"from":"sdaReg0","to":"sdaReg54","type":"model"},{"step":24,"from":"sdaReg0","to":"sdaReg56","type":"model"},{"step":25,"from":"sdaReg0","to":"sdaReg58","type":"model"},{"step":26,"from":"sdaReg0","to":"sdaReg60","type":"model"},{"step":27,"from":"sdaReg0","to":"sdaReg65","type":"model"},{"step":28,"from":"sdaReg0","to":"sdaReg67","type":"model"},{"step":29,"from":"sdaReg0","to":"sdaReg69","type":"model"},{"step":30,"from":"sdaReg0","to":"sdaReg71","type":"model"},{"step":31,"from":"sdaReg0","to":"sdaReg73","type":"model"},{"step":32,"from":"sdaReg0","to":"sdaReg75","type":"model"},{"step":33,"from":"sdaReg0","to":"sdaReg77","type":"model"},{"step":34,"from":"1093313608","to":"sdaReg79","type":"create","field":"<java.net.URI: boolean absolute>"},{"step":35,"from":"sdaReg0","to":"sdaReg82","type":"model"},{"step":36,"from":"sdaReg0","to":"sdaReg84","type":"model"},{"step":37,"from":"sdaReg0","to":"sdaReg86","type":"model"},{"step":38,"from":"sdaReg0","to":"sdaReg88","type":"model"},{"step":39,"from":"sdaReg0","to":"sdaReg90","type":"model"},{"step":40,"from":"sdaReg0","to":"sdaReg92","type":"model"},{"step":41,"from":"sdaReg92","to":"1093313608","type":"store","field":"<java.net.URI: java.lang.String scheme>"},{"step":42,"from":"1093313608","to":"sdaReg95","type":"create","field":"<java.net.URI: boolean opaque>"},{"step":43,"from":"sdaReg0","to":"sdaReg96","type":"model"},{"step":44,"from":"sdaReg96","to":"1093313608","type":"store","field":"<java.net.URI: java.lang.String schemeSpecificPart>"},{"step":45,"from":"sdaReg0","to":"sdaReg101","type":"model"},{"step":46,"from":"sdaReg0","to":"sdaReg103","type":"model"},{"step":47,"from":"sdaReg0","to":"sdaReg105","type":"model"},{"step":48,"from":"sdaReg0","to":"sdaReg107","type":"model"},{"step":49,"from":"sdaReg0","to":"sdaReg109","type":"model"},{"step":50,"from":"sdaReg0","to":"sdaReg111","type":"model"},{"step":51,"from":"static.<java.net.URI: libcore.net.UriCodec AUTHORITY_ENCODER>","to":"1085536376","type":"load","field":"<java.net.URI: libcore.net.UriCodec AUTHORITY_ENCODER>"},{"step":52,"from":"sdaReg0","to":"sdaReg117","type":"model"},{"step":53,"from":"sdaReg0","to":"sdaReg118","type":"model"},{"step":54,"from":"sdaReg0","to":"sdaReg119","type":"model"},{"step":55,"from":"sdaReg0","to":"sdaReg120","type":"model"},{"step":56,"from":"sdaReg0","to":"sdaReg121","type":"model"},{"step":57,"from":"sdaReg0","to":"sdaReg122","type":"model"},{"step":58,"from":"sdaReg122","to":"1093313608","type":"store","field":"<java.net.URI: java.lang.String authority>"},{"step":59,"from":"sdaReg0","to":"sdaReg125","type":"model"},{"step":60,"from":"sdaReg0","to":"sdaReg127","type":"model"},{"step":61,"from":"sdaReg0","to":"sdaReg129","type":"model"},{"step":62,"from":"sdaReg0","to":"sdaReg131","type":"model"},{"step":63,"from":"static.<java.net.URI: libcore.net.UriCodec PATH_ENCODER>","to":"1085474672","type":"load","field":"<java.net.URI: libcore.net.UriCodec PATH_ENCODER>"},{"step":64,"from":"sdaReg0","to":"sdaReg136","type":"model"},{"step":65,"from":"1085474672","to":"1085474672.<java.net.URI$PartEncoder: java.lang.String extraLegalCharacters>","type":"load","field":"<java.net.URI$PartEncoder: java.lang.String extraLegalCharacters>"},{"step":66,"from":"sdaReg0","to":"sdaReg144","type":"model"},{"step":67,"from":"sdaReg0","to":"sdaReg145","type":"model"},{"step":68,"from":"1085474672","to":"1085474672.<java.net.URI$PartEncoder: java.lang.String extraLegalCharacters>","type":"load","field":"<java.net.URI$PartEncoder: java.lang.String extraLegalCharacters>"},{"step":69,"from":"sdaReg0","to":"sdaReg153","type":"model"},{"step":70,"from":"sdaReg0","to":"sdaReg154","type":"model"},{"step":71,"from":"sdaReg154","to":"1093313608","type":"store","field":"<java.net.URI: java.lang.String path>"},{"step":72,"from":"sdaReg162","to":"sdaReg168","type":"model"},{"step":73,"from":"sdaReg162","to":"sdaReg173","type":"model"},{"step":74,"from":"sdaReg162","to":"sdaReg175","type":"model"},{"step":75,"from":"sdaReg162","to":"sdaReg177","type":"model"},{"step":76,"from":"sdaReg162","to":"sdaReg179","type":"model"},{"step":77,"from":"sdaReg162","to":"sdaReg181","type":"model"},{"step":78,"from":"sdaReg162","to":"1093516464","type":"model"},{"step":79,"from":"1093516464","to":"1093516464.arrayIdx_int:0","type":"load","field":"arrayIdx_int:0"},{"step":80,"from":"sdaReg156","to":"1093313608","type":"store","field":"<java.net.URI: java.lang.String userInfo>"},{"step":81,"from":"sdaReg162","to":"1093313608","type":"store","field":"<java.net.URI: java.lang.String host>"},{"step":82,"from":"sdaReg161","to":"1093313608","type":"store","field":"<java.net.URI: int port>"},{"step":83,"from":"1093313608","to":"sdaReg192","type":"create","field":"<java.net.URI: boolean serverAuthority>"}],"parameters":[{"id":"sdaReg0","name":"arg#0","klass":"string"}],"returns":[{"id":"1093313608","name":"return","klass":"java.net.URI"}],"colors":{"heapLocToColor":{"sdaReg125":[0, 93],"sdaReg126":[94],"sdaReg193":[1],"sdaReg127":[0, 95],"sdaReg128":[96],"sdaReg129":[0, 97],"sdaReg68":[53],"sdaReg69":[0, 54],"sdaReg66":[51],"sdaReg67":[0, 52],"sdaReg65":[0, 50],"sdaReg13":[4],"sdaReg72":[57],"sdaReg14":[0, 5],"sdaReg71":[0, 56],"sdaReg70":[55],"sdaReg12":[0, 3],"sdaReg19":[10],"sdaReg120":[0, 90],"sdaReg122":[0, 92],"sdaReg17":[8],"sdaReg121":[0, 91],"sdaReg18":[0, 9],"sdaReg15":[6],"sdaReg16":[0, 7],"sdaReg117":[0, 87],"sdaReg114":[86],"sdaReg118":[0, 88],"sdaReg119":[0, 89],"sdaReg77":[0, 62],"sdaReg78":[63],"sdaReg73":[0, 58],"sdaReg74":[59],"sdaReg75":[0, 60],"sdaReg76":[61],"sdaReg80":[1],"sdaReg82":[0, 64],"sdaReg113":[85],"sdaReg112":[84],"sdaReg111":[0, 83],"sdaReg110":[82],"sdaReg107":[0, 79],"sdaReg108":[80],"sdaReg109":[0, 81],"sdaReg103":[0, 75],"sdaReg104":[76],"sdaReg105":[0, 77],"sdaReg106":[78],"sdaReg173":[122],"sdaReg86":[0, 66],"sdaReg172":[121],"sdaReg175":[124],"sdaReg84":[0, 65],"sdaReg174":[123],"sdaReg177":[126],"sdaReg176":[125],"sdaReg179":[128],"sdaReg88":[0, 67],"sdaReg178":[127],"sdaReg90":[0, 68],"sdaReg94":[70],"sdaReg92":[0, 69],"sdaReg102":[74],"sdaReg101":[0, 73],"sdaReg182":[131],"sdaReg181":[130],"sdaReg180":[129],"1085474672.<java.net.URI$PartEncoder: java.lang.String extraLegalCharacters>":[101],"sdaReg96":[0, 71],"sdaReg184":[132],"sdaReg97":[72],"sdaReg183":[132],"1085536376":[86],"sdaReg189":[135],"sdaReg188":[134],"sdaReg187":[133],"1093516464.arrayIdx_int:0":[132],"static.<java.net.URI: libcore.net.UriCodec PATH_ENCODER>":[101],"sdaReg60":[0, 48],"sdaReg61":[49],"sdaReg169":[1],"sdaReg163":[116],"sdaReg164":[1],"sdaReg165":[117],"sdaReg166":[118],"sdaReg167":[119],"sdaReg168":[120],"sdaReg59":[47],"sdaReg58":[0, 46],"sdaReg57":[45],"1093516464":[132],"sdaReg56":[0, 44],"sdaReg55":[43],"sdaReg54":[0, 42],"sdaReg53":[41],"sdaReg52":[0, 40],"sdaReg160":[115],"sdaReg51":[39],"sdaReg50":[0, 38],"sdaReg159":[114],"1093313608":[1],"sdaReg153":[0, 111],"sdaReg150":[109],"sdaReg151":[110],"sdaReg157":[113],"sdaReg154":[0, 112],"sdaReg155":[1],"sdaReg45":[36],"sdaReg44":[0, 35],"sdaReg46":[37],"sdaReg41":[32],"sdaReg40":[0, 31],"sdaReg43":[34],"sdaReg42":[0, 33],"static.<java.net.URI: libcore.net.UriCodec AUTHORITY_ENCODER>":[86],"sdaReg148":[108],"sdaReg144":[0, 106],"sdaReg39":[30],"sdaReg145":[0, 107],"1085474672":[101],"sdaReg38":[0, 29],"sdaReg146":[101],"sdaReg37":[28],"sdaReg141":[104],"sdaReg142":[105],"sdaReg32":[0, 23],"sdaReg31":[22],"sdaReg30":[0, 21],"sdaReg36":[0, 27],"sdaReg35":[26],"sdaReg34":[0, 25],"sdaReg33":[24],"sdaReg8":[2],"sdaReg6":[1],"sdaReg139":[103],"sdaReg137":[101],"sdaReg136":[0, 102],"sdaReg27":[18],"sdaReg26":[0, 17],"sdaReg132":[100],"sdaReg29":[20],"sdaReg133":[101],"sdaReg28":[0, 19],"sdaReg130":[98],"sdaReg131":[0, 99],"sdaReg2":[1],"sdaReg1":[1],"sdaReg21":[12],"sdaReg0":[0],"sdaReg20":[0, 11],"sdaReg23":[14],"sdaReg22":[0, 13],"sdaReg25":[16],"sdaReg24":[0, 15]},"colorToColor":{"0":[1],"1":[136],"69":[1],"71":[1],"112":[1],"92":[1]},"colorToLabel":{"0":"arg#0","86":"<java.net.URI: libcore.net.UriCodec AUTHORITY_ENCODER>","101":"<java.net.URI: libcore.net.UriCodec PATH_ENCODER>","136":"return"}}}

Generated Model
	arg#0->return

