Scanning method <java.net.URI: java.net.URI create(java.lang.String)>

All seen event types: LoadStaticRecord, BinaryOperationRecord, SimpleAssignmentRecord, MethodReturnRecord, MethodCallRecord, LoadInstanceRecord, MethodStartRecord, MethodEndRecord, IfRecord, StoreInstanceRecord, NewObjectRecord, 
Ignored event types: IfRecord, 

JSON Encoded Analysis Data (for visualization):{"heapEdges":[{"step":0,"from":"1093464232","to":"sdaReg3","type":"create","field":"<java.net.URI: int port>"},{"step":1,"from":"1093464232","to":"sdaReg4","type":"create","field":"<java.net.URI: boolean serverAuthority>"},{"step":2,"from":"1093464232","to":"sdaReg5","type":"create","field":"<java.net.URI: int hash>"},{"step":3,"from":"sdaReg0","to":"1093464232","type":"store","field":"<java.net.URI: java.lang.String string>"},{"step":4,"from":"sdaReg0","to":"sdaReg12","type":"model"},{"step":5,"from":"sdaReg0","to":"sdaReg14","type":"model"},{"step":6,"from":"static.<java.net.URI: libcore.net.UriCodec ALL_LEGAL_ENCODER>","to":"1085538000","type":"load","field":"<java.net.URI: libcore.net.UriCodec ALL_LEGAL_ENCODER>"},{"step":7,"from":"sdaReg0","to":"sdaReg22","type":"model"},{"step":8,"from":"sdaReg0","to":"sdaReg23","type":"model"},{"step":9,"from":"1085538000","to":"1085538000.<java.net.URI$PartEncoder: java.lang.String extraLegalCharacters>","type":"load","field":"<java.net.URI$PartEncoder: java.lang.String extraLegalCharacters>"},{"step":10,"from":"sdaReg0","to":"sdaReg31","type":"model"},{"step":11,"from":"sdaReg0","to":"sdaReg36","type":"model"},{"step":12,"from":"sdaReg0","to":"sdaReg41","type":"model"},{"step":13,"from":"1085538000","to":"1085538000.<java.net.URI$PartEncoder: java.lang.String extraLegalCharacters>","type":"load","field":"<java.net.URI$PartEncoder: java.lang.String extraLegalCharacters>"},{"step":14,"from":"sdaReg0","to":"sdaReg49","type":"model"},{"step":15,"from":"sdaReg0","to":"sdaReg50","type":"model"},{"step":16,"from":"sdaReg50","to":"1093464232","type":"store","field":"<java.net.URI: java.lang.String fragment>"},{"step":17,"from":"sdaReg0","to":"sdaReg54","type":"model"},{"step":18,"from":"sdaReg0","to":"sdaReg59","type":"model"},{"step":19,"from":"1093464232","to":"sdaReg61","type":"create","field":"<java.net.URI: boolean absolute>"},{"step":20,"from":"1093464232","to":"sdaReg63","type":"create","field":"<java.net.URI: boolean opaque>"},{"step":21,"from":"sdaReg0","to":"sdaReg64","type":"model"},{"step":22,"from":"sdaReg64","to":"1093464232","type":"store","field":"<java.net.URI: java.lang.String schemeSpecificPart>"},{"step":23,"from":"sdaReg0","to":"sdaReg69","type":"model"},{"step":24,"from":"static.<java.net.URI: libcore.net.UriCodec PATH_ENCODER>","to":"1085474672","type":"load","field":"<java.net.URI: libcore.net.UriCodec PATH_ENCODER>"},{"step":25,"from":"sdaReg0","to":"sdaReg74","type":"model"},{"step":26,"from":"sdaReg0","to":"sdaReg75","type":"model"},{"step":27,"from":"sdaReg75","to":"1093464232","type":"store","field":"<java.net.URI: java.lang.String path>"},{"step":28,"from":"1093464232","to":"1093464232.<java.net.URI: java.lang.String authority>","type":"load","field":"<java.net.URI: java.lang.String authority>"}],"parameters":[{"id":"sdaReg0","name":"arg#0","klass":"string"}],"returns":[{"id":"1093464232","name":"return","klass":"java.net.URI"}],"colors":{"heapLocToColor":{"sdaReg60":[28],"1093464232.<java.net.URI: java.lang.String authority>":[1],"sdaReg69":[0, 31],"sdaReg64":[0, 29],"sdaReg65":[30],"sdaReg13":[4],"sdaReg14":[0, 5],"sdaReg71":[33],"sdaReg70":[32],"sdaReg12":[0, 3],"sdaReg59":[0, 27],"sdaReg19":[8],"sdaReg55":[26],"sdaReg54":[0, 25],"sdaReg18":[9],"sdaReg15":[6],"sdaReg16":[7],"sdaReg50":[0, 24],"sdaReg77":[1],"static.<java.net.URI: libcore.net.UriCodec ALL_LEGAL_ENCODER>":[8],"sdaReg74":[0, 34],"sdaReg75":[0, 35],"sdaReg76":[1],"sdaReg49":[0, 23],"1093464232":[1],"sdaReg44":[20],"sdaReg47":[22],"sdaReg46":[21],"sdaReg41":[0, 19],"sdaReg42":[8],"sdaReg39":[18],"1085474672":[33],"sdaReg37":[8],"sdaReg32":[8],"1085538000":[8],"sdaReg31":[0, 15],"sdaReg36":[0, 17],"sdaReg34":[16],"sdaReg8":[2],"sdaReg6":[1],"1085538000.<java.net.URI$PartEncoder: java.lang.String extraLegalCharacters>":[8],"sdaReg26":[12],"sdaReg29":[14],"sdaReg28":[13],"static.<java.net.URI: libcore.net.UriCodec PATH_ENCODER>":[33],"sdaReg2":[1],"sdaReg1":[1],"sdaReg0":[0],"sdaReg23":[0, 11],"sdaReg22":[0, 10],"sdaReg24":[8]},"colorToColor":{"0":[1],"1":[36],"35":[1],"24":[1],"29":[1]},"colorToLabel":{"0":"arg#0","8":"<java.net.URI: libcore.net.UriCodec ALL_LEGAL_ENCODER>","33":"<java.net.URI: libcore.net.UriCodec PATH_ENCODER>","36":"return"}}}

Generated Model
	arg#0->return

