Scanning method <java.net.URI: java.net.URI create(java.lang.String)>

All seen event types: SimpleAssignmentRecord, MethodStartRecord, LoadInstanceRecord, IfRecord, NewObjectRecord, StoreInstanceRecord, LoadStaticRecord, BinaryOperationRecord, MethodCallRecord, MethodReturnRecord, ArrayLengthRecord, LoadArrayRecord, MethodEndRecord, 
Ignored event types: IfRecord, 

JSON Encoded Analysis Data (for visualization):{"heapEdges":[{"step":0,"from":"1093229360","to":"sdaReg3","type":"create","field":"<java.net.URI: int port>"},{"step":1,"from":"1093229360","to":"sdaReg4","type":"create","field":"<java.net.URI: boolean serverAuthority>"},{"step":2,"from":"1093229360","to":"sdaReg5","type":"create","field":"<java.net.URI: int hash>"},{"step":3,"from":"sdaReg0","to":"1093229360","type":"store","field":"<java.net.URI: java.lang.String string>"},{"step":4,"from":"sdaReg0","to":"sdaReg12","type":"model"},{"step":5,"from":"sdaReg0","to":"sdaReg14","type":"model"},{"step":6,"from":"sdaReg0","to":"sdaReg16","type":"model"},{"step":7,"from":"sdaReg0","to":"sdaReg22","type":"model"},{"step":8,"from":"sdaReg0","to":"sdaReg24","type":"model"},{"step":9,"from":"sdaReg0","to":"sdaReg26","type":"model"},{"step":10,"from":"sdaReg0","to":"sdaReg31","type":"model"},{"step":11,"from":"1093229360","to":"sdaReg33","type":"create","field":"<java.net.URI: boolean absolute>"},{"step":12,"from":"1093229360","to":"sdaReg35","type":"create","field":"<java.net.URI: boolean opaque>"},{"step":13,"from":"sdaReg0","to":"sdaReg36","type":"model"},{"step":14,"from":"sdaReg36","to":"1093229360","type":"store","field":"<java.net.URI: java.lang.String schemeSpecificPart>"},{"step":15,"from":"sdaReg0","to":"sdaReg41","type":"model"},{"step":16,"from":"static.<java.net.URI: libcore.net.UriCodec AUTHORITY_ENCODER>","to":"1085536376","type":"load","field":"<java.net.URI: libcore.net.UriCodec AUTHORITY_ENCODER>"},{"step":17,"from":"sdaReg0","to":"sdaReg47","type":"model"},{"step":18,"from":"sdaReg0","to":"sdaReg48","type":"model"},{"step":19,"from":"sdaReg48","to":"1093229360","type":"store","field":"<java.net.URI: java.lang.String authority>"},{"step":20,"from":"static.<java.net.URI: libcore.net.UriCodec PATH_ENCODER>","to":"1085474672","type":"load","field":"<java.net.URI: libcore.net.UriCodec PATH_ENCODER>"},{"step":21,"from":"sdaReg0","to":"sdaReg54","type":"model"},{"step":22,"from":"sdaReg54","to":"1093229360","type":"store","field":"<java.net.URI: java.lang.String path>"},{"step":23,"from":"sdaReg62","to":"sdaReg68","type":"model"},{"step":24,"from":"sdaReg62","to":"sdaReg73","type":"model"},{"step":25,"from":"sdaReg62","to":"1093348296","type":"model"},{"step":26,"from":"1093348296","to":"1093348296.arrayIdx_int:0","type":"load","field":"arrayIdx_int:0"},{"step":27,"from":"sdaReg56","to":"1093229360","type":"store","field":"<java.net.URI: java.lang.String userInfo>"},{"step":28,"from":"sdaReg62","to":"1093229360","type":"store","field":"<java.net.URI: java.lang.String host>"},{"step":29,"from":"sdaReg61","to":"1093229360","type":"store","field":"<java.net.URI: int port>"},{"step":30,"from":"1093229360","to":"sdaReg84","type":"create","field":"<java.net.URI: boolean serverAuthority>"}],"parameters":[{"id":"sdaReg0","name":"arg#0","klass":"string"}],"returns":[{"id":"1093229360","name":"return","klass":"java.net.URI"}],"colors":{"heapLocToColor":{"sdaReg60":[30],"sdaReg68":[35],"sdaReg69":[1],"sdaReg66":[33],"sdaReg67":[34],"sdaReg64":[1],"sdaReg65":[32],"sdaReg63":[31],"sdaReg13":[4],"sdaReg72":[36],"sdaReg14":[0, 5],"sdaReg12":[0, 3],"1093229360":[1],"sdaReg59":[29],"sdaReg57":[28],"sdaReg55":[1],"sdaReg17":[8],"sdaReg54":[0, 27],"sdaReg18":[9],"sdaReg53":[2],"sdaReg15":[6],"sdaReg16":[0, 7],"sdaReg51":[26],"sdaReg50":[2],"sdaReg79":[40],"1093348296.arrayIdx_int:0":[39],"sdaReg73":[37],"sdaReg74":[38],"sdaReg75":[39],"sdaReg76":[39],"sdaReg81":[42],"sdaReg80":[41],"sdaReg48":[0, 25],"sdaReg44":[23],"sdaReg47":[0, 24],"sdaReg41":[0, 20],"sdaReg43":[22],"sdaReg42":[21],"static.<java.net.URI: libcore.net.UriCodec AUTHORITY_ENCODER>":[23],"sdaReg85":[1],"1085474672":[26],"sdaReg37":[19],"sdaReg32":[17],"sdaReg31":[0, 16],"sdaReg36":[0, 18],"sdaReg8":[2],"sdaReg6":[1],"1093348296":[39],"1085536376":[23],"sdaReg27":[15],"sdaReg26":[0, 14],"static.<java.net.URI: libcore.net.UriCodec PATH_ENCODER>":[26],"sdaReg2":[1],"sdaReg1":[1],"sdaReg0":[0],"sdaReg23":[11],"sdaReg22":[0, 10],"sdaReg25":[13],"sdaReg24":[0, 12]},"colorToColor":{"0":[1],"1":[43],"18":[1],"25":[1],"27":[1]},"colorToLabel":{"0":"arg#0","23":"<java.net.URI: libcore.net.UriCodec AUTHORITY_ENCODER>","26":"<java.net.URI: libcore.net.UriCodec PATH_ENCODER>","43":"return"}}}

Generated Model
	arg#0->return

