Scanning method <java.net.URI: java.net.URI create(java.lang.String)>

All seen event types: LoadStaticRecord, BinaryOperationRecord, SimpleAssignmentRecord, MethodReturnRecord, MethodCallRecord, LoadInstanceRecord, MethodStartRecord, MethodEndRecord, IfRecord, StoreInstanceRecord, NewObjectRecord, 
Ignored event types: IfRecord, 

JSON Encoded Analysis Data (for visualization):{"heapEdges":[{"step":0,"from":"1093669160","to":"sdaReg3","type":"create","field":"<java.net.URI: int port>"},{"step":1,"from":"1093669160","to":"sdaReg4","type":"create","field":"<java.net.URI: boolean serverAuthority>"},{"step":2,"from":"1093669160","to":"sdaReg5","type":"create","field":"<java.net.URI: int hash>"},{"step":3,"from":"sdaReg0","to":"1093669160","type":"store","field":"<java.net.URI: java.lang.String string>"},{"step":4,"from":"sdaReg0","to":"sdaReg12","type":"model"},{"step":5,"from":"sdaReg0","to":"sdaReg14","type":"model"},{"step":6,"from":"sdaReg0","to":"sdaReg20","type":"model"},{"step":7,"from":"sdaReg0","to":"sdaReg22","type":"model"},{"step":8,"from":"sdaReg0","to":"sdaReg27","type":"model"},{"step":9,"from":"1093669160","to":"sdaReg29","type":"create","field":"<java.net.URI: boolean absolute>"},{"step":10,"from":"1093669160","to":"sdaReg31","type":"create","field":"<java.net.URI: boolean opaque>"},{"step":11,"from":"sdaReg0","to":"sdaReg32","type":"model"},{"step":12,"from":"sdaReg32","to":"1093669160","type":"store","field":"<java.net.URI: java.lang.String schemeSpecificPart>"},{"step":13,"from":"sdaReg0","to":"sdaReg37","type":"model"},{"step":14,"from":"static.<java.net.URI: libcore.net.UriCodec PATH_ENCODER>","to":"1085474672","type":"load","field":"<java.net.URI: libcore.net.UriCodec PATH_ENCODER>"},{"step":15,"from":"sdaReg0","to":"sdaReg42","type":"model"},{"step":16,"from":"sdaReg42","to":"1093669160","type":"store","field":"<java.net.URI: java.lang.String path>"},{"step":17,"from":"static.<java.net.URI: libcore.net.UriCodec ALL_LEGAL_ENCODER>","to":"1085538000","type":"load","field":"<java.net.URI: libcore.net.UriCodec ALL_LEGAL_ENCODER>"},{"step":18,"from":"sdaReg0","to":"sdaReg47","type":"model"},{"step":19,"from":"sdaReg0","to":"sdaReg48","type":"model"},{"step":20,"from":"sdaReg48","to":"1093669160","type":"store","field":"<java.net.URI: java.lang.String query>"},{"step":21,"from":"1093669160","to":"1093669160.<java.net.URI: java.lang.String authority>","type":"load","field":"<java.net.URI: java.lang.String authority>"}],"parameters":[{"id":"sdaReg0","name":"arg#0","klass":"string"}],"returns":[{"id":"1093669160","name":"return","klass":"java.net.URI"}],"colors":{"heapLocToColor":{"1093669160":[1],"1093669160.<java.net.URI: java.lang.String authority>":[1],"sdaReg13":[4],"sdaReg14":[0, 5],"sdaReg39":[18],"sdaReg38":[17],"1085474672":[18],"sdaReg12":[0, 3],"sdaReg37":[0, 16],"1085538000":[20],"sdaReg32":[0, 14],"sdaReg15":[6],"sdaReg16":[7],"sdaReg33":[15],"sdaReg8":[2],"sdaReg50":[1],"sdaReg6":[1],"static.<java.net.URI: libcore.net.UriCodec ALL_LEGAL_ENCODER>":[20],"sdaReg27":[0, 12],"sdaReg28":[13],"static.<java.net.URI: libcore.net.UriCodec PATH_ENCODER>":[18],"sdaReg49":[1],"sdaReg48":[0, 22],"sdaReg44":[20],"sdaReg2":[1],"sdaReg47":[0, 21],"sdaReg21":[9],"sdaReg1":[1],"sdaReg20":[0, 8],"sdaReg0":[0],"sdaReg23":[11],"sdaReg22":[0, 10],"sdaReg42":[0, 19]},"colorToColor":{"0":[1],"1":[23],"19":[1],"22":[1],"14":[1]},"colorToLabel":{"0":"arg#0","18":"<java.net.URI: libcore.net.UriCodec PATH_ENCODER>","20":"<java.net.URI: libcore.net.UriCodec ALL_LEGAL_ENCODER>","23":"return"}}}

Generated Model
	arg#0->return

