Scanning method <android.util.Base64: byte[] encode(byte[],int)>

All seen event types: StoreArrayRecord, SimpleAssignmentRecord, MethodStartRecord, LoadInstanceRecord, IfRecord, NewObjectRecord, StoreInstanceRecord, LoadStaticRecord, NewArrayRecord, BinaryOperationRecord, MethodCallRecord, MethodReturnRecord, SwitchRecord, ArrayLengthRecord, LoadArrayRecord, MethodEndRecord, 
Ignored event types: SwitchRecord, IfRecord, 

JSON Encoded Analysis Data (for visualization):{"heapEdges":[{"step":0,"from":"1093481536","to":"sdaReg0","type":"model"},{"step":1,"from":"sdaReg0","to":"1093481536","type":"model"},{"step":2,"from":"sdaReg0","to":"1093481536","type":"model"},{"step":3,"from":"1093481536","to":"1093481536.<android.util.Base64$Encoder: boolean do_padding>","type":"load","field":"<android.util.Base64$Encoder: boolean do_padding>"},{"step":4,"from":"1093481536","to":"1093481536.<android.util.Base64$Encoder: boolean do_newline>","type":"load","field":"<android.util.Base64$Encoder: boolean do_newline>"},{"step":5,"from":"1093481536","to":"1093481536.<android.util.Base64$Encoder: boolean do_cr>","type":"load","field":"<android.util.Base64$Encoder: boolean do_cr>"},{"step":6,"from":"1093481536","to":"1093557808","type":"create","field":"<android.util.Base64$Coder: byte[] output>"},{"step":7,"from":"1093481536","to":"1093792872","type":"load","field":"<android.util.Base64$Encoder: byte[] alphabet>"},{"step":8,"from":"1093481536","to":"1093481536.<android.util.Base64$Encoder: int count>","type":"load","field":"<android.util.Base64$Encoder: int count>"},{"step":9,"from":"1093481536","to":"1093481536.<android.util.Base64$Encoder: int tailLen>","type":"load","field":"<android.util.Base64$Encoder: int tailLen>"},{"step":10,"from":"1093481536","to":"1093481536.<android.util.Base64$Encoder: int tailLen>","type":"load","field":"<android.util.Base64$Encoder: int tailLen>"},{"step":11,"from":"1093481536","to":"1093481536.<android.util.Base64$Encoder: int tailLen>","type":"load","field":"<android.util.Base64$Encoder: int tailLen>"},{"step":12,"from":"1093519544","to":"1093519544.arrayIdx_int:0","type":"load","field":"arrayIdx_int:0"},{"step":13,"from":"1093481536","to":"1093481536.<android.util.Base64$Encoder: int tailLen>","type":"load","field":"<android.util.Base64$Encoder: int tailLen>"},{"step":14,"from":"sdaReg29","to":"1093481536","type":"store","field":"<android.util.Base64$Encoder: int tailLen>"},{"step":15,"from":"1093792872","to":"1093792872.arrayIdx_int:24","type":"load","field":"arrayIdx_int:24"},{"step":16,"from":"1093792872.arrayIdx_int:24","to":"1093557808","type":"store","field":"arrayIdx_int:0"},{"step":17,"from":"1093792872","to":"1093792872.arrayIdx_int:16","type":"load","field":"arrayIdx_int:16"},{"step":18,"from":"1093792872.arrayIdx_int:16","to":"1093557808","type":"store","field":"arrayIdx_int:1"},{"step":19,"from":"1093481536","to":"1093481536.<android.util.Base64$Encoder: boolean do_padding>","type":"load","field":"<android.util.Base64$Encoder: boolean do_padding>"},{"step":20,"from":"1093557808","to":"sdaReg35","type":"create","field":"arrayIdx_int:2"},{"step":21,"from":"1093557808","to":"sdaReg36","type":"create","field":"arrayIdx_int:3"},{"step":22,"from":"1093481536","to":"1093481536.<android.util.Base64$Encoder: boolean do_newline>","type":"load","field":"<android.util.Base64$Encoder: boolean do_newline>"},{"step":23,"from":"1093481536","to":"1093481536.<android.util.Base64$Encoder: boolean do_cr>","type":"load","field":"<android.util.Base64$Encoder: boolean do_cr>"},{"step":24,"from":"1093557808","to":"sdaReg38","type":"create","field":"arrayIdx_int:4"},{"step":25,"from":"1093557808","to":"sdaReg40","type":"create","field":"arrayIdx_int:5"},{"step":26,"from":"static.<android.util.Base64$Encoder: boolean $assertionsDisabled>","to":"static.<android.util.Base64$Encoder: boolean $assertionsDisabled>","type":"load","field":"<android.util.Base64$Encoder: boolean $assertionsDisabled>"},{"step":27,"from":"static.<android.util.Base64$Encoder: boolean $assertionsDisabled>","to":"static.<android.util.Base64$Encoder: boolean $assertionsDisabled>","type":"load","field":"<android.util.Base64$Encoder: boolean $assertionsDisabled>"},{"step":28,"from":"sdaReg18","to":"1093481536","type":"store","field":"<android.util.Base64$Coder: int op>"},{"step":29,"from":"1093481536.<android.util.Base64$Encoder: int count>","to":"1093481536","type":"store","field":"<android.util.Base64$Encoder: int count>"},{"step":30,"from":"static.<android.util.Base64: boolean $assertionsDisabled>","to":"static.<android.util.Base64: boolean $assertionsDisabled>","type":"load","field":"<android.util.Base64: boolean $assertionsDisabled>"}],"parameters":[{"id":"1093519544","name":"arg#0","klass":"byte[]"},{"id":"sdaReg0","name":"arg#1","klass":"int"}],"returns":[{"id":"1093557808","name":"return","klass":"byte[]"}],"colors":{"heapLocToColor":{"1093792872.arrayIdx_int:24":[2],"1093481536.<android.util.Base64$Encoder: int tailLen>":[2],"1093519544.arrayIdx_int:0":[0],"1093481536.<android.util.Base64$Encoder: boolean do_cr>":[2],"sdaReg32":[0],"1093557808":[3],"1093519544":[0],"sdaReg31":[0],"static.<android.util.Base64: boolean $assertionsDisabled>":[5],"1093792872":[2],"sdaReg15":[2],"sdaReg16":[0],"sdaReg33":[0],"static.<android.util.Base64$Encoder: boolean $assertionsDisabled>":[4],"1093481536.<android.util.Base64$Encoder: int count>":[2],"sdaReg4":[2],"sdaReg5":[2],"1093792872.arrayIdx_int:16":[2],"sdaReg27":[0],"sdaReg29":[2],"sdaReg28":[0],"1093481536":[2],"1093481536.<android.util.Base64$Encoder: boolean do_padding>":[2],"sdaReg2":[0],"sdaReg0":[1, 2],"sdaReg23":[2],"1093481536.<android.util.Base64$Encoder: boolean do_newline>":[2],"sdaReg42":[3]},"colorToColor":{"1":[2],"2":[2, 3],"3":[2, 6]},"colorToLabel":{"0":"arg#0","1":"arg#1","4":"<android.util.Base64$Encoder: boolean $assertionsDisabled>","5":"<android.util.Base64: boolean $assertionsDisabled>","6":"return"}}}

Generated Model
	arg#1->return

