Scanning method <java.util.Vector: void growByOne()>

All seen event types: NewArrayRecord, BinaryOperationRecord, SimpleAssignmentRecord, MethodReturnRecord, MethodCallRecord, CastRecord, MethodStartRecord, ArrayLengthRecord, LoadInstanceRecord, MethodEndRecord, IfRecord, StoreInstanceRecord, 
Ignored event types: IfRecord, 

JSON Encoded Analysis Data (for visualization):{"heapEdges":[{"step":0,"from":"1093569408","to":"1093569408.<java.util.Vector: int capacityIncrement>","type":"load","field":"<java.util.Vector: int capacityIncrement>"},{"step":1,"from":"1093569408","to":"1093569440","type":"load","field":"<java.util.Vector: java.lang.Object[] elementData>"},{"step":2,"from":"1093569408","to":"1093569440","type":"load","field":"<java.util.Vector: java.lang.Object[] elementData>"},{"step":3,"from":"1093569408","to":"1093569440","type":"load","field":"<java.util.Vector: java.lang.Object[] elementData>"},{"step":4,"from":"1093569408","to":"1093569408.<java.util.Vector: int elementCount>","type":"load","field":"<java.util.Vector: int elementCount>"},{"step":5,"from":"1093569440","to":"1093629368","type":"model"},{"step":6,"from":"1093569408","to":"1093629368","type":"create","field":"<java.util.Vector: java.lang.Object[] elementData>"}],"parameters":[{"id":"1093569408","name":"this","klass":"java.util.Vector"}],"returns":[{"id":null,"name":"return","klass":null}],"colors":{"heapLocToColor":{"1093569408":[0],"sdaReg7":[1],"1093629368":[1],"sdaReg5":[0],"1093569440":[0],"1093569408.<java.util.Vector: int elementCount>":[0],"1093569408.<java.util.Vector: java.lang.Object[] elementData>":[0],"1093569408.<java.util.Vector: int capacityIncrement>":[0]},"colorToColor":{"0":[1],"1":[0]},"colorToLabel":{"0":"this","2":"return"}}}

Generated Model

