Scanning method <java.io.ObjectInputStream: int read()>

All seen event types: BinaryOperationRecord, MethodReturnRecord, MethodCallRecord, LoadInstanceRecord, MethodStartRecord, LoadArrayRecord, MethodEndRecord, IfRecord, StoreInstanceRecord, 
Ignored event types: IfRecord, 

JSON Encoded Analysis Data (for visualization):{"heapEdges":[{"step":0,"from":"1093516800","to":"1093628424","type":"load","field":"<java.io.ObjectInputStream: java.io.InputStream primitiveData>"},{"step":1,"from":"1093516800","to":"1093516712","type":"load","field":"<java.io.ObjectInputStream: java.io.DataInputStream input>"},{"step":2,"from":"1093516800","to":"1093628424","type":"load","field":"<java.io.ObjectInputStream: java.io.InputStream primitiveData>"},{"step":3,"from":"1093628424","to":"1093628424.<java.io.ByteArrayInputStream: int count>","type":"load","field":"<java.io.ByteArrayInputStream: int count>"},{"step":4,"from":"1093628424","to":"1093628424.<java.io.ByteArrayInputStream: int pos>","type":"load","field":"<java.io.ByteArrayInputStream: int pos>"},{"step":5,"from":"1093516800","to":"1093628424","type":"load","field":"<java.io.ObjectInputStream: java.io.InputStream primitiveData>"},{"step":6,"from":"1093628424","to":"1093628424.<java.io.ByteArrayInputStream: int pos>","type":"load","field":"<java.io.ByteArrayInputStream: int pos>"},{"step":7,"from":"1093628424","to":"1093628424.<java.io.ByteArrayInputStream: int count>","type":"load","field":"<java.io.ByteArrayInputStream: int count>"},{"step":8,"from":"1093628424","to":"1093628456","type":"load","field":"<java.io.ByteArrayInputStream: byte[] buf>"},{"step":9,"from":"1093628424","to":"1093628424.<java.io.ByteArrayInputStream: int pos>","type":"load","field":"<java.io.ByteArrayInputStream: int pos>"},{"step":10,"from":"sdaReg4","to":"1093628424","type":"store","field":"<java.io.ByteArrayInputStream: int pos>"},{"step":11,"from":"1093628456","to":"1093628456.arrayIdx_int:1","type":"load","field":"arrayIdx_int:1"}],"parameters":[{"id":"1093516800","name":"this","klass":"java.io.ObjectInputStream"}],"returns":[{"id":"sdaReg5","name":"return","klass":"int"}],"colors":{"heapLocToColor":{"1093516712":[0],"sdaReg4":[0],"sdaReg5":[0],"1093628456.arrayIdx_int:1":[0],"1093628424.<java.io.ByteArrayInputStream: int count>":[0],"1093628424":[0],"1093516800":[0],"1093628424.<java.io.ByteArrayInputStream: int pos>":[0],"1093628456":[0],"sdaReg3":[0],"sdaReg2":[0],"sdaReg1":[0],"sdaReg0":[0],"1093516800.<java.io.ObjectInputStream: java.io.InputStream primitiveData>":[0]},"colorToColor":{"0":[0, 1]},"colorToLabel":{"0":"this","1":"return"}}}

Generated Model
	this->return

