Scanning method <java.io.BufferedInputStream: int read(byte[],int,int)>

All seen event types: BinaryOperationRecord, SimpleAssignmentRecord, MethodReturnRecord, MethodCallRecord, MethodStartRecord, ArrayLengthRecord, LoadInstanceRecord, MethodEndRecord, IfRecord, StoreInstanceRecord, 
Ignored event types: IfRecord, 

JSON Encoded Analysis Data (for visualization):{"heapEdges":[{"step":0,"from":"1093300632","to":"1094020896","type":"load","field":"<java.io.BufferedInputStream: byte[] buf>"},{"step":1,"from":"1093300632","to":"1093271736","type":"load","field":"<java.io.FilterInputStream: java.io.InputStream in>"},{"step":2,"from":"1093300632","to":"1093300632.<java.io.BufferedInputStream: int pos>","type":"load","field":"<java.io.BufferedInputStream: int pos>"},{"step":3,"from":"1093300632","to":"1093300632.<java.io.BufferedInputStream: int count>","type":"load","field":"<java.io.BufferedInputStream: int count>"},{"step":4,"from":"1093300632","to":"1093300632.<java.io.BufferedInputStream: int markpos>","type":"load","field":"<java.io.BufferedInputStream: int markpos>"},{"step":5,"from":"1093300632","to":"1093300632.<java.io.BufferedInputStream: int markpos>","type":"load","field":"<java.io.BufferedInputStream: int markpos>"},{"step":6,"from":"1093271736","to":"1093271736.<java.io.ByteArrayInputStream: int pos>","type":"load","field":"<java.io.ByteArrayInputStream: int pos>"},{"step":7,"from":"1093271736","to":"1093271736.<java.io.ByteArrayInputStream: int count>","type":"load","field":"<java.io.ByteArrayInputStream: int count>"},{"step":8,"from":"1093271736","to":"1093271736.<java.io.ByteArrayInputStream: int count>","type":"load","field":"<java.io.ByteArrayInputStream: int count>"},{"step":9,"from":"1093271736","to":"1093271736.<java.io.ByteArrayInputStream: int pos>","type":"load","field":"<java.io.ByteArrayInputStream: int pos>"},{"step":10,"from":"1093271736","to":"1093271736.<java.io.ByteArrayInputStream: int count>","type":"load","field":"<java.io.ByteArrayInputStream: int count>"},{"step":11,"from":"1093271736","to":"1093271736.<java.io.ByteArrayInputStream: int pos>","type":"load","field":"<java.io.ByteArrayInputStream: int pos>"},{"step":12,"from":"1093271736","to":"1093460768","type":"load","field":"<java.io.ByteArrayInputStream: byte[] buf>"},{"step":13,"from":"1093271736","to":"1093271736.<java.io.ByteArrayInputStream: int pos>","type":"load","field":"<java.io.ByteArrayInputStream: int pos>"},{"step":14,"from":"1093460768","to":"1094020896","type":"model"},{"step":15,"from":"1093271736","to":"1093271736.<java.io.ByteArrayInputStream: int pos>","type":"load","field":"<java.io.ByteArrayInputStream: int pos>"},{"step":16,"from":"sdaReg22","to":"1093271736","type":"store","field":"<java.io.ByteArrayInputStream: int pos>"},{"step":17,"from":"1093300632","to":"sdaReg23","type":"create","field":"<java.io.BufferedInputStream: int markpos>"},{"step":18,"from":"1093300632","to":"sdaReg24","type":"create","field":"<java.io.BufferedInputStream: int pos>"},{"step":19,"from":"sdaReg25","to":"1093300632","type":"store","field":"<java.io.BufferedInputStream: int count>"},{"step":20,"from":"1093300632","to":"1094020896","type":"load","field":"<java.io.BufferedInputStream: byte[] buf>"},{"step":21,"from":"1094020896","to":"1093219472","type":"model"},{"step":22,"from":"sdaReg29","to":"1093300632","type":"store","field":"<java.io.BufferedInputStream: int pos>"}],"parameters":[{"id":"1093300632","name":"this","klass":"java.io.BufferedInputStream"},{"id":"1093219472","name":"arg#1","klass":"byte[]"},{"id":"sdaReg0","name":"arg#2","klass":"int"},{"id":"sdaReg1","name":"arg#3","klass":"int"}],"returns":[{"id":"sdaReg1","name":"return","klass":"int"}],"colors":{"heapLocToColor":{"1094020896":[0],"1093300632.<java.io.BufferedInputStream: byte[] buf>":[0],"1093300632":[0],"1093271736.<java.io.ByteArrayInputStream: int count>":[0],"sdaReg13":[0],"sdaReg14":[0],"sdaReg11":[0],"sdaReg10":[0],"sdaReg19":[0],"1093271736":[0],"sdaReg8":[0],"sdaReg9":[0],"sdaReg7":[0],"1093300632.<java.io.BufferedInputStream: int count>":[0],"sdaReg4":[2],"sdaReg5":[3],"1093300632.<java.io.BufferedInputStream: int pos>":[0],"sdaReg27":[3],"sdaReg29":[3],"1093219472":[1],"1093271736.<java.io.ByteArrayInputStream: int pos>":[0],"sdaReg28":[3],"1093460768":[0],"sdaReg3":[2, 3],"sdaReg1":[3],"sdaReg21":[0],"sdaReg0":[2],"sdaReg20":[0],"sdaReg22":[0],"sdaReg25":[0],"1093300632.<java.io.BufferedInputStream: int markpos>":[0]},"colorToColor":{"0":[0, 1],"3":[0, 4]},"colorToLabel":{"0":"this","1":"arg#1","2":"arg#2","3":"arg#3","4":"return"}}}

Generated Model
	this->arg#1
	arg#3->this
	arg#3->return
	arg#3->arg#1

