Scanning method <java.util.Vector: boolean contains(java.lang.Object)>

All seen event types: BinaryOperationRecord, SimpleAssignmentRecord, MethodReturnRecord, MethodCallRecord, LoadInstanceRecord, MethodStartRecord, LoadArrayRecord, MethodEndRecord, IfRecord, 
Ignored event types: IfRecord, 

JSON Encoded Analysis Data (for visualization):{"heapEdges":[{"step":0,"from":"1093570752","to":"1093570752.<java.util.Vector: int elementCount>","type":"load","field":"<java.util.Vector: int elementCount>"},{"step":1,"from":"1093570752","to":"1093797952","type":"load","field":"<java.util.Vector: java.lang.Object[] elementData>"},{"step":2,"from":"1093797952","to":"1093571584","type":"load","field":"arrayIdx_int:0"},{"step":3,"from":"1093570752","to":"1093570752.<java.util.Vector: int elementCount>","type":"load","field":"<java.util.Vector: int elementCount>"},{"step":4,"from":"1093570752","to":"1093797952","type":"load","field":"<java.util.Vector: java.lang.Object[] elementData>"},{"step":5,"from":"1093797952","to":"1093571760","type":"load","field":"arrayIdx_int:1"},{"step":6,"from":"1093570752","to":"1093570752.<java.util.Vector: int elementCount>","type":"load","field":"<java.util.Vector: int elementCount>"},{"step":7,"from":"1093570752","to":"1093797952","type":"load","field":"<java.util.Vector: java.lang.Object[] elementData>"},{"step":8,"from":"1093797952","to":"1093571936","type":"load","field":"arrayIdx_int:2"},{"step":9,"from":"1093570752","to":"1093570752.<java.util.Vector: int elementCount>","type":"load","field":"<java.util.Vector: int elementCount>"},{"step":10,"from":"1093570752","to":"1093797952","type":"load","field":"<java.util.Vector: java.lang.Object[] elementData>"},{"step":11,"from":"1093797952","to":"1093572152","type":"load","field":"arrayIdx_int:3"},{"step":12,"from":"1093570752","to":"1093570752.<java.util.Vector: int elementCount>","type":"load","field":"<java.util.Vector: int elementCount>"},{"step":13,"from":"1093570752","to":"1093797952","type":"load","field":"<java.util.Vector: java.lang.Object[] elementData>"},{"step":14,"from":"1093797952","to":"1093572320","type":"load","field":"arrayIdx_int:4"},{"step":15,"from":"1093570752","to":"1093570752.<java.util.Vector: int elementCount>","type":"load","field":"<java.util.Vector: int elementCount>"},{"step":16,"from":"1093570752","to":"1093797952","type":"load","field":"<java.util.Vector: java.lang.Object[] elementData>"},{"step":17,"from":"1093797952","to":"1093572528","type":"load","field":"arrayIdx_int:5"},{"step":18,"from":"1093570752","to":"1093570752.<java.util.Vector: int elementCount>","type":"load","field":"<java.util.Vector: int elementCount>"},{"step":19,"from":"1093570752","to":"1093797952","type":"load","field":"<java.util.Vector: java.lang.Object[] elementData>"},{"step":20,"from":"1093797952","to":"1093572736","type":"load","field":"arrayIdx_int:6"},{"step":21,"from":"1093570752","to":"1093570752.<java.util.Vector: int elementCount>","type":"load","field":"<java.util.Vector: int elementCount>"},{"step":22,"from":"1093570752","to":"1093797952","type":"load","field":"<java.util.Vector: java.lang.Object[] elementData>"},{"step":23,"from":"1093797952","to":"1093572928","type":"load","field":"arrayIdx_int:7"},{"step":24,"from":"1093570752","to":"1093570752.<java.util.Vector: int elementCount>","type":"load","field":"<java.util.Vector: int elementCount>"},{"step":25,"from":"1093570752","to":"1093797952","type":"load","field":"<java.util.Vector: java.lang.Object[] elementData>"},{"step":26,"from":"1093797952","to":"1093573120","type":"load","field":"arrayIdx_int:8"},{"step":27,"from":"1093570752","to":"1093570752.<java.util.Vector: int elementCount>","type":"load","field":"<java.util.Vector: int elementCount>"},{"step":28,"from":"1093570752","to":"1093797952","type":"load","field":"<java.util.Vector: java.lang.Object[] elementData>"},{"step":29,"from":"1093797952","to":"1093573280","type":"load","field":"arrayIdx_int:9"},{"step":30,"from":"1093570752","to":"1093570752.<java.util.Vector: int elementCount>","type":"load","field":"<java.util.Vector: int elementCount>"},{"step":31,"from":"1093570752","to":"1093797952","type":"load","field":"<java.util.Vector: java.lang.Object[] elementData>"},{"step":32,"from":"1093797952","to":"1093573440","type":"load","field":"arrayIdx_int:10"},{"step":33,"from":"1093570752","to":"1093570752.<java.util.Vector: int elementCount>","type":"load","field":"<java.util.Vector: int elementCount>"},{"step":34,"from":"1093570752","to":"1093797952","type":"load","field":"<java.util.Vector: java.lang.Object[] elementData>"},{"step":35,"from":"1093797952","to":"1093573640","type":"load","field":"arrayIdx_int:11"},{"step":36,"from":"1093570752","to":"1093570752.<java.util.Vector: int elementCount>","type":"load","field":"<java.util.Vector: int elementCount>"},{"step":37,"from":"1093570752","to":"1093797952","type":"load","field":"<java.util.Vector: java.lang.Object[] elementData>"},{"step":38,"from":"1093797952","to":"1093573824","type":"load","field":"arrayIdx_int:12"},{"step":39,"from":"1093570752","to":"1093570752.<java.util.Vector: int elementCount>","type":"load","field":"<java.util.Vector: int elementCount>"},{"step":40,"from":"1093570752","to":"1093797952","type":"load","field":"<java.util.Vector: java.lang.Object[] elementData>"},{"step":41,"from":"1093797952","to":"1093573984","type":"load","field":"arrayIdx_int:13"},{"step":42,"from":"1093570752","to":"1093570752.<java.util.Vector: int elementCount>","type":"load","field":"<java.util.Vector: int elementCount>"},{"step":43,"from":"1093570752","to":"1093797952","type":"load","field":"<java.util.Vector: java.lang.Object[] elementData>"},{"step":44,"from":"1093797952","to":"1093574184","type":"load","field":"arrayIdx_int:14"},{"step":45,"from":"1093570752","to":"1093570752.<java.util.Vector: int elementCount>","type":"load","field":"<java.util.Vector: int elementCount>"},{"step":46,"from":"1093570752","to":"1093797952","type":"load","field":"<java.util.Vector: java.lang.Object[] elementData>"},{"step":47,"from":"1093797952","to":"1093574352","type":"load","field":"arrayIdx_int:15"},{"step":48,"from":"1093570752","to":"1093570752.<java.util.Vector: int elementCount>","type":"load","field":"<java.util.Vector: int elementCount>"},{"step":49,"from":"1093570752","to":"1093797952","type":"load","field":"<java.util.Vector: java.lang.Object[] elementData>"},{"step":50,"from":"1093797952","to":"1093574560","type":"load","field":"arrayIdx_int:16"},{"step":51,"from":"1093570752","to":"1093570752.<java.util.Vector: int elementCount>","type":"load","field":"<java.util.Vector: int elementCount>"},{"step":52,"from":"1093570752","to":"1093797952","type":"load","field":"<java.util.Vector: java.lang.Object[] elementData>"},{"step":53,"from":"1093797952","to":"1093574728","type":"load","field":"arrayIdx_int:17"},{"step":54,"from":"1093570752","to":"1093570752.<java.util.Vector: int elementCount>","type":"load","field":"<java.util.Vector: int elementCount>"},{"step":55,"from":"1093570752","to":"1093797952","type":"load","field":"<java.util.Vector: java.lang.Object[] elementData>"},{"step":56,"from":"1093797952","to":"1093574928","type":"load","field":"arrayIdx_int:18"},{"step":57,"from":"1093570752","to":"1093570752.<java.util.Vector: int elementCount>","type":"load","field":"<java.util.Vector: int elementCount>"},{"step":58,"from":"1093570752","to":"1093797952","type":"load","field":"<java.util.Vector: java.lang.Object[] elementData>"},{"step":59,"from":"1093797952","to":"1093575104","type":"load","field":"arrayIdx_int:19"},{"step":60,"from":"1093570752","to":"1093570752.<java.util.Vector: int elementCount>","type":"load","field":"<java.util.Vector: int elementCount>"},{"step":61,"from":"1093570752","to":"1093797952","type":"load","field":"<java.util.Vector: java.lang.Object[] elementData>"},{"step":62,"from":"1093797952","to":"1093575296","type":"load","field":"arrayIdx_int:20"},{"step":63,"from":"1093570752","to":"1093570752.<java.util.Vector: int elementCount>","type":"load","field":"<java.util.Vector: int elementCount>"},{"step":64,"from":"1093570752","to":"1093797952","type":"load","field":"<java.util.Vector: java.lang.Object[] elementData>"},{"step":65,"from":"1093797952","to":"1093575456","type":"load","field":"arrayIdx_int:21"},{"step":66,"from":"1093570752","to":"1093570752.<java.util.Vector: int elementCount>","type":"load","field":"<java.util.Vector: int elementCount>"},{"step":67,"from":"1093570752","to":"1093797952","type":"load","field":"<java.util.Vector: java.lang.Object[] elementData>"},{"step":68,"from":"1093797952","to":"1093575624","type":"load","field":"arrayIdx_int:22"},{"step":69,"from":"1093570752","to":"1093570752.<java.util.Vector: int elementCount>","type":"load","field":"<java.util.Vector: int elementCount>"},{"step":70,"from":"1093570752","to":"1093797952","type":"load","field":"<java.util.Vector: java.lang.Object[] elementData>"},{"step":71,"from":"1093797952","to":"1093575824","type":"load","field":"arrayIdx_int:23"},{"step":72,"from":"1093570752","to":"1093570752.<java.util.Vector: int elementCount>","type":"load","field":"<java.util.Vector: int elementCount>"},{"step":73,"from":"1093570752","to":"1093797952","type":"load","field":"<java.util.Vector: java.lang.Object[] elementData>"},{"step":74,"from":"1093797952","to":"1093576000","type":"load","field":"arrayIdx_int:24"},{"step":75,"from":"1093570752","to":"1093570752.<java.util.Vector: int elementCount>","type":"load","field":"<java.util.Vector: int elementCount>"}],"parameters":[{"id":"1093570752","name":"this","klass":"java.util.Vector"},{"id":"1093579736","name":"arg#1","klass":"java.lang.Object"}],"returns":[{"id":"sdaReg30","name":"return","klass":"boolean"}],"colors":{"heapLocToColor":{"1093574728":[0],"1093575824":[0],"1093572736":[0],"1093571936":[0],"1093573640":[0],"1093574184":[0],"1093570752":[0],"1093570752.<java.util.Vector: java.lang.Object[] elementData>":[0],"sdaReg13":[11],"sdaReg14":[12],"sdaReg11":[9],"1093572528":[0],"sdaReg12":[10],"sdaReg10":[8],"1093572320":[0],"1093571584":[0],"sdaReg19":[17],"1093573440":[0],"sdaReg17":[15],"sdaReg18":[16],"1093576000":[0],"sdaReg15":[13],"sdaReg16":[14],"1093573120":[0],"1093574352":[0],"1093570752.<java.util.Vector: int elementCount>":[0],"1093797952":[0],"1093573984":[0],"1093575296":[0],"1093573824":[0],"1093574560":[0],"1093571760":[0],"sdaReg8":[6],"sdaReg9":[7],"sdaReg6":[4],"sdaReg7":[5],"sdaReg4":[2],"sdaReg5":[3],"1093575624":[0],"1093575456":[0],"sdaReg27":[25],"1093572928":[0],"sdaReg26":[24],"1093579736":[1],"sdaReg28":[26],"1093574928":[0],"1093572152":[0],"1093573280":[0],"1093575104":[0],"sdaReg1":[1],"sdaReg21":[19],"sdaReg0":[0],"sdaReg20":[18],"sdaReg23":[21],"sdaReg22":[20],"sdaReg25":[23],"sdaReg24":[22]},"colorToColor":{},"colorToLabel":{"0":"this","1":"arg#1","27":"return"}}}

Generated Model

